bs_4_C981.	0	Black Scholes	0	10000	4
bs_4_C981.	0	Black Scholes	0	10500	4
bs_4_C981.	0	Black Scholes	0	11000	4
bs_4_C981.	0	Black Scholes	0	11500	4
bs_4_C981.	0	Black Scholes	0	12000	4
bs_4_C981.	0	Black Scholes	0	12500	4
bs_4_C981.	0	Black Scholes	0	13000	4
bs_4_C981.	0	Black Scholes	0	13500	4
bs_4_C981.	0	Black Scholes	0.00143626571	14000	4
bs_4_C981.	0	Black Scholes	0.00143626571	14500	4
bs_4_C981.	0	Black Scholes	0.00143626571	15000	4
bs_4_C981.	0	Black Scholes	0.00143626571	15500	4
bs_4_C981.	0	Black Scholes	0.00143626571	16000	4
bs_4_C981.	0	Black Scholes	0.00143626571	16500	4
bs_4_C981.	0	Black Scholes	0.00143626571	17000	4
bs_4_C981.	0	Black Scholes	0.00143626571	17500	4
bs_4_C981.	0	Black Scholes	0.00143626571	18000	4
bs_4_C981.	0	Black Scholes	0.00143626571	18500	4
bs_4_C981.	0	Black Scholes	0.00143626571	19000	4
bs_4_C981.	0	Black Scholes	0.00143626571	19500	4
bs_4_C981.	0	Black Scholes	0.00143626571	20000	4
bs_4_C981.	0	Black Scholes	0.00143626571	20500	4
bs_4_C981.	0	Black Scholes	0.00143626571	21000	4
bs_4_C981.	0	Black Scholes	0.00143626571	21500	4
bs_4_C981.	0	Black Scholes	0.00291263479	26500	4
bs_4_C981.	0	Black Scholes	0.00386013943	30000	4
bs_4_C981.	0	Black Scholes	0.00413448658	33000	4
bs_4_C981.	0	Black Scholes	0.00390363868	36000	4
bs_4_C981.	0	Black Scholes	0.00411333894	38500	4
bs_4_C981.	0	Black Scholes	0.00403183537	41500	4
bs_4_C981.	0	Black Scholes	0.00403183537	44500	4
bs_4_C981.	0	Black Scholes	0.00355506259	48000	4
bs_4_C981.	0	Black Scholes	0.00399944408	51000	4
bs_4_C981.	0	Black Scholes	0.00390897559	54000	4
bs_4_C981.	0	Black Scholes	0.0040611982	57500	4
bs_4_C981.	0	Black Scholes	0.0040611982	60000	4
bs_4_C981.	0	Black Scholes	0.0040611982	63000	4
bs_4_C981.	0	Black Scholes	0.0040611982	66000	4
bs_4_C981.	0	Black Scholes	0.00406120026	69000	4
bs_4_C981.	0	Black Scholes	0.00406120026	72000	4
bs_4_C981.	0	Black Scholes	0.00406120026	75000	4
bs_4_C981.	0	Black Scholes	0.00406120026	78000	4
bs_4_C981.	0	Black Scholes	0.00406120026	81000	4
bs_4_C981.	0	Black Scholes	0.00406120026	84000	4
bs_4_C981.	0	Black Scholes	0.00406120026	87000	4
bs_4_C981.	0	Black Scholes	0.00406120026	90000	4
bs_4_C981.	0	Black Scholes	0.00406120026	92500	4
bs_4_C981.	0	Black Scholes	0.00406120026	95500	4
bs_4_C981.	0	Black Scholes	0.00406120026	98500	4
bs_4_C981.	0	Black Scholes	0.00406120026	101500	4
bs_4_C981.	0	Black Scholes	0.00406120026	104500	4
bs_4_C981.	0	Black Scholes	0.00406120026	107500	4
bs_4_C981.	0	Black Scholes	0.00406120026	110500	4
bs_4_C981.	0	Black Scholes	0.00406120026	113500	4
bs_4_C981.	0	Black Scholes	0.00406120026	116500	4
bs_4_C981.	0	Black Scholes	0.00406120026	119500	4
bs_4_C981.	0	Black Scholes	0.00406120026	122500	4
bs_4_C981.	0	Black Scholes	0.00406120026	125000	4
bs_4_C981.	0	Black Scholes	0.00406120026	128000	4
bs_4_C981.	0	Black Scholes	0.00406120026	131000	4
bs_4_C981.	0	Black Scholes	0.0040611982	134000	4
bs_4_C981.	0	Black Scholes	0.00406120026	137000	4
bs_4_C981.	0	Black Scholes	0.00406120026	140000	4
bs_4_C981.	0	Black Scholes	0.00406120026	143000	4
bs_4_C981.	0	Black Scholes	0.00406120026	146000	4
bs_4_C981.	0	Black Scholes	0.0040611982	149000	4
bs_4_C981.	0	Black Scholes	0.0040611982	152000	4
bs_4_C981.	0	Black Scholes	0.00406120026	155000	4
bs_4_C981.	0	Black Scholes	0.0040611982	157500	4
bs_4_C981.	0	Black Scholes	0.00406120026	160500	4
bs_4_C981.	0	Black Scholes	0.00406120026	163500	4
bs_4_C981.	0	Black Scholes	0.00406120026	166500	4
bs_4_C981.	0	Black Scholes	0.00406120026	169500	4
bs_4_C981.	0	Black Scholes	0.0040611982	172500	4
bs_4_C981.	0	Black Scholes	0.00406120026	175500	4
bs_4_C981.	0	Black Scholes	0.00406120026	178500	4
bs_4_C981.	0	Black Scholes	0.0040611982	181500	4
bs_4_C981.	0	Black Scholes	0.00406120026	184500	4
bs_4_C981.	0	Black Scholes	0.00406120026	187500	4
bs_4_C981.	0	Black Scholes	0.0040611982	190000	4
bs_4_C981.	0	Black Scholes	0.00406120026	193000	4
bs_4_C981.	0	Black Scholes	0.00406120026	196000	4
bs_4_C981.	0	Black Scholes	0.0040611982	199000	4
bs_4_C981.	0	Black Scholes	0.00406120026	202000	4
bs_4_C981.	0	Black Scholes	0.00406120026	205000	4
bs_4_C981.	0	Black Scholes	0.0040611982	208000	4
bs_4_C981.	0	Black Scholes	0.00406120026	211000	4
bs_4_C981.	0	Black Scholes	0.00406120026	214000	4
bs_4_C981.	0	Black Scholes	0.0040611982	217000	4
bs_4_C981.	0	Black Scholes	0.00406120026	220000	4
bs_4_C981.	0	Black Scholes	0.00406120026	223000	4
bs_4_C981.	0	Black Scholes	0.0040611982	225500	4
bs_4_C981.	0	Black Scholes	0.00406120026	228500	4
bs_4_C981.	0	Black Scholes	0.00406120026	231500	4
bs_4_C981.	0	Black Scholes	0.0040611982	234500	4
bs_4_C981.	0	Black Scholes	0.00406120026	237500	4
bs_4_C981.	0	Black Scholes	0.00406120026	240500	4
bs_4_C981.	0	Black Scholes	0.0040611982	243500	4
bs_4_C981.	0	Black Scholes	0.00406120026	246500	4
bs_4_C981.	0	Black Scholes	0.00406120026	249500	4
bs_4_C981.	0	Black Scholes	0.0040611982	252500	4
bs_4_C981.	0	Black Scholes	0.00406120026	255500	4
bs_4_C981.	0	Black Scholes	0.00406120026	258000	4
bs_4_C981.	0	Black Scholes	0.0040611982	261000	4
bs_4_C981.	0	Black Scholes	0.00406120026	264000	4
bs_4_C981.	0	Black Scholes	0.00406120232	267000	4
bs_4_C981.	0	Black Scholes	0.00406120232	270000	4
bs_4_C981.	0	Black Scholes	0.00406120232	273000	4
bs_4_C981.	0	Black Scholes	0.00406120026	276000	4
bs_4_C981.	0	Black Scholes	0.00406120232	279000	4
bs_4_C981.	0	Black Scholes	0.00406120232	282000	4
bs_4_C981.	0	Black Scholes	0.00406120232	285000	4
bs_4_C981.	0	Black Scholes	0.00406120026	288000	4
bs_4_C981.	0	Black Scholes	0.00406120232	290500	4
bs_4_C981.	0	Black Scholes	0.00406120232	293500	4
bs_4_C981.	0	Black Scholes	0.00406120232	296500	4
bs_4_C981.	0	Black Scholes	0.00406120026	299500	4
bs_4_C981.	0	Black Scholes	0.00406120232	302500	4
bs_4_C981.	0	Black Scholes	0.0040611982	305500	4
bs_4_C981.	0	Black Scholes	0.00406120232	308500	4
bs_4_C981.	0	Black Scholes	0.00406120026	311500	4
bs_4_C981.	0	Black Scholes	0.00406120232	314500	4
bs_4_C981.	0	Black Scholes	0.0040611982	317500	4
bs_4_C981.	0	Black Scholes	0.00406120232	320500	4
bs_4_C981.	0	Black Scholes	0.00406120026	323000	4
bs_4_C981.	0	Black Scholes	0.00406120232	326000	4
bs_4_C981.	0	Black Scholes	0.0040611982	329000	4
bs_4_C981.	0	Black Scholes	0.00406120232	332000	4
bs_4_C981.	0	Black Scholes	0.00406120026	335000	4
bs_4_C981.	0	Black Scholes	0.00406120232	338000	4
bs_4_C981.	0	Black Scholes	0.00406120026	341000	4
bs_4_C981.	0	Black Scholes	0.00406120232	344000	4
bs_4_C981.	0	Black Scholes	0.00406120026	347000	4
bs_4_C981.	0	Black Scholes	0.00406120232	350000	4
bs_4_C981.	0	Black Scholes	0.00406120026	353000	4
bs_4_C981.	0	Black Scholes	0.00406120232	355500	4
bs_4_C981.	0	Black Scholes	0.00406120026	358500	4
bs_4_C981.	0	Black Scholes	0.00406120232	361500	4
bs_4_C981.	0	Black Scholes	0.00406120026	364500	4
bs_4_C981.	0	Black Scholes	0.00406120232	367500	4
bs_4_C981.	0	Black Scholes	0.00406120026	370500	4
bs_4_C981.	0	Black Scholes	0.00406120232	373500	4
bs_4_C981.	0	Black Scholes	0.00406120026	376500	4
bs_4_C981.	0	Black Scholes	0.00406120232	379500	4
bs_4_C981.	0	Black Scholes	0.00406120232	382500	4
bs_4_C981.	0	Black Scholes	0.00406120232	385500	4
bs_4_C981.	0	Black Scholes	0.00406120232	388000	4
bs_4_C981.	0	Black Scholes	0.00406120026	391000	4
bs_4_C981.	0	Black Scholes	0.00406120232	394000	4
bs_4_C981.	0	Black Scholes	0.00406120232	397000	4
bs_4_C981.	0	Black Scholes	0.00406120232	400000	4
bs_4_C981.	0	Black Scholes	0.00406120026	403000	4
bs_4_C981.	0	Black Scholes	0.00406120232	406000	4
bs_4_C981.	0	Black Scholes	0.00406120232	409000	4
bs_4_C981.	0	Black Scholes	0.00406120232	412000	4
bs_4_C981.	0	Black Scholes	0.00406120026	415000	4
bs_4_C981.	0	Black Scholes	0.00406120232	418000	4
bs_4_C981.	0	Black Scholes	0.00406120232	420500	4
bs_4_C981.	0	Black Scholes	0.00406120232	423500	4
bs_4_C981.	0	Black Scholes	0.00406120026	426500	4
bs_4_C981.	0	Black Scholes	0.00406120232	429500	4
bs_4_C981.	0	Black Scholes	0.0040611982	432500	4
bs_4_C981.	0	Black Scholes	0.00406120232	435500	4
bs_4_C981.	0	Black Scholes	0.00406120026	438500	4
bs_4_C981.	0	Black Scholes	0.00406120232	441500	4
bs_4_C981.	0	Black Scholes	0.0040611982	444500	4
bs_4_C981.	0	Black Scholes	0.00406120232	447500	4
bs_4_C981.	0	Black Scholes	0.00406120026	450500	4
bs_4_C981.	0	Black Scholes	0.00406120232	453000	4
bs_4_C981.	0	Black Scholes	0.0040611982	456000	4
bs_4_C981.	0	Black Scholes	0.00406120232	459000	4
bs_4_C981.	0	Black Scholes	0.00406120026	462000	4
bs_4_C981.	0	Black Scholes	0.00406120232	465000	4
bs_4_C981.	0	Black Scholes	0.00406120026	468000	4
bs_4_C981.	0	Black Scholes	0.00406120232	471000	4
bs_4_C981.	0	Black Scholes	0.00406120026	474000	4
bs_4_C981.	0	Black Scholes	0.00406120232	477000	4
bs_4_C981.	0	Black Scholes	0.00406120026	480000	4
bs_4_C981.	0	Black Scholes	0.00406120232	483000	4
bs_4_C981.	0	Black Scholes	0.00406120026	485500	4
bs_4_C981.	0	Black Scholes	0.00406120232	488500	4
bs_4_C981.	0	Black Scholes	0.00406120026	491500	4
bs_4_C981.	0	Black Scholes	0.00406120232	494500	4
bs_4_C981.	0	Black Scholes	0.00406120026	497500	4
bs_4_C981.	0	Black Scholes	0.00406120232	500500	4
bs_4_C981.	0	Black Scholes	0.00406120026	503500	4
bs_4_C981.	0	Black Scholes	0.00406120232	506500	4
bs_4_C981.	0	Black Scholes	0.00406120232	509500	4
bs_4_C981.	0	Black Scholes	0.00406120232	512500	4
