HW:	CPU	TSS:	0.781573	AT:	0	#T:	4	DSTSS:	10	DETSS:	1279465	DTSS:	1279471
HW:	CPU	TSS:	0.655	AT:	1.12737	#T:	4	DSTSS:	1279496	DETSS:	3053428	DTSS:	3053435
HW:	CPU	TSS:	0.641976	AT:	0.883998	#T:	4	DSTSS:	3053463	DETSS:	4673064	DTSS:	4673072
HW:	CPU	TSS:	0.649744	AT:	0.820193	#T:	4	DSTSS:	4673102	DETSS:	6156269	DTSS:	6156274
HW:	CPU	TSS:	0.656641	AT:	0.78925	#T:	4	DSTSS:	6156284	DETSS:	7614507	DTSS:	7614513
HW:	CPU	TSS:	0.661665	AT:	0.770351	#T:	4	DSTSS:	7614532	DETSS:	9068030	DTSS:	9068035
HW:	CPU	TSS:	0.650744	AT:	0.738588	#T:	6	DSTSS:	9068045	DETSS:	10756906	DTSS:	10756911
HW:	CPU	TSS:	0.668825	AT:	0.74893	#T:	20	DSTSS:	10756919	DETSS:	11961268	DTSS:	11961272
HW:	CPU	TSS:	0.708045	AT:	0.787286	#T:	20	DSTSS:	11961279	DETSS:	12711045	DTSS:	12711049
HW:	CPU	TSS:	0.746371	AT:	0.825165	#T:	20	DSTSS:	12711065	DETSS:	13398150	DTSS:	13398154
HW:	CPU	TSS:	0.779809	AT:	0.857589	#T:	20	DSTSS:	13398161	DETSS:	14106021	DTSS:	14106026
HW:	CPU	TSS:	0.821459	AT:	0.900308	#T:	7	DSTSS:	14106034	DETSS:	14608147	DTSS:	14608153
HW:	CPU	TSS:	0.836687	AT:	0.911762	#T:	7	DSTSS:	14608160	DETSS:	15537471	DTSS:	15537475
HW:	CPU	TSS:	0.850357	AT:	0.922005	#T:	7	DSTSS:	15537481	DETSS:	16463661	DTSS:	16463665
HW:	CPU	TSS:	0.867997	AT:	0.937395	#T:	7	DSTSS:	16463672	DETSS:	17281157	DTSS:	17281161
HW:	CPU	TSS:	0.874475	AT:	0.940218	#T:	7	DSTSS:	17281167	DETSS:	18296695	DTSS:	18296700
HW:	CPU	TSS:	0.881024	AT:	0.943588	#T:	7	DSTSS:	18296705	DETSS:	19295716	DTSS:	19295721
HW:	CPU	TSS:	0.856635	AT:	0.946599	#T:	6	DSTSS:	19295737	DETSS:	21012448	DTSS:	21012455
HW:	CPU	TSS:	0.846722	AT:	0.956861	#T:	6	DSTSS:	21012463	DETSS:	22439474	DTSS:	22439480
HW:	CPU	TSS:	0.840992	AT:	0.964531	#T:	6	DSTSS:	22439489	DETSS:	23781420	DTSS:	23781427
HW:	CPU	TSS:	0.841574	AT:	0.980465	#T:	6	DSTSS:	23781435	DETSS:	24953222	DTSS:	24953228
HW:	CPU	TSS:	0.843361	AT:	0.998938	#T:	6	DSTSS:	24953237	DETSS:	26086105	DTSS:	26086111
HW:	CPU	TSS:	0.835665	AT:	1.01395	#T:	6	DSTSS:	26086119	DETSS:	27522985	DTSS:	27522991
HW:	CPU	TSS:	0.835607	AT:	1.0143	#T:	6	DSTSS:	27522999	DETSS:	28721621	DTSS:	28721627
HW:	CPU	TSS:	0.830528	AT:	0.977557	#T:	6	DSTSS:	28721635	DETSS:	30101342	DTSS:	30101348
HW:	CPU	TSS:	0.827683	AT:	0.943667	#T:	6	DSTSS:	30101357	DETSS:	31412983	DTSS:	31412989
HW:	CPU	TSS:	0.825631	AT:	0.914165	#T:	7	DSTSS:	31412997	DETSS:	32702237	DTSS:	32702244
HW:	CPU	TSS:	0.829659	AT:	0.888163	#T:	7	DSTSS:	32702252	DETSS:	33748783	DTSS:	33748789
HW:	CPU	TSS:	0.833428	AT:	0.882723	#T:	7	DSTSS:	33748798	DETSS:	34796057	DTSS:	34796064
HW:	CPU	TSS:	0.830035	AT:	0.863849	#T:	6	DSTSS:	34796073	DETSS:	36143033	DTSS:	36143039
HW:	CPU	TSS:	0.816903	AT:	0.822567	#T:	6	DSTSS:	36143048	DETSS:	37948176	DTSS:	37948182
HW:	CPU	TSS:	0.805579	AT:	0.793418	#T:	6	DSTSS:	37948190	DETSS:	39722981	DTSS:	39722987
HW:	CPU	TSS:	0.806688	AT:	0.786589	#T:	6	DSTSS:	39722995	DETSS:	40908001	DTSS:	40908007
HW:	CPU	TSS:	0.814256	AT:	0.819535	#T:	6	DSTSS:	40908043	DETSS:	41755924	DTSS:	41755929
HW:	CPU	TSS:	0.820506	AT:	0.84087	#T:	6	DSTSS:	41755937	DETSS:	42656618	DTSS:	42656624
HW:	CPU	TSS:	0.820962	AT:	0.847053	#T:	17	DSTSS:	42656631	DETSS:	43851005	DTSS:	43851012
HW:	CPU	TSS:	0.828929	AT:	0.863703	#T:	17	DSTSS:	43851020	DETSS:	44635926	DTSS:	44635933
HW:	CPU	TSS:	0.826315	AT:	0.85422	#T:	17	DSTSS:	44635982	DETSS:	45987314	DTSS:	45987320
HW:	CPU	TSS:	0.831037	AT:	0.876004	#T:	6	DSTSS:	45987328	DETSS:	46929287	DTSS:	46929294
HW:	CPU	TSS:	0.826737	AT:	0.86464	#T:	6	DSTSS:	46929304	DETSS:	48382981	DTSS:	48382988
HW:	CPU	TSS:	0.825066	AT:	0.867717	#T:	6	DSTSS:	48382997	DETSS:	49692988	DTSS:	49692995
HW:	CPU	TSS:	0.822887	AT:	0.866162	#T:	5	DSTSS:	49693004	DETSS:	51039791	DTSS:	51039796
HW:	CPU	TSS:	0.823534	AT:	0.871271	#T:	5	DSTSS:	51039804	DETSS:	52213959	DTSS:	52213964
HW:	CPU	TSS:	0.823153	AT:	0.862758	#T:	5	DSTSS:	52213971	DETSS:	53453027	DTSS:	53453032
HW:	CPU	TSS:	0.821186	AT:	0.849884	#T:	7	DSTSS:	53453039	DETSS:	54798791	DTSS:	54798798
HW:	CPU	TSS:	0.821444	AT:	0.85617	#T:	7	DSTSS:	54798806	DETSS:	55998910	DTSS:	55998917
HW:	CPU	TSS:	0.818663	AT:	0.873475	#T:	7	DSTSS:	55998926	DETSS:	57410668	DTSS:	57410675
HW:	CPU	TSS:	0.815846	AT:	0.889509	#T:	6	DSTSS:	57410684	DETSS:	58834651	DTSS:	58834658
HW:	CPU	TSS:	0.818057	AT:	0.895207	#T:	6	DSTSS:	58834666	DETSS:	59898032	DTSS:	59898039
HW:	CPU	TSS:	0.819936	AT:	0.884292	#T:	6	DSTSS:	59898047	DETSS:	60980336	DTSS:	60980343
HW:	CPU	TSS:	0.826564	AT:	0.892642	#T:	6	DSTSS:	60980352	DETSS:	61701204	DTSS:	61701209
HW:	CPU	TSS:	0.83216	AT:	0.912164	#T:	6	DSTSS:	61701217	DETSS:	62488011	DTSS:	62488017
HW:	CPU	TSS:	0.835375	AT:	0.903839	#T:	6	DSTSS:	62488024	DETSS:	63444584	DTSS:	63444590
HW:	CPU	TSS:	0.839252	AT:	0.926142	#T:	7	DSTSS:	63444598	DETSS:	64343037	DTSS:	64343044
HW:	CPU	TSS:	0.843893	AT:	0.931769	#T:	7	DSTSS:	64343052	DETSS:	65174160	DTSS:	65174166
HW:	CPU	TSS:	0.848674	AT:	0.965784	#T:	7	DSTSS:	65174174	DETSS:	65985265	DTSS:	65985271
HW:	CPU	TSS:	0.853063	AT:	0.992697	#T:	7	DSTSS:	65985279	DETSS:	66818055	DTSS:	66818062
HW:	CPU	TSS:	0.846863	AT:	0.97431	#T:	7	DSTSS:	66818071	DETSS:	68488044	DTSS:	68488050
HW:	CPU	TSS:	0.836665	AT:	0.928755	#T:	7	DSTSS:	68488060	DETSS:	70518033	DTSS:	70518040
HW:	CPU	TSS:	0.836177	AT:	0.928855	#T:	6	DSTSS:	70518049	DETSS:	71755127	DTSS:	71755133
HW:	CPU	TSS:	0.837199	AT:	0.94114	#T:	6	DSTSS:	71755141	DETSS:	72861986	DTSS:	72861992
HW:	CPU	TSS:	0.839789	AT:	0.953496	#T:	6	DSTSS:	72862000	DETSS:	73828028	DTSS:	73828034
HW:	CPU	TSS:	0.841438	AT:	0.973589	#T:	6	DSTSS:	73828043	DETSS:	74871837	DTSS:	74871844
HW:	CPU	TSS:	0.839354	AT:	0.976202	#T:	6	DSTSS:	74871852	DETSS:	76249084	DTSS:	76249090
HW:	CPU	TSS:	0.835861	AT:	0.951524	#T:	6	DSTSS:	76249099	DETSS:	77764108	DTSS:	77764114
HW:	CPU	TSS:	0.836926	AT:	0.950798	#T:	7	DSTSS:	77764202	DETSS:	78860053	DTSS:	78860059
HW:	CPU	TSS:	0.839692	AT:	0.93975	#T:	7	DSTSS:	78860067	DETSS:	79791131	DTSS:	79791137
HW:	CPU	TSS:	0.842411	AT:	0.932394	#T:	7	DSTSS:	79791145	DETSS:	80720642	DTSS:	80720648
HW:	CPU	TSS:	0.846937	AT:	0.94311	#T:	5	DSTSS:	80720656	DETSS:	81470045	DTSS:	81470050
HW:	CPU	TSS:	0.848826	AT:	0.937993	#T:	5	DSTSS:	81470058	DETSS:	82466838	DTSS:	82466843
HW:	CPU	TSS:	0.852566	AT:	0.939026	#T:	5	DSTSS:	82466850	DETSS:	83278018	DTSS:	83278024
HW:	CPU	TSS:	0.855561	AT:	0.935607	#T:	6	DSTSS:	83278031	DETSS:	84155280	DTSS:	84155286
HW:	CPU	TSS:	0.855609	AT:	0.918856	#T:	6	DSTSS:	84155293	DETSS:	85319314	DTSS:	85319320
HW:	CPU	TSS:	0.856279	AT:	0.948007	#T:	6	DSTSS:	85319327	DETSS:	86420404	DTSS:	86420410
HW:	CPU	TSS:	0.85703	AT:	1.00038	#T:	6	DSTSS:	86420418	DETSS:	87511563	DTSS:	87511570
HW:	CPU	TSS:	0.857178	AT:	1.00545	#T:	6	DSTSS:	87511579	DETSS:	88663037	DTSS:	88663043
HW:	CPU	TSS:	0.856231	AT:	0.996073	#T:	6	DSTSS:	88663052	DETSS:	89929001	DTSS:	89929008
HW:	CPU	TSS:	0.85818	AT:	0.996368	#T:	7	DSTSS:	89929017	DETSS:	90889991	DTSS:	90889997
HW:	CPU	TSS:	0.860883	AT:	1.00625	#T:	7	DSTSS:	90890006	DETSS:	91766197	DTSS:	91766204
HW:	CPU	TSS:	0.861648	AT:	1.02433	#T:	7	DSTSS:	91766212	DETSS:	92845285	DTSS:	92845292
HW:	CPU	TSS:	0.862276	AT:	1.05112	#T:	7	DSTSS:	92845301	DETSS:	93937394	DTSS:	93937401
HW:	CPU	TSS:	0.861579	AT:	1.04205	#T:	7	DSTSS:	93937410	DETSS:	95174099	DTSS:	95174105
HW:	CPU	TSS:	0.861515	AT:	1.02714	#T:	7	DSTSS:	95174114	DETSS:	96341899	DTSS:	96341906
HW:	CPU	TSS:	0.860937	AT:	1.00906	#T:	7	DSTSS:	96341915	DETSS:	97568057	DTSS:	97568064
HW:	CPU	TSS:	0.860241	AT:	0.980422	#T:	7	DSTSS:	97568073	DETSS:	98809530	DTSS:	98809537
HW:	CPU	TSS:	0.860357	AT:	0.97189	#T:	7	DSTSS:	98809546	DETSS:	99958531	DTSS:	99958537
HW:	CPU	TSS:	0.863326	AT:	0.971703	#T:	6	DSTSS:	99958546	DETSS:	100773070	DTSS:	100773075
HW:	CPU	TSS:	0.863837	AT:	0.959594	#T:	6	DSTSS:	100773082	DETSS:	101871099	DTSS:	101871104
HW:	CPU	TSS:	0.8628	AT:	0.953275	#T:	6	DSTSS:	101871111	DETSS:	103152565	DTSS:	103152570
HW:	CPU	TSS:	0.861131	AT:	0.939574	#T:	8	DSTSS:	103152578	DETSS:	104513710	DTSS:	104513717
HW:	CPU	TSS:	0.863607	AT:	0.951822	#T:	8	DSTSS:	104513725	DETSS:	105372052	DTSS:	105372059
HW:	CPU	TSS:	0.866105	AT:	0.968126	#T:	8	DSTSS:	105372068	DETSS:	106222735	DTSS:	106222742
HW:	CPU	TSS:	0.867637	AT:	0.985015	#T:	7	DSTSS:	106222751	DETSS:	107187627	DTSS:	107187634
HW:	CPU	TSS:	0.869702	AT:	0.988772	#T:	7	DSTSS:	107187642	DETSS:	108083028	DTSS:	108083035
HW:	CPU	TSS:	0.870706	AT:	0.980352	#T:	7	DSTSS:	108083045	DETSS:	109106912	DTSS:	109106918
HW:	CPU	TSS:	0.874277	AT:	1.00238	#T:	6	DSTSS:	109106927	DETSS:	109804992	DTSS:	109804999
HW:	CPU	TSS:	0.868257	AT:	0.956097	#T:	6	DSTSS:	109805007	DETSS:	111718016	DTSS:	111718022
HW:	CPU	TSS:	0.86264	AT:	0.922379	#T:	6	DSTSS:	111718031	DETSS:	113604691	DTSS:	113604697
HW:	CPU	TSS:	0.859891	AT:	0.904783	#T:	7	DSTSS:	113604705	DETSS:	115130931	DTSS:	115130938
HW:	CPU	TSS:	0.857942	AT:	0.895211	#T:	7	DSTSS:	115130947	DETSS:	116557987	DTSS:	116557994
HW:	CPU	TSS:	0.854643	AT:	0.877715	#T:	7	DSTSS:	116558003	DETSS:	118178001	DTSS:	118178008
HW:	CPU	TSS:	0.855037	AT:	0.879256	#T:	17	DSTSS:	118178017	DETSS:	119293080	DTSS:	119293091
HW:	CPU	TSS:	0.858408	AT:	0.884662	#T:	17	DSTSS:	119293107	DETSS:	119989495	DTSS:	119989502
HW:	CPU	TSS:	0.861804	AT:	0.903966	#T:	17	DSTSS:	119989512	DETSS:	120677126	DTSS:	120677132
HW:	CPU	TSS:	0.861341	AT:	0.906646	#T:	7	DSTSS:	120737970	DETSS:	121902989	DTSS:	121902996
HW:	CPU	TSS:	0.86093	AT:	0.91354	#T:	7	DSTSS:	121903004	DETSS:	123122636	DTSS:	123122642
HW:	CPU	TSS:	0.860744	AT:	0.897618	#T:	7	DSTSS:	123122651	DETSS:	124311073	DTSS:	124311079
HW:	CPU	TSS:	0.862104	AT:	0.892287	#T:	8	DSTSS:	124311088	DETSS:	125274895	DTSS:	125274901
HW:	CPU	TSS:	0.864005	AT:	0.896195	#T:	8	DSTSS:	125274910	DETSS:	126156709	DTSS:	126156716
HW:	CPU	TSS:	0.865439	AT:	0.893794	#T:	8	DSTSS:	126156724	DETSS:	127103075	DTSS:	127103082
HW:	CPU	TSS:	0.867438	AT:	0.901564	#T:	8	DSTSS:	127103091	DETSS:	127963029	DTSS:	127963034
HW:	CPU	TSS:	0.870999	AT:	0.905072	#T:	6	DSTSS:	127963041	DETSS:	128588033	DTSS:	128588039
HW:	CPU	TSS:	0.873508	AT:	0.963423	#T:	6	DSTSS:	128588045	DETSS:	129363428	DTSS:	129363434
HW:	CPU	TSS:	0.875855	AT:	1.02695	#T:	6	DSTSS:	129363441	DETSS:	130158557	DTSS:	130158562
HW:	CPU	TSS:	0.878077	AT:	1.07343	#T:	6	DSTSS:	130158569	DETSS:	130967997	DTSS:	130968003
HW:	CPU	TSS:	0.880368	AT:	1.11805	#T:	6	DSTSS:	130968010	DETSS:	131763010	DTSS:	131763015
HW:	CPU	TSS:	0.88267	AT:	1.18266	#T:	6	DSTSS:	131763022	DETSS:	132552402	DTSS:	132552407
HW:	CPU	TSS:	0.884915	AT:	1.2097	#T:	6	DSTSS:	132552415	DETSS:	133346161	DTSS:	133346167
HW:	CPU	TSS:	0.887178	AT:	1.20195	#T:	6	DSTSS:	133346174	DETSS:	134133199	DTSS:	134133204
HW:	CPU	TSS:	0.889445	AT:	1.19395	#T:	6	DSTSS:	134133211	DETSS:	134915573	DTSS:	134915578
HW:	CPU	TSS:	0.891616	AT:	1.23139	#T:	6	DSTSS:	134915585	DETSS:	135708572	DTSS:	135708577
HW:	CPU	TSS:	0.893677	AT:	1.26941	#T:	6	DSTSS:	135708584	DETSS:	136514664	DTSS:	136514669
HW:	CPU	TSS:	0.895859	AT:	1.30898	#T:	6	DSTSS:	136514676	DETSS:	137298327	DTSS:	137298332
HW:	CPU	TSS:	0.897718	AT:	1.32264	#T:	6	DSTSS:	137298340	DETSS:	138127997	DTSS:	138128002
HW:	CPU	TSS:	0.899805	AT:	1.33206	#T:	6	DSTSS:	138128010	DETSS:	138918905	DTSS:	138918911
HW:	CPU	TSS:	0.901807	AT:	1.34745	#T:	6	DSTSS:	138918918	DETSS:	139719465	DTSS:	139719470
HW:	CPU	TSS:	0.903838	AT:	1.3547	#T:	6	DSTSS:	139719478	DETSS:	140511891	DTSS:	140511897
HW:	CPU	TSS:	0.905599	AT:	1.33282	#T:	6	DSTSS:	140511904	DETSS:	141342969	DTSS:	141342975
HW:	CPU	TSS:	0.907627	AT:	1.33173	#T:	6	DSTSS:	141342983	DETSS:	142128789	DTSS:	142128794
HW:	CPU	TSS:	0.909587	AT:	1.33193	#T:	6	DSTSS:	142128937	DETSS:	142922033	DTSS:	142922038
HW:	CPU	TSS:	0.911447	AT:	1.33234	#T:	6	DSTSS:	142922046	DETSS:	143727532	DTSS:	143727538
HW:	CPU	TSS:	0.913517	AT:	1.33506	#T:	6	DSTSS:	143727545	DETSS:	144496528	DTSS:	144496533
HW:	CPU	TSS:	0.915343	AT:	1.33351	#T:	6	DSTSS:	144496540	DETSS:	145300732	DTSS:	145300737
HW:	CPU	TSS:	0.917183	AT:	1.33298	#T:	6	DSTSS:	145300745	DETSS:	146099510	DTSS:	146099515
HW:	CPU	TSS:	0.918933	AT:	1.33059	#T:	6	DSTSS:	146099523	DETSS:	146909474	DTSS:	146909479
HW:	CPU	TSS:	0.920746	AT:	1.32909	#T:	6	DSTSS:	146909487	DETSS:	147706282	DTSS:	147706287
HW:	CPU	TSS:	0.922581	AT:	1.32938	#T:	6	DSTSS:	147706295	DETSS:	148496489	DTSS:	148496494
HW:	CPU	TSS:	0.924283	AT:	1.32914	#T:	6	DSTSS:	148496502	DETSS:	149304896	DTSS:	149304901
HW:	CPU	TSS:	0.926012	AT:	1.32732	#T:	6	DSTSS:	149304908	DETSS:	150106076	DTSS:	150106082
HW:	CPU	TSS:	0.927779	AT:	1.33124	#T:	6	DSTSS:	150106089	DETSS:	150898017	DTSS:	150898022
HW:	CPU	TSS:	0.92954	AT:	1.33134	#T:	6	DSTSS:	150898029	DETSS:	151687998	DTSS:	151688003
HW:	CPU	TSS:	0.931312	AT:	1.33296	#T:	6	DSTSS:	151688034	DETSS:	152473004	DTSS:	152473010
HW:	CPU	TSS:	0.932973	AT:	1.33213	#T:	6	DSTSS:	152473017	DETSS:	153273443	DTSS:	153273448
HW:	CPU	TSS:	0.934611	AT:	1.33523	#T:	6	DSTSS:	153273456	DETSS:	154074869	DTSS:	154074874
HW:	CPU	TSS:	0.936221	AT:	1.33342	#T:	6	DSTSS:	154074881	DETSS:	154877980	DTSS:	154877985
HW:	CPU	TSS:	0.937853	AT:	1.33305	#T:	6	DSTSS:	154877993	DETSS:	155674704	DTSS:	155674709
HW:	CPU	TSS:	0.939555	AT:	1.33549	#T:	6	DSTSS:	155674717	DETSS:	156456975	DTSS:	156456981
HW:	CPU	TSS:	0.941154	AT:	1.33258	#T:	6	DSTSS:	156456988	DETSS:	157253694	DTSS:	157253700
HW:	CPU	TSS:	0.942724	AT:	1.33314	#T:	6	DSTSS:	157253707	DETSS:	158052599	DTSS:	158052604
HW:	CPU	TSS:	0.944293	AT:	1.33338	#T:	6	DSTSS:	158052612	DETSS:	158849032	DTSS:	158849038
HW:	CPU	TSS:	0.94589	AT:	1.33559	#T:	6	DSTSS:	158849045	DETSS:	159637970	DTSS:	159637975
HW:	CPU	TSS:	0.947329	AT:	1.33387	#T:	6	DSTSS:	159637983	DETSS:	160451129	DTSS:	160451135
HW:	CPU	TSS:	0.94885	AT:	1.3332	#T:	6	DSTSS:	160451142	DETSS:	161247771	DTSS:	161247776
HW:	CPU	TSS:	0.950218	AT:	1.33196	#T:	6	DSTSS:	161247784	DETSS:	162068036	DTSS:	162068041
HW:	CPU	TSS:	0.95179	AT:	1.33387	#T:	6	DSTSS:	162068048	DETSS:	162850978	DTSS:	162850984
HW:	CPU	TSS:	0.953312	AT:	1.33418	#T:	6	DSTSS:	162850991	DETSS:	163639947	DTSS:	163639952
HW:	CPU	TSS:	0.954673	AT:	1.33163	#T:	6	DSTSS:	163639960	DETSS:	164454263	DTSS:	164454268
HW:	CPU	TSS:	0.956023	AT:	1.32864	#T:	6	DSTSS:	164454275	DETSS:	165267998	DTSS:	165268003
HW:	CPU	TSS:	0.957532	AT:	1.33037	#T:	6	DSTSS:	165268011	DETSS:	166051804	DTSS:	166051810
HW:	CPU	TSS:	0.958951	AT:	1.33081	#T:	6	DSTSS:	166051817	DETSS:	166849007	DTSS:	166849013
HW:	CPU	TSS:	0.960368	AT:	1.33166	#T:	6	DSTSS:	166849020	DETSS:	167644031	DTSS:	167644036
HW:	CPU	TSS:	0.961862	AT:	1.33348	#T:	6	DSTSS:	167644043	DETSS:	168423284	DTSS:	168423290
HW:	CPU	TSS:	0.963288	AT:	1.33279	#T:	6	DSTSS:	168423297	DETSS:	169212174	DTSS:	169212180
HW:	CPU	TSS:	0.964668	AT:	1.33302	#T:	6	DSTSS:	169212187	DETSS:	170006735	DTSS:	170006740
HW:	CPU	TSS:	0.966008	AT:	1.33298	#T:	6	DSTSS:	170006748	DETSS:	170805971	DTSS:	170805976
HW:	CPU	TSS:	0.967351	AT:	1.33295	#T:	6	DSTSS:	170805984	DETSS:	171602660	DTSS:	171602665
HW:	CPU	TSS:	0.968745	AT:	1.33333	#T:	6	DSTSS:	171602672	DETSS:	172387997	DTSS:	172388003
HW:	CPU	TSS:	0.970091	AT:	1.33559	#T:	6	DSTSS:	172388010	DETSS:	173179622	DTSS:	173179628
HW:	CPU	TSS:	0.971467	AT:	1.33691	#T:	6	DSTSS:	173179635	DETSS:	173963673	DTSS:	173963678
HW:	CPU	TSS:	0.972729	AT:	1.33879	#T:	6	DSTSS:	173963685	DETSS:	174766106	DTSS:	174766112
HW:	CPU	TSS:	0.974094	AT:	1.33892	#T:	6	DSTSS:	174766120	DETSS:	175547795	DTSS:	175547800
HW:	CPU	TSS:	0.975328	AT:	1.33742	#T:	6	DSTSS:	175547808	DETSS:	176350986	DTSS:	176350991
HW:	CPU	TSS:	0.976667	AT:	1.34083	#T:	6	DSTSS:	176350999	DETSS:	177133009	DTSS:	177133015
HW:	CPU	TSS:	0.977942	AT:	1.34316	#T:	6	DSTSS:	177133023	DETSS:	177924707	DTSS:	177924712
HW:	CPU	TSS:	0.979261	AT:	1.34341	#T:	6	DSTSS:	177924720	DETSS:	178706207	DTSS:	178706213
HW:	CPU	TSS:	0.980403	AT:	1.34185	#T:	6	DSTSS:	178706220	DETSS:	179518038	DTSS:	179518043
HW:	CPU	TSS:	0.981626	AT:	1.34186	#T:	6	DSTSS:	179518051	DETSS:	180313007	DTSS:	180313013
HW:	CPU	TSS:	0.982794	AT:	1.33931	#T:	6	DSTSS:	180313020	DETSS:	181116370	DTSS:	181116375
HW:	CPU	TSS:	0.984015	AT:	1.33904	#T:	6	DSTSS:	181116382	DETSS:	181907814	DTSS:	181907819
HW:	CPU	TSS:	0.985017	AT:	1.3353	#T:	6	DSTSS:	181907826	DETSS:	182738001	DTSS:	182738007
HW:	CPU	TSS:	0.986249	AT:	1.33673	#T:	6	DSTSS:	182738015	DETSS:	183523577	DTSS:	183523583
HW:	CPU	TSS:	0.987418	AT:	1.33686	#T:	6	DSTSS:	183523591	DETSS:	184319021	DTSS:	184319026
HW:	CPU	TSS:	0.988595	AT:	1.33614	#T:	6	DSTSS:	184319034	DETSS:	185111233	DTSS:	185111238
HW:	CPU	TSS:	0.989845	AT:	1.33773	#T:	6	DSTSS:	185111246	DETSS:	185887703	DTSS:	185887707
HW:	CPU	TSS:	0.990996	AT:	1.33676	#T:	6	DSTSS:	185887715	DETSS:	186680956	DTSS:	186680961
HW:	CPU	TSS:	0.992173	AT:	1.33846	#T:	6	DSTSS:	186680969	DETSS:	187467241	DTSS:	187467246
HW:	CPU	TSS:	0.993159	AT:	1.33435	#T:	6	DSTSS:	187467254	DETSS:	188288044	DTSS:	188288050
HW:	CPU	TSS:	0.994289	AT:	1.33556	#T:	6	DSTSS:	188288057	DETSS:	189079741	DTSS:	189079746
HW:	CPU	TSS:	0.995423	AT:	1.33479	#T:	6	DSTSS:	189079753	DETSS:	189869089	DTSS:	189869095
HW:	CPU	TSS:	0.996558	AT:	1.33526	#T:	6	DSTSS:	189869102	DETSS:	190656307	DTSS:	190656312
HW:	CPU	TSS:	0.997602	AT:	1.33303	#T:	6	DSTSS:	190656320	DETSS:	191459075	DTSS:	191459080
HW:	CPU	TSS:	1.00002	AT:	1.3623	#T:	6	DSTSS:	191459087	DETSS:	191996947	DTSS:	191996952
HW:	CPU	TSS:	1.00297	AT:	1.40313	#T:	4	DSTSS:	191996959	DETSS:	192428764	DTSS:	192428774
HW:	CPU	TSS:	1.00387	AT:	1.40087	#T:	4	DSTSS:	192428792	DETSS:	193251659	DTSS:	193251669
HW:	CPU	TSS:	1.00479	AT:	1.39783	#T:	4	DSTSS:	193251686	DETSS:	194069497	DTSS:	194069504
HW:	CPU	TSS:	1.00609	AT:	1.40789	#T:	4	DSTSS:	194069513	DETSS:	194812777	DTSS:	194812784
HW:	CPU	TSS:	1.00737	AT:	1.41256	#T:	4	DSTSS:	194812793	DETSS:	195558448	DTSS:	195558454
HW:	CPU	TSS:	1.00926	AT:	1.43283	#T:	6	DSTSS:	195558463	DETSS:	196183629	DTSS:	196183634
HW:	CPU	TSS:	1.01179	AT:	1.46933	#T:	8	DSTSS:	196183642	DETSS:	196681096	DTSS:	196681101
HW:	CPU	TSS:	1.01311	AT:	1.47524	#T:	8	DSTSS:	196681110	DETSS:	197411214	DTSS:	197411220
HW:	CPU	TSS:	1.01443	AT:	1.48338	#T:	8	DSTSS:	197411229	DETSS:	198141260	DTSS:	198141267
HW:	CPU	TSS:	1.01545	AT:	1.48361	#T:	6	DSTSS:	198141275	DETSS:	198925791	DTSS:	198925801
HW:	CPU	TSS:	1.0149	AT:	1.44906	#T:	6	DSTSS:	198925818	DETSS:	200019796	DTSS:	200019802
HW:	CPU	TSS:	1.01436	AT:	1.41278	#T:	6	DSTSS:	200019809	DETSS:	201112732	DTSS:	201112737
HW:	CPU	TSS:	1.01436	AT:	1.39016	#T:	6	DSTSS:	201112744	DETSS:	202097881	DTSS:	202097889
HW:	CPU	TSS:	1.01491	AT:	1.38019	#T:	6	DSTSS:	202097946	DETSS:	202973488	DTSS:	202973494
HW:	CPU	TSS:	1.01546	AT:	1.37222	#T:	6	DSTSS:	202973503	DETSS:	203847735	DTSS:	203847741
HW:	CPU	TSS:	1.01574	AT:	1.33015	#T:	3	DSTSS:	203847750	DETSS:	204777442	DTSS:	204777450
HW:	CPU	TSS:	1.0163	AT:	1.28596	#T:	3	DSTSS:	204777465	DETSS:	205648505	DTSS:	205648514
HW:	CPU	TSS:	1.01687	AT:	1.28164	#T:	3	DSTSS:	205648529	DETSS:	206515892	DTSS:	206515901
HW:	CPU	TSS:	1.01743	AT:	1.27673	#T:	3	DSTSS:	206515916	DETSS:	207384777	DTSS:	207384786
HW:	CPU	TSS:	1.01799	AT:	1.2649	#T:	3	DSTSS:	207384801	DETSS:	208252600	DTSS:	208252609
HW:	CPU	TSS:	1.01855	AT:	1.25348	#T:	3	DSTSS:	208252623	DETSS:	209120690	DTSS:	209120699
HW:	CPU	TSS:	1.01842	AT:	1.21909	#T:	4	DSTSS:	209120713	DETSS:	210128420	DTSS:	210128431
HW:	CPU	TSS:	1.01918	AT:	1.19114	#T:	4	DSTSS:	210128448	DETSS:	210953178	DTSS:	210953188
HW:	CPU	TSS:	1.01992	AT:	1.18299	#T:	4	DSTSS:	210953205	DETSS:	211781643	DTSS:	211781653
HW:	CPU	TSS:	1.0206	AT:	1.17415	#T:	4	DSTSS:	211781670	DETSS:	212619878	DTSS:	212619888
HW:	CPU	TSS:	1.02136	AT:	1.17118	#T:	4	DSTSS:	212619905	DETSS:	213441115	DTSS:	213441125
HW:	CPU	TSS:	1.02201	AT:	1.1919	#T:	4	DSTSS:	213441143	DETSS:	214282753	DTSS:	214282764
HW:	CPU	TSS:	1.02279	AT:	1.21566	#T:	4	DSTSS:	214282780	DETSS:	215096895	DTSS:	215096906
HW:	CPU	TSS:	1.02342	AT:	1.22786	#T:	4	DSTSS:	215096923	DETSS:	215943108	DTSS:	215943118
HW:	CPU	TSS:	1.02419	AT:	1.23332	#T:	4	DSTSS:	215943135	DETSS:	216757476	DTSS:	216757487
HW:	CPU	TSS:	1.02491	AT:	1.2379	#T:	4	DSTSS:	216757504	DETSS:	217580680	DTSS:	217580690
HW:	CPU	TSS:	1.02553	AT:	1.24573	#T:	4	DSTSS:	217580707	DETSS:	218424109	DTSS:	218424119
HW:	CPU	TSS:	1.02628	AT:	1.25083	#T:	4	DSTSS:	218424136	DETSS:	219239437	DTSS:	219239447
HW:	CPU	TSS:	1.02689	AT:	1.25311	#T:	4	DSTSS:	219239465	DETSS:	220082153	DTSS:	220082163
HW:	CPU	TSS:	1.02762	AT:	1.25792	#T:	4	DSTSS:	220082180	DETSS:	220899117	DTSS:	220899127
HW:	CPU	TSS:	1.02828	AT:	1.26137	#T:	4	DSTSS:	220899144	DETSS:	221730014	DTSS:	221730024
HW:	CPU	TSS:	1.02886	AT:	1.26349	#T:	4	DSTSS:	221730041	DETSS:	222575537	DTSS:	222575547
HW:	CPU	TSS:	1.02958	AT:	1.28162	#T:	4	DSTSS:	222575564	DETSS:	223392874	DTSS:	223392885
HW:	CPU	TSS:	1.03018	AT:	1.28027	#T:	4	DSTSS:	223392951	DETSS:	224231635	DTSS:	224231645
HW:	CPU	TSS:	1.03089	AT:	1.28132	#T:	4	DSTSS:	224231662	DETSS:	225049193	DTSS:	225049203
HW:	CPU	TSS:	1.03148	AT:	1.28114	#T:	4	DSTSS:	225049220	DETSS:	225889300	DTSS:	225889310
HW:	CPU	TSS:	1.03217	AT:	1.28144	#T:	4	DSTSS:	225889328	DETSS:	226707473	DTSS:	226707483
HW:	CPU	TSS:	1.03285	AT:	1.28374	#T:	4	DSTSS:	226707500	DETSS:	227525275	DTSS:	227525285
HW:	CPU	TSS:	1.03345	AT:	1.28156	#T:	4	DSTSS:	227525302	DETSS:	228362027	DTSS:	228362037
HW:	CPU	TSS:	1.03412	AT:	1.28428	#T:	4	DSTSS:	228362054	DETSS:	229180064	DTSS:	229180074
HW:	CPU	TSS:	1.03472	AT:	1.28234	#T:	4	DSTSS:	229180091	DETSS:	230014511	DTSS:	230014521
HW:	CPU	TSS:	1.03538	AT:	1.28268	#T:	4	DSTSS:	230014538	DETSS:	230834191	DTSS:	230834201
HW:	CPU	TSS:	1.036	AT:	1.28427	#T:	4	DSTSS:	230834218	DETSS:	231661229	DTSS:	231661239
HW:	CPU	TSS:	1.03659	AT:	1.28263	#T:	4	DSTSS:	231661256	DETSS:	232493505	DTSS:	232493515
HW:	CPU	TSS:	1.03724	AT:	1.28503	#T:	4	DSTSS:	232493532	DETSS:	233311391	DTSS:	233311401
HW:	CPU	TSS:	1.03782	AT:	1.28349	#T:	4	DSTSS:	233311418	DETSS:	234144249	DTSS:	234144260
HW:	CPU	TSS:	1.03845	AT:	1.28434	#T:	4	DSTSS:	234144277	DETSS:	234966418	DTSS:	234966428
HW:	CPU	TSS:	1.03908	AT:	1.28696	#T:	4	DSTSS:	234966446	DETSS:	235784943	DTSS:	235784953
HW:	CPU	TSS:	1.03966	AT:	1.28557	#T:	4	DSTSS:	235784970	DETSS:	236616576	DTSS:	236616586
HW:	CPU	TSS:	1.04026	AT:	1.28711	#T:	4	DSTSS:	236616603	DETSS:	237439548	DTSS:	237439558
HW:	CPU	TSS:	1.04083	AT:	1.28565	#T:	4	DSTSS:	237439575	DETSS:	238272068	DTSS:	238272078
HW:	CPU	TSS:	1.0414	AT:	1.28677	#T:	4	DSTSS:	238272095	DETSS:	239100665	DTSS:	239100675
HW:	CPU	TSS:	1.04195	AT:	1.28531	#T:	4	DSTSS:	239100692	DETSS:	239933871	DTSS:	239933881
HW:	CPU	TSS:	1.04254	AT:	1.28458	#T:	4	DSTSS:	239933899	DETSS:	240759198	DTSS:	240759208
HW:	CPU	TSS:	1.04312	AT:	1.28577	#T:	4	DSTSS:	240759225	DETSS:	241583707	DTSS:	241583717
HW:	CPU	TSS:	1.04366	AT:	1.28434	#T:	4	DSTSS:	241583734	DETSS:	242416585	DTSS:	242416596
HW:	CPU	TSS:	1.04424	AT:	1.28557	#T:	4	DSTSS:	242416613	DETSS:	243238177	DTSS:	243238186
HW:	CPU	TSS:	1.04478	AT:	1.2843	#T:	4	DSTSS:	243238204	DETSS:	244071014	DTSS:	244071024
HW:	CPU	TSS:	1.04534	AT:	1.28446	#T:	4	DSTSS:	244071041	DETSS:	244896362	DTSS:	244896373
HW:	CPU	TSS:	1.04591	AT:	1.28536	#T:	4	DSTSS:	244896389	DETSS:	245719382	DTSS:	245719392
HW:	CPU	TSS:	1.04643	AT:	1.28389	#T:	4	DSTSS:	245719940	DETSS:	246552418	DTSS:	246552427
HW:	CPU	TSS:	1.04701	AT:	1.28526	#T:	4	DSTSS:	246552445	DETSS:	247371131	DTSS:	247371141
HW:	CPU	TSS:	1.04753	AT:	1.28425	#T:	4	DSTSS:	247371158	DETSS:	248203683	DTSS:	248203693
HW:	CPU	TSS:	1.04808	AT:	1.28384	#T:	4	DSTSS:	248203710	DETSS:	249026467	DTSS:	249026477
HW:	CPU	TSS:	1.04859	AT:	1.28381	#T:	4	DSTSS:	249026494	DETSS:	249858390	DTSS:	249858400
HW:	CPU	TSS:	1.04913	AT:	1.28359	#T:	4	DSTSS:	249858417	DETSS:	250683632	DTSS:	250683642
HW:	CPU	TSS:	1.0497	AT:	1.28508	#T:	4	DSTSS:	250683659	DETSS:	251500807	DTSS:	251500817
HW:	CPU	TSS:	1.05018	AT:	1.28437	#T:	4	DSTSS:	251500834	DETSS:	252336728	DTSS:	252336738
HW:	CPU	TSS:	1.05072	AT:	1.28543	#T:	4	DSTSS:	252336755	DETSS:	253158975	DTSS:	253158985
HW:	CPU	TSS:	1.0512	AT:	1.28447	#T:	4	DSTSS:	253159002	DETSS:	253994277	DTSS:	253994288
HW:	CPU	TSS:	1.05174	AT:	1.28478	#T:	4	DSTSS:	253994304	DETSS:	254815523	DTSS:	254815534
HW:	CPU	TSS:	1.05226	AT:	1.28548	#T:	4	DSTSS:	254815593	DETSS:	255641077	DTSS:	255641087
HW:	CPU	TSS:	1.05273	AT:	1.28408	#T:	4	DSTSS:	255641105	DETSS:	256477198	DTSS:	256477208
HW:	CPU	TSS:	1.05325	AT:	1.28515	#T:	4	DSTSS:	256477225	DETSS:	257299019	DTSS:	257299029
HW:	CPU	TSS:	1.0537	AT:	1.28384	#T:	4	DSTSS:	257299046	DETSS:	258137878	DTSS:	258137888
HW:	CPU	TSS:	1.05423	AT:	1.28435	#T:	4	DSTSS:	258138082	DETSS:	258955689	DTSS:	258955700
HW:	CPU	TSS:	1.05475	AT:	1.28548	#T:	4	DSTSS:	258955717	DETSS:	259777002	DTSS:	259777012
HW:	CPU	TSS:	1.05522	AT:	1.28408	#T:	4	DSTSS:	259777029	DETSS:	260610158	DTSS:	260610168
HW:	CPU	TSS:	1.05571	AT:	1.28491	#T:	4	DSTSS:	260610185	DETSS:	261434213	DTSS:	261434223
HW:	CPU	TSS:	1.05618	AT:	1.284	#T:	4	DSTSS:	261434240	DETSS:	262266388	DTSS:	262266399
HW:	CPU	TSS:	1.05669	AT:	1.28526	#T:	4	DSTSS:	262266416	DETSS:	263085329	DTSS:	263085339
HW:	CPU	TSS:	1.05715	AT:	1.28466	#T:	4	DSTSS:	263085356	DETSS:	263916671	DTSS:	263916681
HW:	CPU	TSS:	1.05765	AT:	1.28436	#T:	4	DSTSS:	263916698	DETSS:	264737003	DTSS:	264737014
HW:	CPU	TSS:	1.05815	AT:	1.28583	#T:	4	DSTSS:	264737031	DETSS:	265557771	DTSS:	265557781
HW:	CPU	TSS:	1.0586	AT:	1.28487	#T:	4	DSTSS:	265557798	DETSS:	266389885	DTSS:	266389894
HW:	CPU	TSS:	1.05907	AT:	1.28569	#T:	4	DSTSS:	266389911	DETSS:	267216759	DTSS:	267216770
HW:	CPU	TSS:	1.05951	AT:	1.28459	#T:	4	DSTSS:	267216787	DETSS:	268049359	DTSS:	268049369
HW:	CPU	TSS:	1.05999	AT:	1.2851	#T:	4	DSTSS:	268049385	DETSS:	268869614	DTSS:	268869624
HW:	CPU	TSS:	1.06047	AT:	1.28657	#T:	4	DSTSS:	268869641	DETSS:	269690579	DTSS:	269690589
HW:	CPU	TSS:	1.06091	AT:	1.28565	#T:	4	DSTSS:	269690606	DETSS:	270521915	DTSS:	270521925
HW:	CPU	TSS:	1.06139	AT:	1.28753	#T:	4	DSTSS:	270521942	DETSS:	271341411	DTSS:	271341421
HW:	CPU	TSS:	1.06181	AT:	1.28578	#T:	4	DSTSS:	271341438	DETSS:	272177209	DTSS:	272177219
HW:	CPU	TSS:	1.06228	AT:	1.28597	#T:	4	DSTSS:	272177236	DETSS:	272996594	DTSS:	272996604
HW:	CPU	TSS:	1.06276	AT:	1.28726	#T:	4	DSTSS:	272996621	DETSS:	273816539	DTSS:	273816549
HW:	CPU	TSS:	1.06318	AT:	1.28653	#T:	4	DSTSS:	273816566	DETSS:	274648073	DTSS:	274648083
HW:	CPU	TSS:	1.06364	AT:	1.2877	#T:	4	DSTSS:	274648100	DETSS:	275468216	DTSS:	275468227
HW:	CPU	TSS:	1.06406	AT:	1.28637	#T:	4	DSTSS:	275468244	DETSS:	276300825	DTSS:	276300834
HW:	CPU	TSS:	1.06451	AT:	1.28735	#T:	4	DSTSS:	276300852	DETSS:	277122071	DTSS:	277122081
HW:	CPU	TSS:	1.06492	AT:	1.28615	#T:	4	DSTSS:	277122097	DETSS:	277954754	DTSS:	277954764
HW:	CPU	TSS:	1.06537	AT:	1.28606	#T:	4	DSTSS:	277954781	DETSS:	278776456	DTSS:	278776466
HW:	CPU	TSS:	1.06581	AT:	1.28702	#T:	4	DSTSS:	278776483	DETSS:	279598647	DTSS:	279598658
HW:	CPU	TSS:	1.06622	AT:	1.28648	#T:	4	DSTSS:	279598675	DETSS:	280431073	DTSS:	280431083
HW:	CPU	TSS:	1.06666	AT:	1.28756	#T:	4	DSTSS:	280431100	DETSS:	281252630	DTSS:	281252640
HW:	CPU	TSS:	1.06702	AT:	1.28544	#T:	4	DSTSS:	281252657	DETSS:	282094705	DTSS:	282094715
HW:	CPU	TSS:	1.06746	AT:	1.28543	#T:	4	DSTSS:	282094732	DETSS:	282915748	DTSS:	282915758
HW:	CPU	TSS:	1.0679	AT:	1.28673	#T:	4	DSTSS:	282915775	DETSS:	283733740	DTSS:	283733750
HW:	CPU	TSS:	1.06825	AT:	1.2843	#T:	4	DSTSS:	283733767	DETSS:	284578183	DTSS:	284578194
HW:	CPU	TSS:	1.06868	AT:	1.28569	#T:	4	DSTSS:	284578211	DETSS:	285399686	DTSS:	285399696
HW:	CPU	TSS:	1.06903	AT:	1.28354	#T:	4	DSTSS:	285399713	DETSS:	286241241	DTSS:	286241252
HW:	CPU	TSS:	1.06945	AT:	1.28333	#T:	4	DSTSS:	286241268	DETSS:	287063297	DTSS:	287063307
HW:	CPU	TSS:	1.06978	AT:	1.28197	#T:	4	DSTSS:	287063324	DETSS:	287908864	DTSS:	287908874
HW:	CPU	TSS:	1.07021	AT:	1.28214	#T:	4	DSTSS:	287908890	DETSS:	288727338	DTSS:	288727348
HW:	CPU	TSS:	1.07064	AT:	1.28346	#T:	4	DSTSS:	288727365	DETSS:	289546242	DTSS:	289546252
HW:	CPU	TSS:	1.07099	AT:	1.28165	#T:	4	DSTSS:	289546269	DETSS:	290386254	DTSS:	290386264
HW:	CPU	TSS:	1.07141	AT:	1.28288	#T:	4	DSTSS:	290386281	DETSS:	291206142	DTSS:	291206152
HW:	CPU	TSS:	1.07175	AT:	1.28115	#T:	4	DSTSS:	291206170	DETSS:	292045765	DTSS:	292045775
HW:	CPU	TSS:	1.07216	AT:	1.28134	#T:	4	DSTSS:	292045792	DETSS:	292865992	DTSS:	292866003
HW:	CPU	TSS:	1.07257	AT:	1.28251	#T:	4	DSTSS:	292866020	DETSS:	293686368	DTSS:	293686378
HW:	CPU	TSS:	1.07291	AT:	1.2808	#T:	4	DSTSS:	293686395	DETSS:	294525580	DTSS:	294525590
HW:	CPU	TSS:	1.07333	AT:	1.28328	#T:	4	DSTSS:	294525607	DETSS:	295342058	DTSS:	295342068
HW:	CPU	TSS:	1.07367	AT:	1.28149	#T:	4	DSTSS:	295342085	DETSS:	296181568	DTSS:	296181578
HW:	CPU	TSS:	1.07408	AT:	1.28168	#T:	4	DSTSS:	296181595	DETSS:	296997625	DTSS:	296997635
HW:	CPU	TSS:	1.0745	AT:	1.28437	#T:	4	DSTSS:	296997653	DETSS:	297814204	DTSS:	297814214
HW:	CPU	TSS:	1.07483	AT:	1.28268	#T:	4	DSTSS:	297814231	DETSS:	298653195	DTSS:	298653205
HW:	CPU	TSS:	1.07522	AT:	1.28482	#T:	4	DSTSS:	298653222	DETSS:	299472617	DTSS:	299472627
HW:	CPU	TSS:	1.07556	AT:	1.28345	#T:	4	DSTSS:	299472644	DETSS:	300308863	DTSS:	300308873
HW:	CPU	TSS:	1.07594	AT:	1.28569	#T:	4	DSTSS:	300308891	DETSS:	301131380	DTSS:	301131390
HW:	CPU	TSS:	1.07626	AT:	1.28364	#T:	4	DSTSS:	301131407	DETSS:	301970924	DTSS:	301970934
HW:	CPU	TSS:	1.07665	AT:	1.28346	#T:	4	DSTSS:	301970951	DETSS:	302791693	DTSS:	302791703
HW:	CPU	TSS:	1.07703	AT:	1.28536	#T:	4	DSTSS:	302791720	DETSS:	303612124	DTSS:	303612134
HW:	CPU	TSS:	1.07734	AT:	1.2834	#T:	4	DSTSS:	303612151	DETSS:	304452249	DTSS:	304452260
HW:	CPU	TSS:	1.07771	AT:	1.28489	#T:	4	DSTSS:	304452277	DETSS:	305276462	DTSS:	305276472
HW:	CPU	TSS:	1.07802	AT:	1.28299	#T:	4	DSTSS:	305276489	DETSS:	306116266	DTSS:	306116276
HW:	CPU	TSS:	1.07839	AT:	1.28279	#T:	4	DSTSS:	306116294	DETSS:	306938693	DTSS:	306938704
HW:	CPU	TSS:	1.07876	AT:	1.28457	#T:	4	DSTSS:	306938720	DETSS:	307759531	DTSS:	307759542
HW:	CPU	TSS:	1.07907	AT:	1.28229	#T:	4	DSTSS:	307759601	DETSS:	308599573	DTSS:	308599583
HW:	CPU	TSS:	1.07944	AT:	1.28405	#T:	4	DSTSS:	308599600	DETSS:	309420897	DTSS:	309420907
HW:	CPU	TSS:	1.07974	AT:	1.28177	#T:	4	DSTSS:	309420924	DETSS:	310260599	DTSS:	310260609
HW:	CPU	TSS:	1.08011	AT:	1.28144	#T:	4	DSTSS:	310260626	DETSS:	311080564	DTSS:	311080574
HW:	CPU	TSS:	1.08042	AT:	1.28179	#T:	4	DSTSS:	311080591	DETSS:	311915937	DTSS:	311915948
HW:	CPU	TSS:	1.08079	AT:	1.28189	#T:	4	DSTSS:	311915965	DETSS:	312734249	DTSS:	312734259
HW:	CPU	TSS:	1.08116	AT:	1.28357	#T:	4	DSTSS:	312734277	DETSS:	313553179	DTSS:	313553189
HW:	CPU	TSS:	1.08146	AT:	1.28228	#T:	4	DSTSS:	313553206	DETSS:	314388978	DTSS:	314388988
HW:	CPU	TSS:	1.08182	AT:	1.28421	#T:	4	DSTSS:	314389005	DETSS:	315208666	DTSS:	315208676
HW:	CPU	TSS:	1.08211	AT:	1.2823	#T:	4	DSTSS:	315208694	DETSS:	316049119	DTSS:	316049129
HW:	CPU	TSS:	1.08246	AT:	1.28223	#T:	4	DSTSS:	316049146	DETSS:	316870271	DTSS:	316870281
HW:	CPU	TSS:	1.08282	AT:	1.28434	#T:	4	DSTSS:	316870298	DETSS:	317688627	DTSS:	317688637
HW:	CPU	TSS:	1.08312	AT:	1.28317	#T:	4	DSTSS:	317688654	DETSS:	318524866	DTSS:	318524876
HW:	CPU	TSS:	1.08348	AT:	1.28554	#T:	4	DSTSS:	318524893	DETSS:	319340298	DTSS:	319340308
HW:	CPU	TSS:	1.08379	AT:	1.28454	#T:	4	DSTSS:	319340325	DETSS:	320173001	DTSS:	320173011
HW:	CPU	TSS:	1.08414	AT:	1.28483	#T:	4	DSTSS:	320173029	DETSS:	320990806	DTSS:	320990816
HW:	CPU	TSS:	1.08449	AT:	1.28685	#T:	4	DSTSS:	320990833	DETSS:	321810093	DTSS:	321810103
HW:	CPU	TSS:	1.08478	AT:	1.28549	#T:	4	DSTSS:	321810120	DETSS:	322645395	DTSS:	322645405
HW:	CPU	TSS:	1.08514	AT:	1.28794	#T:	4	DSTSS:	322645422	DETSS:	323460006	DTSS:	323460017
HW:	CPU	TSS:	1.08542	AT:	1.2862	#T:	4	DSTSS:	323460034	DETSS:	324297818	DTSS:	324297828
HW:	CPU	TSS:	1.08575	AT:	1.28754	#T:	4	DSTSS:	324297846	DETSS:	325119417	DTSS:	325119427
HW:	CPU	TSS:	1.08604	AT:	1.28573	#T:	4	DSTSS:	325119445	DETSS:	325956279	DTSS:	325956289
HW:	CPU	TSS:	1.08636	AT:	1.28529	#T:	4	DSTSS:	325956307	DETSS:	326779776	DTSS:	326779786
HW:	CPU	TSS:	1.08669	AT:	1.28689	#T:	4	DSTSS:	326779803	DETSS:	327599108	DTSS:	327599118
HW:	CPU	TSS:	1.08698	AT:	1.28539	#T:	4	DSTSS:	327599135	DETSS:	328434269	DTSS:	328434280
HW:	CPU	TSS:	1.08731	AT:	1.28746	#T:	4	DSTSS:	328434296	DETSS:	329253387	DTSS:	329253397
HW:	CPU	TSS:	1.08758	AT:	1.28604	#T:	4	DSTSS:	329253414	DETSS:	330089192	DTSS:	330089202
HW:	CPU	TSS:	1.08792	AT:	1.28602	#T:	4	DSTSS:	330089219	DETSS:	330907751	DTSS:	330907761
HW:	CPU	TSS:	1.08825	AT:	1.28772	#T:	4	DSTSS:	330907779	DETSS:	331726456	DTSS:	331726465
HW:	CPU	TSS:	1.08852	AT:	1.2859	#T:	4	DSTSS:	331726482	DETSS:	332560573	DTSS:	332560584
HW:	CPU	TSS:	1.08885	AT:	1.28728	#T:	4	DSTSS:	332560600	DETSS:	333379159	DTSS:	333379169
HW:	CPU	TSS:	1.08912	AT:	1.28562	#T:	4	DSTSS:	333379187	DETSS:	334214036	DTSS:	334214046
HW:	CPU	TSS:	1.08945	AT:	1.28582	#T:	4	DSTSS:	334214063	DETSS:	335031278	DTSS:	335031288
HW:	CPU	TSS:	1.08976	AT:	1.28696	#T:	4	DSTSS:	335031306	DETSS:	335854804	DTSS:	335854815
HW:	CPU	TSS:	1.09006	AT:	1.28619	#T:	4	DSTSS:	335854831	DETSS:	336677326	DTSS:	336677337
HW:	CPU	TSS:	1.09038	AT:	1.28802	#T:	4	DSTSS:	336677353	DETSS:	337496358	DTSS:	337496368
HW:	CPU	TSS:	1.09065	AT:	1.2867	#T:	4	DSTSS:	337496385	DETSS:	338331495	DTSS:	338331505
HW:	CPU	TSS:	1.09095	AT:	1.28822	#T:	4	DSTSS:	338331522	DETSS:	339152782	DTSS:	339152792
HW:	CPU	TSS:	1.09122	AT:	1.28734	#T:	4	DSTSS:	339152809	DETSS:	339985326	DTSS:	339985336
HW:	CPU	TSS:	1.09153	AT:	1.2871	#T:	4	DSTSS:	339985353	DETSS:	340807120	DTSS:	340807130
HW:	CPU	TSS:	1.09183	AT:	1.2884	#T:	4	DSTSS:	340807148	DETSS:	341628888	DTSS:	341628898
HW:	CPU	TSS:	1.09208	AT:	1.28683	#T:	4	DSTSS:	341628916	DETSS:	342464188	DTSS:	342464198
HW:	CPU	TSS:	1.09239	AT:	1.28833	#T:	4	DSTSS:	342464216	DETSS:	343284576	DTSS:	343284586
HW:	CPU	TSS:	1.09265	AT:	1.28706	#T:	4	DSTSS:	343284604	DETSS:	344116143	DTSS:	344116153
HW:	CPU	TSS:	1.09297	AT:	1.28727	#T:	4	DSTSS:	344116170	DETSS:	344932732	DTSS:	344932742
HW:	CPU	TSS:	1.09327	AT:	1.28876	#T:	4	DSTSS:	344932759	DETSS:	345751566	DTSS:	345751577
HW:	CPU	TSS:	1.09353	AT:	1.28737	#T:	4	DSTSS:	345751594	DETSS:	346584379	DTSS:	346584389
HW:	CPU	TSS:	1.09384	AT:	1.28911	#T:	4	DSTSS:	346584407	DETSS:	347401423	DTSS:	347401433
HW:	CPU	TSS:	1.09409	AT:	1.28761	#T:	4	DSTSS:	347401451	DETSS:	348233989	DTSS:	348233999
HW:	CPU	TSS:	1.09439	AT:	1.28819	#T:	4	DSTSS:	348234016	DETSS:	349051652	DTSS:	349051661
HW:	CPU	TSS:	1.09463	AT:	1.28677	#T:	4	DSTSS:	349051679	DETSS:	349888722	DTSS:	349888732
HW:	CPU	TSS:	1.09492	AT:	1.2865	#T:	4	DSTSS:	349888750	DETSS:	350710536	DTSS:	350710546
HW:	CPU	TSS:	1.09522	AT:	1.28811	#T:	4	DSTSS:	350710564	DETSS:	351529095	DTSS:	351529105
HW:	CPU	TSS:	1.09546	AT:	1.2869	#T:	4	DSTSS:	351529123	DETSS:	352362844	DTSS:	352362855
HW:	CPU	TSS:	1.09575	AT:	1.28828	#T:	4	DSTSS:	352362871	DETSS:	353181217	DTSS:	353181227
HW:	CPU	TSS:	1.09599	AT:	1.28698	#T:	4	DSTSS:	353181244	DETSS:	354016322	DTSS:	354016333
HW:	CPU	TSS:	1.09628	AT:	1.28724	#T:	4	DSTSS:	354016350	DETSS:	354835469	DTSS:	354835479
HW:	CPU	TSS:	1.09657	AT:	1.28891	#T:	4	DSTSS:	354835496	DETSS:	355653634	DTSS:	355653645
HW:	CPU	TSS:	1.09681	AT:	1.28756	#T:	4	DSTSS:	355653662	DETSS:	356487890	DTSS:	356487952
HW:	CPU	TSS:	1.0971	AT:	1.28895	#T:	4	DSTSS:	356487970	DETSS:	357305135	DTSS:	357305145
HW:	CPU	TSS:	1.09734	AT:	1.28728	#T:	4	DSTSS:	357305162	DETSS:	358138843	DTSS:	358138853
HW:	CPU	TSS:	1.09763	AT:	1.2874	#T:	4	DSTSS:	358138870	DETSS:	358956477	DTSS:	358956487
HW:	CPU	TSS:	1.09792	AT:	1.28913	#T:	4	DSTSS:	358956505	DETSS:	359771569	DTSS:	359771579
HW:	CPU	TSS:	1.09815	AT:	1.28752	#T:	4	DSTSS:	359771597	DETSS:	360605114	DTSS:	360605124
HW:	CPU	TSS:	1.09841	AT:	1.2882	#T:	4	DSTSS:	360605179	DETSS:	361430734	DTSS:	361430744
HW:	CPU	TSS:	1.09865	AT:	1.28669	#T:	4	DSTSS:	361430761	DETSS:	362263815	DTSS:	362263825
HW:	CPU	TSS:	1.09892	AT:	1.28825	#T:	4	DSTSS:	362263843	DETSS:	363084940	DTSS:	363084951
HW:	CPU	TSS:	1.09915	AT:	1.28706	#T:	4	DSTSS:	363084968	DETSS:	363918951	DTSS:	363918961
HW:	CPU	TSS:	1.09942	AT:	1.2869	#T:	4	DSTSS:	363918978	DETSS:	364739142	DTSS:	364739152
HW:	CPU	TSS:	1.09968	AT:	1.28802	#T:	4	DSTSS:	364739169	DETSS:	365561361	DTSS:	365561371
HW:	CPU	TSS:	1.09991	AT:	1.28654	#T:	4	DSTSS:	365561389	DETSS:	366394912	DTSS:	366394923
HW:	CPU	TSS:	1.10018	AT:	1.28814	#T:	4	DSTSS:	366394939	DETSS:	367213601	DTSS:	367213612
HW:	CPU	TSS:	1.1004	AT:	1.28681	#T:	4	DSTSS:	367213629	DETSS:	368046450	DTSS:	368046460
HW:	CPU	TSS:	1.10068	AT:	1.28682	#T:	4	DSTSS:	368046478	DETSS:	368864469	DTSS:	368864479
HW:	CPU	TSS:	1.10094	AT:	1.28828	#T:	4	DSTSS:	368864496	DETSS:	369683830	DTSS:	369683839
HW:	CPU	TSS:	1.10116	AT:	1.28675	#T:	4	DSTSS:	369683857	DETSS:	370516754	DTSS:	370516764
HW:	CPU	TSS:	1.10143	AT:	1.28823	#T:	4	DSTSS:	370516782	DETSS:	371335286	DTSS:	371335296
HW:	CPU	TSS:	1.10165	AT:	1.28669	#T:	4	DSTSS:	371335314	DETSS:	372168630	DTSS:	372168640
HW:	CPU	TSS:	1.10192	AT:	1.28655	#T:	4	DSTSS:	372168657	DETSS:	372985165	DTSS:	372985175
HW:	CPU	TSS:	1.10219	AT:	1.28824	#T:	4	DSTSS:	372985192	DETSS:	373801427	DTSS:	373801437
HW:	CPU	TSS:	1.10241	AT:	1.28752	#T:	4	DSTSS:	373801454	DETSS:	374634376	DTSS:	374634386
HW:	CPU	TSS:	1.10267	AT:	1.28888	#T:	4	DSTSS:	374634404	DETSS:	375453551	DTSS:	375453561
HW:	CPU	TSS:	1.10288	AT:	1.28756	#T:	4	DSTSS:	375453578	DETSS:	376288233	DTSS:	376288243
HW:	CPU	TSS:	1.10313	AT:	1.28902	#T:	4	DSTSS:	376288260	DETSS:	377107224	DTSS:	377107235
HW:	CPU	TSS:	1.10337	AT:	1.28851	#T:	4	DSTSS:	377107252	DETSS:	377932704	DTSS:	377932714
HW:	CPU	TSS:	1.10363	AT:	1.28902	#T:	4	DSTSS:	377932731	DETSS:	378749668	DTSS:	378749678
HW:	CPU	TSS:	1.10389	AT:	1.29071	#T:	4	DSTSS:	378749695	DETSS:	379565916	DTSS:	379565926
HW:	CPU	TSS:	1.10409	AT:	1.28895	#T:	4	DSTSS:	379565943	DETSS:	380402640	DTSS:	380402650
HW:	CPU	TSS:	1.10435	AT:	1.29038	#T:	4	DSTSS:	380402667	DETSS:	381220888	DTSS:	381220898
HW:	CPU	TSS:	1.10454	AT:	1.28821	#T:	4	DSTSS:	381220915	DETSS:	382061056	DTSS:	382061067
HW:	CPU	TSS:	1.10479	AT:	1.28841	#T:	4	DSTSS:	382061083	DETSS:	382878345	DTSS:	382878355
HW:	CPU	TSS:	1.10504	AT:	1.29	#T:	4	DSTSS:	382878372	DETSS:	383695007	DTSS:	383695017
HW:	CPU	TSS:	1.10526	AT:	1.28884	#T:	4	DSTSS:	383695034	DETSS:	384525402	DTSS:	384525413
HW:	CPU	TSS:	1.1055	AT:	1.29013	#T:	4	DSTSS:	384525430	DETSS:	385345576	DTSS:	385345586
HW:	CPU	TSS:	1.1057	AT:	1.28829	#T:	4	DSTSS:	385345603	DETSS:	386180951	DTSS:	386180961
HW:	CPU	TSS:	1.10594	AT:	1.28804	#T:	4	DSTSS:	386180979	DETSS:	386999724	DTSS:	386999734
HW:	CPU	TSS:	1.10619	AT:	1.28958	#T:	4	DSTSS:	386999751	DETSS:	387816945	DTSS:	387816955
HW:	CPU	TSS:	1.10639	AT:	1.28824	#T:	4	DSTSS:	387816972	DETSS:	388649820	DTSS:	388649830
HW:	CPU	TSS:	1.10664	AT:	1.28979	#T:	4	DSTSS:	388649848	DETSS:	389468720	DTSS:	389468730
HW:	CPU	TSS:	1.10684	AT:	1.28845	#T:	4	DSTSS:	389468747	DETSS:	390301337	DTSS:	390301347
HW:	CPU	TSS:	1.10707	AT:	1.28899	#T:	4	DSTSS:	390301365	DETSS:	391121278	DTSS:	391121289
HW:	CPU	TSS:	1.10727	AT:	1.28734	#T:	4	DSTSS:	391121306	DETSS:	391955171	DTSS:	391955181
HW:	CPU	TSS:	1.1075	AT:	1.28692	#T:	4	DSTSS:	391955198	DETSS:	392775708	DTSS:	392775719
HW:	CPU	TSS:	1.10774	AT:	1.28855	#T:	4	DSTSS:	392775736	DETSS:	393595803	DTSS:	393595813
HW:	CPU	TSS:	1.10794	AT:	1.28738	#T:	4	DSTSS:	393595830	DETSS:	394425991	DTSS:	394426001
HW:	CPU	TSS:	1.10818	AT:	1.28958	#T:	4	DSTSS:	394426018	DETSS:	395243593	DTSS:	395243603
HW:	CPU	TSS:	1.10836	AT:	1.2877	#T:	4	DSTSS:	395243621	DETSS:	396080196	DTSS:	396080207
HW:	CPU	TSS:	1.10858	AT:	1.28714	#T:	4	DSTSS:	396080224	DETSS:	396902590	DTSS:	396902600
HW:	CPU	TSS:	1.10882	AT:	1.2885	#T:	4	DSTSS:	396902617	DETSS:	397719038	DTSS:	397719048
HW:	CPU	TSS:	1.109	AT:	1.28688	#T:	4	DSTSS:	397719065	DETSS:	398555854	DTSS:	398555864
HW:	CPU	TSS:	1.10922	AT:	1.28801	#T:	4	DSTSS:	398555881	DETSS:	399379581	DTSS:	399379591
HW:	CPU	TSS:	1.1094	AT:	1.28614	#T:	4	DSTSS:	399379608	DETSS:	400217555	DTSS:	400217566
HW:	CPU	TSS:	1.10963	AT:	1.28629	#T:	4	DSTSS:	400217582	DETSS:	401033231	DTSS:	401033242
HW:	CPU	TSS:	1.1098	AT:	1.28559	#T:	4	DSTSS:	401033259	DETSS:	401873314	DTSS:	401873324
HW:	CPU	TSS:	1.11003	AT:	1.2855	#T:	4	DSTSS:	401873341	DETSS:	402693174	DTSS:	402693184
HW:	CPU	TSS:	1.11026	AT:	1.287	#T:	4	DSTSS:	402693201	DETSS:	403510360	DTSS:	403510371
HW:	CPU	TSS:	1.11042	AT:	1.28493	#T:	4	DSTSS:	403510387	DETSS:	404351584	DTSS:	404351594
HW:	CPU	TSS:	1.11065	AT:	1.28654	#T:	4	DSTSS:	404351611	DETSS:	405168878	DTSS:	405168888
HW:	CPU	TSS:	1.11082	AT:	1.28504	#T:	4	DSTSS:	405168905	DETSS:	406004823	DTSS:	406004833
HW:	CPU	TSS:	1.11105	AT:	1.28516	#T:	4	DSTSS:	406004849	DETSS:	406823684	DTSS:	406823694
HW:	CPU	TSS:	1.11127	AT:	1.28621	#T:	4	DSTSS:	406823711	DETSS:	407643143	DTSS:	407643154
HW:	CPU	TSS:	1.11145	AT:	1.28471	#T:	4	DSTSS:	407643171	DETSS:	408476177	DTSS:	408476188
HW:	CPU	TSS:	1.11167	AT:	1.28659	#T:	4	DSTSS:	408476205	DETSS:	409293384	DTSS:	409293394
HW:	CPU	TSS:	1.11185	AT:	1.2853	#T:	4	DSTSS:	409293410	DETSS:	410129035	DTSS:	410129045
HW:	CPU	TSS:	1.11206	AT:	1.2851	#T:	4	DSTSS:	410129062	DETSS:	410947621	DTSS:	410947631
HW:	CPU	TSS:	1.11228	AT:	1.28684	#T:	4	DSTSS:	410947648	DETSS:	411766557	DTSS:	411766567
HW:	CPU	TSS:	1.11246	AT:	1.28594	#T:	4	DSTSS:	411766584	DETSS:	412599524	DTSS:	412599535
HW:	CPU	TSS:	1.11268	AT:	1.28797	#T:	4	DSTSS:	412599552	DETSS:	413416656	DTSS:	413416666
HW:	CPU	TSS:	1.11286	AT:	1.28634	#T:	4	DSTSS:	413416683	DETSS:	414248987	DTSS:	414248998
HW:	CPU	TSS:	1.11308	AT:	1.28857	#T:	4	DSTSS:	414249015	DETSS:	415066283	DTSS:	415066293
HW:	CPU	TSS:	1.11324	AT:	1.28686	#T:	4	DSTSS:	415066310	DETSS:	415903598	DTSS:	415903608
HW:	CPU	TSS:	1.11345	AT:	1.28684	#T:	4	DSTSS:	415903625	DETSS:	416721049	DTSS:	416721059
HW:	CPU	TSS:	1.11367	AT:	1.28916	#T:	4	DSTSS:	416721076	DETSS:	417538448	DTSS:	417538458
HW:	CPU	TSS:	1.11384	AT:	1.2877	#T:	4	DSTSS:	417538475	DETSS:	418370670	DTSS:	418370680
HW:	CPU	TSS:	1.11405	AT:	1.28936	#T:	4	DSTSS:	418370698	DETSS:	419189626	DTSS:	419189636
HW:	CPU	TSS:	1.11422	AT:	1.28793	#T:	4	DSTSS:	419189653	DETSS:	420023124	DTSS:	420023134
HW:	CPU	TSS:	1.11442	AT:	1.28771	#T:	4	DSTSS:	420023152	DETSS:	420844873	DTSS:	420844883
HW:	CPU	TSS:	1.11462	AT:	1.28866	#T:	4	DSTSS:	420844899	DETSS:	421668205	DTSS:	421668214
HW:	CPU	TSS:	1.11479	AT:	1.28708	#T:	4	DSTSS:	421668231	DETSS:	422501610	DTSS:	422501620
HW:	CPU	TSS:	1.11499	AT:	1.2885	#T:	4	DSTSS:	422501638	DETSS:	423322636	DTSS:	423322646
HW:	CPU	TSS:	1.11516	AT:	1.28711	#T:	4	DSTSS:	423322663	DETSS:	424155549	DTSS:	424155560
HW:	CPU	TSS:	1.11536	AT:	1.28693	#T:	4	DSTSS:	424155576	DETSS:	424976239	DTSS:	424976249
HW:	CPU	TSS:	1.11555	AT:	1.28784	#T:	4	DSTSS:	424976266	DETSS:	425799923	DTSS:	425799933
HW:	CPU	TSS:	1.1157	AT:	1.28598	#T:	4	DSTSS:	425799951	DETSS:	426636154	DTSS:	426636164
HW:	CPU	TSS:	1.11591	AT:	1.28746	#T:	4	DSTSS:	426636181	DETSS:	427453237	DTSS:	427453247
HW:	CPU	TSS:	1.11608	AT:	1.28609	#T:	4	DSTSS:	427453264	DETSS:	428284637	DTSS:	428284647
HW:	CPU	TSS:	1.11628	AT:	1.28791	#T:	4	DSTSS:	428284665	DETSS:	429103269	DTSS:	429103279
HW:	CPU	TSS:	1.11644	AT:	1.2864	#T:	4	DSTSS:	429103296	DETSS:	429936213	DTSS:	429936224
HW:	CPU	TSS:	1.11665	AT:	1.28649	#T:	4	DSTSS:	429936241	DETSS:	430752698	DTSS:	430752709
HW:	CPU	TSS:	1.11684	AT:	1.28761	#T:	4	DSTSS:	430752726	DETSS:	431573477	DTSS:	431573487
HW:	CPU	TSS:	1.11698	AT:	1.28546	#T:	4	DSTSS:	431573504	DETSS:	432414432	DTSS:	432414443
HW:	CPU	TSS:	1.11719	AT:	1.28705	#T:	4	DSTSS:	432414460	DETSS:	433231674	DTSS:	433231684
HW:	CPU	TSS:	1.11735	AT:	1.28601	#T:	4	DSTSS:	433231701	DETSS:	434064097	DTSS:	434064107
HW:	CPU	TSS:	1.11753	AT:	1.28615	#T:	4	DSTSS:	434064125	DETSS:	434885944	DTSS:	434885954
HW:	CPU	TSS:	1.11774	AT:	1.28781	#T:	4	DSTSS:	434885971	DETSS:	435702329	DTSS:	435702339
HW:	CPU	TSS:	1.11787	AT:	1.28592	#T:	4	DSTSS:	435702357	DETSS:	436542717	DTSS:	436542727
HW:	CPU	TSS:	1.11806	AT:	1.28711	#T:	4	DSTSS:	436542744	DETSS:	437363411	DTSS:	437363421
HW:	CPU	TSS:	1.1182	AT:	1.28508	#T:	4	DSTSS:	437363438	DETSS:	438205014	DTSS:	438205024
HW:	CPU	TSS:	1.11839	AT:	1.28561	#T:	4	DSTSS:	438205041	DETSS:	439023191	DTSS:	439023200
HW:	CPU	TSS:	1.11854	AT:	1.28575	#T:	4	DSTSS:	439023217	DETSS:	439857971	DTSS:	439857981
HW:	CPU	TSS:	1.11874	AT:	1.28585	#T:	4	DSTSS:	439857998	DETSS:	440674087	DTSS:	440674097
HW:	CPU	TSS:	1.11894	AT:	1.28727	#T:	4	DSTSS:	440674115	DETSS:	441490832	DTSS:	441490842
HW:	CPU	TSS:	1.11907	AT:	1.28524	#T:	4	DSTSS:	441490859	DETSS:	442330323	DTSS:	442330333
HW:	CPU	TSS:	1.11925	AT:	1.28623	#T:	4	DSTSS:	442330351	DETSS:	443153092	DTSS:	443153102
HW:	CPU	TSS:	1.11939	AT:	1.28389	#T:	4	DSTSS:	443153119	DETSS:	443993757	DTSS:	443993767
HW:	CPU	TSS:	1.11958	AT:	1.28449	#T:	4	DSTSS:	443993784	DETSS:	444808335	DTSS:	444808345
HW:	CPU	TSS:	1.11977	AT:	1.28668	#T:	4	DSTSS:	444808363	DETSS:	445626695	DTSS:	445626705
HW:	CPU	TSS:	1.1199	AT:	1.28445	#T:	4	DSTSS:	445626722	DETSS:	446466912	DTSS:	446466922
