StartAllocTime:	243643753
EndAllocTime:	244704367
TotalAllocTime:	1.06061
StartDeallocTime:	700549564
EndDeallocTime:	700562309
TotalDeallocTime:	0.012745
StartExecTime:	244704369
EndExecTime:	700549560
TotalExecTime:	455.845
Iteration 0
HW:	CPU	TSS:	0.70306	AT:	0	#T:	4	DSTSS:	9	DETSS:	1422348	DTSS:	1422354
Iteration 1
HW:	CPU	TSS:	0.649008	AT:	1.20529	#T:	4	DSTSS:	1422378	DETSS:	3081618	DTSS:	3081625
Iteration 2
HW:	CPU	TSS:	0.63403	AT:	0.906521	#T:	4	DSTSS:	3081652	DETSS:	4731627	DTSS:	4731634
Iteration 3
HW:	CPU	TSS:	0.680121	AT:	0.897052	#T:	4	DSTSS:	4731664	DETSS:	5881304	DTSS:	5881309
Iteration 4
HW:	CPU	TSS:	0.682918	AT:	0.847573	#T:	4	DSTSS:	5881318	DETSS:	7321512	DTSS:	7321518
Iteration 5
HW:	CPU	TSS:	0.683638	AT:	0.815848	#T:	4	DSTSS:	7321537	DETSS:	8776566	DTSS:	8776571
Iteration 6
HW:	CPU	TSS:	0.691085	AT:	0.803975	#T:	15	DSTSS:	8776580	DETSS:	10128990	DTSS:	10128995
Iteration 7
HW:	CPU	TSS:	0.723552	AT:	0.830365	#T:	15	DSTSS:	10129002	DETSS:	11056567	DTSS:	11056573
Iteration 8
HW:	CPU	TSS:	0.754698	AT:	0.856897	#T:	6	DSTSS:	11056581	DETSS:	11925285	DTSS:	11925293
Iteration 9
HW:	CPU	TSS:	0.793309	AT:	0.8942	#T:	6	DSTSS:	11925321	DETSS:	12605429	DTSS:	12605435
Iteration 10
HW:	CPU	TSS:	0.82859	AT:	0.928011	#T:	6	DSTSS:	12605442	DETSS:	13275560	DTSS:	13275565
Iteration 11
HW:	CPU	TSS:	0.853272	AT:	0.949274	#T:	20	DSTSS:	13275573	DETSS:	14063494	DTSS:	14063503
Iteration 12
HW:	CPU	TSS:	0.893599	AT:	0.990427	#T:	20	DSTSS:	14063517	DETSS:	14547901	DTSS:	14547908
Iteration 13
HW:	CPU	TSS:	0.922168	AT:	1.01749	#T:	20	DSTSS:	14547916	DETSS:	15181614	DTSS:	15181619
Iteration 14
HW:	CPU	TSS:	0.956343	AT:	1.05171	#T:	20	DSTSS:	15181627	DETSS:	15684743	DTSS:	15684748
Iteration 15
HW:	CPU	TSS:	0.988155	AT:	1.08331	#T:	17	DSTSS:	15684754	DETSS:	16191776	DTSS:	16191785
Iteration 16
HW:	CPU	TSS:	1.00476	AT:	1.09697	#T:	17	DSTSS:	16191800	DETSS:	16919460	DTSS:	16919464
Iteration 17
HW:	CPU	TSS:	1.01752	AT:	1.16372	#T:	17	DSTSS:	16919479	DETSS:	17689981	DTSS:	17689985
Iteration 18
HW:	CPU	TSS:	1.02926	AT:	1.23832	#T:	17	DSTSS:	17689990	DETSS:	18459868	DTSS:	18459873
Iteration 19
HW:	CPU	TSS:	1.04007	AT:	1.27358	#T:	17	DSTSS:	18459879	DETSS:	19229462	DTSS:	19229467
Iteration 20
HW:	CPU	TSS:	1.05005	AT:	1.34096	#T:	17	DSTSS:	19229472	DETSS:	19998959	DTSS:	19998963
Iteration 21
HW:	CPU	TSS:	1.05893	AT:	1.41677	#T:	17	DSTSS:	19998969	DETSS:	20775681	DTSS:	20775685
Iteration 22
HW:	CPU	TSS:	1.06869	AT:	1.49218	#T:	17	DSTSS:	20775690	DETSS:	21521680	DTSS:	21521684
Iteration 23
HW:	CPU	TSS:	1.07458	AT:	1.5074	#T:	17	DSTSS:	21521690	DETSS:	22334234	DTSS:	22334238
Iteration 24
HW:	CPU	TSS:	1.08085	AT:	1.51722	#T:	17	DSTSS:	22334244	DETSS:	23129987	DTSS:	23129992
Iteration 25
HW:	CPU	TSS:	1.08788	AT:	1.50519	#T:	17	DSTSS:	23129998	DETSS:	23899718	DTSS:	23899724
Iteration 26
HW:	CPU	TSS:	1.09453	AT:	1.49219	#T:	17	DSTSS:	23899730	DETSS:	24668198	DTSS:	24668203
Iteration 27
HW:	CPU	TSS:	1.10013	AT:	1.49279	#T:	17	DSTSS:	24668209	DETSS:	25451559	DTSS:	25451563
Iteration 28
HW:	CPU	TSS:	1.10567	AT:	1.4554	#T:	17	DSTSS:	25451570	DETSS:	26228546	DTSS:	26228550
Iteration 29
HW:	CPU	TSS:	1.11023	AT:	1.43584	#T:	17	DSTSS:	26228556	DETSS:	27021366	DTSS:	27021370
Iteration 30
HW:	CPU	TSS:	1.11546	AT:	1.4042	#T:	17	DSTSS:	27021376	DETSS:	27791266	DTSS:	27791270
Iteration 31
HW:	CPU	TSS:	1.12054	AT:	1.37474	#T:	17	DSTSS:	27791276	DETSS:	28557699	DTSS:	28557704
Iteration 32
HW:	CPU	TSS:	1.12372	AT:	1.36575	#T:	17	DSTSS:	28557710	DETSS:	29366799	DTSS:	29366804
Iteration 33
HW:	CPU	TSS:	1.12819	AT:	1.36581	#T:	17	DSTSS:	29366825	DETSS:	30136773	DTSS:	30136777
Iteration 34
HW:	CPU	TSS:	1.13354	AT:	1.36911	#T:	17	DSTSS:	30136783	DETSS:	30876684	DTSS:	30876688
Iteration 35
HW:	CPU	TSS:	1.13484	AT:	1.36076	#T:	17	DSTSS:	30876694	DETSS:	31722467	DTSS:	31722471
Iteration 36
HW:	CPU	TSS:	1.13865	AT:	1.36047	#T:	17	DSTSS:	31722477	DETSS:	32494676	DTSS:	32494680
Iteration 37
HW:	CPU	TSS:	1.14236	AT:	1.36121	#T:	17	DSTSS:	32494685	DETSS:	33264542	DTSS:	33264547
Iteration 38
HW:	CPU	TSS:	1.14534	AT:	1.35682	#T:	17	DSTSS:	33264552	DETSS:	34050965	DTSS:	34050970
Iteration 39
HW:	CPU	TSS:	1.14872	AT:	1.3614	#T:	17	DSTSS:	34050976	DETSS:	34821422	DTSS:	34821427
Iteration 40
HW:	CPU	TSS:	1.15198	AT:	1.36427	#T:	17	DSTSS:	34821432	DETSS:	35590898	DTSS:	35590902
Iteration 41
HW:	CPU	TSS:	1.15512	AT:	1.36436	#T:	17	DSTSS:	35590908	DETSS:	36359732	DTSS:	36359736
Iteration 42
HW:	CPU	TSS:	1.15666	AT:	1.35916	#T:	17	DSTSS:	36359742	DETSS:	37175953	DTSS:	37175958
Iteration 43
HW:	CPU	TSS:	1.15953	AT:	1.36055	#T:	17	DSTSS:	37175964	DETSS:	37946541	DTSS:	37946545
Iteration 44
HW:	CPU	TSS:	1.16231	AT:	1.36137	#T:	17	DSTSS:	37946551	DETSS:	38715986	DTSS:	38715991
Iteration 45
HW:	CPU	TSS:	1.16514	AT:	1.3645	#T:	17	DSTSS:	38715997	DETSS:	39480160	DTSS:	39480164
Iteration 46
HW:	CPU	TSS:	1.16741	AT:	1.3634	#T:	17	DSTSS:	39480169	DETSS:	40260115	DTSS:	40260119
Iteration 47
HW:	CPU	TSS:	1.16902	AT:	1.35976	#T:	17	DSTSS:	40260125	DETSS:	41059921	DTSS:	41059925
Iteration 48
HW:	CPU	TSS:	1.17139	AT:	1.36396	#T:	17	DSTSS:	41059931	DETSS:	41830546	DTSS:	41830550
Iteration 49
HW:	CPU	TSS:	1.17373	AT:	1.36408	#T:	17	DSTSS:	41830557	DETSS:	42599400	DTSS:	42599404
Iteration 50
HW:	CPU	TSS:	1.17466	AT:	1.35565	#T:	17	DSTSS:	42599410	DETSS:	43416776	DTSS:	43416780
Iteration 51
HW:	CPU	TSS:	1.17682	AT:	1.3639	#T:	17	DSTSS:	43416785	DETSS:	44186712	DTSS:	44186717
Iteration 52
HW:	CPU	TSS:	1.17891	AT:	1.36415	#T:	17	DSTSS:	44186722	DETSS:	44956628	DTSS:	44956633
Iteration 53
HW:	CPU	TSS:	1.18164	AT:	1.36715	#T:	17	DSTSS:	44956638	DETSS:	45699201	DTSS:	45699205
Iteration 54
HW:	CPU	TSS:	1.18665	AT:	1.38234	#T:	17	DSTSS:	45699211	DETSS:	46348914	DTSS:	46348919
Iteration 55
HW:	CPU	TSS:	1.18361	AT:	1.36092	#T:	17	DSTSS:	46348926	DETSS:	47312973	DTSS:	47312977
Iteration 56
HW:	CPU	TSS:	1.18546	AT:	1.36092	#T:	17	DSTSS:	47312983	DETSS:	48082467	DTSS:	48082471
Iteration 57
HW:	CPU	TSS:	1.18726	AT:	1.36084	#T:	17	DSTSS:	48082477	DETSS:	48852024	DTSS:	48852029
Iteration 58
HW:	CPU	TSS:	1.18938	AT:	1.36767	#T:	17	DSTSS:	48852034	DETSS:	49605881	DTSS:	49605885
Iteration 59
HW:	CPU	TSS:	1.18973	AT:	1.36163	#T:	17	DSTSS:	49605891	DETSS:	50431545	DTSS:	50431551
Iteration 60
HW:	CPU	TSS:	1.19138	AT:	1.36161	#T:	17	DSTSS:	50431558	DETSS:	51201235	DTSS:	51201239
Iteration 61
HW:	CPU	TSS:	1.19297	AT:	1.36098	#T:	17	DSTSS:	51201245	DETSS:	51971187	DTSS:	51971191
Iteration 62
HW:	CPU	TSS:	1.19512	AT:	1.36501	#T:	17	DSTSS:	51971196	DETSS:	52714205	DTSS:	52714209
Iteration 63
HW:	CPU	TSS:	1.19943	AT:	1.38224	#T:	17	DSTSS:	52714215	DETSS:	53358753	DTSS:	53358758
Iteration 64
HW:	CPU	TSS:	1.20086	AT:	1.38241	#T:	17	DSTSS:	53358764	DETSS:	54127936	DTSS:	54127940
Iteration 65
HW:	CPU	TSS:	1.20223	AT:	1.38226	#T:	17	DSTSS:	54127993	DETSS:	54898100	DTSS:	54898105
Iteration 66
HW:	CPU	TSS:	1.20355	AT:	1.38755	#T:	17	DSTSS:	54898110	DETSS:	55668566	DTSS:	55668570
Iteration 67
HW:	CPU	TSS:	1.20485	AT:	1.38757	#T:	17	DSTSS:	55668575	DETSS:	56438363	DTSS:	56438368
Iteration 68
HW:	CPU	TSS:	1.20612	AT:	1.38758	#T:	17	DSTSS:	56438374	DETSS:	57208134	DTSS:	57208138
Iteration 69
HW:	CPU	TSS:	1.20752	AT:	1.3854	#T:	17	DSTSS:	57208144	DETSS:	57970028	DTSS:	57970032
Iteration 70
HW:	CPU	TSS:	1.20817	AT:	1.36902	#T:	17	DSTSS:	57970039	DETSS:	58766533	DTSS:	58766537
Iteration 71
HW:	CPU	TSS:	1.20873	AT:	1.38733	#T:	17	DSTSS:	58766542	DETSS:	59566756	DTSS:	59566760
Iteration 72
HW:	CPU	TSS:	1.20988	AT:	1.3873	#T:	17	DSTSS:	59566766	DETSS:	60336496	DTSS:	60336502
Iteration 73
HW:	CPU	TSS:	1.211	AT:	1.38727	#T:	17	DSTSS:	60336508	DETSS:	61106327	DTSS:	61106331
Iteration 74
HW:	CPU	TSS:	1.21211	AT:	1.38552	#T:	17	DSTSS:	61106337	DETSS:	61875635	DTSS:	61875639
Iteration 75
HW:	CPU	TSS:	1.2127	AT:	1.38908	#T:	17	DSTSS:	61875644	DETSS:	62669901	DTSS:	62669905
Iteration 76
HW:	CPU	TSS:	1.2137	AT:	1.38879	#T:	17	DSTSS:	62669911	DETSS:	63442129	DTSS:	63442133
Iteration 77
HW:	CPU	TSS:	1.21454	AT:	1.3877	#T:	17	DSTSS:	63442139	DETSS:	64221647	DTSS:	64221651
Iteration 78
HW:	CPU	TSS:	1.21515	AT:	1.38228	#T:	17	DSTSS:	64221657	DETSS:	65012718	DTSS:	65012722
Iteration 79
HW:	CPU	TSS:	1.21613	AT:	1.36836	#T:	17	DSTSS:	65012727	DETSS:	65782355	DTSS:	65782360
Iteration 80
HW:	CPU	TSS:	1.21712	AT:	1.36849	#T:	17	DSTSS:	65782366	DETSS:	66550415	DTSS:	66550419
Iteration 81
HW:	CPU	TSS:	1.21812	AT:	1.36891	#T:	17	DSTSS:	66550426	DETSS:	67316703	DTSS:	67316708
Iteration 82
HW:	CPU	TSS:	1.21868	AT:	1.36676	#T:	17	DSTSS:	67316713	DETSS:	68106695	DTSS:	68106699
Iteration 83
HW:	CPU	TSS:	1.2195	AT:	1.36628	#T:	17	DSTSS:	68106705	DETSS:	68880864	DTSS:	68880869
Iteration 84
HW:	CPU	TSS:	1.21992	AT:	1.36345	#T:	17	DSTSS:	68880875	DETSS:	69676526	DTSS:	69676530
Iteration 85
HW:	CPU	TSS:	1.22031	AT:	1.35961	#T:	17	DSTSS:	69676535	DETSS:	70473661	DTSS:	70473666
Iteration 86
HW:	CPU	TSS:	1.22115	AT:	1.36244	#T:	17	DSTSS:	70473674	DETSS:	71244189	DTSS:	71244193
Iteration 87
HW:	CPU	TSS:	1.22245	AT:	1.3688	#T:	17	DSTSS:	71244198	DETSS:	71986436	DTSS:	71986441
Iteration 88
HW:	CPU	TSS:	1.22537	AT:	1.38275	#T:	17	DSTSS:	71986447	DETSS:	72630838	DTSS:	72630843
Iteration 89
HW:	CPU	TSS:	1.2229	AT:	1.36117	#T:	17	DSTSS:	72630849	DETSS:	73595569	DTSS:	73595573
Iteration 90
HW:	CPU	TSS:	1.2237	AT:	1.36119	#T:	17	DSTSS:	73595580	DETSS:	74364752	DTSS:	74364757
Iteration 91
HW:	CPU	TSS:	1.22447	AT:	1.36389	#T:	17	DSTSS:	74364763	DETSS:	75134264	DTSS:	75134268
Iteration 92
HW:	CPU	TSS:	1.22546	AT:	1.36573	#T:	17	DSTSS:	75134274	DETSS:	75889718	DTSS:	75889722
Iteration 93
HW:	CPU	TSS:	1.22572	AT:	1.36348	#T:	17	DSTSS:	75889728	DETSS:	76689758	DTSS:	76689762
Iteration 94
HW:	CPU	TSS:	1.22602	AT:	1.36289	#T:	17	DSTSS:	76689768	DETSS:	77486245	DTSS:	77486249
Iteration 95
HW:	CPU	TSS:	1.22674	AT:	1.36287	#T:	17	DSTSS:	77486254	DETSS:	78256005	DTSS:	78256009
Iteration 96
HW:	CPU	TSS:	1.22744	AT:	1.36266	#T:	17	DSTSS:	78256015	DETSS:	79026008	DTSS:	79026013
Iteration 97
HW:	CPU	TSS:	1.22777	AT:	1.3597	#T:	17	DSTSS:	79026019	DETSS:	79819476	DTSS:	79819481
Iteration 98
HW:	CPU	TSS:	1.22844	AT:	1.36182	#T:	17	DSTSS:	79819488	DETSS:	80590007	DTSS:	80590011
Iteration 99
HW:	CPU	TSS:	1.2291	AT:	1.36226	#T:	17	DSTSS:	80590018	DETSS:	81360088	DTSS:	81360092
Iteration 100
HW:	CPU	TSS:	1.22939	AT:	1.3624	#T:	17	DSTSS:	81360098	DETSS:	82154493	DTSS:	82154497
Iteration 101
HW:	CPU	TSS:	1.22967	AT:	1.36268	#T:	17	DSTSS:	82154503	DETSS:	82949102	DTSS:	82949107
Iteration 102
HW:	CPU	TSS:	1.2303	AT:	1.36273	#T:	17	DSTSS:	82949112	DETSS:	83719169	DTSS:	83719173
Iteration 103
HW:	CPU	TSS:	1.23093	AT:	1.35974	#T:	17	DSTSS:	83719179	DETSS:	84488843	DTSS:	84488847
Iteration 104
HW:	CPU	TSS:	1.23123	AT:	1.34387	#T:	17	DSTSS:	84488853	DETSS:	85280837	DTSS:	85280842
Iteration 105
HW:	CPU	TSS:	1.23187	AT:	1.36516	#T:	17	DSTSS:	85280848	DETSS:	86048306	DTSS:	86048310
Iteration 106
HW:	CPU	TSS:	1.23258	AT:	1.36601	#T:	17	DSTSS:	86048316	DETSS:	86809749	DTSS:	86809754
Iteration 107
HW:	CPU	TSS:	1.23274	AT:	1.3627	#T:	17	DSTSS:	86809760	DETSS:	87609473	DTSS:	87609477
Iteration 108
HW:	CPU	TSS:	1.23297	AT:	1.35843	#T:	17	DSTSS:	87609483	DETSS:	88404168	DTSS:	88404172
Iteration 109
HW:	CPU	TSS:	1.23355	AT:	1.36178	#T:	17	DSTSS:	88404177	DETSS:	89173380	DTSS:	89173384
Iteration 110
HW:	CPU	TSS:	1.23379	AT:	1.36213	#T:	17	DSTSS:	89173390	DETSS:	89966659	DTSS:	89966663
Iteration 111
HW:	CPU	TSS:	1.23434	AT:	1.36209	#T:	17	DSTSS:	89966669	DETSS:	90736833	DTSS:	90736837
Iteration 112
HW:	CPU	TSS:	1.23491	AT:	1.36231	#T:	17	DSTSS:	90736843	DETSS:	91504803	DTSS:	91504808
Iteration 113
HW:	CPU	TSS:	1.23508	AT:	1.36193	#T:	17	DSTSS:	91504813	DETSS:	92301744	DTSS:	92301748
Iteration 114
HW:	CPU	TSS:	1.23561	AT:	1.362	#T:	17	DSTSS:	92301753	DETSS:	93071679	DTSS:	93071683
Iteration 115
HW:	CPU	TSS:	1.23635	AT:	1.36386	#T:	17	DSTSS:	93071689	DETSS:	93824665	DTSS:	93824669
Iteration 116
HW:	CPU	TSS:	1.23612	AT:	1.36036	#T:	17	DSTSS:	93824676	DETSS:	94651160	DTSS:	94651165
Iteration 117
HW:	CPU	TSS:	1.2366	AT:	1.36287	#T:	17	DSTSS:	94651171	DETSS:	95422796	DTSS:	95422801
Iteration 118
HW:	CPU	TSS:	1.2371	AT:	1.36289	#T:	17	DSTSS:	95422807	DETSS:	96192630	DTSS:	96192634
Iteration 119
HW:	CPU	TSS:	1.23798	AT:	1.36625	#T:	17	DSTSS:	96192640	DETSS:	96931706	DTSS:	96931709
Iteration 120
HW:	CPU	TSS:	1.24002	AT:	1.38227	#T:	17	DSTSS:	96931715	DETSS:	97579440	DTSS:	97579444
Iteration 121
HW:	CPU	TSS:	1.24048	AT:	1.38205	#T:	17	DSTSS:	97579450	DETSS:	98348878	DTSS:	98348883
Iteration 122
HW:	CPU	TSS:	1.24094	AT:	1.38112	#T:	17	DSTSS:	98348889	DETSS:	99118591	DTSS:	99118596
Iteration 123
HW:	CPU	TSS:	1.24138	AT:	1.38446	#T:	17	DSTSS:	99118602	DETSS:	99888671	DTSS:	99888675
Iteration 124
HW:	CPU	TSS:	1.24183	AT:	1.3873	#T:	17	DSTSS:	99888681	DETSS:	100658215	DTSS:	100658219
Iteration 125
HW:	CPU	TSS:	1.24226	AT:	1.38722	#T:	17	DSTSS:	100658225	DETSS:	101428115	DTSS:	101428119
Iteration 126
HW:	CPU	TSS:	1.24241	AT:	1.38728	#T:	17	DSTSS:	101428125	DETSS:	102220856	DTSS:	102220861
Iteration 127
HW:	CPU	TSS:	1.24282	AT:	1.3872	#T:	17	DSTSS:	102220867	DETSS:	102991737	DTSS:	102991741
Iteration 128
HW:	CPU	TSS:	1.24323	AT:	1.38697	#T:	17	DSTSS:	102991747	DETSS:	103761724	DTSS:	103761729
Iteration 129
HW:	CPU	TSS:	1.24334	AT:	1.38719	#T:	17	DSTSS:	103761825	DETSS:	104556768	DTSS:	104556772
Iteration 130
HW:	CPU	TSS:	1.24375	AT:	1.38718	#T:	17	DSTSS:	104556778	DETSS:	105326718	DTSS:	105326722
Iteration 131
HW:	CPU	TSS:	1.24417	AT:	1.38549	#T:	17	DSTSS:	105326728	DETSS:	106094703	DTSS:	106094707
Iteration 132
HW:	CPU	TSS:	1.24403	AT:	1.38665	#T:	17	DSTSS:	106094713	DETSS:	106910926	DTSS:	106910930
Iteration 133
HW:	CPU	TSS:	1.24442	AT:	1.38682	#T:	17	DSTSS:	106910937	DETSS:	107681100	DTSS:	107681104
Iteration 134
HW:	CPU	TSS:	1.2448	AT:	1.38682	#T:	17	DSTSS:	107681110	DETSS:	108450859	DTSS:	108450864
Iteration 135
HW:	CPU	TSS:	1.24518	AT:	1.38334	#T:	17	DSTSS:	108450870	DETSS:	109220841	DTSS:	109220845
Iteration 136
HW:	CPU	TSS:	1.24566	AT:	1.37072	#T:	17	DSTSS:	109220852	DETSS:	109981694	DTSS:	109981698
Iteration 137
HW:	CPU	TSS:	1.24583	AT:	1.36865	#T:	17	DSTSS:	109981704	DETSS:	110769900	DTSS:	110769903
Iteration 138
HW:	CPU	TSS:	1.24572	AT:	1.364	#T:	17	DSTSS:	110769910	DETSS:	111581915	DTSS:	111581919
Iteration 139
HW:	CPU	TSS:	1.24604	AT:	1.36354	#T:	17	DSTSS:	111581926	DETSS:	112356234	DTSS:	112356256
Iteration 140
HW:	CPU	TSS:	1.2464	AT:	1.36352	#T:	17	DSTSS:	112356290	DETSS:	113125948	DTSS:	113125952
Iteration 141
HW:	CPU	TSS:	1.24675	AT:	1.36352	#T:	17	DSTSS:	113125958	DETSS:	113895874	DTSS:	113895879
Iteration 142
HW:	CPU	TSS:	1.24682	AT:	1.36316	#T:	17	DSTSS:	113895884	DETSS:	114691841	DTSS:	114691846
Iteration 143
HW:	CPU	TSS:	1.24716	AT:	1.36322	#T:	17	DSTSS:	114691852	DETSS:	115462181	DTSS:	115462186
Iteration 144
HW:	CPU	TSS:	1.24772	AT:	1.36547	#T:	17	DSTSS:	115462192	DETSS:	116211690	DTSS:	116211694
Iteration 145
HW:	CPU	TSS:	1.24765	AT:	1.36406	#T:	17	DSTSS:	116211699	DETSS:	117019548	DTSS:	117019551
Iteration 146
HW:	CPU	TSS:	1.24771	AT:	1.36115	#T:	17	DSTSS:	117019557	DETSS:	117816168	DTSS:	117816173
Iteration 147
HW:	CPU	TSS:	1.24804	AT:	1.36096	#T:	17	DSTSS:	117816178	DETSS:	118585895	DTSS:	118585899
Iteration 148
HW:	CPU	TSS:	1.24837	AT:	1.36604	#T:	17	DSTSS:	118585906	DETSS:	119355641	DTSS:	119355645
Iteration 149
HW:	CPU	TSS:	1.24842	AT:	1.3632	#T:	17	DSTSS:	119355651	DETSS:	120151771	DTSS:	120151775
Iteration 150
HW:	CPU	TSS:	1.24905	AT:	1.36647	#T:	17	DSTSS:	120151781	DETSS:	120891697	DTSS:	120891701
Iteration 151
HW:	CPU	TSS:	1.2487	AT:	1.35936	#T:	17	DSTSS:	120891707	DETSS:	121726755	DTSS:	121726759
Iteration 152
HW:	CPU	TSS:	1.24901	AT:	1.35837	#T:	17	DSTSS:	121726765	DETSS:	122496709	DTSS:	122496713
Iteration 153
HW:	CPU	TSS:	1.24933	AT:	1.36038	#T:	17	DSTSS:	122496719	DETSS:	123266388	DTSS:	123266392
Iteration 154
HW:	CPU	TSS:	1.24964	AT:	1.36501	#T:	17	DSTSS:	123266398	DETSS:	124036062	DTSS:	124036067
Iteration 155
HW:	CPU	TSS:	1.25013	AT:	1.36761	#T:	17	DSTSS:	124036072	DETSS:	124786695	DTSS:	124786699
Iteration 156
HW:	CPU	TSS:	1.24979	AT:	1.36052	#T:	17	DSTSS:	124786705	DETSS:	125621167	DTSS:	125621172
Iteration 157
HW:	CPU	TSS:	1.25008	AT:	1.36039	#T:	17	DSTSS:	125621178	DETSS:	126392282	DTSS:	126392323
Iteration 158
HW:	CPU	TSS:	1.25199	AT:	1.38148	#T:	17	DSTSS:	126392360	DETSS:	126997474	DTSS:	126997478
Iteration 159
HW:	CPU	TSS:	1.25551	AT:	1.41953	#T:	17	DSTSS:	126997484	DETSS:	127437987	DTSS:	127437994
Iteration 160
HW:	CPU	TSS:	1.25495	AT:	1.40721	#T:	4	DSTSS:	127438003	DETSS:	128292317	DTSS:	128292324
Iteration 161
HW:	CPU	TSS:	1.25456	AT:	1.40386	#T:	4	DSTSS:	128292332	DETSS:	129129032	DTSS:	129129042
Iteration 162
HW:	CPU	TSS:	1.25437	AT:	1.40157	#T:	4	DSTSS:	129129058	DETSS:	129945470	DTSS:	129945476
Iteration 163
HW:	CPU	TSS:	1.25503	AT:	1.40637	#T:	4	DSTSS:	129945486	DETSS:	130673766	DTSS:	130673773
Iteration 164
HW:	CPU	TSS:	1.25555	AT:	1.40946	#T:	4	DSTSS:	130673782	DETSS:	131416984	DTSS:	131416991
Iteration 165
HW:	CPU	TSS:	1.2572	AT:	1.43007	#T:	15	DSTSS:	131417027	DETSS:	132039299	DTSS:	132039304
Iteration 166
HW:	CPU	TSS:	1.26063	AT:	1.46782	#T:	5	DSTSS:	132039312	DETSS:	132473490	DTSS:	132473495
Iteration 167
HW:	CPU	TSS:	1.26136	AT:	1.48301	#T:	5	DSTSS:	132473501	DETSS:	133189953	DTSS:	133189958
Iteration 168
HW:	CPU	TSS:	1.26208	AT:	1.48998	#T:	5	DSTSS:	133189963	DETSS:	133906251	DTSS:	133906256
Iteration 169
HW:	CPU	TSS:	1.26358	AT:	1.50822	#T:	5	DSTSS:	133906262	DETSS:	134537981	DTSS:	134537985
Iteration 170
HW:	CPU	TSS:	1.26122	AT:	1.47231	#T:	5	DSTSS:	134537992	DETSS:	135582561	DTSS:	135582565
Iteration 171
HW:	CPU	TSS:	1.25888	AT:	1.43543	#T:	5	DSTSS:	135582571	DETSS:	136629845	DTSS:	136629849
Iteration 172
HW:	CPU	TSS:	1.25534	AT:	1.39456	#T:	3	DSTSS:	136629855	DETSS:	137811434	DTSS:	137811440
Iteration 173
HW:	CPU	TSS:	1.2538	AT:	1.37256	#T:	3	DSTSS:	137811501	DETSS:	138777928	DTSS:	138777935
Iteration 174
HW:	CPU	TSS:	1.2523	AT:	1.33376	#T:	3	DSTSS:	138777944	DETSS:	139743401	DTSS:	139743408
Iteration 175
HW:	CPU	TSS:	1.25126	AT:	1.2859	#T:	6	DSTSS:	139743416	DETSS:	140658341	DTSS:	140658346
Iteration 176
HW:	CPU	TSS:	1.24971	AT:	1.2743	#T:	6	DSTSS:	140658355	DETSS:	141632926	DTSS:	141632932
Iteration 177
HW:	CPU	TSS:	1.24822	AT:	1.26166	#T:	6	DSTSS:	141632940	DETSS:	142603288	DTSS:	142603294
Iteration 178
HW:	CPU	TSS:	1.24669	AT:	1.24682	#T:	6	DSTSS:	142603302	DETSS:	143580206	DTSS:	143580216
Iteration 179
HW:	CPU	TSS:	1.2452	AT:	1.22481	#T:	6	DSTSS:	143580232	DETSS:	144554662	DTSS:	144554670
Iteration 180
HW:	CPU	TSS:	1.24376	AT:	1.20495	#T:	6	DSTSS:	144554679	DETSS:	145526751	DTSS:	145526758
Iteration 181
HW:	CPU	TSS:	1.24233	AT:	1.1757	#T:	6	DSTSS:	145526768	DETSS:	146498724	DTSS:	146498731
Iteration 182
HW:	CPU	TSS:	1.24092	AT:	1.13354	#T:	6	DSTSS:	146498740	DETSS:	147470740	DTSS:	147470746
Iteration 183
HW:	CPU	TSS:	1.23941	AT:	1.11358	#T:	6	DSTSS:	147470756	DETSS:	148457337	DTSS:	148457344
Iteration 184
HW:	CPU	TSS:	1.23803	AT:	1.09515	#T:	6	DSTSS:	148457353	DETSS:	149430484	DTSS:	149430491
Iteration 185
HW:	CPU	TSS:	1.23667	AT:	1.07154	#T:	6	DSTSS:	149430499	DETSS:	150404188	DTSS:	150404195
Iteration 186
HW:	CPU	TSS:	1.23532	AT:	1.07625	#T:	6	DSTSS:	150404204	DETSS:	151378140	DTSS:	151378147
Iteration 187
HW:	CPU	TSS:	1.23401	AT:	1.08147	#T:	6	DSTSS:	151378156	DETSS:	152349135	DTSS:	152349142
Iteration 188
HW:	CPU	TSS:	1.2327	AT:	1.09599	#T:	6	DSTSS:	152349150	DETSS:	153322580	DTSS:	153322587
Iteration 189
HW:	CPU	TSS:	1.23142	AT:	1.09569	#T:	6	DSTSS:	153322596	DETSS:	154293251	DTSS:	154293258
Iteration 190
HW:	CPU	TSS:	1.23014	AT:	1.09512	#T:	6	DSTSS:	154293267	DETSS:	155266873	DTSS:	155266880
Iteration 191
HW:	CPU	TSS:	1.2289	AT:	1.09126	#T:	6	DSTSS:	155266888	DETSS:	156236652	DTSS:	156236659
Iteration 192
HW:	CPU	TSS:	1.22767	AT:	1.09143	#T:	6	DSTSS:	156236669	DETSS:	157208799	DTSS:	157208806
Iteration 193
HW:	CPU	TSS:	1.22643	AT:	1.09122	#T:	6	DSTSS:	157208816	DETSS:	158182174	DTSS:	158182181
Iteration 194
HW:	CPU	TSS:	1.22523	AT:	1.09163	#T:	6	DSTSS:	158182190	DETSS:	159153213	DTSS:	159153220
Iteration 195
HW:	CPU	TSS:	1.22404	AT:	1.0917	#T:	6	DSTSS:	159153229	DETSS:	160125415	DTSS:	160125422
Iteration 196
HW:	CPU	TSS:	1.22277	AT:	1.09086	#T:	6	DSTSS:	160125430	DETSS:	161109492	DTSS:	161109499
Iteration 197
HW:	CPU	TSS:	1.22149	AT:	1.08985	#T:	6	DSTSS:	161109508	DETSS:	162097247	DTSS:	162097253
Iteration 198
HW:	CPU	TSS:	1.22033	AT:	1.08977	#T:	6	DSTSS:	162097262	DETSS:	163070365	DTSS:	163070371
Iteration 199
HW:	CPU	TSS:	1.21918	AT:	1.09066	#T:	6	DSTSS:	163070380	DETSS:	164044128	DTSS:	164044134
Iteration 200
HW:	CPU	TSS:	1.21806	AT:	1.09062	#T:	6	DSTSS:	164044143	DETSS:	165016672	DTSS:	165016678
Iteration 201
HW:	CPU	TSS:	1.21695	AT:	1.09076	#T:	6	DSTSS:	165016687	DETSS:	165988453	DTSS:	165988460
Iteration 202
HW:	CPU	TSS:	1.21573	AT:	1.08989	#T:	6	DSTSS:	165988469	DETSS:	166977282	DTSS:	166977288
Iteration 203
HW:	CPU	TSS:	1.21464	AT:	1.0897	#T:	6	DSTSS:	166977297	DETSS:	167950930	DTSS:	167950937
Iteration 204
HW:	CPU	TSS:	1.21357	AT:	1.0898	#T:	6	DSTSS:	167950946	DETSS:	168923003	DTSS:	168923010
Iteration 205
HW:	CPU	TSS:	1.21251	AT:	1.08972	#T:	6	DSTSS:	168923019	DETSS:	169894856	DTSS:	169894863
Iteration 206
HW:	CPU	TSS:	1.21147	AT:	1.08983	#T:	6	DSTSS:	169894872	DETSS:	170866883	DTSS:	170866889
Iteration 207
HW:	CPU	TSS:	1.21044	AT:	1.08965	#T:	6	DSTSS:	170866898	DETSS:	171837916	DTSS:	171837923
Iteration 208
HW:	CPU	TSS:	1.20942	AT:	1.08976	#T:	6	DSTSS:	171837931	DETSS:	172809721	DTSS:	172809727
Iteration 209
HW:	CPU	TSS:	1.20841	AT:	1.08977	#T:	6	DSTSS:	172809736	DETSS:	173781740	DTSS:	173781746
Iteration 210
HW:	CPU	TSS:	1.20741	AT:	1.0897	#T:	6	DSTSS:	173781755	DETSS:	174753872	DTSS:	174753878
Iteration 211
HW:	CPU	TSS:	1.20643	AT:	1.08972	#T:	6	DSTSS:	174753887	DETSS:	175725749	DTSS:	175725756
Iteration 212
HW:	CPU	TSS:	1.20545	AT:	1.09056	#T:	6	DSTSS:	175725765	DETSS:	176697878	DTSS:	176697885
Iteration 213
HW:	CPU	TSS:	1.20448	AT:	1.09167	#T:	6	DSTSS:	176697894	DETSS:	177669780	DTSS:	177669787
Iteration 214
HW:	CPU	TSS:	1.20353	AT:	1.09174	#T:	6	DSTSS:	177669796	DETSS:	178641799	DTSS:	178641805
Iteration 215
HW:	CPU	TSS:	1.20258	AT:	1.09178	#T:	6	DSTSS:	178641814	DETSS:	179613790	DTSS:	179613796
Iteration 216
HW:	CPU	TSS:	1.20166	AT:	1.09208	#T:	6	DSTSS:	179613805	DETSS:	180583336	DTSS:	180583343
Iteration 217
HW:	CPU	TSS:	1.20073	AT:	1.09199	#T:	6	DSTSS:	180583351	DETSS:	181556428	DTSS:	181556435
Iteration 218
HW:	CPU	TSS:	1.19981	AT:	1.09306	#T:	6	DSTSS:	181556445	DETSS:	182528589	DTSS:	182528596
Iteration 219
HW:	CPU	TSS:	1.19891	AT:	1.09327	#T:	6	DSTSS:	182528605	DETSS:	183499355	DTSS:	183499361
Iteration 220
HW:	CPU	TSS:	1.19801	AT:	1.0932	#T:	6	DSTSS:	183499370	DETSS:	184472483	DTSS:	184472490
Iteration 221
HW:	CPU	TSS:	1.19713	AT:	1.0932	#T:	6	DSTSS:	184472499	DETSS:	185444225	DTSS:	185444231
Iteration 222
HW:	CPU	TSS:	1.19625	AT:	1.09322	#T:	6	DSTSS:	185444240	DETSS:	186415962	DTSS:	186415969
Iteration 223
HW:	CPU	TSS:	1.19539	AT:	1.09334	#T:	6	DSTSS:	186415978	DETSS:	187386646	DTSS:	187386653
Iteration 224
HW:	CPU	TSS:	1.19452	AT:	1.09317	#T:	6	DSTSS:	187386662	DETSS:	188359646	DTSS:	188359653
Iteration 225
HW:	CPU	TSS:	1.19367	AT:	1.09326	#T:	6	DSTSS:	188359662	DETSS:	189331632	DTSS:	189331639
Iteration 226
HW:	CPU	TSS:	1.19284	AT:	1.09338	#T:	6	DSTSS:	189331649	DETSS:	190302071	DTSS:	190302078
Iteration 227
HW:	CPU	TSS:	1.192	AT:	1.09329	#T:	6	DSTSS:	190302087	DETSS:	191275156	DTSS:	191275162
Iteration 228
HW:	CPU	TSS:	1.19118	AT:	1.0933	#T:	6	DSTSS:	191275171	DETSS:	192247070	DTSS:	192247076
Iteration 229
HW:	CPU	TSS:	1.19036	AT:	1.0933	#T:	6	DSTSS:	192247086	DETSS:	193218964	DTSS:	193218970
Iteration 230
HW:	CPU	TSS:	1.18956	AT:	1.0934	#T:	6	DSTSS:	193218979	DETSS:	194189618	DTSS:	194189625
Iteration 231
HW:	CPU	TSS:	1.18876	AT:	1.0934	#T:	6	DSTSS:	194189635	DETSS:	195161648	DTSS:	195161655
Iteration 232
HW:	CPU	TSS:	1.18796	AT:	1.09323	#T:	6	DSTSS:	195161664	DETSS:	196134781	DTSS:	196134788
Iteration 233
HW:	CPU	TSS:	1.18717	AT:	1.09331	#T:	6	DSTSS:	196134797	DETSS:	197106841	DTSS:	197106849
Iteration 234
HW:	CPU	TSS:	1.1864	AT:	1.09331	#T:	6	DSTSS:	197106858	DETSS:	198077769	DTSS:	198077776
Iteration 235
HW:	CPU	TSS:	1.18563	AT:	1.0933	#T:	6	DSTSS:	198077785	DETSS:	199049769	DTSS:	199049776
Iteration 236
HW:	CPU	TSS:	1.18487	AT:	1.0933	#T:	6	DSTSS:	199049785	DETSS:	200021794	DTSS:	200021801
Iteration 237
HW:	CPU	TSS:	1.18412	AT:	1.09328	#T:	6	DSTSS:	200021810	DETSS:	200993716	DTSS:	200993722
Iteration 238
HW:	CPU	TSS:	1.18338	AT:	1.09336	#T:	6	DSTSS:	200993731	DETSS:	201964309	DTSS:	201964316
Iteration 239
HW:	CPU	TSS:	1.18256	AT:	1.09234	#T:	6	DSTSS:	201964325	DETSS:	202949496	DTSS:	202949502
Iteration 240
HW:	CPU	TSS:	1.18182	AT:	1.09231	#T:	6	DSTSS:	202949511	DETSS:	203922982	DTSS:	203922989
Iteration 241
HW:	CPU	TSS:	1.18103	AT:	1.09154	#T:	6	DSTSS:	203922998	DETSS:	204906015	DTSS:	204906022
Iteration 242
HW:	CPU	TSS:	1.1803	AT:	1.09125	#T:	6	DSTSS:	204906030	DETSS:	205880581	DTSS:	205880588
Iteration 243
HW:	CPU	TSS:	1.17958	AT:	1.09125	#T:	6	DSTSS:	205880597	DETSS:	206853625	DTSS:	206853632
Iteration 244
HW:	CPU	TSS:	1.17887	AT:	1.09133	#T:	6	DSTSS:	206853640	DETSS:	207825593	DTSS:	207825600
Iteration 245
HW:	CPU	TSS:	1.17817	AT:	1.09133	#T:	6	DSTSS:	207825609	DETSS:	208797599	DTSS:	208797606
Iteration 246
HW:	CPU	TSS:	1.17748	AT:	1.09124	#T:	6	DSTSS:	208797614	DETSS:	209769437	DTSS:	209769444
Iteration 247
HW:	CPU	TSS:	1.1768	AT:	1.09125	#T:	6	DSTSS:	209769453	DETSS:	210741285	DTSS:	210741292
Iteration 248
HW:	CPU	TSS:	1.17612	AT:	1.09128	#T:	6	DSTSS:	210741301	DETSS:	211712780	DTSS:	211712787
Iteration 249
HW:	CPU	TSS:	1.17545	AT:	1.0913	#T:	6	DSTSS:	211712795	DETSS:	212684576	DTSS:	212684582
Iteration 250
HW:	CPU	TSS:	1.17478	AT:	1.09132	#T:	6	DSTSS:	212684591	DETSS:	213656443	DTSS:	213656494
Iteration 251
HW:	CPU	TSS:	1.17413	AT:	1.09128	#T:	6	DSTSS:	213656505	DETSS:	214627781	DTSS:	214627788
Iteration 252
HW:	CPU	TSS:	1.17347	AT:	1.09136	#T:	6	DSTSS:	214627797	DETSS:	215599862	DTSS:	215599869
Iteration 253
HW:	CPU	TSS:	1.17283	AT:	1.09143	#T:	6	DSTSS:	215599878	DETSS:	216569681	DTSS:	216569688
Iteration 254
HW:	CPU	TSS:	1.17218	AT:	1.09122	#T:	6	DSTSS:	216569697	DETSS:	217543194	DTSS:	217543201
Iteration 255
HW:	CPU	TSS:	1.17148	AT:	1.09137	#T:	6	DSTSS:	217543210	DETSS:	218527502	DTSS:	218527508
Iteration 256
HW:	CPU	TSS:	1.17084	AT:	1.09132	#T:	6	DSTSS:	218527517	DETSS:	219500417	DTSS:	219500424
Iteration 257
HW:	CPU	TSS:	1.17021	AT:	1.09201	#T:	6	DSTSS:	219500764	DETSS:	220473613	DTSS:	220473620
Iteration 258
HW:	CPU	TSS:	1.16959	AT:	1.09228	#T:	6	DSTSS:	220473630	DETSS:	221445655	DTSS:	221445661
Iteration 259
HW:	CPU	TSS:	1.16897	AT:	1.09236	#T:	6	DSTSS:	221445670	DETSS:	222417497	DTSS:	222417504
Iteration 260
HW:	CPU	TSS:	1.16836	AT:	1.09225	#T:	6	DSTSS:	222417513	DETSS:	223389812	DTSS:	223389819
Iteration 261
HW:	CPU	TSS:	1.16776	AT:	1.09226	#T:	6	DSTSS:	223389828	DETSS:	224361765	DTSS:	224361771
Iteration 262
HW:	CPU	TSS:	1.16716	AT:	1.09225	#T:	6	DSTSS:	224361780	DETSS:	225333698	DTSS:	225333705
Iteration 263
HW:	CPU	TSS:	1.16656	AT:	1.09223	#T:	6	DSTSS:	225333714	DETSS:	226305751	DTSS:	226305758
Iteration 264
HW:	CPU	TSS:	1.16597	AT:	1.0922	#T:	6	DSTSS:	226305767	DETSS:	227277741	DTSS:	227277747
Iteration 265
HW:	CPU	TSS:	1.16539	AT:	1.09208	#T:	6	DSTSS:	227277756	DETSS:	228249916	DTSS:	228249923
Iteration 266
HW:	CPU	TSS:	1.16481	AT:	1.09217	#T:	6	DSTSS:	228249932	DETSS:	229221847	DTSS:	229221854
Iteration 267
HW:	CPU	TSS:	1.16424	AT:	1.09212	#T:	6	DSTSS:	229221863	DETSS:	230193832	DTSS:	230193839
Iteration 268
HW:	CPU	TSS:	1.16367	AT:	1.09212	#T:	6	DSTSS:	230193848	DETSS:	231165883	DTSS:	231165889
Iteration 269
HW:	CPU	TSS:	1.1631	AT:	1.09205	#T:	6	DSTSS:	231165898	DETSS:	232137913	DTSS:	232137920
Iteration 270
HW:	CPU	TSS:	1.16254	AT:	1.09216	#T:	6	DSTSS:	232137928	DETSS:	233109919	DTSS:	233109926
Iteration 271
HW:	CPU	TSS:	1.16199	AT:	1.09292	#T:	6	DSTSS:	233109936	DETSS:	234082121	DTSS:	234082128
Iteration 272
HW:	CPU	TSS:	1.16144	AT:	1.09317	#T:	6	DSTSS:	234082138	DETSS:	235052778	DTSS:	235052785
Iteration 273
HW:	CPU	TSS:	1.1609	AT:	1.09318	#T:	6	DSTSS:	235052794	DETSS:	236024636	DTSS:	236024643
Iteration 274
HW:	CPU	TSS:	1.16035	AT:	1.09309	#T:	6	DSTSS:	236024652	DETSS:	236996673	DTSS:	236996680
Iteration 275
HW:	CPU	TSS:	1.15983	AT:	1.09322	#T:	6	DSTSS:	236996688	DETSS:	237966558	DTSS:	237966565
Iteration 276
HW:	CPU	TSS:	1.15929	AT:	1.09314	#T:	6	DSTSS:	237966574	DETSS:	238940061	DTSS:	238940067
Iteration 277
HW:	CPU	TSS:	1.15876	AT:	1.09322	#T:	6	DSTSS:	238940076	DETSS:	239912160	DTSS:	239912167
Iteration 278
HW:	CPU	TSS:	1.15823	AT:	1.09313	#T:	6	DSTSS:	239912176	DETSS:	240884196	DTSS:	240884202
Iteration 279
HW:	CPU	TSS:	1.15771	AT:	1.09322	#T:	6	DSTSS:	240884211	DETSS:	241856092	DTSS:	241856099
Iteration 280
HW:	CPU	TSS:	1.1572	AT:	1.09322	#T:	6	DSTSS:	241856108	DETSS:	242828156	DTSS:	242828163
Iteration 281
HW:	CPU	TSS:	1.15668	AT:	1.09332	#T:	6	DSTSS:	242828172	DETSS:	243800165	DTSS:	243800172
Iteration 282
HW:	CPU	TSS:	1.15618	AT:	1.09322	#T:	6	DSTSS:	243800181	DETSS:	244772264	DTSS:	244772271
Iteration 283
HW:	CPU	TSS:	1.15567	AT:	1.09322	#T:	6	DSTSS:	244772280	DETSS:	245744158	DTSS:	245744164
Iteration 284
HW:	CPU	TSS:	1.15517	AT:	1.09313	#T:	6	DSTSS:	245744174	DETSS:	246716314	DTSS:	246716320
Iteration 285
HW:	CPU	TSS:	1.15468	AT:	1.09323	#T:	6	DSTSS:	246716330	DETSS:	247688135	DTSS:	247688142
Iteration 286
HW:	CPU	TSS:	1.15419	AT:	1.09323	#T:	6	DSTSS:	247688151	DETSS:	248660123	DTSS:	248660130
Iteration 287
HW:	CPU	TSS:	1.1537	AT:	1.09326	#T:	6	DSTSS:	248660139	DETSS:	249632012	DTSS:	249632019
Iteration 288
HW:	CPU	TSS:	1.15321	AT:	1.09318	#T:	6	DSTSS:	249632028	DETSS:	250603792	DTSS:	250603799
Iteration 289
HW:	CPU	TSS:	1.15273	AT:	1.09326	#T:	6	DSTSS:	250603808	DETSS:	251575765	DTSS:	251575771
Iteration 290
HW:	CPU	TSS:	1.15226	AT:	1.09327	#T:	6	DSTSS:	251575780	DETSS:	252547601	DTSS:	252547608
Iteration 291
HW:	CPU	TSS:	1.15178	AT:	1.09311	#T:	6	DSTSS:	252547616	DETSS:	253519798	DTSS:	253519804
Iteration 292
HW:	CPU	TSS:	1.15131	AT:	1.09313	#T:	6	DSTSS:	253519813	DETSS:	254491801	DTSS:	254491808
Iteration 293
HW:	CPU	TSS:	1.15085	AT:	1.09303	#T:	6	DSTSS:	254491846	DETSS:	255463987	DTSS:	255463994
Iteration 294
HW:	CPU	TSS:	1.15033	AT:	1.09233	#T:	6	DSTSS:	255464003	DETSS:	256447277	DTSS:	256447283
Iteration 295
HW:	CPU	TSS:	1.14987	AT:	1.09216	#T:	6	DSTSS:	256447292	DETSS:	257420395	DTSS:	257420402
Iteration 296
HW:	CPU	TSS:	1.14941	AT:	1.09207	#T:	6	DSTSS:	257420411	DETSS:	258393712	DTSS:	258393718
Iteration 297
HW:	CPU	TSS:	1.14897	AT:	1.09223	#T:	6	DSTSS:	258393727	DETSS:	259363460	DTSS:	259363466
Iteration 298
HW:	CPU	TSS:	1.14851	AT:	1.09216	#T:	6	DSTSS:	259363476	DETSS:	260336499	DTSS:	260336508
Iteration 299
HW:	CPU	TSS:	1.14807	AT:	1.09224	#T:	6	DSTSS:	260336517	DETSS:	261308443	DTSS:	261308449
Iteration 300
HW:	CPU	TSS:	1.14763	AT:	1.09226	#T:	6	DSTSS:	261308458	DETSS:	262280432	DTSS:	262280439
Iteration 301
HW:	CPU	TSS:	1.14719	AT:	1.09221	#T:	6	DSTSS:	262280448	DETSS:	263252853	DTSS:	263252860
Iteration 302
HW:	CPU	TSS:	1.14675	AT:	1.0921	#T:	6	DSTSS:	263252869	DETSS:	264225235	DTSS:	264225241
Iteration 303
HW:	CPU	TSS:	1.14632	AT:	1.09209	#T:	6	DSTSS:	264225250	DETSS:	265197223	DTSS:	265197230
Iteration 304
HW:	CPU	TSS:	1.14589	AT:	1.09216	#T:	6	DSTSS:	265197239	DETSS:	266169247	DTSS:	266169254
Iteration 305
HW:	CPU	TSS:	1.14546	AT:	1.09205	#T:	6	DSTSS:	266169263	DETSS:	267141652	DTSS:	267141658
Iteration 306
HW:	CPU	TSS:	1.14504	AT:	1.09211	#T:	6	DSTSS:	267141667	DETSS:	268113716	DTSS:	268113723
Iteration 307
HW:	CPU	TSS:	1.14462	AT:	1.09213	#T:	6	DSTSS:	268113732	DETSS:	269085726	DTSS:	269085733
Iteration 308
HW:	CPU	TSS:	1.14415	AT:	1.09122	#T:	6	DSTSS:	269085742	DETSS:	270070637	DTSS:	270070644
Iteration 309
HW:	CPU	TSS:	1.14373	AT:	1.09114	#T:	6	DSTSS:	270070653	DETSS:	271044003	DTSS:	271044010
Iteration 310
HW:	CPU	TSS:	1.14331	AT:	1.09184	#T:	6	DSTSS:	271044018	DETSS:	272017280	DTSS:	272017287
Iteration 311
HW:	CPU	TSS:	1.1429	AT:	1.09193	#T:	6	DSTSS:	272017296	DETSS:	272989209	DTSS:	272989216
Iteration 312
HW:	CPU	TSS:	1.1425	AT:	1.09204	#T:	6	DSTSS:	272989225	DETSS:	273960975	DTSS:	273960982
Iteration 313
HW:	CPU	TSS:	1.1421	AT:	1.09188	#T:	6	DSTSS:	273960991	DETSS:	274932895	DTSS:	274932902
Iteration 314
HW:	CPU	TSS:	1.14169	AT:	1.09187	#T:	6	DSTSS:	274932910	DETSS:	275906086	DTSS:	275906092
Iteration 315
HW:	CPU	TSS:	1.1413	AT:	1.09188	#T:	6	DSTSS:	275906101	DETSS:	276876690	DTSS:	276876697
Iteration 316
HW:	CPU	TSS:	1.1409	AT:	1.09187	#T:	6	DSTSS:	276876706	DETSS:	277850108	DTSS:	277850115
Iteration 317
HW:	CPU	TSS:	1.14051	AT:	1.0918	#T:	6	DSTSS:	277850123	DETSS:	278822210	DTSS:	278822217
Iteration 318
HW:	CPU	TSS:	1.14012	AT:	1.09191	#T:	6	DSTSS:	278822226	DETSS:	279794329	DTSS:	279794335
Iteration 319
HW:	CPU	TSS:	1.13974	AT:	1.09198	#T:	6	DSTSS:	279794345	DETSS:	280765221	DTSS:	280765228
Iteration 320
HW:	CPU	TSS:	1.13936	AT:	1.09194	#T:	6	DSTSS:	280765236	DETSS:	281737921	DTSS:	281737928
Iteration 321
HW:	CPU	TSS:	1.13898	AT:	1.09196	#T:	6	DSTSS:	281737937	DETSS:	282710014	DTSS:	282710021
Iteration 322
HW:	CPU	TSS:	1.13854	AT:	1.09082	#T:	6	DSTSS:	282710030	DETSS:	283697025	DTSS:	283697032
Iteration 323
HW:	CPU	TSS:	1.13816	AT:	1.09071	#T:	6	DSTSS:	283697041	DETSS:	284670684	DTSS:	284670691
Iteration 324
HW:	CPU	TSS:	1.13778	AT:	1.09163	#T:	6	DSTSS:	284670700	DETSS:	285643700	DTSS:	285643707
Iteration 325
HW:	CPU	TSS:	1.13741	AT:	1.09181	#T:	6	DSTSS:	285643716	DETSS:	286615694	DTSS:	286615701
Iteration 326
HW:	CPU	TSS:	1.13704	AT:	1.0919	#T:	6	DSTSS:	286615710	DETSS:	287587728	DTSS:	287587735
Iteration 327
HW:	CPU	TSS:	1.13668	AT:	1.0919	#T:	6	DSTSS:	287587744	DETSS:	288559651	DTSS:	288559659
Iteration 328
HW:	CPU	TSS:	1.13632	AT:	1.09188	#T:	6	DSTSS:	288559667	DETSS:	289531805	DTSS:	289531812
Iteration 329
HW:	CPU	TSS:	1.13596	AT:	1.09188	#T:	6	DSTSS:	289531821	DETSS:	290503663	DTSS:	290503670
Iteration 330
HW:	CPU	TSS:	1.1356	AT:	1.09197	#T:	6	DSTSS:	290503679	DETSS:	291475512	DTSS:	291475519
Iteration 331
HW:	CPU	TSS:	1.13525	AT:	1.09188	#T:	6	DSTSS:	291475528	DETSS:	292447508	DTSS:	292447515
Iteration 332
HW:	CPU	TSS:	1.1349	AT:	1.09196	#T:	6	DSTSS:	292447523	DETSS:	293418450	DTSS:	293418457
Iteration 333
HW:	CPU	TSS:	1.13455	AT:	1.09194	#T:	6	DSTSS:	293418466	DETSS:	294390798	DTSS:	294390805
Iteration 334
HW:	CPU	TSS:	1.1342	AT:	1.09201	#T:	6	DSTSS:	294390814	DETSS:	295363223	DTSS:	295363230
Iteration 335
HW:	CPU	TSS:	1.13385	AT:	1.09192	#T:	6	DSTSS:	295363239	DETSS:	296335303	DTSS:	296335310
Iteration 336
HW:	CPU	TSS:	1.13351	AT:	1.09188	#T:	6	DSTSS:	296335319	DETSS:	297307386	DTSS:	297307393
Iteration 337
HW:	CPU	TSS:	1.13317	AT:	1.09198	#T:	6	DSTSS:	297307402	DETSS:	298279254	DTSS:	298279260
Iteration 338
HW:	CPU	TSS:	1.13283	AT:	1.09303	#T:	6	DSTSS:	298279269	DETSS:	299251327	DTSS:	299251334
Iteration 339
HW:	CPU	TSS:	1.13249	AT:	1.09319	#T:	6	DSTSS:	299251343	DETSS:	300222784	DTSS:	300222791
Iteration 340
HW:	CPU	TSS:	1.13216	AT:	1.09327	#T:	6	DSTSS:	300222800	DETSS:	301194585	DTSS:	301194592
Iteration 341
HW:	CPU	TSS:	1.13183	AT:	1.09319	#T:	6	DSTSS:	301194601	DETSS:	302166574	DTSS:	302166580
Iteration 342
HW:	CPU	TSS:	1.1315	AT:	1.09323	#T:	6	DSTSS:	302166589	DETSS:	303137909	DTSS:	303137916
Iteration 343
HW:	CPU	TSS:	1.13117	AT:	1.09324	#T:	6	DSTSS:	303137925	DETSS:	304109808	DTSS:	304109815
Iteration 344
HW:	CPU	TSS:	1.13084	AT:	1.09324	#T:	6	DSTSS:	304109824	DETSS:	305081864	DTSS:	305081870
Iteration 345
HW:	CPU	TSS:	1.13053	AT:	1.09331	#T:	6	DSTSS:	305081880	DETSS:	306051573	DTSS:	306051580
Iteration 346
HW:	CPU	TSS:	1.13021	AT:	1.09329	#T:	6	DSTSS:	306051589	DETSS:	307023660	DTSS:	307023667
Iteration 347
HW:	CPU	TSS:	1.12985	AT:	1.09257	#T:	6	DSTSS:	307023676	DETSS:	308005840	DTSS:	308005847
Iteration 348
HW:	CPU	TSS:	1.12952	AT:	1.09238	#T:	6	DSTSS:	308005855	DETSS:	308980776	DTSS:	308980783
Iteration 349
HW:	CPU	TSS:	1.1292	AT:	1.09241	#T:	6	DSTSS:	308980792	DETSS:	309952771	DTSS:	309952777
Iteration 350
HW:	CPU	TSS:	1.12889	AT:	1.09242	#T:	6	DSTSS:	309952786	DETSS:	310923769	DTSS:	310923775
Iteration 351
HW:	CPU	TSS:	1.12858	AT:	1.0925	#T:	6	DSTSS:	310923784	DETSS:	311895930	DTSS:	311895937
Iteration 352
HW:	CPU	TSS:	1.12828	AT:	1.09258	#T:	6	DSTSS:	311895946	DETSS:	312865662	DTSS:	312865668
Iteration 353
HW:	CPU	TSS:	1.12797	AT:	1.09247	#T:	6	DSTSS:	312865677	DETSS:	313839096	DTSS:	313839103
Iteration 354
HW:	CPU	TSS:	1.12766	AT:	1.09256	#T:	6	DSTSS:	313839113	DETSS:	314809858	DTSS:	314809865
Iteration 355
HW:	CPU	TSS:	1.12736	AT:	1.09243	#T:	6	DSTSS:	314809874	DETSS:	315783121	DTSS:	315783128
Iteration 356
HW:	CPU	TSS:	1.12705	AT:	1.09242	#T:	6	DSTSS:	315783137	DETSS:	316755136	DTSS:	316755143
Iteration 357
HW:	CPU	TSS:	1.12676	AT:	1.09251	#T:	6	DSTSS:	316755180	DETSS:	317725828	DTSS:	317725835
Iteration 358
HW:	CPU	TSS:	1.12646	AT:	1.09242	#T:	6	DSTSS:	317725844	DETSS:	318698504	DTSS:	318698511
Iteration 359
HW:	CPU	TSS:	1.12616	AT:	1.09247	#T:	6	DSTSS:	318698519	DETSS:	319669690	DTSS:	319669697
Iteration 360
HW:	CPU	TSS:	1.12586	AT:	1.09239	#T:	6	DSTSS:	319669706	DETSS:	320642815	DTSS:	320642822
Iteration 361
HW:	CPU	TSS:	1.12553	AT:	1.09157	#T:	6	DSTSS:	320642831	DETSS:	321625476	DTSS:	321625483
Iteration 362
HW:	CPU	TSS:	1.12523	AT:	1.09139	#T:	6	DSTSS:	321625492	DETSS:	322600111	DTSS:	322600118
Iteration 363
HW:	CPU	TSS:	1.12494	AT:	1.0921	#T:	6	DSTSS:	322600127	DETSS:	323572211	DTSS:	323572218
Iteration 364
HW:	CPU	TSS:	1.12465	AT:	1.09221	#T:	6	DSTSS:	323572227	DETSS:	324545604	DTSS:	324545611
Iteration 365
HW:	CPU	TSS:	1.12436	AT:	1.09219	#T:	6	DSTSS:	324545620	DETSS:	325517834	DTSS:	325517840
Iteration 366
HW:	CPU	TSS:	1.12408	AT:	1.09212	#T:	6	DSTSS:	325517850	DETSS:	326489789	DTSS:	326489796
Iteration 367
HW:	CPU	TSS:	1.1238	AT:	1.09212	#T:	6	DSTSS:	326489805	DETSS:	327460719	DTSS:	327460725
Iteration 368
HW:	CPU	TSS:	1.12352	AT:	1.09204	#T:	6	DSTSS:	327460734	DETSS:	328432878	DTSS:	328432885
Iteration 369
HW:	CPU	TSS:	1.12324	AT:	1.09212	#T:	6	DSTSS:	328432894	DETSS:	329405116	DTSS:	329405123
Iteration 370
HW:	CPU	TSS:	1.12296	AT:	1.09204	#T:	6	DSTSS:	329405132	DETSS:	330377102	DTSS:	330377108
Iteration 371
HW:	CPU	TSS:	1.12268	AT:	1.09204	#T:	6	DSTSS:	330377117	DETSS:	331350385	DTSS:	331350391
Iteration 372
HW:	CPU	TSS:	1.1224	AT:	1.09204	#T:	6	DSTSS:	331350400	DETSS:	332322354	DTSS:	332322361
Iteration 373
HW:	CPU	TSS:	1.12213	AT:	1.09196	#T:	6	DSTSS:	332322370	DETSS:	333294216	DTSS:	333294223
Iteration 374
HW:	CPU	TSS:	1.12186	AT:	1.0921	#T:	6	DSTSS:	333294232	DETSS:	334266044	DTSS:	334266051
Iteration 375
HW:	CPU	TSS:	1.12159	AT:	1.09197	#T:	6	DSTSS:	334266060	DETSS:	335237871	DTSS:	335237878
Iteration 376
HW:	CPU	TSS:	1.12132	AT:	1.09214	#T:	6	DSTSS:	335237886	DETSS:	336209796	DTSS:	336209803
Iteration 377
HW:	CPU	TSS:	1.12106	AT:	1.0929	#T:	6	DSTSS:	336209812	DETSS:	337181702	DTSS:	337181708
Iteration 378
HW:	CPU	TSS:	1.12079	AT:	1.09308	#T:	6	DSTSS:	337181717	DETSS:	338153757	DTSS:	338153764
Iteration 379
HW:	CPU	TSS:	1.12053	AT:	1.093	#T:	6	DSTSS:	338153773	DETSS:	339125803	DTSS:	339125809
Iteration 380
HW:	CPU	TSS:	1.12027	AT:	1.09316	#T:	6	DSTSS:	339125818	DETSS:	340096806	DTSS:	340096813
Iteration 381
HW:	CPU	TSS:	1.12001	AT:	1.09327	#T:	6	DSTSS:	340096822	DETSS:	341067513	DTSS:	341067520
Iteration 382
HW:	CPU	TSS:	1.11975	AT:	1.09327	#T:	6	DSTSS:	341067529	DETSS:	342040681	DTSS:	342040688
Iteration 383
HW:	CPU	TSS:	1.11949	AT:	1.09308	#T:	6	DSTSS:	342040697	DETSS:	343013121	DTSS:	343013127
Iteration 384
HW:	CPU	TSS:	1.11923	AT:	1.09315	#T:	6	DSTSS:	343013136	DETSS:	343985493	DTSS:	343985500
Iteration 385
HW:	CPU	TSS:	1.11898	AT:	1.09315	#T:	6	DSTSS:	343985509	DETSS:	344957714	DTSS:	344957720
Iteration 386
HW:	CPU	TSS:	1.11872	AT:	1.09315	#T:	6	DSTSS:	344957730	DETSS:	345929690	DTSS:	345929697
Iteration 387
HW:	CPU	TSS:	1.11848	AT:	1.09323	#T:	6	DSTSS:	345929705	DETSS:	346900585	DTSS:	346900591
Iteration 388
HW:	CPU	TSS:	1.11822	AT:	1.09312	#T:	6	DSTSS:	346900601	DETSS:	347874107	DTSS:	347874113
Iteration 389
HW:	CPU	TSS:	1.11797	AT:	1.09319	#T:	6	DSTSS:	347874122	DETSS:	348845071	DTSS:	348845078
Iteration 390
HW:	CPU	TSS:	1.11772	AT:	1.093	#T:	6	DSTSS:	348845087	DETSS:	349818264	DTSS:	349818271
Iteration 391
HW:	CPU	TSS:	1.11748	AT:	1.09308	#T:	6	DSTSS:	349818279	DETSS:	350790282	DTSS:	350790288
Iteration 392
HW:	CPU	TSS:	1.11719	AT:	1.09199	#T:	6	DSTSS:	350790297	DETSS:	351776413	DTSS:	351776419
Iteration 393
HW:	CPU	TSS:	1.11694	AT:	1.09189	#T:	6	DSTSS:	351776428	DETSS:	352749756	DTSS:	352749763
Iteration 394
HW:	CPU	TSS:	1.11669	AT:	1.09179	#T:	6	DSTSS:	352749772	DETSS:	353723245	DTSS:	353723252
Iteration 395
HW:	CPU	TSS:	1.11645	AT:	1.09187	#T:	6	DSTSS:	353723261	DETSS:	354695438	DTSS:	354695444
Iteration 396
HW:	CPU	TSS:	1.11621	AT:	1.09169	#T:	6	DSTSS:	354695453	DETSS:	355668986	DTSS:	355668992
Iteration 397
HW:	CPU	TSS:	1.11597	AT:	1.09159	#T:	6	DSTSS:	355669002	DETSS:	356641064	DTSS:	356641070
Iteration 398
HW:	CPU	TSS:	1.11574	AT:	1.09174	#T:	6	DSTSS:	356641079	DETSS:	357610917	DTSS:	357610924
Iteration 399
HW:	CPU	TSS:	1.1155	AT:	1.09175	#T:	6	DSTSS:	357610933	DETSS:	358584521	DTSS:	358584528
Iteration 400
HW:	CPU	TSS:	1.11526	AT:	1.09168	#T:	6	DSTSS:	358584537	DETSS:	359556578	DTSS:	359556585
Iteration 401
HW:	CPU	TSS:	1.11503	AT:	1.09181	#T:	6	DSTSS:	359556594	DETSS:	360526912	DTSS:	360526919
Iteration 402
HW:	CPU	TSS:	1.1148	AT:	1.09172	#T:	6	DSTSS:	360526928	DETSS:	361500261	DTSS:	361500267
Iteration 403
HW:	CPU	TSS:	1.11457	AT:	1.09181	#T:	6	DSTSS:	361500276	DETSS:	362472298	DTSS:	362472305
Iteration 404
HW:	CPU	TSS:	1.11434	AT:	1.0919	#T:	6	DSTSS:	362472314	DETSS:	363444547	DTSS:	363444554
Iteration 405
HW:	CPU	TSS:	1.11411	AT:	1.09181	#T:	6	DSTSS:	363444563	DETSS:	364416817	DTSS:	364416824
Iteration 406
HW:	CPU	TSS:	1.11388	AT:	1.09188	#T:	6	DSTSS:	364416833	DETSS:	365388977	DTSS:	365388984
Iteration 407
HW:	CPU	TSS:	1.11366	AT:	1.09179	#T:	6	DSTSS:	365388993	DETSS:	366361109	DTSS:	366361115
Iteration 408
HW:	CPU	TSS:	1.11343	AT:	1.09276	#T:	6	DSTSS:	366361124	DETSS:	367333350	DTSS:	367333357
Iteration 409
HW:	CPU	TSS:	1.11321	AT:	1.09285	#T:	6	DSTSS:	367333366	DETSS:	368305420	DTSS:	368305427
Iteration 410
HW:	CPU	TSS:	1.11298	AT:	1.09304	#T:	6	DSTSS:	368305436	DETSS:	369277512	DTSS:	369277519
Iteration 411
HW:	CPU	TSS:	1.11276	AT:	1.09295	#T:	6	DSTSS:	369277528	DETSS:	370249598	DTSS:	370249605
Iteration 412
HW:	CPU	TSS:	1.11254	AT:	1.09315	#T:	6	DSTSS:	370249614	DETSS:	371221598	DTSS:	371221604
Iteration 413
HW:	CPU	TSS:	1.11232	AT:	1.09308	#T:	6	DSTSS:	371221614	DETSS:	372193394	DTSS:	372193400
Iteration 414
HW:	CPU	TSS:	1.11212	AT:	1.09312	#T:	6	DSTSS:	372193409	DETSS:	373162801	DTSS:	373162808
Iteration 415
HW:	CPU	TSS:	1.1119	AT:	1.09323	#T:	6	DSTSS:	373162817	DETSS:	374136022	DTSS:	374136029
Iteration 416
HW:	CPU	TSS:	1.11168	AT:	1.09313	#T:	6	DSTSS:	374136037	DETSS:	375108269	DTSS:	375108276
Iteration 417
HW:	CPU	TSS:	1.11146	AT:	1.09301	#T:	6	DSTSS:	375108285	DETSS:	376080305	DTSS:	376080312
Iteration 418
HW:	CPU	TSS:	1.11125	AT:	1.09308	#T:	6	DSTSS:	376080321	DETSS:	377052620	DTSS:	377052626
Iteration 419
HW:	CPU	TSS:	1.11104	AT:	1.09309	#T:	6	DSTSS:	377052635	DETSS:	378023273	DTSS:	378023280
Iteration 420
HW:	CPU	TSS:	1.11083	AT:	1.09303	#T:	6	DSTSS:	378023290	DETSS:	378996495	DTSS:	378996503
Iteration 421
HW:	CPU	TSS:	1.11062	AT:	1.09309	#T:	6	DSTSS:	378996561	DETSS:	379967773	DTSS:	379967779
Iteration 422
HW:	CPU	TSS:	1.11041	AT:	1.09317	#T:	6	DSTSS:	379967788	DETSS:	380938778	DTSS:	380938785
Iteration 423
HW:	CPU	TSS:	1.11021	AT:	1.09326	#T:	6	DSTSS:	380938794	DETSS:	381910924	DTSS:	381910930
Iteration 424
HW:	CPU	TSS:	1.11	AT:	1.09328	#T:	6	DSTSS:	381910939	DETSS:	382882923	DTSS:	382882930
Iteration 425
HW:	CPU	TSS:	1.10976	AT:	1.09241	#T:	6	DSTSS:	382882939	DETSS:	383867336	DTSS:	383867343
Iteration 426
HW:	CPU	TSS:	1.10955	AT:	1.09224	#T:	6	DSTSS:	383867352	DETSS:	384840560	DTSS:	384840567
Iteration 427
HW:	CPU	TSS:	1.10935	AT:	1.09232	#T:	6	DSTSS:	384840576	DETSS:	385812803	DTSS:	385812809
Iteration 428
HW:	CPU	TSS:	1.10914	AT:	1.09202	#T:	6	DSTSS:	385812818	DETSS:	386787775	DTSS:	386787781
Iteration 429
HW:	CPU	TSS:	1.10893	AT:	1.09208	#T:	6	DSTSS:	386787791	DETSS:	387760036	DTSS:	387760043
Iteration 430
HW:	CPU	TSS:	1.10873	AT:	1.09182	#T:	6	DSTSS:	387760052	DETSS:	388733119	DTSS:	388733126
Iteration 431
HW:	CPU	TSS:	1.10853	AT:	1.0919	#T:	6	DSTSS:	388733135	DETSS:	389703935	DTSS:	389703941
Iteration 432
HW:	CPU	TSS:	1.10834	AT:	1.09201	#T:	6	DSTSS:	389703951	DETSS:	390675976	DTSS:	390675983
Iteration 433
HW:	CPU	TSS:	1.10813	AT:	1.09192	#T:	6	DSTSS:	390675992	DETSS:	391649260	DTSS:	391649266
Iteration 434
HW:	CPU	TSS:	1.10794	AT:	1.09193	#T:	6	DSTSS:	391649276	DETSS:	392621439	DTSS:	392621446
Iteration 435
HW:	CPU	TSS:	1.10774	AT:	1.09187	#T:	6	DSTSS:	392621504	DETSS:	393592947	DTSS:	393592953
Iteration 436
HW:	CPU	TSS:	1.10755	AT:	1.09203	#T:	6	DSTSS:	393592962	DETSS:	394565032	DTSS:	394565039
Iteration 437
HW:	CPU	TSS:	1.10735	AT:	1.09197	#T:	6	DSTSS:	394565048	DETSS:	395537233	DTSS:	395537240
Iteration 438
HW:	CPU	TSS:	1.10716	AT:	1.09188	#T:	6	DSTSS:	395537249	DETSS:	396509477	DTSS:	396509484
Iteration 439
HW:	CPU	TSS:	1.10698	AT:	1.09195	#T:	6	DSTSS:	396509493	DETSS:	397479356	DTSS:	397479363
Iteration 440
HW:	CPU	TSS:	1.10678	AT:	1.09186	#T:	6	DSTSS:	397479372	DETSS:	398452744	DTSS:	398452751
Iteration 441
HW:	CPU	TSS:	1.10659	AT:	1.09278	#T:	6	DSTSS:	398452760	DETSS:	399423954	DTSS:	399423961
Iteration 442
HW:	CPU	TSS:	1.1064	AT:	1.09286	#T:	6	DSTSS:	399423970	DETSS:	400396118	DTSS:	400396125
Iteration 443
HW:	CPU	TSS:	1.10622	AT:	1.0929	#T:	6	DSTSS:	400396134	DETSS:	401367768	DTSS:	401367775
Iteration 444
HW:	CPU	TSS:	1.10603	AT:	1.09309	#T:	6	DSTSS:	401367784	DETSS:	402339964	DTSS:	402339971
Iteration 445
HW:	CPU	TSS:	1.10584	AT:	1.09309	#T:	6	DSTSS:	402339980	DETSS:	403312301	DTSS:	403312308
Iteration 446
HW:	CPU	TSS:	1.10566	AT:	1.09314	#T:	6	DSTSS:	403312317	DETSS:	404284679	DTSS:	404284685
Iteration 447
HW:	CPU	TSS:	1.10547	AT:	1.09311	#T:	6	DSTSS:	404284694	DETSS:	405255879	DTSS:	405255885
Iteration 448
HW:	CPU	TSS:	1.10529	AT:	1.093	#T:	6	DSTSS:	405255894	DETSS:	406229524	DTSS:	406229531
Iteration 449
HW:	CPU	TSS:	1.1051	AT:	1.09306	#T:	6	DSTSS:	406229540	DETSS:	407201863	DTSS:	407201869
Iteration 450
HW:	CPU	TSS:	1.10491	AT:	1.09277	#T:	6	DSTSS:	407201879	DETSS:	408178182	DTSS:	408178188
Iteration 451
HW:	CPU	TSS:	1.10473	AT:	1.09273	#T:	6	DSTSS:	408178197	DETSS:	409150257	DTSS:	409150264
Iteration 452
HW:	CPU	TSS:	1.10455	AT:	1.09257	#T:	6	DSTSS:	409150273	DETSS:	410123492	DTSS:	410123499
Iteration 453
HW:	CPU	TSS:	1.10437	AT:	1.09267	#T:	6	DSTSS:	410123508	DETSS:	411094140	DTSS:	411094147
Iteration 454
HW:	CPU	TSS:	1.10419	AT:	1.09268	#T:	6	DSTSS:	411094156	DETSS:	412066315	DTSS:	412066321
Iteration 455
HW:	CPU	TSS:	1.10401	AT:	1.0926	#T:	6	DSTSS:	412066330	DETSS:	413038613	DTSS:	413038619
Iteration 456
HW:	CPU	TSS:	1.10379	AT:	1.09157	#T:	6	DSTSS:	413038629	DETSS:	414026609	DTSS:	414026616
Iteration 457
HW:	CPU	TSS:	1.10361	AT:	1.09142	#T:	6	DSTSS:	414026625	DETSS:	414999985	DTSS:	414999992
Iteration 458
HW:	CPU	TSS:	1.10345	AT:	1.09159	#T:	6	DSTSS:	415000001	DETSS:	415969663	DTSS:	415969670
Iteration 459
HW:	CPU	TSS:	1.10327	AT:	1.09146	#T:	6	DSTSS:	415969679	DETSS:	416943276	DTSS:	416943282
Iteration 460
HW:	CPU	TSS:	1.10309	AT:	1.09147	#T:	6	DSTSS:	416943291	DETSS:	417915357	DTSS:	417915364
Iteration 461
HW:	CPU	TSS:	1.10292	AT:	1.09148	#T:	6	DSTSS:	417915374	DETSS:	418887447	DTSS:	418887454
Iteration 462
HW:	CPU	TSS:	1.10275	AT:	1.09143	#T:	6	DSTSS:	418887463	DETSS:	419860562	DTSS:	419860568
Iteration 463
HW:	CPU	TSS:	1.10258	AT:	1.09147	#T:	6	DSTSS:	419860577	DETSS:	420831184	DTSS:	420831190
Iteration 464
HW:	CPU	TSS:	1.10241	AT:	1.0916	#T:	6	DSTSS:	420831199	DETSS:	421804222	DTSS:	421804229
Iteration 465
HW:	CPU	TSS:	1.10224	AT:	1.09164	#T:	6	DSTSS:	421804238	DETSS:	422775931	DTSS:	422775938
Iteration 466
HW:	CPU	TSS:	1.10207	AT:	1.09185	#T:	6	DSTSS:	422775947	DETSS:	423748093	DTSS:	423748099
Iteration 467
HW:	CPU	TSS:	1.1019	AT:	1.09184	#T:	6	DSTSS:	423748108	DETSS:	424720341	DTSS:	424720347
Iteration 468
HW:	CPU	TSS:	1.10173	AT:	1.09202	#T:	6	DSTSS:	424720356	DETSS:	425692221	DTSS:	425692228
Iteration 469
HW:	CPU	TSS:	1.10157	AT:	1.09192	#T:	6	DSTSS:	425692237	DETSS:	426664307	DTSS:	426664314
Iteration 470
HW:	CPU	TSS:	1.1014	AT:	1.09194	#T:	6	DSTSS:	426664323	DETSS:	427636227	DTSS:	427636234
Iteration 471
HW:	CPU	TSS:	1.10124	AT:	1.09194	#T:	6	DSTSS:	427636243	DETSS:	428608411	DTSS:	428608418
Iteration 472
HW:	CPU	TSS:	1.10107	AT:	1.09306	#T:	6	DSTSS:	428608426	DETSS:	429580541	DTSS:	429580548
Iteration 473
HW:	CPU	TSS:	1.10091	AT:	1.09316	#T:	6	DSTSS:	429580557	DETSS:	430552545	DTSS:	430552552
Iteration 474
HW:	CPU	TSS:	1.10075	AT:	1.09297	#T:	6	DSTSS:	430552561	DETSS:	431523553	DTSS:	431523560
Iteration 475
HW:	CPU	TSS:	1.10059	AT:	1.09316	#T:	6	DSTSS:	431523569	DETSS:	432494503	DTSS:	432494509
Iteration 476
HW:	CPU	TSS:	1.10043	AT:	1.09317	#T:	6	DSTSS:	432494518	DETSS:	433467698	DTSS:	433467704
Iteration 477
HW:	CPU	TSS:	1.10027	AT:	1.09307	#T:	6	DSTSS:	433467714	DETSS:	434440014	DTSS:	434440021
Iteration 478
HW:	CPU	TSS:	1.10011	AT:	1.09322	#T:	6	DSTSS:	434440030	DETSS:	435412189	DTSS:	435412196
Iteration 479
HW:	CPU	TSS:	1.09995	AT:	1.09309	#T:	6	DSTSS:	435412205	DETSS:	436384647	DTSS:	436384654
Iteration 480
HW:	CPU	TSS:	1.09979	AT:	1.09307	#T:	6	DSTSS:	436384662	DETSS:	437356848	DTSS:	437356855
Iteration 481
HW:	CPU	TSS:	1.09963	AT:	1.09304	#T:	6	DSTSS:	437356864	DETSS:	438328850	DTSS:	438328856
Iteration 482
HW:	CPU	TSS:	1.09947	AT:	1.09311	#T:	6	DSTSS:	438328865	DETSS:	439301338	DTSS:	439301344
Iteration 483
HW:	CPU	TSS:	1.09932	AT:	1.09311	#T:	6	DSTSS:	439301353	DETSS:	440273484	DTSS:	440273490
Iteration 484
HW:	CPU	TSS:	1.09916	AT:	1.09301	#T:	6	DSTSS:	440273500	DETSS:	441245548	DTSS:	441245555
Iteration 485
HW:	CPU	TSS:	1.09901	AT:	1.09292	#T:	6	DSTSS:	441245564	DETSS:	442217735	DTSS:	442217741
Iteration 486
HW:	CPU	TSS:	1.09885	AT:	1.09298	#T:	6	DSTSS:	442217750	DETSS:	443190016	DTSS:	443190022
Iteration 487
HW:	CPU	TSS:	1.0987	AT:	1.09299	#T:	6	DSTSS:	443190032	DETSS:	444162098	DTSS:	444162105
Iteration 488
HW:	CPU	TSS:	1.09855	AT:	1.09298	#T:	6	DSTSS:	444162114	DETSS:	445133074	DTSS:	445133081
Iteration 489
HW:	CPU	TSS:	1.0984	AT:	1.09307	#T:	6	DSTSS:	445133089	DETSS:	446105094	DTSS:	446105101
Iteration 490
HW:	CPU	TSS:	1.09824	AT:	1.09298	#T:	6	DSTSS:	446105109	DETSS:	447077311	DTSS:	447077318
Iteration 491
HW:	CPU	TSS:	1.09809	AT:	1.09292	#T:	6	DSTSS:	447077327	DETSS:	448049222	DTSS:	448049229
Iteration 492
HW:	CPU	TSS:	1.09795	AT:	1.09298	#T:	6	DSTSS:	448049238	DETSS:	449020238	DTSS:	449020245
Iteration 493
HW:	CPU	TSS:	1.09779	AT:	1.09298	#T:	6	DSTSS:	449020254	DETSS:	449993757	DTSS:	449993764
Iteration 494
HW:	CPU	TSS:	1.0976	AT:	1.09172	#T:	6	DSTSS:	449993772	DETSS:	450982642	DTSS:	450982649
Iteration 495
HW:	CPU	TSS:	1.09746	AT:	1.09177	#T:	6	DSTSS:	450982658	DETSS:	451954450	DTSS:	451954456
Iteration 496
HW:	CPU	TSS:	1.0973	AT:	1.09161	#T:	6	DSTSS:	451954465	DETSS:	452928947	DTSS:	452928953
Iteration 497
HW:	CPU	TSS:	1.09716	AT:	1.0917	#T:	6	DSTSS:	452928962	DETSS:	453899625	DTSS:	453899632
Iteration 498
HW:	CPU	TSS:	1.09701	AT:	1.09164	#T:	6	DSTSS:	453899641	DETSS:	454872996	DTSS:	454873003
Iteration 499
HW:	CPU	TSS:	1.09686	AT:	1.09164	#T:	6	DSTSS:	454873012	DETSS:	455845176	DTSS:	455845182
