StartAllocTime:	174025811
EndAllocTime:	174035525
TotalAllocTime:	0.009714
StartDeallocTime:	371651252
EndDeallocTime:	371654849
TotalDeallocTime:	0.003597
StartExecTime:	174035527
EndExecTime:	371651249
TotalExecTime:	197.616
Iteration 0
HW:	CPU	TSS:	1.09677	AT:	0	#T:	4	DSTSS:	10	DETSS:	911762	DTSS:	911766
Iteration 1
HW:	CPU	TSS:	0.993195	AT:	1.81488	#T:	4	DSTSS:	911791	DETSS:	2013697	DTSS:	2013703
Iteration 2
HW:	CPU	TSS:	0.964009	AT:	1.36345	#T:	4	DSTSS:	2013730	DETSS:	3111996	DTSS:	3112004
Iteration 3
HW:	CPU	TSS:	0.951386	AT:	1.2148	#T:	4	DSTSS:	3112032	DETSS:	4204387	DTSS:	4204392
Iteration 4
HW:	CPU	TSS:	1.09518	AT:	1.36845	#T:	4	DSTSS:	4204401	DETSS:	4565449	DTSS:	4565455
Iteration 5
HW:	CPU	TSS:	1.2165	AT:	1.49235	#T:	4	DSTSS:	4565473	DETSS:	4932169	DTSS:	4932174
Iteration 6
HW:	CPU	TSS:	1.3323	AT:	1.61202	#T:	4	DSTSS:	4932183	DETSS:	5254057	DTSS:	5254063
Iteration 7
HW:	CPU	TSS:	1.44463	AT:	1.72933	#T:	27	DSTSS:	5254070	DETSS:	5537748	DTSS:	5537753
Iteration 8
HW:	CPU	TSS:	1.54378	AT:	1.82996	#T:	27	DSTSS:	5537761	DETSS:	5829824	DTSS:	5829829
Iteration 9
HW:	CPU	TSS:	1.63433	AT:	1.92047	#T:	27	DSTSS:	5829845	DETSS:	6118727	DTSS:	6118732
Iteration 10
HW:	CPU	TSS:	1.71667	AT:	2.00143	#T:	27	DSTSS:	6118740	DETSS:	6407735	DTSS:	6407740
Iteration 11
HW:	CPU	TSS:	1.79191	AT:	2.0743	#T:	27	DSTSS:	6407748	DETSS:	6696769	DTSS:	6696775
Iteration 12
HW:	CPU	TSS:	1.86272	AT:	2.14262	#T:	6	DSTSS:	6696783	DETSS:	6979021	DTSS:	6979026
Iteration 13
HW:	CPU	TSS:	1.84984	AT:	2.1032	#T:	6	DSTSS:	6979032	DETSS:	7568199	DTSS:	7568203
Iteration 14
HW:	CPU	TSS:	1.84148	AT:	2.07355	#T:	6	DSTSS:	7568209	DETSS:	8145638	DTSS:	8145642
Iteration 15
HW:	CPU	TSS:	1.84321	AT:	2.05951	#T:	5	DSTSS:	8145648	DETSS:	8680509	DTSS:	8680513
Iteration 16
HW:	CPU	TSS:	1.84091	AT:	2.04256	#T:	5	DSTSS:	8680519	DETSS:	9234561	DTSS:	9234565
Iteration 17
HW:	CPU	TSS:	1.8424	AT:	2.1918	#T:	5	DSTSS:	9234583	DETSS:	9769848	DTSS:	9769852
Iteration 18
HW:	CPU	TSS:	1.83761	AT:	2.35212	#T:	6	DSTSS:	9769858	DETSS:	10339487	DTSS:	10339492
Iteration 19
HW:	CPU	TSS:	1.83082	AT:	2.52989	#T:	6	DSTSS:	10339499	DETSS:	10924037	DTSS:	10924043
Iteration 20
HW:	CPU	TSS:	1.83343	AT:	2.46788	#T:	6	DSTSS:	10924049	DETSS:	11453955	DTSS:	11453961
Iteration 21
HW:	CPU	TSS:	1.82785	AT:	2.39308	#T:	9	DSTSS:	11453968	DETSS:	12035999	DTSS:	12036008
Iteration 22
HW:	CPU	TSS:	1.83898	AT:	2.34391	#T:	9	DSTSS:	12036025	DETSS:	12506903	DTSS:	12506909
Iteration 23
HW:	CPU	TSS:	1.85432	AT:	2.29575	#T:	9	DSTSS:	12506918	DETSS:	12942751	DTSS:	12942758
Iteration 24
HW:	CPU	TSS:	1.86951	AT:	2.25385	#T:	9	DSTSS:	12942766	DETSS:	13372482	DTSS:	13372488
Iteration 25
HW:	CPU	TSS:	1.88382	AT:	2.21267	#T:	23	DSTSS:	13372495	DETSS:	13801755	DTSS:	13801761
Iteration 26
HW:	CPU	TSS:	1.90098	AT:	2.18075	#T:	23	DSTSS:	13801769	DETSS:	14203229	DTSS:	14203236
Iteration 27
HW:	CPU	TSS:	1.92536	AT:	2.16672	#T:	23	DSTSS:	14203245	DETSS:	14542726	DTSS:	14542731
Iteration 28
HW:	CPU	TSS:	1.94865	AT:	2.15107	#T:	23	DSTSS:	14542739	DETSS:	14882061	DTSS:	14882066
Iteration 29
HW:	CPU	TSS:	1.9709	AT:	2.22128	#T:	23	DSTSS:	14882074	DETSS:	15221446	DTSS:	15221452
Iteration 30
HW:	CPU	TSS:	1.99217	AT:	2.29257	#T:	23	DSTSS:	15221459	DETSS:	15560898	DTSS:	15560904
Iteration 31
HW:	CPU	TSS:	2.01255	AT:	2.35467	#T:	23	DSTSS:	15560911	DETSS:	15900204	DTSS:	15900210
Iteration 32
HW:	CPU	TSS:	2.03207	AT:	2.42681	#T:	23	DSTSS:	15900218	DETSS:	16239624	DTSS:	16239630
Iteration 33
HW:	CPU	TSS:	2.05077	AT:	2.49659	#T:	23	DSTSS:	16239663	DETSS:	16579128	DTSS:	16579133
Iteration 34
HW:	CPU	TSS:	2.06874	AT:	2.58396	#T:	23	DSTSS:	16579141	DETSS:	16918540	DTSS:	16918546
Iteration 35
HW:	CPU	TSS:	2.08598	AT:	2.68393	#T:	23	DSTSS:	16918554	DETSS:	17258043	DTSS:	17258049
Iteration 36
HW:	CPU	TSS:	2.10257	AT:	2.76713	#T:	23	DSTSS:	17258057	DETSS:	17597514	DTSS:	17597519
Iteration 37
HW:	CPU	TSS:	2.11853	AT:	2.88089	#T:	23	DSTSS:	17597527	DETSS:	17936931	DTSS:	17936937
Iteration 38
HW:	CPU	TSS:	2.13389	AT:	2.94649	#T:	23	DSTSS:	17936944	DETSS:	18276485	DTSS:	18276491
Iteration 39
HW:	CPU	TSS:	2.1487	AT:	2.99655	#T:	23	DSTSS:	18276498	DETSS:	18615942	DTSS:	18615948
Iteration 40
HW:	CPU	TSS:	2.16296	AT:	3.04493	#T:	23	DSTSS:	18615956	DETSS:	18955537	DTSS:	18955542
Iteration 41
HW:	CPU	TSS:	2.17671	AT:	3.09462	#T:	23	DSTSS:	18955550	DETSS:	19295156	DTSS:	19295162
Iteration 42
HW:	CPU	TSS:	2.19001	AT:	3.12996	#T:	23	DSTSS:	19295169	DETSS:	19634617	DTSS:	19634623
Iteration 43
HW:	CPU	TSS:	2.20286	AT:	3.13002	#T:	23	DSTSS:	19634631	DETSS:	19974007	DTSS:	19974013
Iteration 44
HW:	CPU	TSS:	2.21528	AT:	3.12995	#T:	23	DSTSS:	19974020	DETSS:	20313465	DTSS:	20313471
Iteration 45
HW:	CPU	TSS:	2.2273	AT:	3.12995	#T:	23	DSTSS:	20313479	DETSS:	20652849	DTSS:	20652854
Iteration 46
HW:	CPU	TSS:	2.23891	AT:	3.12994	#T:	23	DSTSS:	20652861	DETSS:	20992309	DTSS:	20992315
Iteration 47
HW:	CPU	TSS:	2.25017	AT:	3.12987	#T:	23	DSTSS:	20992322	DETSS:	21331732	DTSS:	21331738
Iteration 48
HW:	CPU	TSS:	2.26107	AT:	3.12987	#T:	23	DSTSS:	21331746	DETSS:	21671164	DTSS:	21671170
Iteration 49
HW:	CPU	TSS:	2.27161	AT:	3.12977	#T:	23	DSTSS:	21671179	DETSS:	22010833	DTSS:	22010839
Iteration 50
HW:	CPU	TSS:	2.28181	AT:	3.12953	#T:	23	DSTSS:	22010847	DETSS:	22350665	DTSS:	22350671
Iteration 51
HW:	CPU	TSS:	2.29173	AT:	3.12946	#T:	23	DSTSS:	22350679	DETSS:	22690285	DTSS:	22690291
Iteration 52
HW:	CPU	TSS:	2.30137	AT:	3.12944	#T:	23	DSTSS:	22690351	DETSS:	23029799	DTSS:	23029804
Iteration 53
HW:	CPU	TSS:	2.31072	AT:	3.12937	#T:	23	DSTSS:	23029812	DETSS:	23369332	DTSS:	23369338
Iteration 54
HW:	CPU	TSS:	2.31981	AT:	3.12942	#T:	23	DSTSS:	23369346	DETSS:	23708799	DTSS:	23708805
Iteration 55
HW:	CPU	TSS:	2.32864	AT:	3.12936	#T:	23	DSTSS:	23708813	DETSS:	24048361	DTSS:	24048367
Iteration 56
HW:	CPU	TSS:	2.33724	AT:	3.12949	#T:	23	DSTSS:	24048375	DETSS:	24387735	DTSS:	24387741
Iteration 57
HW:	CPU	TSS:	2.34559	AT:	3.12955	#T:	23	DSTSS:	24387748	DETSS:	24727248	DTSS:	24727254
Iteration 58
HW:	CPU	TSS:	2.35372	AT:	3.12958	#T:	23	DSTSS:	24727262	DETSS:	25066660	DTSS:	25066666
Iteration 59
HW:	CPU	TSS:	2.36161	AT:	3.12938	#T:	23	DSTSS:	25066674	DETSS:	25406402	DTSS:	25406408
Iteration 60
HW:	CPU	TSS:	2.36932	AT:	3.12941	#T:	23	DSTSS:	25406416	DETSS:	25745800	DTSS:	25745806
Iteration 61
HW:	CPU	TSS:	2.37682	AT:	3.12937	#T:	23	DSTSS:	25745814	DETSS:	26085255	DTSS:	26085261
Iteration 62
HW:	CPU	TSS:	2.3841	AT:	3.1292	#T:	23	DSTSS:	26085269	DETSS:	26425016	DTSS:	26425022
Iteration 63
HW:	CPU	TSS:	2.3912	AT:	3.129	#T:	23	DSTSS:	26425030	DETSS:	26764783	DTSS:	26764789
Iteration 64
HW:	CPU	TSS:	2.39813	AT:	3.12886	#T:	23	DSTSS:	26764796	DETSS:	27104452	DTSS:	27104457
Iteration 65
HW:	CPU	TSS:	2.40489	AT:	3.12888	#T:	23	DSTSS:	27104535	DETSS:	27444080	DTSS:	27444086
Iteration 66
HW:	CPU	TSS:	2.41151	AT:	3.12914	#T:	23	DSTSS:	27444093	DETSS:	27783471	DTSS:	27783477
Iteration 67
HW:	CPU	TSS:	2.41796	AT:	3.12927	#T:	23	DSTSS:	27783485	DETSS:	28122867	DTSS:	28122873
Iteration 68
HW:	CPU	TSS:	2.42427	AT:	3.12937	#T:	23	DSTSS:	28122881	DETSS:	28462206	DTSS:	28462212
Iteration 69
HW:	CPU	TSS:	2.43042	AT:	3.12948	#T:	23	DSTSS:	28462220	DETSS:	28801553	DTSS:	28801559
Iteration 70
HW:	CPU	TSS:	2.43643	AT:	3.1295	#T:	23	DSTSS:	28801566	DETSS:	29140987	DTSS:	29140993
Iteration 71
HW:	CPU	TSS:	2.44076	AT:	3.1189	#T:	23	DSTSS:	29141000	DETSS:	29498997	DTSS:	29499003
Iteration 72
HW:	CPU	TSS:	2.44649	AT:	3.11876	#T:	23	DSTSS:	29499011	DETSS:	29838613	DTSS:	29838618
Iteration 73
HW:	CPU	TSS:	2.45211	AT:	3.11879	#T:	23	DSTSS:	29838626	DETSS:	30178073	DTSS:	30178078
Iteration 74
HW:	CPU	TSS:	2.45759	AT:	3.11868	#T:	23	DSTSS:	30178086	DETSS:	30517675	DTSS:	30517681
Iteration 75
HW:	CPU	TSS:	2.46296	AT:	3.11882	#T:	23	DSTSS:	30517688	DETSS:	30857184	DTSS:	30857190
Iteration 76
HW:	CPU	TSS:	2.46821	AT:	3.11879	#T:	23	DSTSS:	30857197	DETSS:	31196637	DTSS:	31196643
Iteration 77
HW:	CPU	TSS:	2.47334	AT:	3.1187	#T:	23	DSTSS:	31196651	DETSS:	31536250	DTSS:	31536256
Iteration 78
HW:	CPU	TSS:	2.47838	AT:	3.1189	#T:	23	DSTSS:	31536264	DETSS:	31875652	DTSS:	31875658
Iteration 79
HW:	CPU	TSS:	2.48332	AT:	3.11916	#T:	23	DSTSS:	31875665	DETSS:	32214968	DTSS:	32214974
Iteration 80
HW:	CPU	TSS:	2.48814	AT:	3.11929	#T:	23	DSTSS:	32214981	DETSS:	32554406	DTSS:	32554411
Iteration 81
HW:	CPU	TSS:	2.49287	AT:	3.11941	#T:	23	DSTSS:	32554418	DETSS:	32893830	DTSS:	32893835
Iteration 82
HW:	CPU	TSS:	2.49749	AT:	3.11933	#T:	23	DSTSS:	32893843	DETSS:	33233368	DTSS:	33233373
Iteration 83
HW:	CPU	TSS:	2.50201	AT:	3.11917	#T:	23	DSTSS:	33233382	DETSS:	33573035	DTSS:	33573041
Iteration 84
HW:	CPU	TSS:	2.50645	AT:	3.1191	#T:	23	DSTSS:	33573048	DETSS:	33912491	DTSS:	33912497
Iteration 85
HW:	CPU	TSS:	2.5108	AT:	3.11898	#T:	23	DSTSS:	33912504	DETSS:	34252050	DTSS:	34252057
Iteration 86
HW:	CPU	TSS:	2.51506	AT:	3.11893	#T:	23	DSTSS:	34252064	DETSS:	34591566	DTSS:	34591572
Iteration 87
HW:	CPU	TSS:	2.51925	AT:	3.12959	#T:	23	DSTSS:	34591579	DETSS:	34931015	DTSS:	34931020
Iteration 88
HW:	CPU	TSS:	2.52335	AT:	3.12966	#T:	23	DSTSS:	34931029	DETSS:	35270507	DTSS:	35270513
Iteration 89
HW:	CPU	TSS:	2.52738	AT:	3.12965	#T:	23	DSTSS:	35270520	DETSS:	35609986	DTSS:	35609992
Iteration 90
HW:	CPU	TSS:	2.53134	AT:	3.12983	#T:	23	DSTSS:	35610000	DETSS:	35949279	DTSS:	35949285
Iteration 91
HW:	CPU	TSS:	2.53523	AT:	3.1299	#T:	23	DSTSS:	35949292	DETSS:	36288661	DTSS:	36288667
Iteration 92
HW:	CPU	TSS:	2.53904	AT:	3.12996	#T:	23	DSTSS:	36288674	DETSS:	36628017	DTSS:	36628022
Iteration 93
HW:	CPU	TSS:	2.54278	AT:	3.13005	#T:	23	DSTSS:	36628030	DETSS:	36967468	DTSS:	36967474
Iteration 94
HW:	CPU	TSS:	2.54643	AT:	3.12993	#T:	23	DSTSS:	36967482	DETSS:	37307092	DTSS:	37307097
Iteration 95
HW:	CPU	TSS:	2.55003	AT:	3.12984	#T:	23	DSTSS:	37307104	DETSS:	37646552	DTSS:	37646558
Iteration 96
HW:	CPU	TSS:	2.55358	AT:	3.12988	#T:	23	DSTSS:	37646565	DETSS:	37985930	DTSS:	37985936
Iteration 97
HW:	CPU	TSS:	2.55704	AT:	3.12974	#T:	23	DSTSS:	37985945	DETSS:	38325595	DTSS:	38325601
Iteration 98
HW:	CPU	TSS:	2.56043	AT:	3.12959	#T:	23	DSTSS:	38325609	DETSS:	38665394	DTSS:	38665399
Iteration 99
HW:	CPU	TSS:	2.56379	AT:	3.12977	#T:	23	DSTSS:	38665407	DETSS:	39004738	DTSS:	39004744
Iteration 100
HW:	CPU	TSS:	2.56709	AT:	3.12982	#T:	23	DSTSS:	39004752	DETSS:	39344112	DTSS:	39344118
Iteration 101
HW:	CPU	TSS:	2.57032	AT:	3.12981	#T:	23	DSTSS:	39344125	DETSS:	39683696	DTSS:	39683702
Iteration 102
HW:	CPU	TSS:	2.57352	AT:	3.12989	#T:	23	DSTSS:	39683709	DETSS:	40023065	DTSS:	40023070
Iteration 103
HW:	CPU	TSS:	2.57664	AT:	3.12983	#T:	23	DSTSS:	40023078	DETSS:	40362627	DTSS:	40362632
Iteration 104
HW:	CPU	TSS:	2.57972	AT:	3.12986	#T:	23	DSTSS:	40362640	DETSS:	40702055	DTSS:	40702060
Iteration 105
HW:	CPU	TSS:	2.58275	AT:	3.12986	#T:	23	DSTSS:	40702068	DETSS:	41041538	DTSS:	41041544
Iteration 106
HW:	CPU	TSS:	2.58572	AT:	3.12973	#T:	23	DSTSS:	41041552	DETSS:	41381050	DTSS:	41381056
Iteration 107
HW:	CPU	TSS:	2.58865	AT:	3.12966	#T:	23	DSTSS:	41381063	DETSS:	41720558	DTSS:	41720563
Iteration 108
HW:	CPU	TSS:	2.59155	AT:	3.12971	#T:	23	DSTSS:	41720571	DETSS:	42059837	DTSS:	42059843
Iteration 109
HW:	CPU	TSS:	2.59436	AT:	3.12951	#T:	23	DSTSS:	42059850	DETSS:	42399630	DTSS:	42399636
Iteration 110
HW:	CPU	TSS:	2.59714	AT:	3.12943	#T:	23	DSTSS:	42399643	DETSS:	42739396	DTSS:	42739402
Iteration 111
HW:	CPU	TSS:	2.59986	AT:	3.12919	#T:	23	DSTSS:	42739409	DETSS:	43079261	DTSS:	43079267
Iteration 112
HW:	CPU	TSS:	2.60253	AT:	3.12884	#T:	23	DSTSS:	43079274	DETSS:	43419248	DTSS:	43419254
Iteration 113
HW:	CPU	TSS:	2.6052	AT:	3.12901	#T:	23	DSTSS:	43419261	DETSS:	43758622	DTSS:	43758627
Iteration 114
HW:	CPU	TSS:	2.60782	AT:	3.12917	#T:	23	DSTSS:	43758635	DETSS:	44098151	DTSS:	44098157
Iteration 115
HW:	CPU	TSS:	2.61041	AT:	3.12915	#T:	23	DSTSS:	44098164	DETSS:	44437525	DTSS:	44437531
Iteration 116
HW:	CPU	TSS:	2.61294	AT:	3.12903	#T:	23	DSTSS:	44437539	DETSS:	44777101	DTSS:	44777106
Iteration 117
HW:	CPU	TSS:	2.61544	AT:	3.12906	#T:	23	DSTSS:	44777114	DETSS:	45116629	DTSS:	45116635
Iteration 118
HW:	CPU	TSS:	2.61791	AT:	3.12903	#T:	23	DSTSS:	45116642	DETSS:	45456059	DTSS:	45456065
Iteration 119
HW:	CPU	TSS:	2.62035	AT:	3.12913	#T:	23	DSTSS:	45456073	DETSS:	45795454	DTSS:	45795460
Iteration 120
HW:	CPU	TSS:	2.62275	AT:	3.12916	#T:	23	DSTSS:	45795467	DETSS:	46134830	DTSS:	46134836
Iteration 121
HW:	CPU	TSS:	2.62511	AT:	3.12917	#T:	23	DSTSS:	46134844	DETSS:	46474291	DTSS:	46474297
Iteration 122
HW:	CPU	TSS:	2.62743	AT:	3.12913	#T:	23	DSTSS:	46474304	DETSS:	46813875	DTSS:	46813881
Iteration 123
HW:	CPU	TSS:	2.62972	AT:	3.12914	#T:	23	DSTSS:	46813889	DETSS:	47153365	DTSS:	47153370
Iteration 124
HW:	CPU	TSS:	2.63197	AT:	3.12901	#T:	23	DSTSS:	47153378	DETSS:	47492871	DTSS:	47492877
Iteration 125
HW:	CPU	TSS:	2.6342	AT:	3.1292	#T:	23	DSTSS:	47492885	DETSS:	47832332	DTSS:	47832338
Iteration 126
HW:	CPU	TSS:	2.6364	AT:	3.12937	#T:	23	DSTSS:	47832345	DETSS:	48171807	DTSS:	48171813
Iteration 127
HW:	CPU	TSS:	2.63857	AT:	3.12963	#T:	23	DSTSS:	48171820	DETSS:	48511205	DTSS:	48511210
Iteration 128
HW:	CPU	TSS:	2.6407	AT:	3.12995	#T:	23	DSTSS:	48511218	DETSS:	48850649	DTSS:	48850655
Iteration 129
HW:	CPU	TSS:	2.6428	AT:	3.12984	#T:	23	DSTSS:	48850804	DETSS:	49190202	DTSS:	49190208
Iteration 130
HW:	CPU	TSS:	2.64488	AT:	3.12989	#T:	23	DSTSS:	49190215	DETSS:	49529650	DTSS:	49529656
Iteration 131
HW:	CPU	TSS:	2.64693	AT:	3.12987	#T:	23	DSTSS:	49529663	DETSS:	49869054	DTSS:	49869059
Iteration 132
HW:	CPU	TSS:	2.64895	AT:	3.12996	#T:	23	DSTSS:	49869066	DETSS:	50208481	DTSS:	50208487
Iteration 133
HW:	CPU	TSS:	2.65094	AT:	3.12995	#T:	23	DSTSS:	50208494	DETSS:	50548029	DTSS:	50548034
Iteration 134
HW:	CPU	TSS:	2.65291	AT:	3.12995	#T:	23	DSTSS:	50548042	DETSS:	50887464	DTSS:	50887470
Iteration 135
HW:	CPU	TSS:	2.65485	AT:	3.12986	#T:	23	DSTSS:	50887478	DETSS:	51227010	DTSS:	51227015
Iteration 136
HW:	CPU	TSS:	2.65676	AT:	3.1298	#T:	23	DSTSS:	51227023	DETSS:	51566491	DTSS:	51566496
Iteration 137
HW:	CPU	TSS:	2.65866	AT:	3.12981	#T:	23	DSTSS:	51566504	DETSS:	51905938	DTSS:	51905944
Iteration 138
HW:	CPU	TSS:	2.66051	AT:	3.12978	#T:	23	DSTSS:	51905952	DETSS:	52245565	DTSS:	52245570
Iteration 139
HW:	CPU	TSS:	2.66236	AT:	3.12984	#T:	23	DSTSS:	52245578	DETSS:	52584950	DTSS:	52584955
Iteration 140
HW:	CPU	TSS:	2.66418	AT:	3.12994	#T:	23	DSTSS:	52584963	DETSS:	52924280	DTSS:	52924286
Iteration 141
HW:	CPU	TSS:	2.66598	AT:	3.12997	#T:	23	DSTSS:	52924294	DETSS:	53263687	DTSS:	53263693
Iteration 142
HW:	CPU	TSS:	2.66775	AT:	3.12995	#T:	23	DSTSS:	53263701	DETSS:	53603213	DTSS:	53603219
Iteration 143
HW:	CPU	TSS:	2.6695	AT:	3.12993	#T:	23	DSTSS:	53603227	DETSS:	53942635	DTSS:	53942640
Iteration 144
HW:	CPU	TSS:	2.67122	AT:	3.12975	#T:	23	DSTSS:	53942648	DETSS:	54282393	DTSS:	54282398
Iteration 145
HW:	CPU	TSS:	2.67292	AT:	3.12982	#T:	23	DSTSS:	54282406	DETSS:	54621827	DTSS:	54621833
Iteration 146
HW:	CPU	TSS:	2.67461	AT:	3.1298	#T:	23	DSTSS:	54621841	DETSS:	54961311	DTSS:	54961316
Iteration 147
HW:	CPU	TSS:	2.67627	AT:	3.12976	#T:	23	DSTSS:	54961324	DETSS:	55300789	DTSS:	55300795
Iteration 148
HW:	CPU	TSS:	2.67792	AT:	3.12976	#T:	23	DSTSS:	55300803	DETSS:	55640211	DTSS:	55640216
Iteration 149
HW:	CPU	TSS:	2.67954	AT:	3.1298	#T:	23	DSTSS:	55640224	DETSS:	55979695	DTSS:	55979700
Iteration 150
HW:	CPU	TSS:	2.68115	AT:	3.12976	#T:	23	DSTSS:	55979708	DETSS:	56319198	DTSS:	56319203
Iteration 151
HW:	CPU	TSS:	2.68273	AT:	3.12982	#T:	23	DSTSS:	56319211	DETSS:	56658636	DTSS:	56658642
Iteration 152
HW:	CPU	TSS:	2.6843	AT:	3.12987	#T:	23	DSTSS:	56658649	DETSS:	56998030	DTSS:	56998035
Iteration 153
HW:	CPU	TSS:	2.68585	AT:	3.12984	#T:	23	DSTSS:	56998043	DETSS:	57337532	DTSS:	57337538
Iteration 154
HW:	CPU	TSS:	2.68738	AT:	3.12991	#T:	23	DSTSS:	57337545	DETSS:	57677037	DTSS:	57677042
Iteration 155
HW:	CPU	TSS:	2.68889	AT:	3.12987	#T:	23	DSTSS:	57677050	DETSS:	58016487	DTSS:	58016493
Iteration 156
HW:	CPU	TSS:	2.69038	AT:	3.12974	#T:	23	DSTSS:	58016501	DETSS:	58356043	DTSS:	58356049
Iteration 157
HW:	CPU	TSS:	2.69186	AT:	3.12975	#T:	23	DSTSS:	58356056	DETSS:	58695438	DTSS:	58695443
Iteration 158
HW:	CPU	TSS:	2.69332	AT:	3.12982	#T:	23	DSTSS:	58695451	DETSS:	59034843	DTSS:	59034848
Iteration 159
HW:	CPU	TSS:	2.69477	AT:	3.12984	#T:	23	DSTSS:	59034856	DETSS:	59374223	DTSS:	59374229
Iteration 160
HW:	CPU	TSS:	2.6962	AT:	3.12998	#T:	23	DSTSS:	59374236	DETSS:	59713737	DTSS:	59713743
Iteration 161
HW:	CPU	TSS:	2.69761	AT:	3.13	#T:	23	DSTSS:	59713750	DETSS:	60053135	DTSS:	60053140
Iteration 162
HW:	CPU	TSS:	2.699	AT:	3.12992	#T:	23	DSTSS:	60053176	DETSS:	60392756	DTSS:	60392762
Iteration 163
HW:	CPU	TSS:	2.70038	AT:	3.12998	#T:	23	DSTSS:	60392770	DETSS:	60732132	DTSS:	60732137
Iteration 164
HW:	CPU	TSS:	2.70175	AT:	3.12996	#T:	23	DSTSS:	60732145	DETSS:	61071591	DTSS:	61071598
Iteration 165
HW:	CPU	TSS:	2.70309	AT:	3.12992	#T:	23	DSTSS:	61071606	DETSS:	61411147	DTSS:	61411153
Iteration 166
HW:	CPU	TSS:	2.70443	AT:	3.12998	#T:	23	DSTSS:	61411160	DETSS:	61750547	DTSS:	61750552
Iteration 167
HW:	CPU	TSS:	2.70575	AT:	3.13003	#T:	23	DSTSS:	61750560	DETSS:	62089900	DTSS:	62089905
Iteration 168
HW:	CPU	TSS:	2.70706	AT:	3.12997	#T:	23	DSTSS:	62089913	DETSS:	62429399	DTSS:	62429404
Iteration 169
HW:	CPU	TSS:	2.70835	AT:	3.13002	#T:	23	DSTSS:	62429412	DETSS:	62768804	DTSS:	62768809
Iteration 170
HW:	CPU	TSS:	2.70963	AT:	3.1301	#T:	23	DSTSS:	62768817	DETSS:	63108172	DTSS:	63108178
Iteration 171
HW:	CPU	TSS:	2.71089	AT:	3.13	#T:	23	DSTSS:	63108186	DETSS:	63447801	DTSS:	63447807
Iteration 172
HW:	CPU	TSS:	2.71214	AT:	3.13006	#T:	23	DSTSS:	63447814	DETSS:	63787244	DTSS:	63787250
Iteration 173
HW:	CPU	TSS:	2.71337	AT:	3.12998	#T:	23	DSTSS:	63787258	DETSS:	64126782	DTSS:	64126787
Iteration 174
HW:	CPU	TSS:	2.7146	AT:	3.13	#T:	23	DSTSS:	64126794	DETSS:	64466161	DTSS:	64466167
Iteration 175
HW:	CPU	TSS:	2.71581	AT:	3.12993	#T:	23	DSTSS:	64466175	DETSS:	64805663	DTSS:	64805669
Iteration 176
HW:	CPU	TSS:	2.71701	AT:	3.12997	#T:	23	DSTSS:	64805677	DETSS:	65145091	DTSS:	65145097
Iteration 177
HW:	CPU	TSS:	2.71819	AT:	3.12989	#T:	23	DSTSS:	65145105	DETSS:	65484636	DTSS:	65484641
Iteration 178
HW:	CPU	TSS:	2.71937	AT:	3.13	#T:	23	DSTSS:	65484649	DETSS:	65824070	DTSS:	65824076
Iteration 179
HW:	CPU	TSS:	2.72052	AT:	3.12982	#T:	23	DSTSS:	65824084	DETSS:	66163760	DTSS:	66163766
Iteration 180
HW:	CPU	TSS:	2.72167	AT:	3.12973	#T:	23	DSTSS:	66163774	DETSS:	66503365	DTSS:	66503370
Iteration 181
HW:	CPU	TSS:	2.72281	AT:	3.12983	#T:	23	DSTSS:	66503378	DETSS:	66842747	DTSS:	66842753
Iteration 182
HW:	CPU	TSS:	2.72394	AT:	3.1298	#T:	23	DSTSS:	66842760	DETSS:	67182201	DTSS:	67182207
Iteration 183
HW:	CPU	TSS:	2.72505	AT:	3.12974	#T:	23	DSTSS:	67182215	DETSS:	67521664	DTSS:	67521670
Iteration 184
HW:	CPU	TSS:	2.72616	AT:	3.12976	#T:	23	DSTSS:	67521677	DETSS:	67861121	DTSS:	67861127
Iteration 185
HW:	CPU	TSS:	2.72725	AT:	3.12974	#T:	23	DSTSS:	67861134	DETSS:	68200569	DTSS:	68200575
Iteration 186
HW:	CPU	TSS:	2.72834	AT:	3.12973	#T:	23	DSTSS:	68200583	DETSS:	68539947	DTSS:	68539953
Iteration 187
HW:	CPU	TSS:	2.72941	AT:	3.12985	#T:	23	DSTSS:	68539960	DETSS:	68879368	DTSS:	68879374
Iteration 188
HW:	CPU	TSS:	2.73047	AT:	3.1298	#T:	23	DSTSS:	68879382	DETSS:	69218899	DTSS:	69218904
Iteration 189
HW:	CPU	TSS:	2.73151	AT:	3.12968	#T:	23	DSTSS:	69218912	DETSS:	69558646	DTSS:	69558653
Iteration 190
HW:	CPU	TSS:	2.73244	AT:	3.12808	#T:	23	DSTSS:	69558661	DETSS:	69900801	DTSS:	69900806
Iteration 191
HW:	CPU	TSS:	2.73342	AT:	3.12726	#T:	23	DSTSS:	69900814	DETSS:	70241740	DTSS:	70241746
Iteration 192
HW:	CPU	TSS:	2.73439	AT:	3.1265	#T:	23	DSTSS:	70241754	DETSS:	70582492	DTSS:	70582498
Iteration 193
HW:	CPU	TSS:	2.73538	AT:	3.1262	#T:	23	DSTSS:	70582506	DETSS:	70922557	DTSS:	70922563
Iteration 194
HW:	CPU	TSS:	2.73202	AT:	3.06218	#T:	23	DSTSS:	70922571	DETSS:	71375676	DTSS:	71375683
Iteration 195
HW:	CPU	TSS:	2.72764	AT:	2.98598	#T:	4	DSTSS:	71375692	DETSS:	71857057	DTSS:	71857067
Iteration 196
HW:	CPU	TSS:	2.66737	AT:	2.31229	#T:	4	DSTSS:	71857085	DETSS:	73855409	DTSS:	73855418
Iteration 197
HW:	CPU	TSS:	2.60217	AT:	1.83829	#T:	4	DSTSS:	73855435	DETSS:	76090456	DTSS:	76090464
Iteration 198
HW:	CPU	TSS:	2.60132	AT:	1.82456	#T:	4	DSTSS:	76090472	DETSS:	76499515	DTSS:	76499522
Iteration 199
HW:	CPU	TSS:	2.59133	AT:	1.76007	#T:	4	DSTSS:	76499532	DETSS:	77180387	DTSS:	77180394
Iteration 200
HW:	CPU	TSS:	2.58095	AT:	1.69709	#T:	4	DSTSS:	77180403	DETSS:	77878244	DTSS:	77878251
Iteration 201
HW:	CPU	TSS:	2.57029	AT:	1.63621	#T:	4	DSTSS:	77878260	DETSS:	78590436	DTSS:	78590443
Iteration 202
HW:	CPU	TSS:	2.56021	AT:	1.58133	#T:	4	DSTSS:	78590452	DETSS:	79290394	DTSS:	79290400
Iteration 203
HW:	CPU	TSS:	2.55241	AT:	1.53916	#T:	4	DSTSS:	79290409	DETSS:	79924374	DTSS:	79924380
Iteration 204
HW:	CPU	TSS:	2.54705	AT:	1.50893	#T:	12	DSTSS:	79924387	DETSS:	80485171	DTSS:	80485177
Iteration 205
HW:	CPU	TSS:	2.54553	AT:	1.4955	#T:	12	DSTSS:	80485185	DETSS:	80926077	DTSS:	80926083
Iteration 206
HW:	CPU	TSS:	2.53925	AT:	1.46307	#T:	12	DSTSS:	80926092	DETSS:	81520180	DTSS:	81520186
Iteration 207
HW:	CPU	TSS:	2.53332	AT:	1.43293	#T:	12	DSTSS:	81520194	DETSS:	82105539	DTSS:	82105545
Iteration 208
HW:	CPU	TSS:	2.52979	AT:	1.41277	#T:	8	DSTSS:	82105554	DETSS:	82615556	DTSS:	82615563
Iteration 209
HW:	CPU	TSS:	2.52086	AT:	1.37293	#T:	8	DSTSS:	82615571	DETSS:	83304807	DTSS:	83304813
Iteration 210
HW:	CPU	TSS:	2.51229	AT:	1.34799	#T:	8	DSTSS:	83304821	DETSS:	83987072	DTSS:	83987078
Iteration 211
HW:	CPU	TSS:	2.49924	AT:	1.31083	#T:	36	DSTSS:	83987086	DETSS:	84825911	DTSS:	84825920
Iteration 212
HW:	CPU	TSS:	2.49664	AT:	1.48353	#T:	36	DSTSS:	84825934	DETSS:	85314575	DTSS:	85314581
Iteration 213
HW:	CPU	TSS:	2.49679	AT:	1.76721	#T:	36	DSTSS:	85314599	DETSS:	85710162	DTSS:	85710167
Iteration 214
HW:	CPU	TSS:	2.49867	AT:	1.78081	#T:	36	DSTSS:	85710174	DETSS:	86045705	DTSS:	86045710
Iteration 215
HW:	CPU	TSS:	2.49935	AT:	1.83945	#T:	36	DSTSS:	86045716	DETSS:	86422292	DTSS:	86422297
Iteration 216
HW:	CPU	TSS:	2.49947	AT:	1.90153	#T:	35	DSTSS:	86422303	DETSS:	86818441	DTSS:	86818450
Iteration 217
HW:	CPU	TSS:	2.49926	AT:	1.96866	#T:	35	DSTSS:	86818466	DETSS:	87225747	DTSS:	87225752
Iteration 218
HW:	CPU	TSS:	2.49824	AT:	2.03077	#T:	35	DSTSS:	87225758	DETSS:	87661613	DTSS:	87661617
Iteration 219
HW:	CPU	TSS:	2.49715	AT:	2.0792	#T:	35	DSTSS:	87661622	DETSS:	88100595	DTSS:	88100599
Iteration 220
HW:	CPU	TSS:	2.49885	AT:	2.13686	#T:	35	DSTSS:	88100605	DETSS:	88440760	DTSS:	88440764
Iteration 221
HW:	CPU	TSS:	2.49772	AT:	2.13701	#T:	35	DSTSS:	88440770	DETSS:	88881101	DTSS:	88881106
Iteration 222
HW:	CPU	TSS:	2.49901	AT:	2.20342	#T:	35	DSTSS:	88881111	DETSS:	89235466	DTSS:	89235477
Iteration 223
HW:	CPU	TSS:	2.49818	AT:	2.24873	#T:	35	DSTSS:	89235483	DETSS:	89665346	DTSS:	89665350
Iteration 224
HW:	CPU	TSS:	2.49929	AT:	2.2942	#T:	35	DSTSS:	89665356	DETSS:	90025565	DTSS:	90025570
Iteration 225
HW:	CPU	TSS:	2.49819	AT:	2.37403	#T:	35	DSTSS:	90025582	DETSS:	90465622	DTSS:	90465626
Iteration 226
HW:	CPU	TSS:	2.49992	AT:	2.49416	#T:	35	DSTSS:	90465631	DETSS:	90803004	DTSS:	90803008
Iteration 227
HW:	CPU	TSS:	2.49859	AT:	2.64567	#T:	35	DSTSS:	90803014	DETSS:	91251489	DTSS:	91251493
Iteration 228
HW:	CPU	TSS:	2.50026	AT:	2.70871	#T:	35	DSTSS:	91251498	DETSS:	91590632	DTSS:	91590636
Iteration 229
HW:	CPU	TSS:	2.49948	AT:	2.69464	#T:	35	DSTSS:	91590641	DETSS:	92018983	DTSS:	92018987
Iteration 230
HW:	CPU	TSS:	2.50031	AT:	2.68019	#T:	35	DSTSS:	92018993	DETSS:	92388545	DTSS:	92388550
Iteration 231
HW:	CPU	TSS:	2.49927	AT:	2.65419	#T:	35	DSTSS:	92388556	DETSS:	92827258	DTSS:	92827262
Iteration 232
HW:	CPU	TSS:	2.50119	AT:	2.68259	#T:	35	DSTSS:	92827267	DETSS:	93155604	DTSS:	93155609
Iteration 233
HW:	CPU	TSS:	2.50015	AT:	2.66938	#T:	35	DSTSS:	93155615	DETSS:	93594264	DTSS:	93594268
Iteration 234
HW:	CPU	TSS:	2.50225	AT:	2.71825	#T:	35	DSTSS:	93594274	DETSS:	93915632	DTSS:	93915637
Iteration 235
HW:	CPU	TSS:	2.50131	AT:	2.72003	#T:	35	DSTSS:	93915643	DETSS:	94350519	DTSS:	94350523
Iteration 236
HW:	CPU	TSS:	2.50236	AT:	2.71138	#T:	35	DSTSS:	94350529	DETSS:	94710631	DTSS:	94710636
Iteration 237
HW:	CPU	TSS:	2.50182	AT:	2.72008	#T:	35	DSTSS:	94710642	DETSS:	95130927	DTSS:	95130931
Iteration 238
HW:	CPU	TSS:	2.50286	AT:	2.71775	#T:	35	DSTSS:	95130937	DETSS:	95490638	DTSS:	95490643
Iteration 239
HW:	CPU	TSS:	2.50217	AT:	2.71941	#T:	35	DSTSS:	95490649	DETSS:	95916711	DTSS:	95916715
Iteration 240
HW:	CPU	TSS:	2.50362	AT:	2.7265	#T:	35	DSTSS:	95916720	DETSS:	96260649	DTSS:	96260654
Iteration 241
HW:	CPU	TSS:	2.50268	AT:	2.7284	#T:	35	DSTSS:	96260659	DETSS:	96696382	DTSS:	96696387
Iteration 242
HW:	CPU	TSS:	2.50372	AT:	2.71886	#T:	35	DSTSS:	96696400	DETSS:	97055628	DTSS:	97055632
Iteration 243
HW:	CPU	TSS:	2.50317	AT:	2.73101	#T:	35	DSTSS:	97055638	DETSS:	97476290	DTSS:	97476294
Iteration 244
HW:	CPU	TSS:	2.50484	AT:	2.73312	#T:	35	DSTSS:	97476301	DETSS:	97810632	DTSS:	97810636
Iteration 245
HW:	CPU	TSS:	2.50365	AT:	2.72545	#T:	35	DSTSS:	97810642	DETSS:	98256478	DTSS:	98256482
Iteration 246
HW:	CPU	TSS:	2.50493	AT:	2.73439	#T:	35	DSTSS:	98256488	DETSS:	98605654	DTSS:	98605658
Iteration 247
HW:	CPU	TSS:	2.50424	AT:	2.73988	#T:	35	DSTSS:	98605664	DETSS:	99031911	DTSS:	99031916
Iteration 248
HW:	CPU	TSS:	2.50501	AT:	2.72216	#T:	35	DSTSS:	99031929	DETSS:	99400633	DTSS:	99400637
Iteration 249
HW:	CPU	TSS:	2.50399	AT:	2.72164	#T:	35	DSTSS:	99400643	DETSS:	99840499	DTSS:	99840510
Iteration 250
HW:	CPU	TSS:	2.50647	AT:	2.7309	#T:	35	DSTSS:	99840517	DETSS:	100140695	DTSS:	100140699
Iteration 251
HW:	CPU	TSS:	2.50532	AT:	2.72628	#T:	35	DSTSS:	100140705	DETSS:	100586119	DTSS:	100586124
Iteration 252
HW:	CPU	TSS:	2.50644	AT:	2.72906	#T:	35	DSTSS:	100586129	DETSS:	100939882	DTSS:	100939887
Iteration 253
HW:	CPU	TSS:	2.50543	AT:	2.7205	#T:	35	DSTSS:	100939893	DETSS:	101379769	DTSS:	101379774
Iteration 254
HW:	CPU	TSS:	2.50576	AT:	2.70918	#T:	35	DSTSS:	101379780	DETSS:	101765611	DTSS:	101765616
Iteration 255
HW:	CPU	TSS:	2.50501	AT:	2.70768	#T:	35	DSTSS:	101765622	DETSS:	102195155	DTSS:	102195160
Iteration 256
HW:	CPU	TSS:	2.5078	AT:	2.73322	#T:	35	DSTSS:	102195165	DETSS:	102480425	DTSS:	102480429
Iteration 257
HW:	CPU	TSS:	2.50691	AT:	2.73345	#T:	35	DSTSS:	102480596	DETSS:	102915628	DTSS:	102915632
Iteration 258
HW:	CPU	TSS:	2.5081	AT:	2.73761	#T:	35	DSTSS:	102915638	DETSS:	103265423	DTSS:	103265428
Iteration 259
HW:	CPU	TSS:	2.50698	AT:	2.72691	#T:	35	DSTSS:	103265434	DETSS:	103710455	DTSS:	103710459
Iteration 260
HW:	CPU	TSS:	2.50791	AT:	2.71565	#T:	35	DSTSS:	103710465	DETSS:	104070641	DTSS:	104070646
Iteration 261
HW:	CPU	TSS:	2.50656	AT:	2.71174	#T:	35	DSTSS:	104070651	DETSS:	104525533	DTSS:	104525537
Iteration 262
HW:	CPU	TSS:	2.50869	AT:	2.72874	#T:	35	DSTSS:	104525543	DETSS:	104835635	DTSS:	104835639
Iteration 263
HW:	CPU	TSS:	2.50782	AT:	2.72491	#T:	35	DSTSS:	104835645	DETSS:	105270638	DTSS:	105270642
Iteration 264
HW:	CPU	TSS:	2.50903	AT:	2.73412	#T:	35	DSTSS:	105270648	DETSS:	105618346	DTSS:	105618350
Iteration 265
HW:	CPU	TSS:	2.508	AT:	2.73313	#T:	35	DSTSS:	105618356	DETSS:	106060481	DTSS:	106060485
Iteration 266
HW:	CPU	TSS:	2.50914	AT:	2.71116	#T:	35	DSTSS:	106060491	DETSS:	106411079	DTSS:	106411083
Iteration 267
HW:	CPU	TSS:	2.50794	AT:	2.70942	#T:	35	DSTSS:	106411088	DETSS:	106860521	DTSS:	106860532
Iteration 268
HW:	CPU	TSS:	2.50931	AT:	2.71533	#T:	35	DSTSS:	106860537	DETSS:	107200639	DTSS:	107200643
Iteration 269
HW:	CPU	TSS:	2.50812	AT:	2.71099	#T:	35	DSTSS:	107200648	DETSS:	107650543	DTSS:	107650547
Iteration 270
HW:	CPU	TSS:	2.51038	AT:	2.74807	#T:	35	DSTSS:	107650563	DETSS:	107951773	DTSS:	107951777
Iteration 271
HW:	CPU	TSS:	2.50933	AT:	2.74173	#T:	35	DSTSS:	107951783	DETSS:	108395626	DTSS:	108395630
Iteration 272
HW:	CPU	TSS:	2.51079	AT:	2.71996	#T:	35	DSTSS:	108395636	DETSS:	108730530	DTSS:	108730535
Iteration 273
HW:	CPU	TSS:	2.50959	AT:	2.71322	#T:	35	DSTSS:	108730548	DETSS:	109181252	DTSS:	109181256
Iteration 274
HW:	CPU	TSS:	2.51072	AT:	2.71344	#T:	35	DSTSS:	109181262	DETSS:	109530516	DTSS:	109530521
Iteration 275
HW:	CPU	TSS:	2.50952	AT:	2.71105	#T:	35	DSTSS:	109530534	DETSS:	109981096	DTSS:	109981101
Iteration 276
HW:	CPU	TSS:	2.51085	AT:	2.71982	#T:	35	DSTSS:	109981107	DETSS:	110321057	DTSS:	110321061
Iteration 277
HW:	CPU	TSS:	2.5099	AT:	2.72626	#T:	35	DSTSS:	110321067	DETSS:	110761164	DTSS:	110761169
Iteration 278
HW:	CPU	TSS:	2.51124	AT:	2.71346	#T:	35	DSTSS:	110761176	DETSS:	111100692	DTSS:	111100696
Iteration 279
HW:	CPU	TSS:	2.51041	AT:	2.71346	#T:	35	DSTSS:	111100702	DETSS:	111535696	DTSS:	111535701
Iteration 280
HW:	CPU	TSS:	2.51187	AT:	2.71987	#T:	35	DSTSS:	111535707	DETSS:	111868650	DTSS:	111868655
Iteration 281
HW:	CPU	TSS:	2.51102	AT:	2.72233	#T:	35	DSTSS:	111868661	DETSS:	112305144	DTSS:	112305149
Iteration 282
HW:	CPU	TSS:	2.51219	AT:	2.7245	#T:	35	DSTSS:	112305156	DETSS:	112650758	DTSS:	112650762
Iteration 283
HW:	CPU	TSS:	2.51155	AT:	2.73435	#T:	35	DSTSS:	112650767	DETSS:	113077713	DTSS:	113077718
Iteration 284
HW:	CPU	TSS:	2.51211	AT:	2.72	#T:	35	DSTSS:	113077724	DETSS:	113450634	DTSS:	113450639
Iteration 285
HW:	CPU	TSS:	2.51119	AT:	2.72441	#T:	35	DSTSS:	113450644	DETSS:	113890434	DTSS:	113890439
Iteration 286
HW:	CPU	TSS:	2.51332	AT:	2.7244	#T:	35	DSTSS:	113890452	DETSS:	114191685	DTSS:	114191689
Iteration 287
HW:	CPU	TSS:	2.51242	AT:	2.72663	#T:	35	DSTSS:	114191695	DETSS:	114630432	DTSS:	114630437
Iteration 288
HW:	CPU	TSS:	2.51356	AT:	2.72178	#T:	35	DSTSS:	114630449	DETSS:	114976424	DTSS:	114976429
Iteration 289
HW:	CPU	TSS:	2.51255	AT:	2.72463	#T:	35	DSTSS:	114976435	DETSS:	115420623	DTSS:	115420628
Iteration 290
HW:	CPU	TSS:	2.51359	AT:	2.7244	#T:	35	DSTSS:	115420653	DETSS:	115770433	DTSS:	115770444
Iteration 291
HW:	CPU	TSS:	2.51291	AT:	2.73366	#T:	35	DSTSS:	115770451	DETSS:	116199869	DTSS:	116199874
Iteration 292
HW:	CPU	TSS:	2.51307	AT:	2.7115	#T:	35	DSTSS:	116199887	DETSS:	116590640	DTSS:	116590645
Iteration 293
HW:	CPU	TSS:	2.51244	AT:	2.71722	#T:	35	DSTSS:	116590650	DETSS:	117017555	DTSS:	117017560
Iteration 294
HW:	CPU	TSS:	2.51417	AT:	2.72682	#T:	35	DSTSS:	117017566	DETSS:	117335069	DTSS:	117335074
Iteration 295
HW:	CPU	TSS:	2.51318	AT:	2.72283	#T:	35	DSTSS:	117335080	DETSS:	117779207	DTSS:	117779212
Iteration 296
HW:	CPU	TSS:	2.51493	AT:	2.73035	#T:	35	DSTSS:	117779217	DETSS:	118094969	DTSS:	118094973
Iteration 297
HW:	CPU	TSS:	2.5141	AT:	2.73043	#T:	35	DSTSS:	118094978	DETSS:	118531267	DTSS:	118531271
Iteration 298
HW:	CPU	TSS:	2.51523	AT:	2.73091	#T:	35	DSTSS:	118531277	DETSS:	118875799	DTSS:	118875802
Iteration 299
HW:	CPU	TSS:	2.51433	AT:	2.72503	#T:	35	DSTSS:	118875808	DETSS:	119316169	DTSS:	119316173
Iteration 300
HW:	CPU	TSS:	2.51522	AT:	2.73272	#T:	35	DSTSS:	119316178	DETSS:	119671543	DTSS:	119671548
Iteration 301
HW:	CPU	TSS:	2.51443	AT:	2.73477	#T:	35	DSTSS:	119671553	DETSS:	120106673	DTSS:	120106678
Iteration 302
HW:	CPU	TSS:	2.51529	AT:	2.71062	#T:	35	DSTSS:	120106685	DETSS:	120463319	DTSS:	120463323
Iteration 303
HW:	CPU	TSS:	2.51435	AT:	2.70896	#T:	35	DSTSS:	120463329	DETSS:	120905902	DTSS:	120905908
Iteration 304
HW:	CPU	TSS:	2.5163	AT:	2.72729	#T:	35	DSTSS:	120905913	DETSS:	121209725	DTSS:	121209730
Iteration 305
HW:	CPU	TSS:	2.51538	AT:	2.72831	#T:	35	DSTSS:	121209735	DETSS:	121651589	DTSS:	121651594
Iteration 306
HW:	CPU	TSS:	2.51671	AT:	2.73556	#T:	35	DSTSS:	121651600	DETSS:	121984873	DTSS:	121984878
Iteration 307
HW:	CPU	TSS:	2.51568	AT:	2.7278	#T:	35	DSTSS:	121984883	DETSS:	122432001	DTSS:	122432006
Iteration 308
HW:	CPU	TSS:	2.51679	AT:	2.74859	#T:	35	DSTSS:	122432011	DETSS:	122775628	DTSS:	122775633
Iteration 309
HW:	CPU	TSS:	2.51593	AT:	2.74312	#T:	35	DSTSS:	122775638	DETSS:	123214879	DTSS:	123214883
Iteration 310
HW:	CPU	TSS:	2.51637	AT:	2.71758	#T:	35	DSTSS:	123214889	DETSS:	123590631	DTSS:	123590635
Iteration 311
HW:	CPU	TSS:	2.51557	AT:	2.72082	#T:	35	DSTSS:	123590641	DETSS:	124027340	DTSS:	124027345
Iteration 312
HW:	CPU	TSS:	2.51445	AT:	2.66221	#T:	35	DSTSS:	124027351	DETSS:	124480636	DTSS:	124480640
Iteration 313
HW:	CPU	TSS:	2.51471	AT:	2.68386	#T:	35	DSTSS:	124480645	DETSS:	124865432	DTSS:	124865437
Iteration 314
HW:	CPU	TSS:	2.51395	AT:	2.64597	#T:	35	DSTSS:	124865443	DETSS:	125300655	DTSS:	125300659
Iteration 315
HW:	CPU	TSS:	2.51499	AT:	2.68551	#T:	35	DSTSS:	125300664	DETSS:	125646441	DTSS:	125646445
Iteration 316
HW:	CPU	TSS:	2.51415	AT:	2.65013	#T:	35	DSTSS:	125646451	DETSS:	126086325	DTSS:	126086329
Iteration 317
HW:	CPU	TSS:	2.51481	AT:	2.67966	#T:	35	DSTSS:	126086335	DETSS:	126450765	DTSS:	126450769
Iteration 318
HW:	CPU	TSS:	2.51407	AT:	2.64702	#T:	35	DSTSS:	126450774	DETSS:	126885645	DTSS:	126885650
Iteration 319
HW:	CPU	TSS:	2.51482	AT:	2.6815	#T:	35	DSTSS:	126885656	DETSS:	127245632	DTSS:	127245636
Iteration 320
HW:	CPU	TSS:	2.51406	AT:	2.6266	#T:	35	DSTSS:	127245641	DETSS:	127681989	DTSS:	127681993
Iteration 321
HW:	CPU	TSS:	2.51516	AT:	2.66788	#T:	35	DSTSS:	127682000	DETSS:	128023681	DTSS:	128023686
Iteration 322
HW:	CPU	TSS:	2.51419	AT:	2.62112	#T:	35	DSTSS:	128023691	DETSS:	128470663	DTSS:	128470668
Iteration 323
HW:	CPU	TSS:	2.51474	AT:	2.65276	#T:	35	DSTSS:	128470675	DETSS:	128840432	DTSS:	128840444
Iteration 324
HW:	CPU	TSS:	2.51411	AT:	2.61743	#T:	35	DSTSS:	128840450	DETSS:	129270543	DTSS:	129270548
Iteration 325
HW:	CPU	TSS:	2.51571	AT:	2.66853	#T:	35	DSTSS:	129270553	DETSS:	129585429	DTSS:	129585434
Iteration 326
HW:	CPU	TSS:	2.51479	AT:	2.63976	#T:	35	DSTSS:	129585440	DETSS:	130030609	DTSS:	130030614
Iteration 327
HW:	CPU	TSS:	2.51671	AT:	2.69768	#T:	35	DSTSS:	130030620	DETSS:	130329048	DTSS:	130329052
Iteration 328
HW:	CPU	TSS:	2.51576	AT:	2.70057	#T:	35	DSTSS:	130329057	DETSS:	130775607	DTSS:	130775612
Iteration 329
HW:	CPU	TSS:	2.51667	AT:	2.71556	#T:	35	DSTSS:	130775617	DETSS:	131125652	DTSS:	131125657
Iteration 330
HW:	CPU	TSS:	2.51593	AT:	2.71512	#T:	35	DSTSS:	131125662	DETSS:	131561893	DTSS:	131561898
Iteration 331
HW:	CPU	TSS:	2.51686	AT:	2.71393	#T:	35	DSTSS:	131561903	DETSS:	131910424	DTSS:	131910429
Iteration 332
HW:	CPU	TSS:	2.51623	AT:	2.71797	#T:	35	DSTSS:	131910441	DETSS:	132341002	DTSS:	132341007
Iteration 333
HW:	CPU	TSS:	2.51709	AT:	2.72354	#T:	35	DSTSS:	132341013	DETSS:	132692648	DTSS:	132692652
Iteration 334
HW:	CPU	TSS:	2.51603	AT:	2.71546	#T:	35	DSTSS:	132692658	DETSS:	133146103	DTSS:	133146107
Iteration 335
HW:	CPU	TSS:	2.51772	AT:	2.73824	#T:	35	DSTSS:	133146112	DETSS:	133454000	DTSS:	133454005
Iteration 336
HW:	CPU	TSS:	2.51689	AT:	2.7359	#T:	35	DSTSS:	133454010	DETSS:	133895657	DTSS:	133895661
Iteration 337
HW:	CPU	TSS:	2.5178	AT:	2.73288	#T:	35	DSTSS:	133895667	DETSS:	134244219	DTSS:	134244223
Iteration 338
HW:	CPU	TSS:	2.51679	AT:	2.73102	#T:	35	DSTSS:	134244229	DETSS:	134695448	DTSS:	134695453
Iteration 339
HW:	CPU	TSS:	2.51803	AT:	2.74822	#T:	35	DSTSS:	134695468	DETSS:	135026245	DTSS:	135026249
Iteration 340
HW:	CPU	TSS:	2.51686	AT:	2.73488	#T:	35	DSTSS:	135026255	DETSS:	135486543	DTSS:	135486547
Iteration 341
HW:	CPU	TSS:	2.51831	AT:	2.73312	#T:	35	DSTSS:	135486553	DETSS:	135805431	DTSS:	135805436
Iteration 342
HW:	CPU	TSS:	2.5177	AT:	2.73971	#T:	35	DSTSS:	135805441	DETSS:	136235655	DTSS:	136235659
Iteration 343
HW:	CPU	TSS:	2.51838	AT:	2.7128	#T:	35	DSTSS:	136235665	DETSS:	136595629	DTSS:	136595633
Iteration 344
HW:	CPU	TSS:	2.51777	AT:	2.7199	#T:	35	DSTSS:	136595638	DETSS:	137025844	DTSS:	137025849
Iteration 345
HW:	CPU	TSS:	2.51853	AT:	2.71734	#T:	35	DSTSS:	137025855	DETSS:	137381774	DTSS:	137381778
Iteration 346
HW:	CPU	TSS:	2.51776	AT:	2.7162	#T:	35	DSTSS:	137381783	DETSS:	137820648	DTSS:	137820653
Iteration 347
HW:	CPU	TSS:	2.51874	AT:	2.71842	#T:	35	DSTSS:	137820658	DETSS:	138164054	DTSS:	138164059
Iteration 348
HW:	CPU	TSS:	2.51784	AT:	2.71147	#T:	35	DSTSS:	138164064	DETSS:	138610655	DTSS:	138610660
Iteration 349
HW:	CPU	TSS:	2.51897	AT:	2.71871	#T:	35	DSTSS:	138610666	DETSS:	138945625	DTSS:	138945630
Iteration 350
HW:	CPU	TSS:	2.51832	AT:	2.7276	#T:	35	DSTSS:	138945636	DETSS:	139378691	DTSS:	139378704
Iteration 351
HW:	CPU	TSS:	2.51904	AT:	2.70631	#T:	35	DSTSS:	139378710	DETSS:	139735627	DTSS:	139735631
Iteration 352
HW:	CPU	TSS:	2.51823	AT:	2.70603	#T:	35	DSTSS:	139735637	DETSS:	140177927	DTSS:	140177932
Iteration 353
HW:	CPU	TSS:	2.51947	AT:	2.71504	#T:	35	DSTSS:	140177939	DETSS:	140505629	DTSS:	140505634
Iteration 354
HW:	CPU	TSS:	2.51865	AT:	2.71873	#T:	35	DSTSS:	140505659	DETSS:	140948378	DTSS:	140948382
Iteration 355
HW:	CPU	TSS:	2.52016	AT:	2.72677	#T:	35	DSTSS:	140948388	DETSS:	141260745	DTSS:	141260749
Iteration 356
HW:	CPU	TSS:	2.51955	AT:	2.73966	#T:	35	DSTSS:	141260755	DETSS:	141691688	DTSS:	141691692
Iteration 357
HW:	CPU	TSS:	2.52047	AT:	2.72801	#T:	35	DSTSS:	141691697	DETSS:	142037089	DTSS:	142037094
Iteration 358
HW:	CPU	TSS:	2.51952	AT:	2.71931	#T:	35	DSTSS:	142037100	DETSS:	142487231	DTSS:	142487235
Iteration 359
HW:	CPU	TSS:	2.52	AT:	2.71502	#T:	35	DSTSS:	142487241	DETSS:	142857097	DTSS:	142857101
Iteration 360
HW:	CPU	TSS:	2.5192	AT:	2.70976	#T:	35	DSTSS:	142857107	DETSS:	143299468	DTSS:	143299473
Iteration 361
HW:	CPU	TSS:	2.52053	AT:	2.72486	#T:	35	DSTSS:	143299479	DETSS:	143620624	DTSS:	143620629
Iteration 362
HW:	CPU	TSS:	2.51979	AT:	2.72469	#T:	35	DSTSS:	143620634	DETSS:	144059886	DTSS:	144059897
Iteration 363
HW:	CPU	TSS:	2.52122	AT:	2.73731	#T:	35	DSTSS:	144059903	DETSS:	144374538	DTSS:	144374542
Iteration 364
HW:	CPU	TSS:	2.52047	AT:	2.74047	#T:	35	DSTSS:	144374548	DETSS:	144813981	DTSS:	144813986
Iteration 365
HW:	CPU	TSS:	2.52126	AT:	2.73317	#T:	35	DSTSS:	144813991	DETSS:	145165513	DTSS:	145165519
Iteration 366
HW:	CPU	TSS:	2.52059	AT:	2.73227	#T:	35	DSTSS:	145165524	DETSS:	145600627	DTSS:	145600631
Iteration 367
HW:	CPU	TSS:	2.5214	AT:	2.73532	#T:	35	DSTSS:	145600636	DETSS:	145950621	DTSS:	145950626
Iteration 368
HW:	CPU	TSS:	2.52066	AT:	2.73641	#T:	35	DSTSS:	145950632	DETSS:	146390454	DTSS:	146390467
Iteration 369
HW:	CPU	TSS:	2.52128	AT:	2.72218	#T:	35	DSTSS:	146390473	DETSS:	146750633	DTSS:	146750637
Iteration 370
HW:	CPU	TSS:	2.52054	AT:	2.72346	#T:	35	DSTSS:	146750643	DETSS:	147190441	DTSS:	147190446
Iteration 371
HW:	CPU	TSS:	2.52168	AT:	2.7157	#T:	35	DSTSS:	147190452	DETSS:	147520627	DTSS:	147520632
Iteration 372
HW:	CPU	TSS:	2.52097	AT:	2.71246	#T:	35	DSTSS:	147520637	DETSS:	147959067	DTSS:	147959072
Iteration 373
HW:	CPU	TSS:	2.52241	AT:	2.72719	#T:	35	DSTSS:	147959078	DETSS:	148270606	DTSS:	148270617
Iteration 374
HW:	CPU	TSS:	2.52159	AT:	2.72943	#T:	35	DSTSS:	148270623	DETSS:	148715640	DTSS:	148715644
Iteration 375
HW:	CPU	TSS:	2.52246	AT:	2.74037	#T:	35	DSTSS:	148715650	DETSS:	149060646	DTSS:	149060651
Iteration 376
HW:	CPU	TSS:	2.52187	AT:	2.74513	#T:	35	DSTSS:	149060656	DETSS:	149492248	DTSS:	149492252
Iteration 377
HW:	CPU	TSS:	2.52255	AT:	2.72968	#T:	35	DSTSS:	149492258	DETSS:	149848466	DTSS:	149848470
Iteration 378
HW:	CPU	TSS:	2.52172	AT:	2.72682	#T:	35	DSTSS:	149848476	DETSS:	150294251	DTSS:	150294255
Iteration 379
HW:	CPU	TSS:	2.52294	AT:	2.72287	#T:	35	DSTSS:	150294260	DETSS:	150617942	DTSS:	150617946
Iteration 380
HW:	CPU	TSS:	2.5221	AT:	2.71975	#T:	35	DSTSS:	150617952	DETSS:	151064566	DTSS:	151064571
Iteration 381
HW:	CPU	TSS:	2.52322	AT:	2.72955	#T:	35	DSTSS:	151064577	DETSS:	151393640	DTSS:	151393645
Iteration 382
HW:	CPU	TSS:	2.52205	AT:	2.71564	#T:	35	DSTSS:	151393651	DETSS:	151860665	DTSS:	151860669
Iteration 383
HW:	CPU	TSS:	2.52282	AT:	2.71573	#T:	35	DSTSS:	151860675	DETSS:	152210445	DTSS:	152210458
Iteration 384
HW:	CPU	TSS:	2.52206	AT:	2.71444	#T:	35	DSTSS:	152210464	DETSS:	152653249	DTSS:	152653254
Iteration 385
HW:	CPU	TSS:	2.52334	AT:	2.73268	#T:	35	DSTSS:	152653260	DETSS:	152971625	DTSS:	152971629
Iteration 386
HW:	CPU	TSS:	2.52263	AT:	2.73281	#T:	35	DSTSS:	152971635	DETSS:	153411134	DTSS:	153411139
Iteration 387
HW:	CPU	TSS:	2.5239	AT:	2.73753	#T:	35	DSTSS:	153411144	DETSS:	153730610	DTSS:	153730620
Iteration 388
HW:	CPU	TSS:	2.52316	AT:	2.73625	#T:	35	DSTSS:	153730627	DETSS:	154171941	DTSS:	154171945
Iteration 389
HW:	CPU	TSS:	2.52409	AT:	2.72415	#T:	35	DSTSS:	154171950	DETSS:	154511092	DTSS:	154511096
Iteration 390
HW:	CPU	TSS:	2.52339	AT:	2.72664	#T:	35	DSTSS:	154511102	DETSS:	154950418	DTSS:	154950422
Iteration 391
HW:	CPU	TSS:	2.5239	AT:	2.71792	#T:	35	DSTSS:	154950429	DETSS:	155315432	DTSS:	155315436
Iteration 392
HW:	CPU	TSS:	2.52318	AT:	2.71418	#T:	35	DSTSS:	155315442	DETSS:	155755647	DTSS:	155755652
Iteration 393
HW:	CPU	TSS:	2.52429	AT:	2.72648	#T:	35	DSTSS:	155755659	DETSS:	156083606	DTSS:	156083611
Iteration 394
HW:	CPU	TSS:	2.52358	AT:	2.72891	#T:	35	DSTSS:	156083616	DETSS:	156523848	DTSS:	156523853
Iteration 395
HW:	CPU	TSS:	2.52437	AT:	2.71877	#T:	35	DSTSS:	156523859	DETSS:	156870762	DTSS:	156870766
Iteration 396
HW:	CPU	TSS:	2.52367	AT:	2.72166	#T:	35	DSTSS:	156870772	DETSS:	157310747	DTSS:	157310752
Iteration 397
HW:	CPU	TSS:	2.52437	AT:	2.71154	#T:	35	DSTSS:	157310758	DETSS:	157663142	DTSS:	157663146
Iteration 398
HW:	CPU	TSS:	2.52358	AT:	2.72087	#T:	35	DSTSS:	157663152	DETSS:	158108672	DTSS:	158108676
Iteration 399
HW:	CPU	TSS:	2.52484	AT:	2.73523	#T:	35	DSTSS:	158108682	DETSS:	158425646	DTSS:	158425650
Iteration 400
HW:	CPU	TSS:	2.52409	AT:	2.73501	#T:	35	DSTSS:	158425655	DETSS:	158868950	DTSS:	158868955
Iteration 401
HW:	CPU	TSS:	2.5252	AT:	2.73137	#T:	35	DSTSS:	158868961	DETSS:	159195614	DTSS:	159195619
Iteration 402
HW:	CPU	TSS:	2.52448	AT:	2.73062	#T:	35	DSTSS:	159195624	DETSS:	159636819	DTSS:	159636823
Iteration 403
HW:	CPU	TSS:	2.52523	AT:	2.71782	#T:	35	DSTSS:	159636829	DETSS:	159985634	DTSS:	159985639
Iteration 404
HW:	CPU	TSS:	2.5243	AT:	2.71188	#T:	35	DSTSS:	159985652	DETSS:	160440664	DTSS:	160440670
Iteration 405
HW:	CPU	TSS:	2.52558	AT:	2.72247	#T:	35	DSTSS:	160440675	DETSS:	160755430	DTSS:	160755434
Iteration 406
HW:	CPU	TSS:	2.52504	AT:	2.72639	#T:	35	DSTSS:	160755440	DETSS:	161185777	DTSS:	161185781
Iteration 407
HW:	CPU	TSS:	2.52581	AT:	2.73461	#T:	35	DSTSS:	161185787	DETSS:	161532035	DTSS:	161532039
Iteration 408
HW:	CPU	TSS:	2.52506	AT:	2.73289	#T:	35	DSTSS:	161532044	DETSS:	161976169	DTSS:	161976173
Iteration 409
HW:	CPU	TSS:	2.52571	AT:	2.72138	#T:	35	DSTSS:	161976179	DETSS:	162330434	DTSS:	162330445
Iteration 410
HW:	CPU	TSS:	2.52495	AT:	2.71919	#T:	35	DSTSS:	162330451	DETSS:	162775706	DTSS:	162775711
Iteration 411
HW:	CPU	TSS:	2.52628	AT:	2.7354	#T:	35	DSTSS:	162775718	DETSS:	163085578	DTSS:	163085582
Iteration 412
HW:	CPU	TSS:	2.52544	AT:	2.73097	#T:	35	DSTSS:	163085588	DETSS:	163535634	DTSS:	163535638
Iteration 413
HW:	CPU	TSS:	2.52615	AT:	2.73206	#T:	35	DSTSS:	163535644	DETSS:	163885558	DTSS:	163885562
Iteration 414
HW:	CPU	TSS:	2.52548	AT:	2.73454	#T:	35	DSTSS:	163885568	DETSS:	164325440	DTSS:	164325451
Iteration 415
HW:	CPU	TSS:	2.52601	AT:	2.71514	#T:	35	DSTSS:	164325457	DETSS:	164686828	DTSS:	164686833
Iteration 416
HW:	CPU	TSS:	2.52533	AT:	2.71641	#T:	35	DSTSS:	164686839	DETSS:	165127221	DTSS:	165127226
Iteration 417
HW:	CPU	TSS:	2.52682	AT:	2.72873	#T:	35	DSTSS:	165127232	DETSS:	165425629	DTSS:	165425633
Iteration 418
HW:	CPU	TSS:	2.52612	AT:	2.7287	#T:	35	DSTSS:	165425660	DETSS:	165866893	DTSS:	165866897
Iteration 419
HW:	CPU	TSS:	2.52684	AT:	2.72875	#T:	35	DSTSS:	165866902	DETSS:	166215584	DTSS:	166215589
Iteration 420
HW:	CPU	TSS:	2.52632	AT:	2.73972	#T:	35	DSTSS:	166215600	DETSS:	166645677	DTSS:	166645681
Iteration 421
HW:	CPU	TSS:	2.52702	AT:	2.72437	#T:	35	DSTSS:	166645686	DETSS:	166995413	DTSS:	166995418
Iteration 422
HW:	CPU	TSS:	2.52633	AT:	2.71975	#T:	35	DSTSS:	166995431	DETSS:	167436347	DTSS:	167436351
Iteration 423
HW:	CPU	TSS:	2.5264	AT:	2.70027	#T:	35	DSTSS:	167436357	DETSS:	167827698	DTSS:	167827702
Iteration 424
HW:	CPU	TSS:	2.52569	AT:	2.70079	#T:	35	DSTSS:	167827708	DETSS:	168270630	DTSS:	168270634
Iteration 425
HW:	CPU	TSS:	2.52496	AT:	2.66241	#T:	35	DSTSS:	168270640	DETSS:	168715630	DTSS:	168715634
Iteration 426
HW:	CPU	TSS:	2.52531	AT:	2.69305	#T:	35	DSTSS:	168715640	DETSS:	169088259	DTSS:	169088264
Iteration 427
HW:	CPU	TSS:	2.52462	AT:	2.63777	#T:	35	DSTSS:	169088269	DETSS:	169530425	DTSS:	169530430
Iteration 428
HW:	CPU	TSS:	2.52523	AT:	2.6771	#T:	35	DSTSS:	169530435	DETSS:	169885796	DTSS:	169885800
Iteration 429
HW:	CPU	TSS:	2.52458	AT:	2.63981	#T:	35	DSTSS:	169885806	DETSS:	170325413	DTSS:	170325417
Iteration 430
HW:	CPU	TSS:	2.52533	AT:	2.67918	#T:	35	DSTSS:	170325423	DETSS:	170670662	DTSS:	170670667
Iteration 431
HW:	CPU	TSS:	2.52498	AT:	2.65485	#T:	35	DSTSS:	170670672	DETSS:	171090199	DTSS:	171090203
Iteration 432
HW:	CPU	TSS:	2.52544	AT:	2.68638	#T:	35	DSTSS:	171090209	DETSS:	171455448	DTSS:	171455452
Iteration 433
HW:	CPU	TSS:	2.52479	AT:	2.62751	#T:	35	DSTSS:	171455458	DETSS:	171895626	DTSS:	171895631
Iteration 434
HW:	CPU	TSS:	2.52539	AT:	2.66311	#T:	35	DSTSS:	171895636	DETSS:	172250412	DTSS:	172250423
Iteration 435
HW:	CPU	TSS:	2.52467	AT:	2.62342	#T:	35	DSTSS:	172250429	DETSS:	172695667	DTSS:	172695671
Iteration 436
HW:	CPU	TSS:	2.52588	AT:	2.67156	#T:	35	DSTSS:	172695678	DETSS:	173009001	DTSS:	173009005
Iteration 437
HW:	CPU	TSS:	2.52514	AT:	2.63147	#T:	35	DSTSS:	173009011	DETSS:	173455674	DTSS:	173455678
Iteration 438
HW:	CPU	TSS:	2.52581	AT:	2.66915	#T:	35	DSTSS:	173455684	DETSS:	173805419	DTSS:	173805423
Iteration 439
HW:	CPU	TSS:	2.52533	AT:	2.65324	#T:	35	DSTSS:	173805429	DETSS:	174234969	DTSS:	174234973
Iteration 440
HW:	CPU	TSS:	2.52598	AT:	2.69195	#T:	35	DSTSS:	174234979	DETSS:	174585754	DTSS:	174585758
Iteration 441
HW:	CPU	TSS:	2.52527	AT:	2.692	#T:	35	DSTSS:	174585764	DETSS:	175030643	DTSS:	175030647
Iteration 442
HW:	CPU	TSS:	2.52623	AT:	2.71038	#T:	35	DSTSS:	175030653	DETSS:	175360446	DTSS:	175360450
Iteration 443
HW:	CPU	TSS:	2.52566	AT:	2.71338	#T:	35	DSTSS:	175360456	DETSS:	175795678	DTSS:	175795682
Iteration 444
HW:	CPU	TSS:	2.52625	AT:	2.71356	#T:	35	DSTSS:	175795689	DETSS:	176150626	DTSS:	176150630
Iteration 445
HW:	CPU	TSS:	2.52555	AT:	2.71131	#T:	35	DSTSS:	176150637	DETSS:	176595453	DTSS:	176595458
Iteration 446
HW:	CPU	TSS:	2.52613	AT:	2.70702	#T:	35	DSTSS:	176595472	DETSS:	176950624	DTSS:	176950629
Iteration 447
HW:	CPU	TSS:	2.52568	AT:	2.70352	#T:	35	DSTSS:	176950634	DETSS:	177378295	DTSS:	177378300
Iteration 448
HW:	CPU	TSS:	2.52701	AT:	2.73084	#T:	35	DSTSS:	177378306	DETSS:	177680631	DTSS:	177680635
Iteration 449
HW:	CPU	TSS:	2.52645	AT:	2.73312	#T:	35	DSTSS:	177680641	DETSS:	178115623	DTSS:	178115627
Iteration 450
HW:	CPU	TSS:	2.52717	AT:	2.73749	#T:	35	DSTSS:	178115633	DETSS:	178460470	DTSS:	178460474
Iteration 451
HW:	CPU	TSS:	2.52654	AT:	2.73974	#T:	35	DSTSS:	178460488	DETSS:	178900638	DTSS:	178900642
Iteration 452
HW:	CPU	TSS:	2.52712	AT:	2.72155	#T:	35	DSTSS:	178900648	DETSS:	179255435	DTSS:	179255439
Iteration 453
HW:	CPU	TSS:	2.52658	AT:	2.72706	#T:	35	DSTSS:	179255445	DETSS:	179689483	DTSS:	179689488
Iteration 454
HW:	CPU	TSS:	2.52726	AT:	2.72797	#T:	35	DSTSS:	179689493	DETSS:	180037140	DTSS:	180037145
Iteration 455
HW:	CPU	TSS:	2.5265	AT:	2.71916	#T:	35	DSTSS:	180037150	DETSS:	180486895	DTSS:	180486899
Iteration 456
HW:	CPU	TSS:	2.52716	AT:	2.72006	#T:	35	DSTSS:	180486905	DETSS:	180835626	DTSS:	180835631
Iteration 457
HW:	CPU	TSS:	2.5266	AT:	2.72424	#T:	35	DSTSS:	180835636	DETSS:	181270911	DTSS:	181270916
Iteration 458
HW:	CPU	TSS:	2.52736	AT:	2.71923	#T:	35	DSTSS:	181270922	DETSS:	181612205	DTSS:	181612210
Iteration 459
HW:	CPU	TSS:	2.52663	AT:	2.7135	#T:	35	DSTSS:	181612216	DETSS:	182060647	DTSS:	182060652
Iteration 460
HW:	CPU	TSS:	2.52802	AT:	2.73947	#T:	35	DSTSS:	182060659	DETSS:	182356200	DTSS:	182356204
Iteration 461
HW:	CPU	TSS:	2.52734	AT:	2.7396	#T:	35	DSTSS:	182356210	DETSS:	182800735	DTSS:	182800739
Iteration 462
HW:	CPU	TSS:	2.52798	AT:	2.74203	#T:	35	DSTSS:	182800745	DETSS:	183150422	DTSS:	183150427
Iteration 463
HW:	CPU	TSS:	2.52743	AT:	2.73874	#T:	35	DSTSS:	183150432	DETSS:	183585534	DTSS:	183585539
Iteration 464
HW:	CPU	TSS:	2.52799	AT:	2.71565	#T:	35	DSTSS:	183585545	DETSS:	183940639	DTSS:	183940644
Iteration 465
HW:	CPU	TSS:	2.5276	AT:	2.72048	#T:	35	DSTSS:	183940650	DETSS:	184364531	DTSS:	184364535
Iteration 466
HW:	CPU	TSS:	2.52801	AT:	2.71126	#T:	35	DSTSS:	184364542	DETSS:	184730628	DTSS:	184730632
Iteration 467
HW:	CPU	TSS:	2.52746	AT:	2.71321	#T:	35	DSTSS:	184730638	DETSS:	185166277	DTSS:	185166281
Iteration 468
HW:	CPU	TSS:	2.52847	AT:	2.72785	#T:	35	DSTSS:	185166288	DETSS:	185487448	DTSS:	185487453
Iteration 469
HW:	CPU	TSS:	2.52796	AT:	2.72828	#T:	35	DSTSS:	185487458	DETSS:	185920511	DTSS:	185920516
Iteration 470
HW:	CPU	TSS:	2.52843	AT:	2.72238	#T:	35	DSTSS:	185920523	DETSS:	186281670	DTSS:	186281674
Iteration 471
HW:	CPU	TSS:	2.52791	AT:	2.72928	#T:	35	DSTSS:	186281680	DETSS:	186715648	DTSS:	186715653
Iteration 472
HW:	CPU	TSS:	2.52832	AT:	2.72218	#T:	35	DSTSS:	186715659	DETSS:	187080625	DTSS:	187080629
Iteration 473
HW:	CPU	TSS:	2.52773	AT:	2.72032	#T:	35	DSTSS:	187080635	DETSS:	187520182	DTSS:	187520186
Iteration 474
HW:	CPU	TSS:	2.52881	AT:	2.73161	#T:	35	DSTSS:	187520192	DETSS:	187835649	DTSS:	187835653
Iteration 475
HW:	CPU	TSS:	2.52821	AT:	2.73534	#T:	35	DSTSS:	187835659	DETSS:	188275598	DTSS:	188275603
Iteration 476
HW:	CPU	TSS:	2.52935	AT:	2.72898	#T:	35	DSTSS:	188275609	DETSS:	188585640	DTSS:	188585644
Iteration 477
HW:	CPU	TSS:	2.52862	AT:	2.72663	#T:	35	DSTSS:	188585649	DETSS:	189035540	DTSS:	189035544
Iteration 478
HW:	CPU	TSS:	2.5291	AT:	2.72208	#T:	35	DSTSS:	189035556	DETSS:	189395635	DTSS:	189395639
Iteration 479
HW:	CPU	TSS:	2.52863	AT:	2.72403	#T:	35	DSTSS:	189395645	DETSS:	189826292	DTSS:	189826297
Iteration 480
HW:	CPU	TSS:	2.52922	AT:	2.72573	#T:	35	DSTSS:	189826303	DETSS:	190177496	DTSS:	190177501
Iteration 481
HW:	CPU	TSS:	2.52852	AT:	2.71516	#T:	35	DSTSS:	190177506	DETSS:	190625661	DTSS:	190625666
Iteration 482
HW:	CPU	TSS:	2.52932	AT:	2.72882	#T:	35	DSTSS:	190625672	DETSS:	190960427	DTSS:	190960432
Iteration 483
HW:	CPU	TSS:	2.5288	AT:	2.7291	#T:	35	DSTSS:	190960445	DETSS:	191395433	DTSS:	191395438
Iteration 484
HW:	CPU	TSS:	2.52923	AT:	2.71119	#T:	35	DSTSS:	191395444	DETSS:	191757753	DTSS:	191757757
Iteration 485
HW:	CPU	TSS:	2.52861	AT:	2.7069	#T:	35	DSTSS:	191757763	DETSS:	192200745	DTSS:	192200749
Iteration 486
HW:	CPU	TSS:	2.52999	AT:	2.73798	#T:	35	DSTSS:	192200755	DETSS:	192490624	DTSS:	192490635
Iteration 487
HW:	CPU	TSS:	2.52941	AT:	2.73532	#T:	35	DSTSS:	192490641	DETSS:	192930652	DTSS:	192930657
Iteration 488
HW:	CPU	TSS:	2.53007	AT:	2.74424	#T:	35	DSTSS:	192930662	DETSS:	193275420	DTSS:	193275425
Iteration 489
HW:	CPU	TSS:	2.52948	AT:	2.74386	#T:	35	DSTSS:	193275437	DETSS:	193715830	DTSS:	193715834
Iteration 490
HW:	CPU	TSS:	2.53004	AT:	2.72764	#T:	35	DSTSS:	193715840	DETSS:	194068146	DTSS:	194068151
Iteration 491
HW:	CPU	TSS:	2.52955	AT:	2.73086	#T:	35	DSTSS:	194068157	DETSS:	194500735	DTSS:	194500739
Iteration 492
HW:	CPU	TSS:	2.53015	AT:	2.71358	#T:	35	DSTSS:	194500745	DETSS:	194850434	DTSS:	194850439
Iteration 493
HW:	CPU	TSS:	2.52956	AT:	2.71778	#T:	35	DSTSS:	194850452	DETSS:	195290649	DTSS:	195290654
Iteration 494
HW:	CPU	TSS:	2.52996	AT:	2.71575	#T:	35	DSTSS:	195290660	DETSS:	195655419	DTSS:	195655424
Iteration 495
HW:	CPU	TSS:	2.52936	AT:	2.71102	#T:	35	DSTSS:	195655430	DETSS:	196096994	DTSS:	196096999
Iteration 496
HW:	CPU	TSS:	2.53073	AT:	2.73831	#T:	35	DSTSS:	196097005	DETSS:	196385710	DTSS:	196385714
Iteration 497
HW:	CPU	TSS:	2.53016	AT:	2.74194	#T:	35	DSTSS:	196385720	DETSS:	196825660	DTSS:	196825664
Iteration 498
HW:	CPU	TSS:	2.53074	AT:	2.73532	#T:	35	DSTSS:	196825669	DETSS:	197175438	DTSS:	197175443
Iteration 499
HW:	CPU	TSS:	2.53016	AT:	2.733	#T:	35	DSTSS:	197175449	DETSS:	197615711	DTSS:	197615716
