StartAllocTime:	1899206092
EndAllocTime:	1899215351
TotalAllocTime:	0.009259
StartDeallocTime:	-2130689252
EndDeallocTime:	-2130683541
TotalDeallocTime:	0.005711
StartExecTime:	1899215353
EndExecTime:	-2130689257
TotalExecTime:	265.063
Iteration 0
HW:	CPU	TSS:	1.26482	AT:	0	#T:	4	DSTSS:	9	DETSS:	790619	DTSS:	790624
Iteration 1
HW:	CPU	TSS:	1.05852	AT:	1.82004	#T:	4	DSTSS:	790646	DETSS:	1889428	DTSS:	1889434
Iteration 2
HW:	CPU	TSS:	0.999577	AT:	1.35703	#T:	4	DSTSS:	1889460	DETSS:	3001264	DTSS:	3001271
Iteration 3
HW:	CPU	TSS:	0.978545	AT:	1.21316	#T:	4	DSTSS:	3001299	DETSS:	4087695	DTSS:	4087700
Iteration 4
HW:	CPU	TSS:	1.12491	AT:	1.36826	#T:	4	DSTSS:	4087709	DETSS:	4444803	DTSS:	4444809
Iteration 5
HW:	CPU	TSS:	1.24795	AT:	1.49352	#T:	4	DSTSS:	4444827	DETSS:	4807889	DTSS:	4807895
Iteration 6
HW:	CPU	TSS:	1.36692	AT:	1.61645	#T:	4	DSTSS:	4807903	DETSS:	5120996	DTSS:	5121001
Iteration 7
HW:	CPU	TSS:	1.48241	AT:	1.73684	#T:	27	DSTSS:	5121008	DETSS:	5396601	DTSS:	5396606
Iteration 8
HW:	CPU	TSS:	1.57092	AT:	1.82238	#T:	27	DSTSS:	5396614	DETSS:	5729135	DTSS:	5729140
Iteration 9
HW:	CPU	TSS:	1.66229	AT:	1.91378	#T:	27	DSTSS:	5729156	DETSS:	6015797	DTSS:	6015803
Iteration 10
HW:	CPU	TSS:	1.74534	AT:	1.99566	#T:	27	DSTSS:	6015810	DETSS:	6302480	DTSS:	6302486
Iteration 11
HW:	CPU	TSS:	1.8215	AT:	2.06989	#T:	27	DSTSS:	6302493	DETSS:	6587953	DTSS:	6587960
Iteration 12
HW:	CPU	TSS:	1.88669	AT:	2.1312	#T:	27	DSTSS:	6587967	DETSS:	6890385	DTSS:	6890392
Iteration 13
HW:	CPU	TSS:	1.93213	AT:	2.16874	#T:	11	DSTSS:	6890400	DETSS:	7245882	DTSS:	7245889
Iteration 14
HW:	CPU	TSS:	1.88676	AT:	2.09509	#T:	11	DSTSS:	7245897	DETSS:	7950117	DTSS:	7950123
Iteration 15
HW:	CPU	TSS:	1.84874	AT:	2.03459	#T:	11	DSTSS:	7950131	DETSS:	8654514	DTSS:	8654520
Iteration 16
HW:	CPU	TSS:	1.81616	AT:	1.98369	#T:	20	DSTSS:	8654528	DETSS:	9360419	DTSS:	9360425
Iteration 17
HW:	CPU	TSS:	1.84411	AT:	2.15971	#T:	20	DSTSS:	9360445	DETSS:	9760824	DTSS:	9760829
Iteration 18
HW:	CPU	TSS:	1.87262	AT:	2.3793	#T:	20	DSTSS:	9760836	DETSS:	10146212	DTSS:	10146218
Iteration 19
HW:	CPU	TSS:	1.89894	AT:	2.63791	#T:	20	DSTSS:	10146224	DETSS:	10532192	DTSS:	10532197
Iteration 20
HW:	CPU	TSS:	1.91026	AT:	2.59603	#T:	17	DSTSS:	10532205	DETSS:	10993259	DTSS:	10993265
Iteration 21
HW:	CPU	TSS:	1.93013	AT:	2.57955	#T:	17	DSTSS:	10993274	DETSS:	11398190	DTSS:	11398197
Iteration 22
HW:	CPU	TSS:	1.94876	AT:	2.54438	#T:	17	DSTSS:	11398207	DETSS:	11802389	DTSS:	11802395
Iteration 23
HW:	CPU	TSS:	1.96597	AT:	2.49593	#T:	17	DSTSS:	11802404	DETSS:	12207690	DTSS:	12207697
Iteration 24
HW:	CPU	TSS:	1.98584	AT:	2.47813	#T:	11	DSTSS:	12207705	DETSS:	12589153	DTSS:	12589160
Iteration 25
HW:	CPU	TSS:	1.975	AT:	2.37804	#T:	11	DSTSS:	12589175	DETSS:	13164540	DTSS:	13164545
Iteration 26
HW:	CPU	TSS:	1.96509	AT:	2.28576	#T:	11	DSTSS:	13164552	DETSS:	13739846	DTSS:	13739851
Iteration 27
HW:	CPU	TSS:	1.93825	AT:	2.1634	#T:	17	DSTSS:	13739857	DETSS:	14445980	DTSS:	14445988
Iteration 28
HW:	CPU	TSS:	1.95164	AT:	2.1333	#T:	17	DSTSS:	14446003	DETSS:	14859265	DTSS:	14859272
Iteration 29
HW:	CPU	TSS:	1.96546	AT:	2.12031	#T:	17	DSTSS:	14859280	DETSS:	15263592	DTSS:	15263599
Iteration 30
HW:	CPU	TSS:	1.97916	AT:	2.20405	#T:	12	DSTSS:	15263607	DETSS:	15663187	DTSS:	15663193
Iteration 31
HW:	CPU	TSS:	1.98201	AT:	2.26949	#T:	12	DSTSS:	15663201	DETSS:	16145189	DTSS:	16145195
Iteration 32
HW:	CPU	TSS:	1.98495	AT:	2.34008	#T:	12	DSTSS:	16145202	DETSS:	16625107	DTSS:	16625113
Iteration 33
HW:	CPU	TSS:	1.98752	AT:	2.3142	#T:	12	DSTSS:	16625146	DETSS:	17106780	DTSS:	17106785
Iteration 34
HW:	CPU	TSS:	1.99011	AT:	2.28472	#T:	12	DSTSS:	17106793	DETSS:	17586961	DTSS:	17586966
Iteration 35
HW:	CPU	TSS:	1.99238	AT:	2.25564	#T:	12	DSTSS:	17586973	DETSS:	18068857	DTSS:	18068862
Iteration 36
HW:	CPU	TSS:	1.99464	AT:	2.24972	#T:	12	DSTSS:	18068870	DETSS:	18549753	DTSS:	18549759
Iteration 37
HW:	CPU	TSS:	1.99071	AT:	2.21052	#T:	4	DSTSS:	18549766	DETSS:	19088689	DTSS:	19088698
Iteration 38
HW:	CPU	TSS:	1.95372	AT:	2.08346	#T:	4	DSTSS:	19088713	DETSS:	19961898	DTSS:	19961907
Iteration 39
HW:	CPU	TSS:	1.91824	AT:	1.96651	#T:	4	DSTSS:	19961921	DETSS:	20852470	DTSS:	20852478
Iteration 40
HW:	CPU	TSS:	1.8887	AT:	1.86427	#T:	4	DSTSS:	20852493	DETSS:	21708003	DTSS:	21708011
Iteration 41
HW:	CPU	TSS:	1.86484	AT:	1.81672	#T:	4	DSTSS:	21708024	DETSS:	22522068	DTSS:	22522076
Iteration 42
HW:	CPU	TSS:	1.84445	AT:	1.77576	#T:	4	DSTSS:	22522090	DETSS:	23313224	DTSS:	23313232
Iteration 43
HW:	CPU	TSS:	1.82904	AT:	1.76893	#T:	3	DSTSS:	23313246	DETSS:	24056297	DTSS:	24056304
Iteration 44
HW:	CPU	TSS:	1.80381	AT:	1.68517	#T:	3	DSTSS:	24056317	DETSS:	24947250	DTSS:	24947257
Iteration 45
HW:	CPU	TSS:	1.78031	AT:	1.60763	#T:	3	DSTSS:	24947270	DETSS:	25838198	DTSS:	25838205
Iteration 46
HW:	CPU	TSS:	1.74063	AT:	1.49931	#T:	7	DSTSS:	25838217	DETSS:	27001723	DTSS:	27001730
Iteration 47
HW:	CPU	TSS:	1.73582	AT:	1.4773	#T:	7	DSTSS:	27001739	DETSS:	27652699	DTSS:	27652705
Iteration 48
HW:	CPU	TSS:	1.7313	AT:	1.45582	#T:	7	DSTSS:	27652714	DETSS:	28302400	DTSS:	28302407
Iteration 49
HW:	CPU	TSS:	1.72827	AT:	1.43777	#T:	4	DSTSS:	28302415	DETSS:	28930629	DTSS:	28930637
Iteration 50
HW:	CPU	TSS:	1.71954	AT:	1.4082	#T:	4	DSTSS:	28930650	DETSS:	29659135	DTSS:	29659143
Iteration 51
HW:	CPU	TSS:	1.71033	AT:	1.37824	#T:	4	DSTSS:	29659157	DETSS:	30403477	DTSS:	30403484
Iteration 52
HW:	CPU	TSS:	1.69702	AT:	1.34054	#T:	11	DSTSS:	30403498	DETSS:	31231245	DTSS:	31231252
Iteration 53
HW:	CPU	TSS:	1.69433	AT:	1.32996	#T:	11	DSTSS:	31231261	DETSS:	31870992	DTSS:	31870998
Iteration 54
HW:	CPU	TSS:	1.69218	AT:	1.35561	#T:	11	DSTSS:	31871007	DETSS:	32502407	DTSS:	32502413
Iteration 55
HW:	CPU	TSS:	1.68754	AT:	1.37854	#T:	6	DSTSS:	32502421	DETSS:	33184402	DTSS:	33184411
Iteration 56
HW:	CPU	TSS:	1.68436	AT:	1.40116	#T:	6	DSTSS:	33184427	DETSS:	33840771	DTSS:	33840777
Iteration 57
HW:	CPU	TSS:	1.68185	AT:	1.42096	#T:	6	DSTSS:	33840786	DETSS:	34485839	DTSS:	34485845
Iteration 58
HW:	CPU	TSS:	1.67813	AT:	1.4352	#T:	15	DSTSS:	34485853	DETSS:	35158276	DTSS:	35158282
Iteration 59
HW:	CPU	TSS:	1.67756	AT:	1.45176	#T:	15	DSTSS:	35158290	DETSS:	35766229	DTSS:	35766235
Iteration 60
HW:	CPU	TSS:	1.67748	AT:	1.48903	#T:	15	DSTSS:	35766243	DETSS:	36364049	DTSS:	36364055
Iteration 61
HW:	CPU	TSS:	1.67635	AT:	1.5251	#T:	13	DSTSS:	36364063	DETSS:	36985002	DTSS:	36985009
Iteration 62
HW:	CPU	TSS:	1.67489	AT:	1.60185	#T:	13	DSTSS:	36985018	DETSS:	37614462	DTSS:	37614469
Iteration 63
HW:	CPU	TSS:	1.67361	AT:	1.60558	#T:	13	DSTSS:	37614477	DETSS:	38240771	DTSS:	38240777
Iteration 64
HW:	CPU	TSS:	1.67345	AT:	1.61299	#T:	5	DSTSS:	38240786	DETSS:	38841830	DTSS:	38841838
Iteration 65
HW:	CPU	TSS:	1.67152	AT:	1.61069	#T:	5	DSTSS:	38841984	DETSS:	39485118	DTSS:	39485125
Iteration 66
HW:	CPU	TSS:	1.67005	AT:	1.62532	#T:	5	DSTSS:	39485133	DETSS:	40118594	DTSS:	40118600
Iteration 67
HW:	CPU	TSS:	1.66734	AT:	1.63774	#T:	6	DSTSS:	40118608	DETSS:	40783617	DTSS:	40783624
Iteration 68
HW:	CPU	TSS:	1.66664	AT:	1.67169	#T:	6	DSTSS:	40783632	DETSS:	41400578	DTSS:	41400584
Iteration 69
HW:	CPU	TSS:	1.6662	AT:	1.67639	#T:	6	DSTSS:	41400591	DETSS:	42011815	DTSS:	42011820
Iteration 70
HW:	CPU	TSS:	1.66526	AT:	1.6776	#T:	4	DSTSS:	42011828	DETSS:	42635926	DTSS:	42635932
Iteration 71
HW:	CPU	TSS:	1.66241	AT:	1.67883	#T:	4	DSTSS:	42635945	DETSS:	43310512	DTSS:	43310519
Iteration 72
HW:	CPU	TSS:	1.65938	AT:	1.67464	#T:	4	DSTSS:	43310532	DETSS:	43992208	DTSS:	43992215
Iteration 73
HW:	CPU	TSS:	1.64911	AT:	1.6367	#T:	7	DSTSS:	43992236	DETSS:	44872614	DTSS:	44872620
Iteration 74
HW:	CPU	TSS:	1.65061	AT:	1.6538	#T:	7	DSTSS:	44872628	DETSS:	45437634	DTSS:	45437640
Iteration 75
HW:	CPU	TSS:	1.6521	AT:	1.66084	#T:	7	DSTSS:	45437648	DETSS:	46001999	DTSS:	46002005
Iteration 76
HW:	CPU	TSS:	1.65362	AT:	1.66657	#T:	13	DSTSS:	46002012	DETSS:	46564629	DTSS:	46564636
Iteration 77
HW:	CPU	TSS:	1.65513	AT:	1.67633	#T:	13	DSTSS:	46564645	DETSS:	47126216	DTSS:	47126222
Iteration 78
HW:	CPU	TSS:	1.65735	AT:	1.69121	#T:	13	DSTSS:	47126230	DETSS:	47666462	DTSS:	47666469
Iteration 79
HW:	CPU	TSS:	1.65843	AT:	1.70042	#T:	13	DSTSS:	47666477	DETSS:	48238303	DTSS:	48238312
Iteration 80
HW:	CPU	TSS:	1.65875	AT:	1.70169	#T:	13	DSTSS:	48238328	DETSS:	48831900	DTSS:	48831906
Iteration 81
HW:	CPU	TSS:	1.65864	AT:	1.70803	#T:	13	DSTSS:	48831913	DETSS:	49438109	DTSS:	49438115
Iteration 82
HW:	CPU	TSS:	1.65692	AT:	1.7044	#T:	8	DSTSS:	49438122	DETSS:	50092786	DTSS:	50092795
Iteration 83
HW:	CPU	TSS:	1.65791	AT:	1.72018	#T:	8	DSTSS:	50092812	DETSS:	50666309	DTSS:	50666315
Iteration 84
HW:	CPU	TSS:	1.65949	AT:	1.73116	#T:	8	DSTSS:	50666322	DETSS:	51220574	DTSS:	51220580
Iteration 85
HW:	CPU	TSS:	1.65935	AT:	1.73192	#T:	11	DSTSS:	51220587	DETSS:	51827488	DTSS:	51827494
Iteration 86
HW:	CPU	TSS:	1.65925	AT:	1.73517	#T:	11	DSTSS:	51827503	DETSS:	52433227	DTSS:	52433232
Iteration 87
HW:	CPU	TSS:	1.66015	AT:	1.75318	#T:	11	DSTSS:	52433240	DETSS:	53007156	DTSS:	53007162
Iteration 88
HW:	CPU	TSS:	1.661	AT:	1.77269	#T:	5	DSTSS:	53007169	DETSS:	53582127	DTSS:	53582134
Iteration 89
HW:	CPU	TSS:	1.66086	AT:	1.82477	#T:	5	DSTSS:	53582143	DETSS:	54188871	DTSS:	54188877
Iteration 90
HW:	CPU	TSS:	1.66106	AT:	1.81886	#T:	5	DSTSS:	54188886	DETSS:	54784166	DTSS:	54784172
Iteration 91
HW:	CPU	TSS:	1.6602	AT:	1.80601	#T:	7	DSTSS:	54784180	DETSS:	55415013	DTSS:	55415019
Iteration 92
HW:	CPU	TSS:	1.66233	AT:	1.81219	#T:	7	DSTSS:	55415027	DETSS:	55945566	DTSS:	55945572
Iteration 93
HW:	CPU	TSS:	1.66454	AT:	1.81898	#T:	7	DSTSS:	55945580	DETSS:	56472120	DTSS:	56472125
Iteration 94
HW:	CPU	TSS:	1.6667	AT:	1.82162	#T:	14	DSTSS:	56472133	DETSS:	56998840	DTSS:	56998847
Iteration 95
HW:	CPU	TSS:	1.66817	AT:	1.82604	#T:	14	DSTSS:	56998855	DETSS:	57548073	DTSS:	57548080
Iteration 96
HW:	CPU	TSS:	1.66962	AT:	1.83485	#T:	14	DSTSS:	57548090	DETSS:	58096969	DTSS:	58096976
Iteration 97
HW:	CPU	TSS:	1.67207	AT:	1.85347	#T:	8	DSTSS:	58096985	DETSS:	58610100	DTSS:	58610106
Iteration 98
HW:	CPU	TSS:	1.66993	AT:	1.8496	#T:	8	DSTSS:	58610115	DETSS:	59283935	DTSS:	59283940
Iteration 99
HW:	CPU	TSS:	1.66785	AT:	1.82967	#T:	8	DSTSS:	59283948	DETSS:	59957578	DTSS:	59957584
Iteration 100
HW:	CPU	TSS:	1.66335	AT:	1.78945	#T:	6	DSTSS:	59957592	DETSS:	60720713	DTSS:	60720720
Iteration 101
HW:	CPU	TSS:	1.6648	AT:	1.80065	#T:	6	DSTSS:	60720728	DETSS:	61268535	DTSS:	61268541
Iteration 102
HW:	CPU	TSS:	1.66675	AT:	1.81549	#T:	6	DSTSS:	61268549	DETSS:	61797081	DTSS:	61797087
Iteration 103
HW:	CPU	TSS:	1.66795	AT:	1.81918	#T:	6	DSTSS:	61797095	DETSS:	62352034	DTSS:	62352041
Iteration 104
HW:	CPU	TSS:	1.66452	AT:	1.78967	#T:	9	DSTSS:	62352050	DETSS:	63081111	DTSS:	63081117
Iteration 105
HW:	CPU	TSS:	1.66744	AT:	1.81208	#T:	9	DSTSS:	63081126	DETSS:	63570367	DTSS:	63570374
Iteration 106
HW:	CPU	TSS:	1.67034	AT:	1.83292	#T:	7	DSTSS:	63570383	DETSS:	64058995	DTSS:	64059000
Iteration 107
HW:	CPU	TSS:	1.66977	AT:	1.83495	#T:	7	DSTSS:	64059008	DETSS:	64679583	DTSS:	64679589
Iteration 108
HW:	CPU	TSS:	1.66916	AT:	1.81686	#T:	7	DSTSS:	64679596	DETSS:	65302390	DTSS:	65302395
Iteration 109
HW:	CPU	TSS:	1.66895	AT:	1.80132	#T:	6	DSTSS:	65302402	DETSS:	65909698	DTSS:	65909704
Iteration 110
HW:	CPU	TSS:	1.66897	AT:	1.78776	#T:	6	DSTSS:	65909712	DETSS:	66507942	DTSS:	66507947
Iteration 111
HW:	CPU	TSS:	1.66943	AT:	1.78186	#T:	6	DSTSS:	66507954	DETSS:	67088657	DTSS:	67088662
Iteration 112
HW:	CPU	TSS:	1.66859	AT:	1.76629	#T:	15	DSTSS:	67088669	DETSS:	67721659	DTSS:	67721665
Iteration 113
HW:	CPU	TSS:	1.66977	AT:	1.75934	#T:	15	DSTSS:	67721672	DETSS:	68272791	DTSS:	68272797
Iteration 114
HW:	CPU	TSS:	1.67174	AT:	1.7882	#T:	15	DSTSS:	68272804	DETSS:	68790719	DTSS:	68790724
Iteration 115
HW:	CPU	TSS:	1.67363	AT:	1.8176	#T:	15	DSTSS:	68790732	DETSS:	69310569	DTSS:	69310575
Iteration 116
HW:	CPU	TSS:	1.67309	AT:	1.84583	#T:	14	DSTSS:	69310583	DETSS:	69930652	DTSS:	69930660
Iteration 117
HW:	CPU	TSS:	1.67547	AT:	1.85602	#T:	14	DSTSS:	69930675	DETSS:	70427945	DTSS:	70427952
Iteration 118
HW:	CPU	TSS:	1.67788	AT:	1.86288	#T:	14	DSTSS:	70427961	DETSS:	70922728	DTSS:	70922734
Iteration 119
HW:	CPU	TSS:	1.68139	AT:	1.88522	#T:	11	DSTSS:	70922742	DETSS:	71369526	DTSS:	71369532
Iteration 120
HW:	CPU	TSS:	1.68246	AT:	1.92363	#T:	11	DSTSS:	71369540	DETSS:	71918559	DTSS:	71918565
Iteration 121
HW:	CPU	TSS:	1.68351	AT:	1.91073	#T:	11	DSTSS:	71918572	DETSS:	72467482	DTSS:	72467487
Iteration 122
HW:	CPU	TSS:	1.6818	AT:	1.87285	#T:	18	DSTSS:	72467495	DETSS:	73136080	DTSS:	73136090
Iteration 123
HW:	CPU	TSS:	1.68392	AT:	1.89768	#T:	18	DSTSS:	73136107	DETSS:	73637899	DTSS:	73637905
Iteration 124
HW:	CPU	TSS:	1.68653	AT:	1.92865	#T:	18	DSTSS:	73637914	DETSS:	74116863	DTSS:	74116868
Iteration 125
HW:	CPU	TSS:	1.68829	AT:	1.94912	#T:	5	DSTSS:	74116876	DETSS:	74631523	DTSS:	74631529
Iteration 126
HW:	CPU	TSS:	1.68928	AT:	1.96028	#T:	5	DSTSS:	74631538	DETSS:	75180174	DTSS:	75180180
Iteration 127
HW:	CPU	TSS:	1.69027	AT:	1.96782	#T:	5	DSTSS:	75180189	DETSS:	75727661	DTSS:	75727667
Iteration 128
HW:	CPU	TSS:	1.68921	AT:	1.96641	#T:	16	DSTSS:	75727675	DETSS:	76366846	DTSS:	76366852
Iteration 129
HW:	CPU	TSS:	1.6911	AT:	1.97667	#T:	16	DSTSS:	76367017	DETSS:	76873138	DTSS:	76873145
Iteration 130
HW:	CPU	TSS:	1.69355	AT:	1.98561	#T:	16	DSTSS:	76873154	DETSS:	77352343	DTSS:	77352350
Iteration 131
HW:	CPU	TSS:	1.69643	AT:	2.00005	#T:	13	DSTSS:	77352360	DETSS:	77810351	DTSS:	77810357
Iteration 132
HW:	CPU	TSS:	1.69825	AT:	2.02742	#T:	13	DSTSS:	77810388	DETSS:	78315682	DTSS:	78315688
Iteration 133
HW:	CPU	TSS:	1.70023	AT:	2.02744	#T:	13	DSTSS:	78315696	DETSS:	78812884	DTSS:	78812889
Iteration 134
HW:	CPU	TSS:	1.70203	AT:	2.02517	#T:	13	DSTSS:	78812898	DETSS:	79317074	DTSS:	79317080
Iteration 135
HW:	CPU	TSS:	1.70391	AT:	2.01253	#T:	13	DSTSS:	79317087	DETSS:	79816612	DTSS:	79816618
Iteration 136
HW:	CPU	TSS:	1.70564	AT:	2.02302	#T:	13	DSTSS:	79816625	DETSS:	80321852	DTSS:	80321857
Iteration 137
HW:	CPU	TSS:	1.70771	AT:	2.03772	#T:	13	DSTSS:	80321865	DETSS:	80810148	DTSS:	80810154
Iteration 138
HW:	CPU	TSS:	1.70954	AT:	2.08015	#T:	13	DSTSS:	80810161	DETSS:	81308539	DTSS:	81308544
Iteration 139
HW:	CPU	TSS:	1.71134	AT:	2.08097	#T:	13	DSTSS:	81308552	DETSS:	81807152	DTSS:	81807157
Iteration 140
HW:	CPU	TSS:	1.71276	AT:	2.0716	#T:	13	DSTSS:	81807165	DETSS:	82323062	DTSS:	82323067
Iteration 141
HW:	CPU	TSS:	1.71477	AT:	2.07869	#T:	13	DSTSS:	82323075	DETSS:	82809729	DTSS:	82809734
Iteration 142
HW:	CPU	TSS:	1.71677	AT:	2.09472	#T:	13	DSTSS:	82809742	DETSS:	83295817	DTSS:	83295822
Iteration 143
HW:	CPU	TSS:	1.71873	AT:	2.11042	#T:	13	DSTSS:	83295829	DETSS:	83782912	DTSS:	83782917
Iteration 144
HW:	CPU	TSS:	1.72017	AT:	2.14454	#T:	13	DSTSS:	83782925	DETSS:	84293966	DTSS:	84293971
Iteration 145
HW:	CPU	TSS:	1.72178	AT:	2.14574	#T:	13	DSTSS:	84293979	DETSS:	84795795	DTSS:	84795800
Iteration 146
HW:	CPU	TSS:	1.72366	AT:	2.14341	#T:	13	DSTSS:	84795808	DETSS:	85283615	DTSS:	85283620
Iteration 147
HW:	CPU	TSS:	1.72524	AT:	2.13169	#T:	13	DSTSS:	85283627	DETSS:	85785233	DTSS:	85785238
Iteration 148
HW:	CPU	TSS:	1.72677	AT:	2.13231	#T:	13	DSTSS:	85785245	DETSS:	86288270	DTSS:	86288275
Iteration 149
HW:	CPU	TSS:	1.72827	AT:	2.1306	#T:	13	DSTSS:	86288283	DETSS:	86791868	DTSS:	86791873
Iteration 150
HW:	CPU	TSS:	1.73005	AT:	2.13474	#T:	13	DSTSS:	86791881	DETSS:	87280589	DTSS:	87280594
Iteration 151
HW:	CPU	TSS:	1.73162	AT:	2.13503	#T:	13	DSTSS:	87280602	DETSS:	87779036	DTSS:	87779042
Iteration 152
HW:	CPU	TSS:	1.73309	AT:	2.1357	#T:	13	DSTSS:	87779049	DETSS:	88281763	DTSS:	88281769
Iteration 153
HW:	CPU	TSS:	1.73466	AT:	2.13356	#T:	13	DSTSS:	88281777	DETSS:	88778050	DTSS:	88778056
Iteration 154
HW:	CPU	TSS:	1.73635	AT:	2.13591	#T:	13	DSTSS:	88778063	DETSS:	89267678	DTSS:	89267683
Iteration 155
HW:	CPU	TSS:	1.73783	AT:	2.13575	#T:	13	DSTSS:	89267691	DETSS:	89766893	DTSS:	89766899
Iteration 156
HW:	CPU	TSS:	1.73921	AT:	2.13897	#T:	13	DSTSS:	89766907	DETSS:	90270805	DTSS:	90270811
Iteration 157
HW:	CPU	TSS:	1.7406	AT:	2.1347	#T:	13	DSTSS:	90270818	DETSS:	90773369	DTSS:	90773375
Iteration 158
HW:	CPU	TSS:	1.74223	AT:	2.13387	#T:	13	DSTSS:	90773382	DETSS:	91262559	DTSS:	91262564
Iteration 159
HW:	CPU	TSS:	1.74371	AT:	2.13147	#T:	13	DSTSS:	91262572	DETSS:	91758615	DTSS:	91758620
Iteration 160
HW:	CPU	TSS:	1.74507	AT:	2.13403	#T:	13	DSTSS:	91758628	DETSS:	92260119	DTSS:	92260124
Iteration 161
HW:	CPU	TSS:	1.74664	AT:	2.13743	#T:	13	DSTSS:	92260131	DETSS:	92749265	DTSS:	92749270
Iteration 162
HW:	CPU	TSS:	1.74797	AT:	2.13375	#T:	13	DSTSS:	92749278	DETSS:	93250797	DTSS:	93250803
Iteration 163
HW:	CPU	TSS:	1.74937	AT:	2.13499	#T:	13	DSTSS:	93250811	DETSS:	93747781	DTSS:	93747787
Iteration 164
HW:	CPU	TSS:	1.75055	AT:	2.13359	#T:	13	DSTSS:	93747794	DETSS:	94256080	DTSS:	94256086
Iteration 165
HW:	CPU	TSS:	1.7521	AT:	2.13798	#T:	13	DSTSS:	94256094	DETSS:	94743316	DTSS:	94743321
Iteration 166
HW:	CPU	TSS:	1.75365	AT:	2.13854	#T:	13	DSTSS:	94743329	DETSS:	95229947	DTSS:	95229952
Iteration 167
HW:	CPU	TSS:	1.75517	AT:	2.14159	#T:	13	DSTSS:	95229959	DETSS:	95717046	DTSS:	95717051
Iteration 168
HW:	CPU	TSS:	1.75639	AT:	2.1415	#T:	13	DSTSS:	95717059	DETSS:	96220111	DTSS:	96220116
Iteration 169
HW:	CPU	TSS:	1.75763	AT:	2.14016	#T:	13	DSTSS:	96220124	DETSS:	96721399	DTSS:	96721404
Iteration 170
HW:	CPU	TSS:	1.75909	AT:	2.14062	#T:	13	DSTSS:	96721412	DETSS:	97209287	DTSS:	97209292
Iteration 171
HW:	CPU	TSS:	1.76054	AT:	2.14367	#T:	13	DSTSS:	97209300	DETSS:	97697225	DTSS:	97697231
Iteration 172
HW:	CPU	TSS:	1.76163	AT:	2.1428	#T:	13	DSTSS:	97697239	DETSS:	98204333	DTSS:	98204338
Iteration 173
HW:	CPU	TSS:	1.76283	AT:	2.1433	#T:	13	DSTSS:	98204346	DETSS:	98705045	DTSS:	98705050
Iteration 174
HW:	CPU	TSS:	1.76423	AT:	2.14346	#T:	13	DSTSS:	98705058	DETSS:	99193667	DTSS:	99193672
Iteration 175
HW:	CPU	TSS:	1.7654	AT:	2.14224	#T:	13	DSTSS:	99193679	DETSS:	99694250	DTSS:	99694255
Iteration 176
HW:	CPU	TSS:	1.76651	AT:	2.14177	#T:	13	DSTSS:	99694263	DETSS:	100197474	DTSS:	100197479
Iteration 177
HW:	CPU	TSS:	1.7679	AT:	2.14231	#T:	13	DSTSS:	100197487	DETSS:	100684607	DTSS:	100684612
Iteration 178
HW:	CPU	TSS:	1.76926	AT:	2.14601	#T:	13	DSTSS:	100684620	DETSS:	101172474	DTSS:	101172479
Iteration 179
HW:	CPU	TSS:	1.7706	AT:	2.14849	#T:	13	DSTSS:	101172487	DETSS:	101660317	DTSS:	101660322
Iteration 180
HW:	CPU	TSS:	1.77167	AT:	2.14984	#T:	13	DSTSS:	101660330	DETSS:	102163652	DTSS:	102163657
Iteration 181
HW:	CPU	TSS:	1.77276	AT:	2.14605	#T:	13	DSTSS:	102163664	DETSS:	102664856	DTSS:	102664862
Iteration 182
HW:	CPU	TSS:	1.77406	AT:	2.14564	#T:	13	DSTSS:	102664869	DETSS:	103152991	DTSS:	103152997
Iteration 183
HW:	CPU	TSS:	1.77517	AT:	2.14238	#T:	13	DSTSS:	103153004	DETSS:	103652139	DTSS:	103652144
Iteration 184
HW:	CPU	TSS:	1.77619	AT:	2.14227	#T:	13	DSTSS:	103652152	DETSS:	104155623	DTSS:	104155628
Iteration 185
HW:	CPU	TSS:	1.77748	AT:	2.14611	#T:	13	DSTSS:	104155636	DETSS:	104642727	DTSS:	104642732
Iteration 186
HW:	CPU	TSS:	1.77855	AT:	2.14299	#T:	13	DSTSS:	104642740	DETSS:	105142116	DTSS:	105142121
Iteration 187
HW:	CPU	TSS:	1.7798	AT:	2.14308	#T:	13	DSTSS:	105142129	DETSS:	105629738	DTSS:	105629743
Iteration 188
HW:	CPU	TSS:	1.78078	AT:	2.14401	#T:	13	DSTSS:	105629750	DETSS:	106133387	DTSS:	106133392
Iteration 189
HW:	CPU	TSS:	1.78178	AT:	2.14383	#T:	13	DSTSS:	106133399	DETSS:	106634774	DTSS:	106634779
Iteration 190
HW:	CPU	TSS:	1.78284	AT:	2.14132	#T:	13	DSTSS:	106634787	DETSS:	107132687	DTSS:	107132692
Iteration 191
HW:	CPU	TSS:	1.78403	AT:	2.14443	#T:	13	DSTSS:	107132699	DETSS:	107621749	DTSS:	107621754
Iteration 192
HW:	CPU	TSS:	1.78496	AT:	2.14428	#T:	13	DSTSS:	107621762	DETSS:	108125549	DTSS:	108125555
Iteration 193
HW:	CPU	TSS:	1.78616	AT:	2.14423	#T:	13	DSTSS:	108125562	DETSS:	108612867	DTSS:	108612872
Iteration 194
HW:	CPU	TSS:	1.78735	AT:	2.14442	#T:	13	DSTSS:	108612880	DETSS:	109100040	DTSS:	109100045
Iteration 195
HW:	CPU	TSS:	1.78853	AT:	2.14463	#T:	13	DSTSS:	109100053	DETSS:	109587079	DTSS:	109587084
Iteration 196
HW:	CPU	TSS:	1.78941	AT:	2.14422	#T:	13	DSTSS:	109587092	DETSS:	110091942	DTSS:	110091948
Iteration 197
HW:	CPU	TSS:	1.79023	AT:	2.14231	#T:	13	DSTSS:	110091956	DETSS:	110600227	DTSS:	110600233
Iteration 198
HW:	CPU	TSS:	1.79139	AT:	2.14275	#T:	13	DSTSS:	110600240	DETSS:	111086709	DTSS:	111086714
Iteration 199
HW:	CPU	TSS:	1.79241	AT:	2.14395	#T:	13	DSTSS:	111086722	DETSS:	111581433	DTSS:	111581438
Iteration 200
HW:	CPU	TSS:	1.79327	AT:	2.14372	#T:	13	DSTSS:	111581446	DETSS:	112085747	DTSS:	112085752
Iteration 201
HW:	CPU	TSS:	1.7944	AT:	2.14388	#T:	13	DSTSS:	112085760	DETSS:	112572261	DTSS:	112572266
Iteration 202
HW:	CPU	TSS:	1.79553	AT:	2.14743	#T:	13	DSTSS:	112572274	DETSS:	113058567	DTSS:	113058572
Iteration 203
HW:	CPU	TSS:	1.79639	AT:	2.14337	#T:	13	DSTSS:	113058580	DETSS:	113561190	DTSS:	113561195
Iteration 204
HW:	CPU	TSS:	1.79709	AT:	2.14102	#T:	13	DSTSS:	113561202	DETSS:	114073517	DTSS:	114073522
Iteration 205
HW:	CPU	TSS:	1.79798	AT:	2.14162	#T:	13	DSTSS:	114073530	DETSS:	114572706	DTSS:	114572712
Iteration 206
HW:	CPU	TSS:	1.79888	AT:	2.1413	#T:	13	DSTSS:	114572720	DETSS:	115071807	DTSS:	115071813
Iteration 207
HW:	CPU	TSS:	1.79996	AT:	2.14208	#T:	13	DSTSS:	115071821	DETSS:	115557944	DTSS:	115557948
Iteration 208
HW:	CPU	TSS:	1.8005	AT:	2.1374	#T:	13	DSTSS:	115557956	DETSS:	116079140	DTSS:	116079145
Iteration 209
HW:	CPU	TSS:	1.80139	AT:	2.13463	#T:	13	DSTSS:	116079153	DETSS:	116576790	DTSS:	116576795
Iteration 210
HW:	CPU	TSS:	1.80229	AT:	2.13213	#T:	13	DSTSS:	116576803	DETSS:	117073305	DTSS:	117073310
Iteration 211
HW:	CPU	TSS:	1.8031	AT:	2.12811	#T:	13	DSTSS:	117073318	DETSS:	117575372	DTSS:	117575377
Iteration 212
HW:	CPU	TSS:	1.80356	AT:	2.12299	#T:	13	DSTSS:	117575384	DETSS:	118099531	DTSS:	118099536
Iteration 213
HW:	CPU	TSS:	1.80457	AT:	2.12837	#T:	13	DSTSS:	118099544	DETSS:	118587556	DTSS:	118587561
Iteration 214
HW:	CPU	TSS:	1.80551	AT:	2.12685	#T:	13	DSTSS:	118587569	DETSS:	119079744	DTSS:	119079750
Iteration 215
HW:	CPU	TSS:	1.80653	AT:	2.12899	#T:	13	DSTSS:	119079757	DETSS:	119566447	DTSS:	119566452
Iteration 216
HW:	CPU	TSS:	1.80729	AT:	2.12938	#T:	13	DSTSS:	119566460	DETSS:	120069288	DTSS:	120069294
Iteration 217
HW:	CPU	TSS:	1.80828	AT:	2.12925	#T:	13	DSTSS:	120069301	DETSS:	120556294	DTSS:	120556299
Iteration 218
HW:	CPU	TSS:	1.80921	AT:	2.12795	#T:	13	DSTSS:	120556306	DETSS:	121047471	DTSS:	121047478
Iteration 219
HW:	CPU	TSS:	1.81019	AT:	2.13226	#T:	13	DSTSS:	121047487	DETSS:	121533960	DTSS:	121533966
Iteration 220
HW:	CPU	TSS:	1.81081	AT:	2.13261	#T:	13	DSTSS:	121533975	DETSS:	122044971	DTSS:	122044977
Iteration 221
HW:	CPU	TSS:	1.80863	AT:	2.08025	#T:	4	DSTSS:	122044986	DETSS:	122744829	DTSS:	122744839
Iteration 222
HW:	CPU	TSS:	1.78498	AT:	1.72423	#T:	4	DSTSS:	122744856	DETSS:	124931276	DTSS:	124931286
Iteration 223
HW:	CPU	TSS:	1.76146	AT:	1.46433	#T:	4	DSTSS:	124931303	DETSS:	127167320	DTSS:	127167327
Iteration 224
HW:	CPU	TSS:	1.76318	AT:	1.47424	#T:	4	DSTSS:	127167336	DETSS:	127610487	DTSS:	127610493
Iteration 225
HW:	CPU	TSS:	1.7617	AT:	1.45198	#T:	4	DSTSS:	127610502	DETSS:	128284956	DTSS:	128284963
Iteration 226
HW:	CPU	TSS:	1.76005	AT:	1.42856	#T:	4	DSTSS:	128284973	DETSS:	128973390	DTSS:	128973397
Iteration 227
HW:	CPU	TSS:	1.75851	AT:	1.40729	#T:	4	DSTSS:	128973405	DETSS:	129655303	DTSS:	129655309
Iteration 228
HW:	CPU	TSS:	1.75674	AT:	1.38716	#T:	4	DSTSS:	129655318	DETSS:	130354784	DTSS:	130354791
Iteration 229
HW:	CPU	TSS:	1.75592	AT:	1.37121	#T:	4	DSTSS:	130354800	DETSS:	130985355	DTSS:	130985360
Iteration 230
HW:	CPU	TSS:	1.75572	AT:	1.3611	#T:	27	DSTSS:	130985368	DETSS:	131569693	DTSS:	131569701
Iteration 231
HW:	CPU	TSS:	1.75898	AT:	1.37892	#T:	27	DSTSS:	131569709	DETSS:	131894980	DTSS:	131894986
Iteration 232
HW:	CPU	TSS:	1.76163	AT:	1.39409	#T:	27	DSTSS:	131894994	DETSS:	132263654	DTSS:	132263659
Iteration 233
HW:	CPU	TSS:	1.76304	AT:	1.39703	#T:	16	DSTSS:	132263667	DETSS:	132724965	DTSS:	132724972
Iteration 234
HW:	CPU	TSS:	1.76592	AT:	1.41344	#T:	16	DSTSS:	132724986	DETSS:	133074863	DTSS:	133074868
Iteration 235
HW:	CPU	TSS:	1.76923	AT:	1.4337	#T:	16	DSTSS:	133074876	DETSS:	133391428	DTSS:	133391434
Iteration 236
HW:	CPU	TSS:	1.7724	AT:	1.45644	#T:	16	DSTSS:	133391441	DETSS:	133717235	DTSS:	133717241
Iteration 237
HW:	CPU	TSS:	1.77533	AT:	1.50248	#T:	16	DSTSS:	133717249	DETSS:	134059428	DTSS:	134059434
Iteration 238
HW:	CPU	TSS:	1.7779	AT:	1.79	#T:	16	DSTSS:	134059441	DETSS:	134428488	DTSS:	134428495
Iteration 239
HW:	CPU	TSS:	1.78035	AT:	2.22581	#T:	16	DSTSS:	134428502	DETSS:	134804998	DTSS:	134805003
Iteration 240
HW:	CPU	TSS:	1.78206	AT:	2.22918	#T:	13	DSTSS:	134805009	DETSS:	135236609	DTSS:	135236619
Iteration 241
HW:	CPU	TSS:	1.78139	AT:	2.24747	#T:	13	DSTSS:	135236635	DETSS:	135849008	DTSS:	135849012
Iteration 242
HW:	CPU	TSS:	1.7809	AT:	2.2743	#T:	13	DSTSS:	135849018	DETSS:	136448208	DTSS:	136448212
Iteration 243
HW:	CPU	TSS:	1.78031	AT:	2.29746	#T:	13	DSTSS:	136448218	DETSS:	137054780	DTSS:	137054785
Iteration 244
HW:	CPU	TSS:	1.78068	AT:	2.3503	#T:	13	DSTSS:	137054806	DETSS:	137587886	DTSS:	137587891
Iteration 245
HW:	CPU	TSS:	1.78242	AT:	2.41838	#T:	13	DSTSS:	137587897	DETSS:	138014853	DTSS:	138014860
Iteration 246
HW:	CPU	TSS:	1.78539	AT:	2.50915	#T:	13	DSTSS:	138014873	DETSS:	138344839	DTSS:	138344845
Iteration 247
HW:	CPU	TSS:	1.78828	AT:	2.50531	#T:	13	DSTSS:	138344851	DETSS:	138680554	DTSS:	138680560
Iteration 248
HW:	CPU	TSS:	1.79016	AT:	2.48886	#T:	13	DSTSS:	138680566	DETSS:	139094081	DTSS:	139094086
Iteration 249
HW:	CPU	TSS:	1.79202	AT:	2.50657	#T:	13	DSTSS:	139094093	DETSS:	139507121	DTSS:	139507126
Iteration 250
HW:	CPU	TSS:	1.79386	AT:	2.48278	#T:	13	DSTSS:	139507133	DETSS:	139922022	DTSS:	139922027
Iteration 251
HW:	CPU	TSS:	1.7957	AT:	2.44834	#T:	13	DSTSS:	139922034	DETSS:	140334918	DTSS:	140334923
Iteration 252
HW:	CPU	TSS:	1.79604	AT:	2.37829	#T:	19	DSTSS:	140334928	DETSS:	140865238	DTSS:	140865248
Iteration 253
HW:	CPU	TSS:	1.79778	AT:	2.35257	#T:	19	DSTSS:	140865265	DETSS:	141285582	DTSS:	141285588
Iteration 254
HW:	CPU	TSS:	1.799	AT:	2.32338	#T:	19	DSTSS:	141285594	DETSS:	141745429	DTSS:	141745434
Iteration 255
HW:	CPU	TSS:	1.80046	AT:	2.30334	#T:	19	DSTSS:	141745440	DETSS:	142185589	DTSS:	142185594
Iteration 256
HW:	CPU	TSS:	1.80163	AT:	2.29365	#T:	19	DSTSS:	142185600	DETSS:	142648366	DTSS:	142648370
Iteration 257
HW:	CPU	TSS:	1.80298	AT:	2.34557	#T:	19	DSTSS:	142648570	DETSS:	143096711	DTSS:	143096715
Iteration 258
HW:	CPU	TSS:	1.80413	AT:	2.39066	#T:	19	DSTSS:	143096722	DETSS:	143559204	DTSS:	143559209
Iteration 259
HW:	CPU	TSS:	1.80526	AT:	2.43948	#T:	19	DSTSS:	143559214	DETSS:	144023459	DTSS:	144023464
Iteration 260
HW:	CPU	TSS:	1.80642	AT:	2.46496	#T:	19	DSTSS:	144023489	DETSS:	144484541	DTSS:	144484546
Iteration 261
HW:	CPU	TSS:	1.80765	AT:	2.455	#T:	19	DSTSS:	144484552	DETSS:	144939485	DTSS:	144939489
Iteration 262
HW:	CPU	TSS:	1.80881	AT:	2.40968	#T:	19	DSTSS:	144939495	DETSS:	145399709	DTSS:	145399714
Iteration 263
HW:	CPU	TSS:	1.80991	AT:	2.36678	#T:	19	DSTSS:	145399720	DETSS:	145863295	DTSS:	145863300
Iteration 264
HW:	CPU	TSS:	1.81126	AT:	2.35684	#T:	8	DSTSS:	145863306	DETSS:	146307132	DTSS:	146307140
Iteration 265
HW:	CPU	TSS:	1.8103	AT:	2.288	#T:	8	DSTSS:	146307154	DETSS:	146937207	DTSS:	146937214
Iteration 266
HW:	CPU	TSS:	1.80983	AT:	2.23524	#T:	8	DSTSS:	146937224	DETSS:	147527480	DTSS:	147527487
Iteration 267
HW:	CPU	TSS:	1.81014	AT:	2.20211	#T:	8	DSTSS:	147527496	DETSS:	148054800	DTSS:	148054821
Iteration 268
HW:	CPU	TSS:	1.80806	AT:	2.14839	#T:	8	DSTSS:	148054830	DETSS:	148778135	DTSS:	148778142
Iteration 269
HW:	CPU	TSS:	1.80852	AT:	2.12293	#T:	8	DSTSS:	148778150	DETSS:	149293394	DTSS:	149293401
Iteration 270
HW:	CPU	TSS:	1.80798	AT:	2.08699	#T:	8	DSTSS:	149293410	DETSS:	149891148	DTSS:	149891155
Iteration 271
HW:	CPU	TSS:	1.8085	AT:	2.06929	#T:	8	DSTSS:	149891164	DETSS:	150400955	DTSS:	150400962
Iteration 272
HW:	CPU	TSS:	1.80644	AT:	2.00524	#T:	8	DSTSS:	150400970	DETSS:	151126158	DTSS:	151126165
Iteration 273
HW:	CPU	TSS:	1.80684	AT:	1.98846	#T:	8	DSTSS:	151126174	DETSS:	151646031	DTSS:	151646038
Iteration 274
HW:	CPU	TSS:	1.80626	AT:	1.95654	#T:	8	DSTSS:	151646047	DETSS:	152248035	DTSS:	152248042
Iteration 275
HW:	CPU	TSS:	1.8067	AT:	1.94479	#T:	8	DSTSS:	152248051	DETSS:	152764768	DTSS:	152764775
Iteration 276
HW:	CPU	TSS:	1.80391	AT:	1.87421	#T:	18	DSTSS:	152764784	DETSS:	153555051	DTSS:	153555057
Iteration 277
HW:	CPU	TSS:	1.80324	AT:	1.84241	#T:	18	DSTSS:	153555065	DETSS:	154166524	DTSS:	154166530
Iteration 278
HW:	CPU	TSS:	1.80402	AT:	1.83683	#T:	18	DSTSS:	154166539	DETSS:	154654824	DTSS:	154654831
Iteration 279
HW:	CPU	TSS:	1.80435	AT:	1.82458	#T:	18	DSTSS:	154654869	DETSS:	155180512	DTSS:	155180517
Iteration 280
HW:	CPU	TSS:	1.80457	AT:	1.80683	#T:	18	DSTSS:	155180526	DETSS:	155715851	DTSS:	155715857
Iteration 281
HW:	CPU	TSS:	1.80442	AT:	1.81903	#T:	13	DSTSS:	155715866	DETSS:	156282869	DTSS:	156282879
Iteration 282
HW:	CPU	TSS:	1.80372	AT:	1.81419	#T:	13	DSTSS:	156282894	DETSS:	156898042	DTSS:	156898049
Iteration 283
HW:	CPU	TSS:	1.80307	AT:	1.79817	#T:	13	DSTSS:	156898058	DETSS:	157508843	DTSS:	157508849
Iteration 284
HW:	CPU	TSS:	1.80443	AT:	1.85453	#T:	13	DSTSS:	157508858	DETSS:	157944855	DTSS:	157944862
Iteration 285
HW:	CPU	TSS:	1.80368	AT:	1.83357	#T:	13	DSTSS:	157944871	DETSS:	158564900	DTSS:	158564907
Iteration 286
HW:	CPU	TSS:	1.8052	AT:	1.86943	#T:	13	DSTSS:	158564916	DETSS:	158984826	DTSS:	158984856
Iteration 287
HW:	CPU	TSS:	1.80546	AT:	1.86493	#T:	18	DSTSS:	158984865	DETSS:	159516556	DTSS:	159516563
Iteration 288
HW:	CPU	TSS:	1.80704	AT:	1.93098	#T:	18	DSTSS:	159516571	DETSS:	159930000	DTSS:	159930006
Iteration 289
HW:	CPU	TSS:	1.80866	AT:	1.9554	#T:	18	DSTSS:	159930015	DETSS:	160339912	DTSS:	160339918
Iteration 290
HW:	CPU	TSS:	1.80948	AT:	1.98335	#T:	18	DSTSS:	160339926	DETSS:	160819384	DTSS:	160819391
Iteration 291
HW:	CPU	TSS:	1.81017	AT:	1.98918	#T:	18	DSTSS:	160819399	DETSS:	161310992	DTSS:	161310999
Iteration 292
HW:	CPU	TSS:	1.81183	AT:	2.08336	#T:	18	DSTSS:	161311007	DETSS:	161714951	DTSS:	161714957
Iteration 293
HW:	CPU	TSS:	1.81349	AT:	2.1379	#T:	18	DSTSS:	161714966	DETSS:	162118251	DTSS:	162118257
Iteration 294
HW:	CPU	TSS:	1.81403	AT:	2.13389	#T:	18	DSTSS:	162118266	DETSS:	162621468	DTSS:	162621474
Iteration 295
HW:	CPU	TSS:	1.8147	AT:	2.14331	#T:	18	DSTSS:	162621483	DETSS:	163112187	DTSS:	163112193
Iteration 296
HW:	CPU	TSS:	1.81629	AT:	2.1782	#T:	18	DSTSS:	163112202	DETSS:	163520458	DTSS:	163520464
Iteration 297
HW:	CPU	TSS:	1.8179	AT:	2.22451	#T:	18	DSTSS:	163520473	DETSS:	163924984	DTSS:	163924990
Iteration 298
HW:	CPU	TSS:	1.8184	AT:	2.25706	#T:	10	DSTSS:	163924998	DETSS:	164429972	DTSS:	164429981
Iteration 299
HW:	CPU	TSS:	1.81865	AT:	2.28226	#T:	10	DSTSS:	164429996	DETSS:	164957588	DTSS:	164957594
Iteration 300
HW:	CPU	TSS:	1.8178	AT:	2.22515	#T:	10	DSTSS:	164957602	DETSS:	165584805	DTSS:	165584811
Iteration 301
HW:	CPU	TSS:	1.8169	AT:	2.22152	#T:	10	DSTSS:	165584820	DETSS:	166217333	DTSS:	166217339
Iteration 302
HW:	CPU	TSS:	1.81521	AT:	2.14149	#T:	10	DSTSS:	166217347	DETSS:	166923234	DTSS:	166923241
Iteration 303
HW:	CPU	TSS:	1.81177	AT:	2.05437	#T:	29	DSTSS:	166923250	DETSS:	167791598	DTSS:	167791607
Iteration 304
HW:	CPU	TSS:	1.81193	AT:	2.02408	#T:	29	DSTSS:	167791625	DETSS:	168328886	DTSS:	168328892
Iteration 305
HW:	CPU	TSS:	1.81145	AT:	1.98019	#T:	29	DSTSS:	168328901	DETSS:	168924972	DTSS:	168924988
Iteration 306
HW:	CPU	TSS:	1.81094	AT:	1.95271	#T:	29	DSTSS:	168925006	DETSS:	169525247	DTSS:	169525254
Iteration 307
HW:	CPU	TSS:	1.81256	AT:	1.97351	#T:	29	DSTSS:	169525263	DETSS:	169925083	DTSS:	169925090
Iteration 308
HW:	CPU	TSS:	1.81306	AT:	1.95064	#T:	8	DSTSS:	169925099	DETSS:	170430053	DTSS:	170430059
Iteration 309
HW:	CPU	TSS:	1.81137	AT:	1.88412	#T:	8	DSTSS:	170430069	DETSS:	171141045	DTSS:	171141051
Iteration 310
HW:	CPU	TSS:	1.81161	AT:	1.87865	#T:	8	DSTSS:	171141061	DETSS:	171670532	DTSS:	171670539
Iteration 311
HW:	CPU	TSS:	1.81194	AT:	1.87248	#T:	8	DSTSS:	171670548	DETSS:	172191035	DTSS:	172191041
Iteration 312
HW:	CPU	TSS:	1.81235	AT:	1.85112	#T:	8	DSTSS:	172191051	DETSS:	172704089	DTSS:	172704096
Iteration 313
HW:	CPU	TSS:	1.81271	AT:	1.82873	#T:	8	DSTSS:	172704105	DETSS:	173221035	DTSS:	173221042
Iteration 314
HW:	CPU	TSS:	1.81305	AT:	1.82585	#T:	8	DSTSS:	173221050	DETSS:	173740704	DTSS:	173740710
Iteration 315
HW:	CPU	TSS:	1.81249	AT:	1.81072	#T:	8	DSTSS:	173740720	DETSS:	174346116	DTSS:	174346122
Iteration 316
HW:	CPU	TSS:	1.81367	AT:	1.848	#T:	13	DSTSS:	174346130	DETSS:	174783924	DTSS:	174783930
Iteration 317
HW:	CPU	TSS:	1.81213	AT:	1.83448	#T:	13	DSTSS:	174783937	DETSS:	175484243	DTSS:	175484248
Iteration 318
HW:	CPU	TSS:	1.81192	AT:	1.8613	#T:	13	DSTSS:	175484255	DETSS:	176056625	DTSS:	176056630
Iteration 319
HW:	CPU	TSS:	1.81124	AT:	1.91381	#T:	13	DSTSS:	176056638	DETSS:	176674397	DTSS:	176674403
Iteration 320
HW:	CPU	TSS:	1.81049	AT:	1.89499	#T:	13	DSTSS:	176674410	DETSS:	177299937	DTSS:	177299942
Iteration 321
HW:	CPU	TSS:	1.80827	AT:	1.85884	#T:	23	DSTSS:	177299950	DETSS:	178070476	DTSS:	178070484
Iteration 322
HW:	CPU	TSS:	1.80908	AT:	1.885	#T:	23	DSTSS:	178070499	DETSS:	178543830	DTSS:	178543837
Iteration 323
HW:	CPU	TSS:	1.81005	AT:	1.87327	#T:	23	DSTSS:	178543847	DETSS:	179000116	DTSS:	179000123
Iteration 324
HW:	CPU	TSS:	1.81099	AT:	1.88273	#T:	23	DSTSS:	179000162	DETSS:	179459497	DTSS:	179459503
Iteration 325
HW:	CPU	TSS:	1.81281	AT:	1.95622	#T:	23	DSTSS:	179459513	DETSS:	179831259	DTSS:	179831265
Iteration 326
HW:	CPU	TSS:	1.81473	AT:	1.99492	#T:	23	DSTSS:	179831275	DETSS:	180192182	DTSS:	180192189
Iteration 327
HW:	CPU	TSS:	1.81566	AT:	2.00957	#T:	23	DSTSS:	180192198	DETSS:	180650545	DTSS:	180650551
Iteration 328
HW:	CPU	TSS:	1.81658	AT:	2.02251	#T:	23	DSTSS:	180650561	DETSS:	181109489	DTSS:	181109496
Iteration 329
HW:	CPU	TSS:	1.81848	AT:	2.06076	#T:	23	DSTSS:	181109506	DETSS:	181470402	DTSS:	181470408
Iteration 330
HW:	CPU	TSS:	1.81968	AT:	2.08351	#T:	23	DSTSS:	181470418	DETSS:	181900026	DTSS:	181900033
Iteration 331
HW:	CPU	TSS:	1.82087	AT:	2.12909	#T:	9	DSTSS:	181900042	DETSS:	182330748	DTSS:	182330755
Iteration 332
HW:	CPU	TSS:	1.82177	AT:	2.12346	#T:	9	DSTSS:	182330765	DETSS:	182789739	DTSS:	182789746
Iteration 333
HW:	CPU	TSS:	1.82106	AT:	2.14509	#T:	9	DSTSS:	182789756	DETSS:	183409333	DTSS:	183409340
Iteration 334
HW:	CPU	TSS:	1.82194	AT:	2.1758	#T:	9	DSTSS:	183409349	DETSS:	183869837	DTSS:	183869843
Iteration 335
HW:	CPU	TSS:	1.82183	AT:	2.19201	#T:	9	DSTSS:	183869852	DETSS:	184429846	DTSS:	184429853
Iteration 336
HW:	CPU	TSS:	1.82277	AT:	2.24157	#T:	9	DSTSS:	184429862	DETSS:	184883884	DTSS:	184883891
Iteration 337
HW:	CPU	TSS:	1.82377	AT:	2.3416	#T:	9	DSTSS:	184883901	DETSS:	185330466	DTSS:	185330471
Iteration 338
HW:	CPU	TSS:	1.82239	AT:	2.27394	#T:	10	DSTSS:	185330480	DETSS:	186019842	DTSS:	186019850
Iteration 339
HW:	CPU	TSS:	1.8214	AT:	2.21667	#T:	10	DSTSS:	186019864	DETSS:	186669292	DTSS:	186669298
Iteration 340
HW:	CPU	TSS:	1.82072	AT:	2.17143	#T:	10	DSTSS:	186669306	DETSS:	187288424	DTSS:	187288430
Iteration 341
HW:	CPU	TSS:	1.82145	AT:	2.14346	#T:	10	DSTSS:	187288438	DETSS:	187762341	DTSS:	187762347
Iteration 342
HW:	CPU	TSS:	1.81932	AT:	2.03853	#T:	13	DSTSS:	187762354	DETSS:	188531551	DTSS:	188531560
Iteration 343
HW:	CPU	TSS:	1.81833	AT:	1.99194	#T:	13	DSTSS:	188531577	DETSS:	189184936	DTSS:	189184943
Iteration 344
HW:	CPU	TSS:	1.8178	AT:	1.95838	#T:	13	DSTSS:	189184952	DETSS:	189790149	DTSS:	189790155
Iteration 345
HW:	CPU	TSS:	1.81735	AT:	1.90652	#T:	13	DSTSS:	189790163	DETSS:	190387182	DTSS:	190387188
Iteration 346
HW:	CPU	TSS:	1.81728	AT:	1.87952	#T:	23	DSTSS:	190387197	DETSS:	190944897	DTSS:	190944905
Iteration 347
HW:	CPU	TSS:	1.81813	AT:	1.87343	#T:	23	DSTSS:	190944920	DETSS:	191405005	DTSS:	191405012
Iteration 348
HW:	CPU	TSS:	1.81946	AT:	1.88361	#T:	23	DSTSS:	191405021	DETSS:	191814985	DTSS:	191814992
Iteration 349
HW:	CPU	TSS:	1.82129	AT:	1.94019	#T:	23	DSTSS:	191815001	DETSS:	192171372	DTSS:	192171379
Iteration 350
HW:	CPU	TSS:	1.82302	AT:	1.96139	#T:	23	DSTSS:	192171389	DETSS:	192537165	DTSS:	192537171
Iteration 351
HW:	CPU	TSS:	1.82484	AT:	2.00844	#T:	23	DSTSS:	192537180	DETSS:	192894123	DTSS:	192894130
Iteration 352
HW:	CPU	TSS:	1.82568	AT:	2.00737	#T:	23	DSTSS:	192894139	DETSS:	193352661	DTSS:	193352668
Iteration 353
HW:	CPU	TSS:	1.82687	AT:	2.01331	#T:	23	DSTSS:	193352677	DETSS:	193774269	DTSS:	193774276
Iteration 354
HW:	CPU	TSS:	1.82857	AT:	2.09325	#T:	23	DSTSS:	193774285	DETSS:	194141171	DTSS:	194141177
Iteration 355
HW:	CPU	TSS:	1.83031	AT:	2.1703	#T:	23	DSTSS:	194141186	DETSS:	194502325	DTSS:	194502334
Iteration 356
HW:	CPU	TSS:	1.83182	AT:	2.2369	#T:	8	DSTSS:	194502344	DETSS:	194888234	DTSS:	194888240
Iteration 357
HW:	CPU	TSS:	1.83183	AT:	2.21631	#T:	8	DSTSS:	194888248	DETSS:	195432764	DTSS:	195432770
Iteration 358
HW:	CPU	TSS:	1.832	AT:	2.28844	#T:	8	DSTSS:	195432779	DETSS:	195960167	DTSS:	195960173
Iteration 359
HW:	CPU	TSS:	1.83242	AT:	2.33633	#T:	8	DSTSS:	195960182	DETSS:	196461297	DTSS:	196461302
Iteration 360
HW:	CPU	TSS:	1.83285	AT:	2.37084	#T:	8	DSTSS:	196461311	DETSS:	196960598	DTSS:	196960604
Iteration 361
HW:	CPU	TSS:	1.83296	AT:	2.39187	#T:	8	DSTSS:	196960612	DETSS:	197494591	DTSS:	197494598
Iteration 362
HW:	CPU	TSS:	1.83378	AT:	2.42611	#T:	8	DSTSS:	197494606	DETSS:	197951996	DTSS:	197952003
Iteration 363
HW:	CPU	TSS:	1.83248	AT:	2.35031	#T:	21	DSTSS:	197952011	DETSS:	198638091	DTSS:	198638097
Iteration 364
HW:	CPU	TSS:	1.83264	AT:	2.31243	#T:	21	DSTSS:	198638105	DETSS:	199166549	DTSS:	199166555
Iteration 365
HW:	CPU	TSS:	1.83359	AT:	2.28591	#T:	21	DSTSS:	199166563	DETSS:	199608219	DTSS:	199608225
Iteration 366
HW:	CPU	TSS:	1.83503	AT:	2.2788	#T:	21	DSTSS:	199608233	DETSS:	199997220	DTSS:	199997226
Iteration 367
HW:	CPU	TSS:	1.83593	AT:	2.25177	#T:	21	DSTSS:	199997235	DETSS:	200443742	DTSS:	200443749
Iteration 368
HW:	CPU	TSS:	1.83677	AT:	2.2537	#T:	21	DSTSS:	200443757	DETSS:	200895815	DTSS:	200895821
Iteration 369
HW:	CPU	TSS:	1.83842	AT:	2.271	#T:	21	DSTSS:	200895829	DETSS:	201259953	DTSS:	201259959
Iteration 370
HW:	CPU	TSS:	1.83918	AT:	2.24313	#T:	13	DSTSS:	201259967	DETSS:	201719863	DTSS:	201719871
Iteration 371
HW:	CPU	TSS:	1.8396	AT:	2.2032	#T:	13	DSTSS:	201719886	DETSS:	202218369	DTSS:	202218375
Iteration 372
HW:	CPU	TSS:	1.84035	AT:	2.18208	#T:	13	DSTSS:	202218384	DETSS:	202678952	DTSS:	202678958
Iteration 373
HW:	CPU	TSS:	1.84111	AT:	2.20635	#T:	13	DSTSS:	202678967	DETSS:	203137801	DTSS:	203137807
Iteration 374
HW:	CPU	TSS:	1.84185	AT:	2.22522	#T:	13	DSTSS:	203137815	DETSS:	203599878	DTSS:	203599884
Iteration 375
HW:	CPU	TSS:	1.84265	AT:	2.23886	#T:	13	DSTSS:	203599893	DETSS:	204054436	DTSS:	204054443
Iteration 376
HW:	CPU	TSS:	1.84383	AT:	2.26523	#T:	13	DSTSS:	204054452	DETSS:	204465353	DTSS:	204465359
Iteration 377
HW:	CPU	TSS:	1.84458	AT:	2.28801	#T:	7	DSTSS:	204465368	DETSS:	204924638	DTSS:	204924644
Iteration 378
HW:	CPU	TSS:	1.84284	AT:	2.20533	#T:	7	DSTSS:	204924698	DETSS:	205660592	DTSS:	205660597
Iteration 379
HW:	CPU	TSS:	1.84187	AT:	2.21516	#T:	7	DSTSS:	205660604	DETSS:	206312479	DTSS:	206312484
Iteration 380
HW:	CPU	TSS:	1.84116	AT:	2.18828	#T:	7	DSTSS:	206312491	DETSS:	206935215	DTSS:	206935220
Iteration 381
HW:	CPU	TSS:	1.83864	AT:	2.08472	#T:	18	DSTSS:	206935227	DETSS:	207762805	DTSS:	207762812
Iteration 382
HW:	CPU	TSS:	1.83866	AT:	2.04661	#T:	18	DSTSS:	207762825	DETSS:	208303642	DTSS:	208303648
Iteration 383
HW:	CPU	TSS:	1.83913	AT:	2.03564	#T:	18	DSTSS:	208303655	DETSS:	208794910	DTSS:	208794916
Iteration 384
HW:	CPU	TSS:	1.83966	AT:	2.02807	#T:	18	DSTSS:	208794924	DETSS:	209278180	DTSS:	209278186
Iteration 385
HW:	CPU	TSS:	1.8402	AT:	2.00013	#T:	18	DSTSS:	209278194	DETSS:	209759411	DTSS:	209759417
Iteration 386
HW:	CPU	TSS:	1.84058	AT:	1.99062	#T:	18	DSTSS:	209759424	DETSS:	210259914	DTSS:	210259920
Iteration 387
HW:	CPU	TSS:	1.84116	AT:	1.99563	#T:	18	DSTSS:	210259928	DETSS:	210736965	DTSS:	210736971
Iteration 388
HW:	CPU	TSS:	1.84172	AT:	1.99151	#T:	18	DSTSS:	210737007	DETSS:	211215175	DTSS:	211215181
Iteration 389
HW:	CPU	TSS:	1.84217	AT:	1.98398	#T:	18	DSTSS:	211215190	DETSS:	211706450	DTSS:	211706455
Iteration 390
HW:	CPU	TSS:	1.84294	AT:	1.98579	#T:	18	DSTSS:	211706463	DETSS:	212160682	DTSS:	212160687
Iteration 391
HW:	CPU	TSS:	1.84332	AT:	1.97552	#T:	18	DSTSS:	212160695	DETSS:	212659788	DTSS:	212659794
Iteration 392
HW:	CPU	TSS:	1.84389	AT:	1.96062	#T:	18	DSTSS:	212659803	DETSS:	213136098	DTSS:	213136104
Iteration 393
HW:	CPU	TSS:	1.84434	AT:	1.95353	#T:	9	DSTSS:	213136112	DETSS:	213626825	DTSS:	213626832
Iteration 394
HW:	CPU	TSS:	1.84506	AT:	2.01797	#T:	9	DSTSS:	213626846	DETSS:	214084886	DTSS:	214084893
Iteration 395
HW:	CPU	TSS:	1.84584	AT:	2.06702	#T:	9	DSTSS:	214084903	DETSS:	214536884	DTSS:	214536891
Iteration 396
HW:	CPU	TSS:	1.84627	AT:	2.10053	#T:	9	DSTSS:	214536900	DETSS:	215028400	DTSS:	215028406
Iteration 397
HW:	CPU	TSS:	1.84702	AT:	2.20238	#T:	9	DSTSS:	215028416	DETSS:	215481717	DTSS:	215481724
Iteration 398
HW:	CPU	TSS:	1.84788	AT:	2.23096	#T:	9	DSTSS:	215481733	DETSS:	215923679	DTSS:	215923686
Iteration 399
HW:	CPU	TSS:	1.8482	AT:	2.22767	#T:	9	DSTSS:	215923696	DETSS:	216426219	DTSS:	216426226
Iteration 400
HW:	CPU	TSS:	1.8489	AT:	2.23473	#T:	9	DSTSS:	216426235	DETSS:	216885348	DTSS:	216885355
Iteration 401
HW:	CPU	TSS:	1.8497	AT:	2.24485	#T:	9	DSTSS:	216885365	DETSS:	217332315	DTSS:	217332322
Iteration 402
HW:	CPU	TSS:	1.84968	AT:	2.23223	#T:	15	DSTSS:	217332331	DETSS:	217875611	DTSS:	217875618
Iteration 403
HW:	CPU	TSS:	1.8511	AT:	2.2632	#T:	15	DSTSS:	217875627	DETSS:	218248439	DTSS:	218248446
Iteration 404
HW:	CPU	TSS:	1.85266	AT:	2.30058	#T:	15	DSTSS:	218248455	DETSS:	218604604	DTSS:	218604611
Iteration 405
HW:	CPU	TSS:	1.85267	AT:	2.28585	#T:	15	DSTSS:	218604620	DETSS:	219143509	DTSS:	219143517
Iteration 406
HW:	CPU	TSS:	1.85411	AT:	2.31249	#T:	15	DSTSS:	219143526	DETSS:	219512079	DTSS:	219512086
Iteration 407
HW:	CPU	TSS:	1.85568	AT:	2.35921	#T:	15	DSTSS:	219512096	DETSS:	219865583	DTSS:	219865589
Iteration 408
HW:	CPU	TSS:	1.85571	AT:	2.34025	#T:	15	DSTSS:	219865599	DETSS:	220400292	DTSS:	220400298
Iteration 409
HW:	CPU	TSS:	1.85715	AT:	2.38035	#T:	15	DSTSS:	220400308	DETSS:	220768638	DTSS:	220768645
Iteration 410
HW:	CPU	TSS:	1.85734	AT:	2.36138	#T:	15	DSTSS:	220768655	DETSS:	221284069	DTSS:	221284076
Iteration 411
HW:	CPU	TSS:	1.85743	AT:	2.3369	#T:	15	DSTSS:	221284086	DETSS:	221811464	DTSS:	221811470
Iteration 412
HW:	CPU	TSS:	1.85795	AT:	2.34171	#T:	22	DSTSS:	221811477	DETSS:	222288069	DTSS:	222288077
Iteration 413
HW:	CPU	TSS:	1.85708	AT:	2.28217	#T:	22	DSTSS:	222288092	DETSS:	222930769	DTSS:	222930775
Iteration 414
HW:	CPU	TSS:	1.85711	AT:	2.25397	#T:	22	DSTSS:	222930782	DETSS:	223465917	DTSS:	223465924
Iteration 415
HW:	CPU	TSS:	1.85486	AT:	2.16592	#T:	16	DSTSS:	223465933	DETSS:	224275076	DTSS:	224275086
Iteration 416
HW:	CPU	TSS:	1.85564	AT:	2.16987	#T:	16	DSTSS:	224275104	DETSS:	224719919	DTSS:	224719925
Iteration 417
HW:	CPU	TSS:	1.8554	AT:	2.13669	#T:	16	DSTSS:	224719935	DETSS:	225288555	DTSS:	225288562
Iteration 418
HW:	CPU	TSS:	1.85548	AT:	2.14046	#T:	16	DSTSS:	225288573	DETSS:	225817828	DTSS:	225817835
Iteration 419
HW:	CPU	TSS:	1.85512	AT:	2.08534	#T:	16	DSTSS:	225817844	DETSS:	226400583	DTSS:	226400590
Iteration 420
HW:	CPU	TSS:	1.85511	AT:	2.0394	#T:	10	DSTSS:	226400600	DETSS:	226940402	DTSS:	226940410
Iteration 421
HW:	CPU	TSS:	1.85458	AT:	2.02337	#T:	10	DSTSS:	226940424	DETSS:	227545319	DTSS:	227545326
Iteration 422
HW:	CPU	TSS:	1.85554	AT:	2.01103	#T:	10	DSTSS:	227545336	DETSS:	227965472	DTSS:	227965478
Iteration 423
HW:	CPU	TSS:	1.85571	AT:	1.97252	#T:	10	DSTSS:	227965487	DETSS:	228483988	DTSS:	228483995
Iteration 424
HW:	CPU	TSS:	1.85675	AT:	2.00128	#T:	10	DSTSS:	228484005	DETSS:	228894837	DTSS:	228894844
Iteration 425
HW:	CPU	TSS:	1.85627	AT:	1.94877	#T:	10	DSTSS:	228894854	DETSS:	229492096	DTSS:	229492103
Iteration 426
HW:	CPU	TSS:	1.85732	AT:	1.97297	#T:	10	DSTSS:	229492112	DETSS:	229900538	DTSS:	229900545
Iteration 427
HW:	CPU	TSS:	1.85769	AT:	1.98096	#T:	10	DSTSS:	229900554	DETSS:	230393159	DTSS:	230393165
Iteration 428
HW:	CPU	TSS:	1.85875	AT:	1.997	#T:	10	DSTSS:	230393175	DETSS:	230800843	DTSS:	230800849
Iteration 429
HW:	CPU	TSS:	1.85848	AT:	2.01388	#T:	10	DSTSS:	230800859	DETSS:	231372171	DTSS:	231372178
Iteration 430
HW:	CPU	TSS:	1.85951	AT:	2.04427	#T:	10	DSTSS:	231372187	DETSS:	231781830	DTSS:	231781837
Iteration 431
HW:	CPU	TSS:	1.85908	AT:	2.0994	#T:	10	DSTSS:	231781845	DETSS:	232372627	DTSS:	232372634
Iteration 432
HW:	CPU	TSS:	1.86015	AT:	2.11005	#T:	10	DSTSS:	232372644	DETSS:	232776587	DTSS:	232776593
Iteration 433
HW:	CPU	TSS:	1.86042	AT:	2.12714	#T:	10	DSTSS:	232776603	DETSS:	233280523	DTSS:	233280530
Iteration 434
HW:	CPU	TSS:	1.86147	AT:	2.16041	#T:	10	DSTSS:	233280540	DETSS:	233686703	DTSS:	233686710
Iteration 435
HW:	CPU	TSS:	1.86087	AT:	2.15237	#T:	10	DSTSS:	233686719	DETSS:	234298869	DTSS:	234298876
Iteration 436
HW:	CPU	TSS:	1.86191	AT:	2.18946	#T:	10	DSTSS:	234298885	DETSS:	234704858	DTSS:	234704865
Iteration 437
HW:	CPU	TSS:	1.86216	AT:	2.21772	#T:	10	DSTSS:	234704874	DETSS:	235210854	DTSS:	235210861
Iteration 438
HW:	CPU	TSS:	1.86326	AT:	2.22424	#T:	10	DSTSS:	235210870	DETSS:	235608537	DTSS:	235608543
Iteration 439
HW:	CPU	TSS:	1.86266	AT:	2.19724	#T:	10	DSTSS:	235608553	DETSS:	236220967	DTSS:	236220974
Iteration 440
HW:	CPU	TSS:	1.86363	AT:	2.19638	#T:	10	DSTSS:	236220983	DETSS:	236634852	DTSS:	236634859
Iteration 441
HW:	CPU	TSS:	1.86398	AT:	2.22676	#T:	10	DSTSS:	236634868	DETSS:	237126492	DTSS:	237126499
Iteration 442
HW:	CPU	TSS:	1.86505	AT:	2.2289	#T:	10	DSTSS:	237126509	DETSS:	237527615	DTSS:	237527622
Iteration 443
HW:	CPU	TSS:	1.8646	AT:	2.19979	#T:	10	DSTSS:	237527632	DETSS:	238121161	DTSS:	238121168
Iteration 444
HW:	CPU	TSS:	1.86563	AT:	2.2007	#T:	10	DSTSS:	238121177	DETSS:	238525660	DTSS:	238525667
Iteration 445
HW:	CPU	TSS:	1.86548	AT:	2.20541	#T:	10	DSTSS:	238525677	DETSS:	239080479	DTSS:	239080486
Iteration 446
HW:	CPU	TSS:	1.8665	AT:	2.20675	#T:	10	DSTSS:	239080496	DETSS:	239485453	DTSS:	239485461
Iteration 447
HW:	CPU	TSS:	1.86642	AT:	2.21963	#T:	10	DSTSS:	239485471	DETSS:	240031546	DTSS:	240031553
Iteration 448
HW:	CPU	TSS:	1.86745	AT:	2.21982	#T:	10	DSTSS:	240031563	DETSS:	240434847	DTSS:	240434854
Iteration 449
HW:	CPU	TSS:	1.86714	AT:	2.1994	#T:	10	DSTSS:	240434863	DETSS:	241009902	DTSS:	241009908
Iteration 450
HW:	CPU	TSS:	1.86811	AT:	2.19802	#T:	10	DSTSS:	241009918	DETSS:	241420930	DTSS:	241420937
Iteration 451
HW:	CPU	TSS:	1.86832	AT:	2.22817	#T:	10	DSTSS:	241420946	DETSS:	241928434	DTSS:	241928441
Iteration 452
HW:	CPU	TSS:	1.86931	AT:	2.22805	#T:	10	DSTSS:	241928451	DETSS:	242334855	DTSS:	242334862
Iteration 453
HW:	CPU	TSS:	1.86897	AT:	2.20665	#T:	10	DSTSS:	242334872	DETSS:	242914832	DTSS:	242914839
Iteration 454
HW:	CPU	TSS:	1.86993	AT:	2.20313	#T:	10	DSTSS:	242914848	DETSS:	243324848	DTSS:	243324855
Iteration 455
HW:	CPU	TSS:	1.86966	AT:	2.21538	#T:	10	DSTSS:	243324864	DETSS:	243894579	DTSS:	243894587
Iteration 456
HW:	CPU	TSS:	1.87061	AT:	2.21642	#T:	10	DSTSS:	243894596	DETSS:	244304868	DTSS:	244304874
Iteration 457
HW:	CPU	TSS:	1.87079	AT:	2.21077	#T:	10	DSTSS:	244304883	DETSS:	244816121	DTSS:	244816128
Iteration 458
HW:	CPU	TSS:	1.8718	AT:	2.21035	#T:	10	DSTSS:	244816137	DETSS:	245218692	DTSS:	245218700
Iteration 459
HW:	CPU	TSS:	1.87137	AT:	2.21104	#T:	10	DSTSS:	245218709	DETSS:	245809858	DTSS:	245809864
Iteration 460
HW:	CPU	TSS:	1.87238	AT:	2.21195	#T:	10	DSTSS:	245809874	DETSS:	246211182	DTSS:	246211188
Iteration 461
HW:	CPU	TSS:	1.87213	AT:	2.20863	#T:	10	DSTSS:	246211197	DETSS:	246777545	DTSS:	246777552
Iteration 462
HW:	CPU	TSS:	1.87309	AT:	2.2077	#T:	10	DSTSS:	246777562	DETSS:	247185783	DTSS:	247185790
Iteration 463
HW:	CPU	TSS:	1.87303	AT:	2.20895	#T:	10	DSTSS:	247185800	DETSS:	247727521	DTSS:	247727528
Iteration 464
HW:	CPU	TSS:	1.87397	AT:	2.20751	#T:	10	DSTSS:	247727538	DETSS:	248135835	DTSS:	248135842
Iteration 465
HW:	CPU	TSS:	1.87368	AT:	2.20821	#T:	10	DSTSS:	248135851	DETSS:	248708463	DTSS:	248708471
Iteration 466
HW:	CPU	TSS:	1.87464	AT:	2.20953	#T:	10	DSTSS:	248708480	DETSS:	249114860	DTSS:	249114866
Iteration 467
HW:	CPU	TSS:	1.8748	AT:	2.20814	#T:	10	DSTSS:	249114875	DETSS:	249627215	DTSS:	249627222
Iteration 468
HW:	CPU	TSS:	1.87566	AT:	2.20493	#T:	10	DSTSS:	249627231	DETSS:	250044840	DTSS:	250044847
Iteration 469
HW:	CPU	TSS:	1.87519	AT:	2.20041	#T:	10	DSTSS:	250044856	DETSS:	250640677	DTSS:	250640684
Iteration 470
HW:	CPU	TSS:	1.87612	AT:	2.20044	#T:	10	DSTSS:	250640694	DETSS:	251050572	DTSS:	251050578
Iteration 471
HW:	CPU	TSS:	1.87646	AT:	2.22432	#T:	10	DSTSS:	251050587	DETSS:	251537363	DTSS:	251537371
Iteration 472
HW:	CPU	TSS:	1.8774	AT:	2.2255	#T:	10	DSTSS:	251537380	DETSS:	251943613	DTSS:	251943620
Iteration 473
HW:	CPU	TSS:	1.87726	AT:	2.2137	#T:	10	DSTSS:	251943629	DETSS:	252495570	DTSS:	252495576
Iteration 474
HW:	CPU	TSS:	1.8781	AT:	2.20889	#T:	10	DSTSS:	252495585	DETSS:	252914859	DTSS:	252914866
Iteration 475
HW:	CPU	TSS:	1.87773	AT:	2.21132	#T:	10	DSTSS:	252914875	DETSS:	253497575	DTSS:	253497582
Iteration 476
HW:	CPU	TSS:	1.87866	AT:	2.20969	#T:	10	DSTSS:	253497591	DETSS:	253904568	DTSS:	253904575
Iteration 477
HW:	CPU	TSS:	1.87835	AT:	2.20734	#T:	10	DSTSS:	253904585	DETSS:	254479115	DTSS:	254479123
Iteration 478
HW:	CPU	TSS:	1.87921	AT:	2.20522	#T:	10	DSTSS:	254479132	DETSS:	254894748	DTSS:	254894755
Iteration 479
HW:	CPU	TSS:	1.87942	AT:	2.21634	#T:	10	DSTSS:	254894764	DETSS:	255397837	DTSS:	255397844
Iteration 480
HW:	CPU	TSS:	1.88035	AT:	2.21726	#T:	10	DSTSS:	255397854	DETSS:	255802959	DTSS:	255802966
Iteration 481
HW:	CPU	TSS:	1.87983	AT:	2.20847	#T:	10	DSTSS:	255802975	DETSS:	256406085	DTSS:	256406092
Iteration 482
HW:	CPU	TSS:	1.88072	AT:	2.20727	#T:	10	DSTSS:	256406102	DETSS:	256816679	DTSS:	256816685
Iteration 483
HW:	CPU	TSS:	1.88092	AT:	2.2098	#T:	10	DSTSS:	256816694	DETSS:	257320203	DTSS:	257320210
Iteration 484
HW:	CPU	TSS:	1.88186	AT:	2.21403	#T:	10	DSTSS:	257320221	DETSS:	257723153	DTSS:	257723161
Iteration 485
HW:	CPU	TSS:	1.88146	AT:	2.21667	#T:	10	DSTSS:	257723170	DETSS:	258309843	DTSS:	258309849
Iteration 486
HW:	CPU	TSS:	1.88234	AT:	2.21662	#T:	10	DSTSS:	258309858	DETSS:	258719895	DTSS:	258719902
Iteration 487
HW:	CPU	TSS:	1.88219	AT:	2.19792	#T:	10	DSTSS:	258719911	DETSS:	259271955	DTSS:	259271962
Iteration 488
HW:	CPU	TSS:	1.88305	AT:	2.19603	#T:	10	DSTSS:	259271972	DETSS:	259684847	DTSS:	259684854
Iteration 489
HW:	CPU	TSS:	1.88296	AT:	2.19835	#T:	10	DSTSS:	259684863	DETSS:	260228631	DTSS:	260228639
Iteration 490
HW:	CPU	TSS:	1.8839	AT:	2.20349	#T:	10	DSTSS:	260228650	DETSS:	260629881	DTSS:	260629887
Iteration 491
HW:	CPU	TSS:	1.88357	AT:	2.20553	#T:	10	DSTSS:	260629896	DETSS:	261205475	DTSS:	261205482
Iteration 492
HW:	CPU	TSS:	1.88448	AT:	2.20593	#T:	10	DSTSS:	261205491	DETSS:	261611068	DTSS:	261611075
Iteration 493
HW:	CPU	TSS:	1.88459	AT:	2.22297	#T:	10	DSTSS:	261611084	DETSS:	262126556	DTSS:	262126563
Iteration 494
HW:	CPU	TSS:	1.88548	AT:	2.22583	#T:	10	DSTSS:	262126572	DETSS:	262532335	DTSS:	262532343
Iteration 495
HW:	CPU	TSS:	1.88493	AT:	2.19575	#T:	10	DSTSS:	262532352	DETSS:	263140051	DTSS:	263140058
Iteration 496
HW:	CPU	TSS:	1.8858	AT:	2.19478	#T:	10	DSTSS:	263140067	DETSS:	263548611	DTSS:	263548618
Iteration 497
HW:	CPU	TSS:	1.88597	AT:	2.22259	#T:	10	DSTSS:	263548627	DETSS:	264054805	DTSS:	264054812
Iteration 498
HW:	CPU	TSS:	1.8869	AT:	2.22573	#T:	10	DSTSS:	264054821	DETSS:	264454630	DTSS:	264454637
Iteration 499
HW:	CPU	TSS:	1.88635	AT:	2.19568	#T:	10	DSTSS:	264454646	DETSS:	265062668	DTSS:	265062676
