HW:	CPU	TSS:	1.03557	AT:	0	#T:	4	DSTSS:	10	DETSS:	965643	DTSS:	965648
HW:	CPU	TSS:	0.967426	AT:	1.81528	#T:	4	DSTSS:	965673	DETSS:	2067334	DTSS:	2067341
HW:	CPU	TSS:	0.949195	AT:	1.36675	#T:	4	DSTSS:	2067366	DETSS:	3160565	DTSS:	3160572
HW:	CPU	TSS:	0.942101	AT:	1.21941	#T:	4	DSTSS:	3160601	DETSS:	4245824	DTSS:	4245830
HW:	CPU	TSS:	1.08718	AT:	1.37609	#T:	4	DSTSS:	4245838	DETSS:	4599051	DTSS:	4599056
HW:	CPU	TSS:	1.21171	AT:	1.50522	#T:	4	DSTSS:	4599074	DETSS:	4951692	DTSS:	4951698
HW:	CPU	TSS:	1.3286	AT:	1.62672	#T:	4	DSTSS:	4951707	DETSS:	5268707	DTSS:	5268712
HW:	CPU	TSS:	1.44247	AT:	1.74654	#T:	27	DSTSS:	5268719	DETSS:	5546051	DTSS:	5546056
HW:	CPU	TSS:	1.54218	AT:	1.84793	#T:	27	DSTSS:	5546063	DETSS:	5835878	DTSS:	5835883
HW:	CPU	TSS:	1.6335	AT:	1.93938	#T:	27	DSTSS:	5835900	DETSS:	6121838	DTSS:	6121843
HW:	CPU	TSS:	1.71662	AT:	2.02118	#T:	27	DSTSS:	6121851	DETSS:	6407919	DTSS:	6407923
HW:	CPU	TSS:	1.79278	AT:	2.09499	#T:	27	DSTSS:	6407931	DETSS:	6693516	DTSS:	6693521
HW:	CPU	TSS:	1.86222	AT:	2.16113	#T:	27	DSTSS:	6693529	DETSS:	6980913	DTSS:	6980918
HW:	CPU	TSS:	1.93855	AT:	2.23773	#T:	11	DSTSS:	6980925	DETSS:	7221906	DTSS:	7221911
HW:	CPU	TSS:	1.92358	AT:	2.19542	#T:	11	DSTSS:	7221919	DETSS:	7797973	DTSS:	7797978
HW:	CPU	TSS:	1.9107	AT:	2.15973	#T:	11	DSTSS:	7797984	DETSS:	8373902	DTSS:	8373906
HW:	CPU	TSS:	1.89235	AT:	2.12024	#T:	9	DSTSS:	8373964	DETSS:	8983541	DTSS:	8983550
HW:	CPU	TSS:	1.92137	AT:	2.32845	#T:	9	DSTSS:	8983591	DETSS:	9368324	DTSS:	9368329
HW:	CPU	TSS:	1.94808	AT:	2.57864	#T:	9	DSTSS:	9368335	DETSS:	9753165	DTSS:	9753169
HW:	CPU	TSS:	1.97284	AT:	2.88534	#T:	9	DSTSS:	9753176	DETSS:	10137674	DTSS:	10137678
HW:	CPU	TSS:	1.97933	AT:	2.82833	#T:	12	DSTSS:	10137685	DETSS:	10609654	DTSS:	10609660
HW:	CPU	TSS:	1.98037	AT:	2.76093	#T:	12	DSTSS:	10609668	DETSS:	11109042	DTSS:	11109048
HW:	CPU	TSS:	1.98454	AT:	2.68951	#T:	12	DSTSS:	11109055	DETSS:	11589559	DTSS:	11589564
HW:	CPU	TSS:	1.98844	AT:	2.60589	#T:	12	DSTSS:	11589572	DETSS:	12069744	DTSS:	12069750
HW:	CPU	TSS:	1.99211	AT:	2.53216	#T:	12	DSTSS:	12069758	DETSS:	12549499	DTSS:	12549505
HW:	CPU	TSS:	1.99548	AT:	2.46105	#T:	12	DSTSS:	12549513	DETSS:	13029457	DTSS:	13029462
HW:	CPU	TSS:	1.99434	AT:	2.38416	#T:	4	DSTSS:	13029470	DETSS:	13538325	DTSS:	13538334
HW:	CPU	TSS:	1.94061	AT:	2.19782	#T:	4	DSTSS:	13538348	DETSS:	14428472	DTSS:	14428480
HW:	CPU	TSS:	1.89538	AT:	2.0434	#T:	4	DSTSS:	14428494	DETSS:	15300392	DTSS:	15300400
HW:	CPU	TSS:	1.853	AT:	1.89563	#T:	4	DSTSS:	15300415	DETSS:	16189923	DTSS:	16189931
HW:	CPU	TSS:	1.81753	AT:	1.83622	#T:	4	DSTSS:	16189946	DETSS:	17056131	DTSS:	17056139
HW:	CPU	TSS:	1.78331	AT:	1.77634	#T:	4	DSTSS:	17056154	DETSS:	17944177	DTSS:	17944185
HW:	CPU	TSS:	1.75565	AT:	1.7324	#T:	4	DSTSS:	17944200	DETSS:	18796498	DTSS:	18796506
HW:	CPU	TSS:	1.73597	AT:	1.66386	#T:	4	DSTSS:	18796568	DETSS:	19585533	DTSS:	19585540
HW:	CPU	TSS:	1.7161	AT:	1.59746	#T:	4	DSTSS:	19585555	DETSS:	20395059	DTSS:	20395067
HW:	CPU	TSS:	1.70433	AT:	1.54757	#T:	3	DSTSS:	20395081	DETSS:	21122660	DTSS:	21122668
HW:	CPU	TSS:	1.68082	AT:	1.49078	#T:	3	DSTSS:	21122680	DETSS:	22013062	DTSS:	22013069
HW:	CPU	TSS:	1.6593	AT:	1.44164	#T:	3	DSTSS:	22013082	DETSS:	22901153	DTSS:	22901160
HW:	CPU	TSS:	1.62286	AT:	1.36633	#T:	7	DSTSS:	22901173	DETSS:	24031616	DTSS:	24031623
HW:	CPU	TSS:	1.62074	AT:	1.34811	#T:	7	DSTSS:	24031632	DETSS:	24680002	DTSS:	24680009
HW:	CPU	TSS:	1.61992	AT:	1.33224	#T:	7	DSTSS:	24680018	DETSS:	25309937	DTSS:	25309943
HW:	CPU	TSS:	1.62005	AT:	1.31827	#T:	4	DSTSS:	25309951	DETSS:	25925185	DTSS:	25925192
HW:	CPU	TSS:	1.61304	AT:	1.29579	#T:	4	DSTSS:	25925205	DETSS:	26657689	DTSS:	26657697
HW:	CPU	TSS:	1.6069	AT:	1.31239	#T:	4	DSTSS:	26657710	DETSS:	27381946	DTSS:	27381953
HW:	CPU	TSS:	1.59555	AT:	1.31752	#T:	11	DSTSS:	27381967	DETSS:	28203434	DTSS:	28203440
HW:	CPU	TSS:	1.59502	AT:	1.34389	#T:	11	DSTSS:	28203449	DETSS:	28839799	DTSS:	28839805
HW:	CPU	TSS:	1.59481	AT:	1.36938	#T:	11	DSTSS:	28839815	DETSS:	29470498	DTSS:	29470504
HW:	CPU	TSS:	1.59245	AT:	1.39366	#T:	6	DSTSS:	29470513	DETSS:	30142283	DTSS:	30142293
HW:	CPU	TSS:	1.59093	AT:	1.4163	#T:	6	DSTSS:	30142308	DETSS:	30799585	DTSS:	30799591
HW:	CPU	TSS:	1.59015	AT:	1.43362	#T:	6	DSTSS:	30799600	DETSS:	31443612	DTSS:	31443617
HW:	CPU	TSS:	1.58583	AT:	1.44499	#T:	15	DSTSS:	31443625	DETSS:	32159831	DTSS:	32159837
HW:	CPU	TSS:	1.58695	AT:	1.45991	#T:	15	DSTSS:	32159845	DETSS:	32767173	DTSS:	32767179
HW:	CPU	TSS:	1.58863	AT:	1.49792	#T:	15	DSTSS:	32767187	DETSS:	33362139	DTSS:	33362144
HW:	CPU	TSS:	1.58978	AT:	1.53626	#T:	7	DSTSS:	33362151	DETSS:	33966971	DTSS:	33966978
HW:	CPU	TSS:	1.59155	AT:	1.61507	#T:	7	DSTSS:	33966986	DETSS:	34557489	DTSS:	34557494
HW:	CPU	TSS:	1.59329	AT:	1.62408	#T:	7	DSTSS:	34557503	DETSS:	35147452	DTSS:	35147457
HW:	CPU	TSS:	1.5948	AT:	1.62972	#T:	11	DSTSS:	35147466	DETSS:	35741176	DTSS:	35741182
HW:	CPU	TSS:	1.59516	AT:	1.62915	#T:	11	DSTSS:	35741191	DETSS:	36360053	DTSS:	36360058
HW:	CPU	TSS:	1.59554	AT:	1.64721	#T:	11	DSTSS:	36360067	DETSS:	36978176	DTSS:	36978183
HW:	CPU	TSS:	1.59617	AT:	1.66537	#T:	11	DSTSS:	36978191	DETSS:	37589887	DTSS:	37589893
HW:	CPU	TSS:	1.59593	AT:	1.6968	#T:	6	DSTSS:	37589901	DETSS:	38222311	DTSS:	38222319
HW:	CPU	TSS:	1.59627	AT:	1.69988	#T:	6	DSTSS:	38222334	DETSS:	38840499	DTSS:	38840505
HW:	CPU	TSS:	1.59828	AT:	1.70908	#T:	4	DSTSS:	38840513	DETSS:	39417357	DTSS:	39417364
HW:	CPU	TSS:	1.59589	AT:	1.70672	#T:	4	DSTSS:	39417377	DETSS:	40102896	DTSS:	40102903
HW:	CPU	TSS:	1.5943	AT:	1.705	#T:	4	DSTSS:	40102916	DETSS:	40770284	DTSS:	40770291
HW:	CPU	TSS:	1.59154	AT:	1.69564	#T:	7	DSTSS:	40770474	DETSS:	41469316	DTSS:	41469322
HW:	CPU	TSS:	1.59316	AT:	1.71807	#T:	7	DSTSS:	41469330	DETSS:	42054680	DTSS:	42054686
HW:	CPU	TSS:	1.59583	AT:	1.72696	#T:	7	DSTSS:	42054693	DETSS:	42611084	DTSS:	42611089
HW:	CPU	TSS:	1.59832	AT:	1.73327	#T:	13	DSTSS:	42611097	DETSS:	43170219	DTSS:	43170226
HW:	CPU	TSS:	1.60072	AT:	1.7412	#T:	13	DSTSS:	43170235	DETSS:	43730336	DTSS:	43730343
HW:	CPU	TSS:	1.60339	AT:	1.74831	#T:	13	DSTSS:	43730352	DETSS:	44281171	DTSS:	44281178
HW:	CPU	TSS:	1.6055	AT:	1.75285	#T:	13	DSTSS:	44281186	DETSS:	44845929	DTSS:	44845938
HW:	CPU	TSS:	1.60655	AT:	1.75296	#T:	13	DSTSS:	44845954	DETSS:	45439082	DTSS:	45439088
HW:	CPU	TSS:	1.60758	AT:	1.75766	#T:	13	DSTSS:	45439096	DETSS:	46031996	DTSS:	46032001
HW:	CPU	TSS:	1.60679	AT:	1.75282	#T:	8	DSTSS:	46032008	DETSS:	46676839	DTSS:	46676844
HW:	CPU	TSS:	1.60843	AT:	1.75965	#T:	8	DSTSS:	46676852	DETSS:	47250903	DTSS:	47250909
HW:	CPU	TSS:	1.60991	AT:	1.76964	#T:	8	DSTSS:	47250916	DETSS:	47828751	DTSS:	47828756
HW:	CPU	TSS:	1.6106	AT:	1.77294	#T:	11	DSTSS:	47828763	DETSS:	48429089	DTSS:	48429095
HW:	CPU	TSS:	1.61104	AT:	1.76728	#T:	11	DSTSS:	48429103	DETSS:	49036649	DTSS:	49036655
HW:	CPU	TSS:	1.61218	AT:	1.78585	#T:	11	DSTSS:	49036663	DETSS:	49622162	DTSS:	49622167
HW:	CPU	TSS:	1.61305	AT:	1.79988	#T:	11	DSTSS:	49622175	DETSS:	50215346	DTSS:	50215353
HW:	CPU	TSS:	1.61309	AT:	1.81533	#T:	5	DSTSS:	50215361	DETSS:	50834025	DTSS:	50834031
HW:	CPU	TSS:	1.61399	AT:	1.8142	#T:	5	DSTSS:	50834040	DETSS:	51425214	DTSS:	51425220
HW:	CPU	TSS:	1.6143	AT:	1.80395	#T:	7	DSTSS:	51425229	DETSS:	52034849	DTSS:	52034855
HW:	CPU	TSS:	1.61705	AT:	1.80957	#T:	7	DSTSS:	52034863	DETSS:	52564703	DTSS:	52564708
HW:	CPU	TSS:	1.61996	AT:	1.81673	#T:	7	DSTSS:	52564716	DETSS:	53087827	DTSS:	53087832
HW:	CPU	TSS:	1.62207	AT:	1.81739	#T:	8	DSTSS:	53087840	DETSS:	53635225	DTSS:	53635232
HW:	CPU	TSS:	1.62509	AT:	1.82702	#T:	8	DSTSS:	53635241	DETSS:	54150707	DTSS:	54150714
HW:	CPU	TSS:	1.62799	AT:	1.84192	#T:	8	DSTSS:	54150723	DETSS:	54668583	DTSS:	54668590
HW:	CPU	TSS:	1.63106	AT:	1.85857	#T:	8	DSTSS:	54668599	DETSS:	55178799	DTSS:	55178805
HW:	CPU	TSS:	1.63554	AT:	1.89683	#T:	8	DSTSS:	55178814	DETSS:	55639161	DTSS:	55639167
HW:	CPU	TSS:	1.6338	AT:	1.87647	#T:	8	DSTSS:	55639175	DETSS:	56310459	DTSS:	56310464
HW:	CPU	TSS:	1.63202	AT:	1.85677	#T:	8	DSTSS:	56310472	DETSS:	56984435	DTSS:	56984441
HW:	CPU	TSS:	1.62802	AT:	1.82607	#T:	13	DSTSS:	56984448	DETSS:	57738693	DTSS:	57738700
HW:	CPU	TSS:	1.63034	AT:	1.84114	#T:	13	DSTSS:	57738709	DETSS:	58270079	DTSS:	58270085
HW:	CPU	TSS:	1.63284	AT:	1.85362	#T:	13	DSTSS:	58270094	DETSS:	58793397	DTSS:	58793403
HW:	CPU	TSS:	1.63334	AT:	1.85344	#T:	9	DSTSS:	58793411	DETSS:	59387499	DTSS:	59387509
HW:	CPU	TSS:	1.63652	AT:	1.87861	#T:	9	DSTSS:	59387526	DETSS:	59883286	DTSS:	59883293
HW:	CPU	TSS:	1.63976	AT:	1.89952	#T:	9	DSTSS:	59883303	DETSS:	60374847	DTSS:	60374853
HW:	CPU	TSS:	1.64309	AT:	1.9261	#T:	15	DSTSS:	60374863	DETSS:	60860960	DTSS:	60860966
HW:	CPU	TSS:	1.64265	AT:	1.90556	#T:	15	DSTSS:	60860973	DETSS:	61485974	DTSS:	61485979
HW:	CPU	TSS:	1.64298	AT:	1.89005	#T:	15	DSTSS:	61485985	DETSS:	62082303	DTSS:	62082309
HW:	CPU	TSS:	1.64208	AT:	1.87019	#T:	6	DSTSS:	62082316	DETSS:	62725212	DTSS:	62725218
HW:	CPU	TSS:	1.64187	AT:	1.84949	#T:	6	DSTSS:	62725226	DETSS:	63342440	DTSS:	63342445
HW:	CPU	TSS:	1.64253	AT:	1.83643	#T:	6	DSTSS:	63342452	DETSS:	63925652	DTSS:	63925657
HW:	CPU	TSS:	1.6429	AT:	1.81986	#T:	15	DSTSS:	63925664	DETSS:	64520160	DTSS:	64520166
HW:	CPU	TSS:	1.64446	AT:	1.80316	#T:	15	DSTSS:	64520173	DETSS:	65067068	DTSS:	65067073
HW:	CPU	TSS:	1.64631	AT:	1.82976	#T:	15	DSTSS:	65067080	DETSS:	65601273	DTSS:	65601279
HW:	CPU	TSS:	1.64764	AT:	1.85375	#T:	14	DSTSS:	65601286	DETSS:	66155062	DTSS:	66155069
HW:	CPU	TSS:	1.65048	AT:	1.90823	#T:	14	DSTSS:	66155077	DETSS:	66647459	DTSS:	66647466
HW:	CPU	TSS:	1.65324	AT:	1.91637	#T:	14	DSTSS:	66647475	DETSS:	67141004	DTSS:	67141010
HW:	CPU	TSS:	1.65598	AT:	1.92305	#T:	14	DSTSS:	67141019	DETSS:	67633508	DTSS:	67633517
HW:	CPU	TSS:	1.65989	AT:	1.95644	#T:	11	DSTSS:	67633527	DETSS:	68076729	DTSS:	68076736
HW:	CPU	TSS:	1.66118	AT:	1.94454	#T:	11	DSTSS:	68076744	DETSS:	68625710	DTSS:	68625715
HW:	CPU	TSS:	1.66246	AT:	1.93188	#T:	11	DSTSS:	68625723	DETSS:	69174544	DTSS:	69174550
HW:	CPU	TSS:	1.66059	AT:	1.89018	#T:	18	DSTSS:	69174557	DETSS:	69854815	DTSS:	69854825
HW:	CPU	TSS:	1.66197	AT:	1.90745	#T:	18	DSTSS:	69854841	DETSS:	70398417	DTSS:	70398423
HW:	CPU	TSS:	1.66489	AT:	1.93332	#T:	18	DSTSS:	70398432	DETSS:	70875485	DTSS:	70875491
HW:	CPU	TSS:	1.66667	AT:	1.95978	#T:	5	DSTSS:	70875500	DETSS:	71399659	DTSS:	71399666
HW:	CPU	TSS:	1.66787	AT:	1.97543	#T:	5	DSTSS:	71399675	DETSS:	71948161	DTSS:	71948167
HW:	CPU	TSS:	1.66908	AT:	1.98385	#T:	5	DSTSS:	71948175	DETSS:	72494865	DTSS:	72494870
HW:	CPU	TSS:	1.66739	AT:	1.96575	#T:	9	DSTSS:	72494879	DETSS:	73168263	DTSS:	73168270
HW:	CPU	TSS:	1.67068	AT:	1.98695	#T:	9	DSTSS:	73168279	DETSS:	73622882	DTSS:	73622888
HW:	CPU	TSS:	1.67393	AT:	2.00564	#T:	9	DSTSS:	73622897	DETSS:	74077377	DTSS:	74077383
HW:	CPU	TSS:	1.67713	AT:	2.02941	#T:	9	DSTSS:	74077393	DETSS:	74531878	DTSS:	74531885
HW:	CPU	TSS:	1.68031	AT:	2.03869	#T:	9	DSTSS:	74531893	DETSS:	74986167	DTSS:	74986173
HW:	CPU	TSS:	1.68344	AT:	2.0483	#T:	9	DSTSS:	74986182	DETSS:	75440553	DTSS:	75440560
HW:	CPU	TSS:	1.68654	AT:	2.05773	#T:	9	DSTSS:	75440569	DETSS:	75895048	DTSS:	75895054
HW:	CPU	TSS:	1.6896	AT:	2.05494	#T:	9	DSTSS:	75895063	DETSS:	76349490	DTSS:	76349496
HW:	CPU	TSS:	1.69262	AT:	2.07863	#T:	9	DSTSS:	76349672	DETSS:	76804159	DTSS:	76804165
HW:	CPU	TSS:	1.69561	AT:	2.10294	#T:	9	DSTSS:	76804174	DETSS:	77258474	DTSS:	77258480
HW:	CPU	TSS:	1.69856	AT:	2.16334	#T:	9	DSTSS:	77258490	DETSS:	77713038	DTSS:	77713045
HW:	CPU	TSS:	1.70148	AT:	2.18818	#T:	9	DSTSS:	77713055	DETSS:	78167442	DTSS:	78167448
HW:	CPU	TSS:	1.70436	AT:	2.19457	#T:	9	DSTSS:	78167457	DETSS:	78621881	DTSS:	78621887
HW:	CPU	TSS:	1.70721	AT:	2.21454	#T:	9	DSTSS:	78621896	DETSS:	79076204	DTSS:	79076210
HW:	CPU	TSS:	1.70976	AT:	2.23826	#T:	9	DSTSS:	79076219	DETSS:	79543357	DTSS:	79543364
HW:	CPU	TSS:	1.71255	AT:	2.2658	#T:	9	DSTSS:	79543373	DETSS:	79997741	DTSS:	79997747
HW:	CPU	TSS:	1.7153	AT:	2.33387	#T:	9	DSTSS:	79997756	DETSS:	80452311	DTSS:	80452317
HW:	CPU	TSS:	1.71803	AT:	2.33394	#T:	9	DSTSS:	80452327	DETSS:	80906708	DTSS:	80906715
HW:	CPU	TSS:	1.72073	AT:	2.33401	#T:	9	DSTSS:	80906724	DETSS:	81360980	DTSS:	81360986
HW:	CPU	TSS:	1.72339	AT:	2.33405	#T:	9	DSTSS:	81360994	DETSS:	81815367	DTSS:	81815374
HW:	CPU	TSS:	1.72603	AT:	2.33399	#T:	9	DSTSS:	81815432	DETSS:	82269822	DTSS:	82269828
HW:	CPU	TSS:	1.72863	AT:	2.33398	#T:	9	DSTSS:	82269837	DETSS:	82724261	DTSS:	82724268
HW:	CPU	TSS:	1.73121	AT:	2.33402	#T:	9	DSTSS:	82724277	DETSS:	83178626	DTSS:	83178633
HW:	CPU	TSS:	1.73377	AT:	2.33404	#T:	9	DSTSS:	83178641	DETSS:	83632989	DTSS:	83632995
HW:	CPU	TSS:	1.73629	AT:	2.33411	#T:	9	DSTSS:	83633004	DETSS:	84087456	DTSS:	84087462
HW:	CPU	TSS:	1.73878	AT:	2.3341	#T:	9	DSTSS:	84087472	DETSS:	84541797	DTSS:	84541803
HW:	CPU	TSS:	1.74125	AT:	2.33415	#T:	9	DSTSS:	84541812	DETSS:	84996207	DTSS:	84996213
HW:	CPU	TSS:	1.7437	AT:	2.33416	#T:	9	DSTSS:	84996222	DETSS:	85450566	DTSS:	85450573
HW:	CPU	TSS:	1.74612	AT:	2.33417	#T:	9	DSTSS:	85450581	DETSS:	85904973	DTSS:	85904979
HW:	CPU	TSS:	1.74851	AT:	2.33418	#T:	9	DSTSS:	85904988	DETSS:	86359282	DTSS:	86359289
HW:	CPU	TSS:	1.75087	AT:	2.33823	#T:	9	DSTSS:	86359297	DETSS:	86813818	DTSS:	86813825
HW:	CPU	TSS:	1.75321	AT:	2.33814	#T:	9	DSTSS:	86813834	DETSS:	87268487	DTSS:	87268494
HW:	CPU	TSS:	1.75553	AT:	2.33816	#T:	9	DSTSS:	87268503	DETSS:	87722982	DTSS:	87722988
HW:	CPU	TSS:	1.75782	AT:	2.33813	#T:	9	DSTSS:	87723027	DETSS:	88177461	DTSS:	88177468
HW:	CPU	TSS:	1.76009	AT:	2.33811	#T:	9	DSTSS:	88177477	DETSS:	88631820	DTSS:	88631826
HW:	CPU	TSS:	1.76234	AT:	2.33813	#T:	9	DSTSS:	88631835	DETSS:	89086144	DTSS:	89086150
HW:	CPU	TSS:	1.76455	AT:	2.33799	#T:	9	DSTSS:	89086159	DETSS:	89541039	DTSS:	89541046
HW:	CPU	TSS:	1.76676	AT:	2.33805	#T:	9	DSTSS:	89541055	DETSS:	89995293	DTSS:	89995299
HW:	CPU	TSS:	1.76894	AT:	2.338	#T:	9	DSTSS:	89995309	DETSS:	90449813	DTSS:	90449873
HW:	CPU	TSS:	1.7711	AT:	2.33802	#T:	9	DSTSS:	90449882	DETSS:	90904102	DTSS:	90904160
HW:	CPU	TSS:	1.77323	AT:	2.33803	#T:	9	DSTSS:	90904170	DETSS:	91358526	DTSS:	91358533
HW:	CPU	TSS:	1.77535	AT:	2.33799	#T:	9	DSTSS:	91358541	DETSS:	91813005	DTSS:	91813012
HW:	CPU	TSS:	1.77744	AT:	2.33802	#T:	9	DSTSS:	91813021	DETSS:	92267318	DTSS:	92267324
HW:	CPU	TSS:	1.77952	AT:	2.338	#T:	9	DSTSS:	92267333	DETSS:	92721727	DTSS:	92721733
HW:	CPU	TSS:	1.78157	AT:	2.33804	#T:	9	DSTSS:	92721742	DETSS:	93176028	DTSS:	93176035
HW:	CPU	TSS:	1.78361	AT:	2.33809	#T:	9	DSTSS:	93176044	DETSS:	93630175	DTSS:	93630181
HW:	CPU	TSS:	1.78563	AT:	2.33813	#T:	9	DSTSS:	93630242	DETSS:	94084582	DTSS:	94084588
HW:	CPU	TSS:	1.78763	AT:	2.33829	#T:	9	DSTSS:	94084598	DETSS:	94538761	DTSS:	94538768
HW:	CPU	TSS:	1.7896	AT:	2.33835	#T:	9	DSTSS:	94538778	DETSS:	94993061	DTSS:	94993067
HW:	CPU	TSS:	1.79157	AT:	2.33847	#T:	9	DSTSS:	94993076	DETSS:	95447164	DTSS:	95447170
HW:	CPU	TSS:	1.7935	AT:	2.33834	#T:	9	DSTSS:	95447179	DETSS:	95901952	DTSS:	95901959
HW:	CPU	TSS:	1.79542	AT:	2.33834	#T:	9	DSTSS:	95901968	DETSS:	96356246	DTSS:	96356253
HW:	CPU	TSS:	1.79732	AT:	2.33837	#T:	9	DSTSS:	96356262	DETSS:	96811066	DTSS:	96811073
HW:	CPU	TSS:	1.7992	AT:	2.33835	#T:	9	DSTSS:	96811082	DETSS:	97265392	DTSS:	97265398
HW:	CPU	TSS:	1.80107	AT:	2.33836	#T:	9	DSTSS:	97265406	DETSS:	97719874	DTSS:	97719880
HW:	CPU	TSS:	1.80292	AT:	2.33836	#T:	9	DSTSS:	97719889	DETSS:	98174142	DTSS:	98174147
HW:	CPU	TSS:	1.80474	AT:	2.33811	#T:	9	DSTSS:	98174157	DETSS:	98629373	DTSS:	98629380
HW:	CPU	TSS:	1.80655	AT:	2.33814	#T:	9	DSTSS:	98629389	DETSS:	99083728	DTSS:	99083735
HW:	CPU	TSS:	1.80835	AT:	2.33809	#T:	9	DSTSS:	99083744	DETSS:	99538209	DTSS:	99538215
HW:	CPU	TSS:	1.81009	AT:	2.33738	#T:	9	DSTSS:	99538224	DETSS:	99994842	DTSS:	99994849
HW:	CPU	TSS:	1.81184	AT:	2.33698	#T:	9	DSTSS:	99994859	DETSS:	100450386	DTSS:	100450394
HW:	CPU	TSS:	1.81356	AT:	2.33639	#T:	9	DSTSS:	100450403	DETSS:	100906366	DTSS:	100906373
HW:	CPU	TSS:	1.81418	AT:	2.31646	#T:	9	DSTSS:	100906383	DETSS:	101423352	DTSS:	101423359
HW:	CPU	TSS:	1.80967	AT:	2.21071	#T:	4	DSTSS:	101423367	DETSS:	102228611	DTSS:	102228621
HW:	CPU	TSS:	1.78013	AT:	1.79066	#T:	4	DSTSS:	102228638	DETSS:	104486769	DTSS:	104486778
HW:	CPU	TSS:	1.75285	AT:	1.51299	#T:	4	DSTSS:	104486795	DETSS:	106683208	DTSS:	106683215
HW:	CPU	TSS:	1.75387	AT:	1.50578	#T:	4	DSTSS:	106683224	DETSS:	107191808	DTSS:	107191815
HW:	CPU	TSS:	1.75199	AT:	1.47554	#T:	4	DSTSS:	107191824	DETSS:	107877479	DTSS:	107877486
HW:	CPU	TSS:	1.75023	AT:	1.44728	#T:	4	DSTSS:	107877494	DETSS:	108557211	DTSS:	108557217
HW:	CPU	TSS:	1.74833	AT:	1.41882	#T:	4	DSTSS:	108557226	DETSS:	109247189	DTSS:	109247196
HW:	CPU	TSS:	1.74642	AT:	1.39125	#T:	4	DSTSS:	109247205	DETSS:	109939063	DTSS:	109939070
HW:	CPU	TSS:	1.74646	AT:	1.37815	#T:	27	DSTSS:	109939079	DETSS:	110509493	DTSS:	110509499
HW:	CPU	TSS:	1.74962	AT:	1.38757	#T:	27	DSTSS:	110509506	DETSS:	110881023	DTSS:	110881029
HW:	CPU	TSS:	1.7555	AT:	1.41715	#T:	44	DSTSS:	110881037	DETSS:	111079662	DTSS:	111079666
HW:	CPU	TSS:	1.76045	AT:	1.44104	#T:	44	DSTSS:	111079672	DETSS:	111335203	DTSS:	111335207
HW:	CPU	TSS:	1.7654	AT:	1.46623	#T:	44	DSTSS:	111335212	DETSS:	111589221	DTSS:	111589226
HW:	CPU	TSS:	1.77164	AT:	1.50306	#T:	44	DSTSS:	111589239	DETSS:	111760671	DTSS:	111760675
HW:	CPU	TSS:	1.77648	AT:	1.52976	#T:	44	DSTSS:	111760680	DETSS:	112019257	DTSS:	112019261
HW:	CPU	TSS:	1.78199	AT:	1.57248	#T:	44	DSTSS:	112019274	DETSS:	112234286	DTSS:	112234291
HW:	CPU	TSS:	1.78707	AT:	1.65916	#T:	44	DSTSS:	112234297	DETSS:	112474757	DTSS:	112474761
HW:	CPU	TSS:	1.79362	AT:	2.08981	#T:	44	DSTSS:	112474767	DETSS:	112621467	DTSS:	112621472
HW:	CPU	TSS:	1.79942	AT:	2.77285	#T:	44	DSTSS:	112621477	DETSS:	112814072	DTSS:	112814077
HW:	CPU	TSS:	1.80441	AT:	2.89865	#T:	44	DSTSS:	112814082	DETSS:	113056602	DTSS:	113056608
HW:	CPU	TSS:	1.81049	AT:	3.17662	#T:	44	DSTSS:	113056613	DETSS:	113229068	DTSS:	113229072
HW:	CPU	TSS:	1.81603	AT:	3.48583	#T:	44	DSTSS:	113229078	DETSS:	113434100	DTSS:	113434105
HW:	CPU	TSS:	1.8211	AT:	3.84596	#T:	28	DSTSS:	113434111	DETSS:	113667411	DTSS:	113667416
HW:	CPU	TSS:	1.82136	AT:	3.98947	#T:	28	DSTSS:	113667423	DETSS:	114200274	DTSS:	114200279
HW:	CPU	TSS:	1.82343	AT:	4.13677	#T:	28	DSTSS:	114200284	DETSS:	114618976	DTSS:	114618980
HW:	CPU	TSS:	1.8256	AT:	4.09672	#T:	28	DSTSS:	114618987	DETSS:	115030685	DTSS:	115030690
HW:	CPU	TSS:	1.8282	AT:	3.92189	#T:	28	DSTSS:	115030696	DETSS:	115414306	DTSS:	115414311
HW:	CPU	TSS:	1.83183	AT:	3.86729	#T:	28	DSTSS:	115414317	DETSS:	115731040	DTSS:	115731045
HW:	CPU	TSS:	1.83496	AT:	3.78629	#T:	28	DSTSS:	115731051	DETSS:	116079103	DTSS:	116079108
HW:	CPU	TSS:	1.83823	AT:	3.65145	#T:	44	DSTSS:	116079115	DETSS:	116416357	DTSS:	116416361
HW:	CPU	TSS:	1.84313	AT:	3.67182	#T:	44	DSTSS:	116416367	DETSS:	116649101	DTSS:	116649105
HW:	CPU	TSS:	1.84928	AT:	3.72157	#T:	44	DSTSS:	116649111	DETSS:	116802247	DTSS:	116802251
HW:	CPU	TSS:	1.85539	AT:	3.79313	#T:	44	DSTSS:	116802256	DETSS:	116956546	DTSS:	116956550
HW:	CPU	TSS:	1.86171	AT:	3.79892	#T:	44	DSTSS:	116956556	DETSS:	117096430	DTSS:	117096435
HW:	CPU	TSS:	1.86782	AT:	3.83299	#T:	44	DSTSS:	117096442	DETSS:	117249258	DTSS:	117249263
HW:	CPU	TSS:	1.87384	AT:	3.90882	#T:	44	DSTSS:	117249270	DETSS:	117405737	DTSS:	117405742
HW:	CPU	TSS:	1.8799	AT:	3.92599	#T:	44	DSTSS:	117405748	DETSS:	117559183	DTSS:	117559188
HW:	CPU	TSS:	1.88568	AT:	3.95802	#T:	44	DSTSS:	117559193	DETSS:	117729183	DTSS:	117729188
HW:	CPU	TSS:	1.89026	AT:	3.94842	#T:	44	DSTSS:	117729193	DETSS:	117972935	DTSS:	117972939
HW:	CPU	TSS:	1.89487	AT:	4.23532	#T:	44	DSTSS:	117972944	DETSS:	118214154	DTSS:	118214158
HW:	CPU	TSS:	1.8993	AT:	4.42083	#T:	44	DSTSS:	118214165	DETSS:	118464407	DTSS:	118464411
HW:	CPU	TSS:	1.90441	AT:	4.6686	#T:	44	DSTSS:	118464416	DETSS:	118672038	DTSS:	118672042
HW:	CPU	TSS:	1.90904	AT:	4.86599	#T:	44	DSTSS:	118672048	DETSS:	118907945	DTSS:	118907949
HW:	CPU	TSS:	1.91518	AT:	5.12368	#T:	44	DSTSS:	118907955	DETSS:	119048971	DTSS:	119048976
HW:	CPU	TSS:	1.92002	AT:	5.32867	#T:	44	DSTSS:	119048982	DETSS:	119269393	DTSS:	119269398
HW:	CPU	TSS:	1.9247	AT:	5.51462	#T:	44	DSTSS:	119269404	DETSS:	119499074	DTSS:	119499078
HW:	CPU	TSS:	1.92968	AT:	5.55574	#T:	44	DSTSS:	119499084	DETSS:	119709001	DTSS:	119709006
HW:	CPU	TSS:	1.93496	AT:	5.4889	#T:	19	DSTSS:	119709012	DETSS:	119899409	DTSS:	119899413
HW:	CPU	TSS:	1.9379	AT:	5.18859	#T:	19	DSTSS:	119899420	DETSS:	120232964	DTSS:	120232969
HW:	CPU	TSS:	1.93898	AT:	4.74128	#T:	19	DSTSS:	120232975	DETSS:	120681955	DTSS:	120681960
HW:	CPU	TSS:	1.94121	AT:	4.46303	#T:	19	DSTSS:	120681966	DETSS:	121058326	DTSS:	121058331
HW:	CPU	TSS:	1.94203	AT:	4.12969	#T:	19	DSTSS:	121058337	DETSS:	121522270	DTSS:	121522274
HW:	CPU	TSS:	1.9429	AT:	3.84312	#T:	19	DSTSS:	121522280	DETSS:	121982667	DTSS:	121982671
HW:	CPU	TSS:	1.94376	AT:	3.60639	#T:	19	DSTSS:	121982677	DETSS:	122443042	DTSS:	122443048
HW:	CPU	TSS:	1.94582	AT:	3.5018	#T:	19	DSTSS:	122443055	DETSS:	122827596	DTSS:	122827605
HW:	CPU	TSS:	1.94941	AT:	3.4694	#T:	19	DSTSS:	122827620	DETSS:	123114132	DTSS:	123114139
HW:	CPU	TSS:	1.9532	AT:	3.4533	#T:	19	DSTSS:	123114146	DETSS:	123387236	DTSS:	123387242
HW:	CPU	TSS:	1.95401	AT:	3.28465	#T:	19	DSTSS:	123387249	DETSS:	123847624	DTSS:	123847629
HW:	CPU	TSS:	1.95701	AT:	3.2312	#T:	19	DSTSS:	123847635	DETSS:	124169147	DTSS:	124169152
HW:	CPU	TSS:	1.95921	AT:	3.096	#T:	19	DSTSS:	124169159	DETSS:	124539926	DTSS:	124539932
HW:	CPU	TSS:	1.96221	AT:	3.04125	#T:	19	DSTSS:	124539939	DETSS:	124859200	DTSS:	124859206
HW:	CPU	TSS:	1.9638	AT:	2.94714	#T:	19	DSTSS:	124859213	DETSS:	125267378	DTSS:	125267384
HW:	CPU	TSS:	1.9665	AT:	2.88376	#T:	19	DSTSS:	125267390	DETSS:	125604078	DTSS:	125604084
HW:	CPU	TSS:	1.96874	AT:	2.80083	#T:	19	DSTSS:	125604091	DETSS:	125969036	DTSS:	125969041
HW:	CPU	TSS:	1.97112	AT:	2.79091	#T:	36	DSTSS:	125969048	DETSS:	126324183	DTSS:	126324191
HW:	CPU	TSS:	1.97301	AT:	2.8203	#T:	36	DSTSS:	126324205	DETSS:	126709692	DTSS:	126709698
HW:	CPU	TSS:	1.97712	AT:	2.88431	#T:	36	DSTSS:	126709705	DETSS:	126952281	DTSS:	126952286
HW:	CPU	TSS:	1.98151	AT:	3.00703	#T:	36	DSTSS:	126952293	DETSS:	127175692	DTSS:	127175698
HW:	CPU	TSS:	1.98495	AT:	3.1041	#T:	36	DSTSS:	127175705	DETSS:	127459289	DTSS:	127459295
HW:	CPU	TSS:	1.98871	AT:	3.22108	#T:	36	DSTSS:	127459302	DETSS:	127720772	DTSS:	127720777
HW:	CPU	TSS:	1.9928	AT:	3.31174	#T:	36	DSTSS:	127720785	DETSS:	127960837	DTSS:	127960843
HW:	CPU	TSS:	1.99711	AT:	3.35249	#T:	36	DSTSS:	127960850	DETSS:	128184997	DTSS:	128185003
HW:	CPU	TSS:	2.00149	AT:	3.38859	#T:	36	DSTSS:	128185010	DETSS:	128404075	DTSS:	128404081
HW:	CPU	TSS:	2.00502	AT:	3.52004	#T:	36	DSTSS:	128404328	DETSS:	128677119	DTSS:	128677125
HW:	CPU	TSS:	2.00866	AT:	3.56213	#T:	36	DSTSS:	128677132	DETSS:	128941568	DTSS:	128941574
HW:	CPU	TSS:	2.01217	AT:	3.63731	#T:	36	DSTSS:	128941582	DETSS:	129213704	DTSS:	129213709
HW:	CPU	TSS:	2.01616	AT:	3.69965	#T:	36	DSTSS:	129213715	DETSS:	129454240	DTSS:	129454244
HW:	CPU	TSS:	2.02044	AT:	3.85716	#T:	44	DSTSS:	129454250	DETSS:	129674776	DTSS:	129674783
HW:	CPU	TSS:	2.0241	AT:	3.9259	#T:	44	DSTSS:	129674796	DETSS:	129934290	DTSS:	129934295
HW:	CPU	TSS:	2.02788	AT:	4.03211	#T:	44	DSTSS:	129934300	DETSS:	130185192	DTSS:	130185196
HW:	CPU	TSS:	2.03196	AT:	4.15489	#T:	44	DSTSS:	130185202	DETSS:	130415739	DTSS:	130415744
HW:	CPU	TSS:	2.03567	AT:	4.29339	#T:	44	DSTSS:	130415750	DETSS:	130669270	DTSS:	130669276
HW:	CPU	TSS:	2.04075	AT:	4.37918	#T:	44	DSTSS:	130669288	DETSS:	130834283	DTSS:	130834287
HW:	CPU	TSS:	2.04417	AT:	4.32724	#T:	44	DSTSS:	130834293	DETSS:	131104298	DTSS:	131104303
HW:	CPU	TSS:	2.04941	AT:	4.47631	#T:	44	DSTSS:	131104316	DETSS:	131257055	DTSS:	131257060
HW:	CPU	TSS:	2.05418	AT:	4.5717	#T:	44	DSTSS:	131257066	DETSS:	131439297	DTSS:	131439301
HW:	CPU	TSS:	2.05795	AT:	4.56579	#T:	44	DSTSS:	131439307	DETSS:	131684191	DTSS:	131684205
HW:	CPU	TSS:	2.06195	AT:	4.55874	#T:	44	DSTSS:	131684213	DETSS:	131914095	DTSS:	131914100
HW:	CPU	TSS:	2.06554	AT:	4.5152	#T:	44	DSTSS:	131914106	DETSS:	132169137	DTSS:	132169142
HW:	CPU	TSS:	2.06895	AT:	4.52502	#T:	44	DSTSS:	132169150	DETSS:	132434008	DTSS:	132434014
HW:	CPU	TSS:	2.07258	AT:	4.54176	#T:	44	DSTSS:	132434021	DETSS:	132684612	DTSS:	132684617
HW:	CPU	TSS:	2.07621	AT:	4.56895	#T:	44	DSTSS:	132684624	DETSS:	132934472	DTSS:	132934477
HW:	CPU	TSS:	2.0801	AT:	4.57952	#T:	15	DSTSS:	132934484	DETSS:	133166415	DTSS:	133166421
HW:	CPU	TSS:	2.08219	AT:	4.42908	#T:	15	DSTSS:	133166428	DETSS:	133513032	DTSS:	133513037
HW:	CPU	TSS:	2.08454	AT:	4.34975	#T:	15	DSTSS:	133513044	DETSS:	133842564	DTSS:	133842569
HW:	CPU	TSS:	2.0863	AT:	4.22527	#T:	15	DSTSS:	133842576	DETSS:	134208603	DTSS:	134208608
HW:	CPU	TSS:	2.08943	AT:	4.17606	#T:	15	DSTSS:	134208615	DETSS:	134486563	DTSS:	134486568
HW:	CPU	TSS:	2.09092	AT:	4.04778	#T:	15	DSTSS:	134486575	DETSS:	134869100	DTSS:	134869105
HW:	CPU	TSS:	2.09399	AT:	3.94049	#T:	15	DSTSS:	134869136	DETSS:	135148464	DTSS:	135148469
HW:	CPU	TSS:	2.09561	AT:	3.84858	#T:	15	DSTSS:	135148476	DETSS:	135521503	DTSS:	135521509
HW:	CPU	TSS:	2.09828	AT:	3.72101	#T:	15	DSTSS:	135521515	DETSS:	135825704	DTSS:	135825709
HW:	CPU	TSS:	2.09983	AT:	3.56968	#T:	15	DSTSS:	135825716	DETSS:	136201626	DTSS:	136201632
HW:	CPU	TSS:	2.10178	AT:	3.49288	#T:	15	DSTSS:	136201639	DETSS:	136551221	DTSS:	136551226
HW:	CPU	TSS:	2.10379	AT:	3.41253	#T:	15	DSTSS:	136551234	DETSS:	136895738	DTSS:	136895744
HW:	CPU	TSS:	2.10533	AT:	3.33228	#T:	28	DSTSS:	136895751	DETSS:	137270752	DTSS:	137270759
HW:	CPU	TSS:	2.10823	AT:	3.31878	#T:	28	DSTSS:	137270772	DETSS:	137556369	DTSS:	137556375
HW:	CPU	TSS:	2.11188	AT:	3.32877	#T:	28	DSTSS:	137556383	DETSS:	137791598	DTSS:	137791604
HW:	CPU	TSS:	2.11534	AT:	3.33018	#T:	28	DSTSS:	137791612	DETSS:	138039307	DTSS:	138039312
HW:	CPU	TSS:	2.11825	AT:	3.29754	#T:	28	DSTSS:	138039320	DETSS:	138321777	DTSS:	138321783
HW:	CPU	TSS:	2.12069	AT:	3.31955	#T:	28	DSTSS:	138321791	DETSS:	138634217	DTSS:	138634224
HW:	CPU	TSS:	2.12438	AT:	3.38527	#T:	28	DSTSS:	138634233	DETSS:	138864322	DTSS:	138864328
HW:	CPU	TSS:	2.12807	AT:	3.4804	#T:	28	DSTSS:	138864336	DETSS:	139093107	DTSS:	139093113
HW:	CPU	TSS:	2.13064	AT:	3.46383	#T:	28	DSTSS:	139093121	DETSS:	139394426	DTSS:	139394432
HW:	CPU	TSS:	2.13329	AT:	3.52611	#T:	28	DSTSS:	139394440	DETSS:	139690280	DTSS:	139690286
HW:	CPU	TSS:	2.13663	AT:	3.5481	#T:	28	DSTSS:	139690293	DETSS:	139939758	DTSS:	139939764
HW:	CPU	TSS:	2.1405	AT:	3.6697	#T:	16	DSTSS:	139939771	DETSS:	140154036	DTSS:	140154042
HW:	CPU	TSS:	2.14213	AT:	3.62592	#T:	16	DSTSS:	140154048	DETSS:	140514175	DTSS:	140514181
HW:	CPU	TSS:	2.14491	AT:	3.69821	#T:	16	DSTSS:	140514188	DETSS:	140798449	DTSS:	140798454
HW:	CPU	TSS:	2.14811	AT:	3.77534	#T:	16	DSTSS:	140798462	DETSS:	141054124	DTSS:	141054129
HW:	CPU	TSS:	2.14924	AT:	3.73674	#T:	16	DSTSS:	141054137	DETSS:	141445164	DTSS:	141445170
HW:	CPU	TSS:	2.15195	AT:	3.81081	#T:	16	DSTSS:	141445177	DETSS:	141731743	DTSS:	141731748
HW:	CPU	TSS:	2.15325	AT:	3.7325	#T:	16	DSTSS:	141731755	DETSS:	142110961	DTSS:	142110967
HW:	CPU	TSS:	2.15632	AT:	3.71139	#T:	16	DSTSS:	142110974	DETSS:	142372098	DTSS:	142372104
HW:	CPU	TSS:	2.15822	AT:	3.63938	#T:	16	DSTSS:	142372111	DETSS:	142710437	DTSS:	142710444
HW:	CPU	TSS:	2.16161	AT:	3.67411	#T:	16	DSTSS:	142710453	DETSS:	142948750	DTSS:	142948756
HW:	CPU	TSS:	2.16288	AT:	3.62235	#T:	16	DSTSS:	142948763	DETSS:	143327300	DTSS:	143327306
HW:	CPU	TSS:	2.1662	AT:	3.61296	#T:	16	DSTSS:	143327314	DETSS:	143569608	DTSS:	143569614
HW:	CPU	TSS:	2.16915	AT:	3.58514	#T:	16	DSTSS:	143569621	DETSS:	143834901	DTSS:	143834907
HW:	CPU	TSS:	2.17101	AT:	3.558	#T:	16	DSTSS:	143834914	DETSS:	144172396	DTSS:	144172402
HW:	CPU	TSS:	2.17442	AT:	3.60481	#T:	20	DSTSS:	144172409	DETSS:	144406196	DTSS:	144406201
HW:	CPU	TSS:	2.17348	AT:	3.40725	#T:	20	DSTSS:	144406208	DETSS:	144929119	DTSS:	144929125
HW:	CPU	TSS:	2.17415	AT:	3.27556	#T:	20	DSTSS:	144929132	DETSS:	145343995	DTSS:	145344000
HW:	CPU	TSS:	2.17653	AT:	3.31336	#T:	20	DSTSS:	145344007	DETSS:	145644918	DTSS:	145644923
HW:	CPU	TSS:	2.1784	AT:	3.28163	#T:	20	DSTSS:	145644930	DETSS:	145978806	DTSS:	145978811
HW:	CPU	TSS:	2.18069	AT:	3.25046	#T:	20	DSTSS:	145978818	DETSS:	146284161	DTSS:	146284166
HW:	CPU	TSS:	2.18201	AT:	3.26389	#T:	20	DSTSS:	146284173	DETSS:	146653677	DTSS:	146653683
HW:	CPU	TSS:	2.18413	AT:	3.24584	#T:	20	DSTSS:	146653690	DETSS:	146969216	DTSS:	146969221
HW:	CPU	TSS:	2.18625	AT:	3.28615	#T:	36	DSTSS:	146969228	DETSS:	147284188	DTSS:	147284193
HW:	CPU	TSS:	2.18924	AT:	3.2898	#T:	36	DSTSS:	147284200	DETSS:	147539580	DTSS:	147539586
HW:	CPU	TSS:	2.19201	AT:	3.33414	#T:	36	DSTSS:	147539593	DETSS:	147809212	DTSS:	147809218
HW:	CPU	TSS:	2.19487	AT:	3.31769	#T:	36	DSTSS:	147809234	DETSS:	148072801	DTSS:	148072807
HW:	CPU	TSS:	2.19774	AT:	3.39529	#T:	36	DSTSS:	148072814	DETSS:	148334237	DTSS:	148334243
HW:	CPU	TSS:	2.20066	AT:	3.38476	#T:	36	DSTSS:	148334252	DETSS:	148592117	DTSS:	148592122
HW:	CPU	TSS:	2.20357	AT:	3.3902	#T:	36	DSTSS:	148592129	DETSS:	148849349	DTSS:	148849354
HW:	CPU	TSS:	2.20597	AT:	3.42186	#T:	36	DSTSS:	148849361	DETSS:	149140448	DTSS:	149140453
HW:	CPU	TSS:	2.20876	AT:	3.40066	#T:	36	DSTSS:	149140462	DETSS:	149405222	DTSS:	149405227
HW:	CPU	TSS:	2.21154	AT:	3.58638	#T:	36	DSTSS:	149405234	DETSS:	149669270	DTSS:	149669276
HW:	CPU	TSS:	2.21404	AT:	3.68894	#T:	36	DSTSS:	149669283	DETSS:	149952372	DTSS:	149952378
HW:	CPU	TSS:	2.21705	AT:	3.73267	#T:	15	DSTSS:	149952384	DETSS:	150199303	DTSS:	150199310
HW:	CPU	TSS:	2.21832	AT:	3.70745	#T:	15	DSTSS:	150199322	DETSS:	150564167	DTSS:	150564173
HW:	CPU	TSS:	2.22079	AT:	3.72563	#T:	15	DSTSS:	150564180	DETSS:	150847143	DTSS:	150847149
HW:	CPU	TSS:	2.2221	AT:	3.73224	#T:	15	DSTSS:	150847155	DETSS:	151208587	DTSS:	151208592
HW:	CPU	TSS:	2.22454	AT:	3.75874	#T:	15	DSTSS:	151208600	DETSS:	151492013	DTSS:	151492018
HW:	CPU	TSS:	2.22576	AT:	3.71678	#T:	15	DSTSS:	151492025	DETSS:	151858038	DTSS:	151858044
HW:	CPU	TSS:	2.22821	AT:	3.6955	#T:	15	DSTSS:	151858050	DETSS:	152139767	DTSS:	152139772
HW:	CPU	TSS:	2.22961	AT:	3.62962	#T:	15	DSTSS:	152139779	DETSS:	152492883	DTSS:	152492888
HW:	CPU	TSS:	2.23178	AT:	3.60167	#T:	15	DSTSS:	152492894	DETSS:	152792839	DTSS:	152792844
HW:	CPU	TSS:	2.23272	AT:	3.51072	#T:	15	DSTSS:	152792851	DETSS:	153176548	DTSS:	153176553
HW:	CPU	TSS:	2.23507	AT:	3.49047	#T:	15	DSTSS:	153176560	DETSS:	153462524	DTSS:	153462530
HW:	CPU	TSS:	2.2361	AT:	3.40698	#T:	15	DSTSS:	153462536	DETSS:	153839101	DTSS:	153839106
HW:	CPU	TSS:	2.2377	AT:	3.37586	#T:	15	DSTSS:	153839113	DETSS:	154176202	DTSS:	154176207
HW:	CPU	TSS:	2.23889	AT:	3.31032	#T:	15	DSTSS:	154176214	DETSS:	154540683	DTSS:	154540689
HW:	CPU	TSS:	2.24011	AT:	3.24792	#T:	15	DSTSS:	154540719	DETSS:	154903395	DTSS:	154903400
HW:	CPU	TSS:	2.24235	AT:	3.24297	#T:	15	DSTSS:	154903407	DETSS:	155194476	DTSS:	155194481
HW:	CPU	TSS:	2.24345	AT:	3.16881	#T:	15	DSTSS:	155194489	DETSS:	155564094	DTSS:	155564099
HW:	CPU	TSS:	2.24577	AT:	3.21721	#T:	15	DSTSS:	155564106	DETSS:	155848254	DTSS:	155848259
HW:	CPU	TSS:	2.24674	AT:	3.16038	#T:	15	DSTSS:	155848266	DETSS:	156226247	DTSS:	156226252
HW:	CPU	TSS:	2.24837	AT:	3.1778	#T:	15	DSTSS:	156226259	DETSS:	156558201	DTSS:	156558206
HW:	CPU	TSS:	2.24967	AT:	3.13667	#T:	15	DSTSS:	156558214	DETSS:	156911778	DTSS:	156911784
HW:	CPU	TSS:	2.25106	AT:	3.14754	#T:	15	DSTSS:	156911792	DETSS:	157259089	DTSS:	157259095
HW:	CPU	TSS:	2.25248	AT:	3.11109	#T:	15	DSTSS:	157259102	DETSS:	157604097	DTSS:	157604103
HW:	CPU	TSS:	2.25332	AT:	3.09304	#T:	15	DSTSS:	157604110	DETSS:	157989094	DTSS:	157989100
HW:	CPU	TSS:	2.25579	AT:	3.11	#T:	15	DSTSS:	157989107	DETSS:	158259082	DTSS:	158259087
HW:	CPU	TSS:	2.25669	AT:	3.11209	#T:	15	DSTSS:	158259094	DETSS:	158639119	DTSS:	158639124
HW:	CPU	TSS:	2.25883	AT:	3.10834	#T:	15	DSTSS:	158639131	DETSS:	158931682	DTSS:	158931687
HW:	CPU	TSS:	2.25978	AT:	3.10889	#T:	15	DSTSS:	158931694	DETSS:	159307294	DTSS:	159307299
HW:	CPU	TSS:	2.261	AT:	3.0977	#T:	15	DSTSS:	159307306	DETSS:	159664139	DTSS:	159664144
HW:	CPU	TSS:	2.26237	AT:	3.10877	#T:	15	DSTSS:	159664151	DETSS:	160009079	DTSS:	160009084
HW:	CPU	TSS:	2.2636	AT:	3.11315	#T:	15	DSTSS:	160009091	DETSS:	160364095	DTSS:	160364101
HW:	CPU	TSS:	2.26575	AT:	3.11417	#T:	15	DSTSS:	160364107	DETSS:	160653394	DTSS:	160653400
HW:	CPU	TSS:	2.26676	AT:	3.11448	#T:	15	DSTSS:	160653407	DETSS:	161022471	DTSS:	161022476
HW:	CPU	TSS:	2.26913	AT:	3.121	#T:	15	DSTSS:	161022482	DETSS:	161295221	DTSS:	161295227
HW:	CPU	TSS:	2.27021	AT:	3.12911	#T:	15	DSTSS:	161295234	DETSS:	161659099	DTSS:	161659105
HW:	CPU	TSS:	2.2724	AT:	3.15666	#T:	15	DSTSS:	161659112	DETSS:	161943633	DTSS:	161943639
HW:	CPU	TSS:	2.2731	AT:	3.13564	#T:	15	DSTSS:	161943648	DETSS:	162333312	DTSS:	162333317
HW:	CPU	TSS:	2.2751	AT:	3.165	#T:	15	DSTSS:	162333325	DETSS:	162630339	DTSS:	162630344
HW:	CPU	TSS:	2.27629	AT:	3.15969	#T:	15	DSTSS:	162630351	DETSS:	162984369	DTSS:	162984374
HW:	CPU	TSS:	2.27767	AT:	3.18608	#T:	15	DSTSS:	162984381	DETSS:	163324807	DTSS:	163324813
HW:	CPU	TSS:	2.27884	AT:	3.13612	#T:	15	DSTSS:	163324820	DETSS:	163679795	DTSS:	163679800
HW:	CPU	TSS:	2.28028	AT:	3.16212	#T:	15	DSTSS:	163679808	DETSS:	164015252	DTSS:	164015258
HW:	CPU	TSS:	2.28173	AT:	3.13828	#T:	15	DSTSS:	164015265	DETSS:	164348658	DTSS:	164348663
HW:	CPU	TSS:	2.2827	AT:	3.14227	#T:	15	DSTSS:	164348671	DETSS:	164717400	DTSS:	164717405
HW:	CPU	TSS:	2.2846	AT:	3.17548	#T:	15	DSTSS:	164717412	DETSS:	165017665	DTSS:	165017670
HW:	CPU	TSS:	2.28569	AT:	3.16702	#T:	15	DSTSS:	165017677	DETSS:	165376901	DTSS:	165376906
HW:	CPU	TSS:	2.28784	AT:	3.21117	#T:	15	DSTSS:	165376914	DETSS:	165658118	DTSS:	165658123
HW:	CPU	TSS:	2.28863	AT:	3.15698	#T:	15	DSTSS:	165658130	DETSS:	166038284	DTSS:	166038289
HW:	CPU	TSS:	2.28977	AT:	3.16583	#T:	15	DSTSS:	166038297	DETSS:	166392307	DTSS:	166392313
HW:	CPU	TSS:	2.2908	AT:	3.11443	#T:	15	DSTSS:	166392320	DETSS:	166753692	DTSS:	166753697
HW:	CPU	TSS:	2.29161	AT:	3.10663	#T:	15	DSTSS:	166753703	DETSS:	167131261	DTSS:	167131266
HW:	CPU	TSS:	2.29396	AT:	3.11765	#T:	15	DSTSS:	167131274	DETSS:	167396466	DTSS:	167396472
HW:	CPU	TSS:	2.29476	AT:	3.125	#T:	15	DSTSS:	167396479	DETSS:	167773319	DTSS:	167773324
HW:	CPU	TSS:	2.29705	AT:	3.14158	#T:	15	DSTSS:	167773331	DETSS:	168041625	DTSS:	168041630
HW:	CPU	TSS:	2.29785	AT:	3.12839	#T:	15	DSTSS:	168041637	DETSS:	168418472	DTSS:	168418477
HW:	CPU	TSS:	2.29988	AT:	3.16023	#T:	15	DSTSS:	168418484	DETSS:	168704154	DTSS:	168704159
HW:	CPU	TSS:	2.30093	AT:	3.15835	#T:	15	DSTSS:	168704167	DETSS:	169062354	DTSS:	169062360
HW:	CPU	TSS:	2.30268	AT:	3.17623	#T:	15	DSTSS:	169062367	DETSS:	169367518	DTSS:	169367524
HW:	CPU	TSS:	2.3037	AT:	3.16065	#T:	15	DSTSS:	169367531	DETSS:	169727291	DTSS:	169727296
HW:	CPU	TSS:	2.30456	AT:	3.15983	#T:	15	DSTSS:	169727304	DETSS:	170097429	DTSS:	170097435
HW:	CPU	TSS:	2.30567	AT:	3.12965	#T:	15	DSTSS:	170097442	DETSS:	170449574	DTSS:	170449580
HW:	CPU	TSS:	2.30653	AT:	3.12373	#T:	15	DSTSS:	170449587	DETSS:	170819115	DTSS:	170819120
HW:	CPU	TSS:	2.3085	AT:	3.12024	#T:	15	DSTSS:	170819127	DETSS:	171106423	DTSS:	171106428
HW:	CPU	TSS:	2.30927	AT:	3.12246	#T:	15	DSTSS:	171106435	DETSS:	171482700	DTSS:	171482705
HW:	CPU	TSS:	2.31016	AT:	3.11502	#T:	15	DSTSS:	171482712	DETSS:	171849729	DTSS:	171849734
HW:	CPU	TSS:	2.31132	AT:	3.12354	#T:	15	DSTSS:	171849742	DETSS:	172196235	DTSS:	172196240
HW:	CPU	TSS:	2.31216	AT:	3.12813	#T:	15	DSTSS:	172196247	DETSS:	172565823	DTSS:	172565828
HW:	CPU	TSS:	2.31382	AT:	3.10329	#T:	15	DSTSS:	172565835	DETSS:	172874518	DTSS:	172874523
HW:	CPU	TSS:	2.31466	AT:	3.10787	#T:	15	DSTSS:	172874529	DETSS:	173243297	DTSS:	173243303
HW:	CPU	TSS:	2.31586	AT:	3.0663	#T:	15	DSTSS:	173243310	DETSS:	173585767	DTSS:	173585772
HW:	CPU	TSS:	2.31664	AT:	3.06827	#T:	15	DSTSS:	173585779	DETSS:	173959059	DTSS:	173959064
HW:	CPU	TSS:	2.31732	AT:	3.01693	#T:	15	DSTSS:	173959072	DETSS:	174339031	DTSS:	174339046
HW:	CPU	TSS:	2.31949	AT:	3.06585	#T:	15	DSTSS:	174339062	DETSS:	174607316	DTSS:	174607322
HW:	CPU	TSS:	2.32015	AT:	3.02409	#T:	15	DSTSS:	174607329	DETSS:	174989053	DTSS:	174989059
HW:	CPU	TSS:	2.3223	AT:	3.07405	#T:	15	DSTSS:	174989066	DETSS:	175257462	DTSS:	175257467
HW:	CPU	TSS:	2.32303	AT:	3.07132	#T:	15	DSTSS:	175257474	DETSS:	175632501	DTSS:	175632506
HW:	CPU	TSS:	2.32485	AT:	3.10453	#T:	15	DSTSS:	175632513	DETSS:	175925438	DTSS:	175925443
HW:	CPU	TSS:	2.3259	AT:	3.11539	#T:	15	DSTSS:	175925450	DETSS:	176275887	DTSS:	176275892
HW:	CPU	TSS:	2.32767	AT:	3.11058	#T:	15	DSTSS:	176275921	DETSS:	176571645	DTSS:	176571650
HW:	CPU	TSS:	2.32861	AT:	3.12087	#T:	15	DSTSS:	176571657	DETSS:	176929900	DTSS:	176929905
HW:	CPU	TSS:	2.33055	AT:	3.17054	#T:	15	DSTSS:	176929912	DETSS:	177211599	DTSS:	177211604
HW:	CPU	TSS:	2.33125	AT:	3.15333	#T:	15	DSTSS:	177211612	DETSS:	177587365	DTSS:	177587371
HW:	CPU	TSS:	2.33221	AT:	3.16147	#T:	15	DSTSS:	177587378	DETSS:	177943071	DTSS:	177943076
HW:	CPU	TSS:	2.33297	AT:	3.12546	#T:	15	DSTSS:	177943084	DETSS:	178313723	DTSS:	178313728
HW:	CPU	TSS:	2.33362	AT:	3.11986	#T:	15	DSTSS:	178313735	DETSS:	178692263	DTSS:	178692268
HW:	CPU	TSS:	2.33487	AT:	3.12562	#T:	15	DSTSS:	178692275	DETSS:	179024697	DTSS:	179024702
HW:	CPU	TSS:	2.33572	AT:	3.13142	#T:	15	DSTSS:	179024709	DETSS:	179387906	DTSS:	179387911
HW:	CPU	TSS:	2.33555	AT:	3.09639	#T:	15	DSTSS:	179387918	DETSS:	179829301	DTSS:	179829306
HW:	CPU	TSS:	2.33644	AT:	3.04573	#T:	15	DSTSS:	179829312	DETSS:	180188898	DTSS:	180188903
HW:	CPU	TSS:	2.33721	AT:	3.05323	#T:	15	DSTSS:	180188910	DETSS:	180556911	DTSS:	180556917
HW:	CPU	TSS:	2.33849	AT:	3.02017	#T:	15	DSTSS:	180556925	DETSS:	180886283	DTSS:	180886288
HW:	CPU	TSS:	2.33952	AT:	3.03483	#T:	15	DSTSS:	180886295	DETSS:	181234129	DTSS:	181234134
HW:	CPU	TSS:	2.3404	AT:	2.99957	#T:	15	DSTSS:	181234141	DETSS:	181592913	DTSS:	181592919
HW:	CPU	TSS:	2.34235	AT:	3.03967	#T:	15	DSTSS:	181592925	DETSS:	181868603	DTSS:	181868609
HW:	CPU	TSS:	2.34282	AT:	2.98907	#T:	15	DSTSS:	181868617	DETSS:	182259038	DTSS:	182259054
HW:	CPU	TSS:	2.34496	AT:	3.04158	#T:	15	DSTSS:	182259071	DETSS:	182519105	DTSS:	182519110
HW:	CPU	TSS:	2.34557	AT:	2.98969	#T:	15	DSTSS:	182519116	DETSS:	182897809	DTSS:	182897815
HW:	CPU	TSS:	2.34749	AT:	3.04278	#T:	15	DSTSS:	182897822	DETSS:	183174358	DTSS:	183174364
HW:	CPU	TSS:	2.34837	AT:	3.04186	#T:	15	DSTSS:	183174371	DETSS:	183531767	DTSS:	183531772
HW:	CPU	TSS:	2.35019	AT:	3.09006	#T:	15	DSTSS:	183531779	DETSS:	183815240	DTSS:	183815246
HW:	CPU	TSS:	2.35094	AT:	3.09685	#T:	15	DSTSS:	183815253	DETSS:	184181711	DTSS:	184181716
HW:	CPU	TSS:	2.35255	AT:	3.11588	#T:	15	DSTSS:	184181723	DETSS:	184480627	DTSS:	184480632
HW:	CPU	TSS:	2.35314	AT:	3.1072	#T:	15	DSTSS:	184480639	DETSS:	184859085	DTSS:	184859100
HW:	CPU	TSS:	2.35382	AT:	3.14727	#T:	15	DSTSS:	184859108	DETSS:	185230806	DTSS:	185230812
HW:	CPU	TSS:	2.35488	AT:	3.15792	#T:	15	DSTSS:	185230819	DETSS:	185572189	DTSS:	185572195
HW:	CPU	TSS:	2.35541	AT:	3.14941	#T:	15	DSTSS:	185572202	DETSS:	185954741	DTSS:	185954746
HW:	CPU	TSS:	2.35652	AT:	3.14485	#T:	15	DSTSS:	185954754	DETSS:	186291943	DTSS:	186291948
HW:	CPU	TSS:	2.35732	AT:	3.13725	#T:	15	DSTSS:	186291955	DETSS:	186652888	DTSS:	186652894
HW:	CPU	TSS:	2.35808	AT:	3.13422	#T:	15	DSTSS:	186652901	DETSS:	187016913	DTSS:	187016918
HW:	CPU	TSS:	2.35966	AT:	3.12117	#T:	15	DSTSS:	187016924	DETSS:	187315280	DTSS:	187315286
HW:	CPU	TSS:	2.36047	AT:	3.1394	#T:	15	DSTSS:	187315293	DETSS:	187674088	DTSS:	187674093
HW:	CPU	TSS:	2.36223	AT:	3.12554	#T:	15	DSTSS:	187674100	DETSS:	187958158	DTSS:	187958163
HW:	CPU	TSS:	2.36278	AT:	3.12514	#T:	15	DSTSS:	187958170	DETSS:	188337561	DTSS:	188337566
HW:	CPU	TSS:	2.36464	AT:	3.12636	#T:	15	DSTSS:	188337573	DETSS:	188611994	DTSS:	188612000
HW:	CPU	TSS:	2.36542	AT:	3.12454	#T:	15	DSTSS:	188612006	DETSS:	188972575	DTSS:	188972580
HW:	CPU	TSS:	2.36729	AT:	3.13036	#T:	15	DSTSS:	188972587	DETSS:	189245926	DTSS:	189245932
HW:	CPU	TSS:	2.36803	AT:	3.13227	#T:	15	DSTSS:	189245938	DETSS:	189609091	DTSS:	189609096
HW:	CPU	TSS:	2.36964	AT:	3.13541	#T:	15	DSTSS:	189609103	DETSS:	189902566	DTSS:	189902571
HW:	CPU	TSS:	2.37055	AT:	3.15252	#T:	15	DSTSS:	189902578	DETSS:	190251581	DTSS:	190251587
HW:	CPU	TSS:	2.37226	AT:	3.2046	#T:	15	DSTSS:	190251595	DETSS:	190535685	DTSS:	190535690
HW:	CPU	TSS:	2.3728	AT:	3.18265	#T:	15	DSTSS:	190535697	DETSS:	190913658	DTSS:	190913663
HW:	CPU	TSS:	2.37458	AT:	3.24632	#T:	15	DSTSS:	190913670	DETSS:	191191448	DTSS:	191191453
HW:	CPU	TSS:	2.37513	AT:	3.22159	#T:	15	DSTSS:	191191460	DETSS:	191568835	DTSS:	191568840
HW:	CPU	TSS:	2.37691	AT:	3.27395	#T:	15	DSTSS:	191568847	DETSS:	191845393	DTSS:	191845399
HW:	CPU	TSS:	2.37756	AT:	3.27103	#T:	15	DSTSS:	191845406	DETSS:	192214056	DTSS:	192214063
HW:	CPU	TSS:	2.37935	AT:	3.28557	#T:	15	DSTSS:	192214080	DETSS:	192489426	DTSS:	192489431
HW:	CPU	TSS:	2.37987	AT:	3.27336	#T:	15	DSTSS:	192489438	DETSS:	192867535	DTSS:	192867541
HW:	CPU	TSS:	2.38053	AT:	3.22221	#T:	15	DSTSS:	192867549	DETSS:	193234058	DTSS:	193234064
HW:	CPU	TSS:	2.38137	AT:	3.23914	#T:	15	DSTSS:	193234080	DETSS:	193585869	DTSS:	193585874
HW:	CPU	TSS:	2.38195	AT:	3.17929	#T:	15	DSTSS:	193585881	DETSS:	193959105	DTSS:	193959111
HW:	CPU	TSS:	2.38376	AT:	3.23287	#T:	15	DSTSS:	193959118	DETSS:	194231053	DTSS:	194231058
HW:	CPU	TSS:	2.38428	AT:	3.17065	#T:	15	DSTSS:	194231066	DETSS:	194607606	DTSS:	194607611
HW:	CPU	TSS:	2.38604	AT:	3.22319	#T:	15	DSTSS:	194607618	DETSS:	194883363	DTSS:	194883368
HW:	CPU	TSS:	2.38633	AT:	3.16189	#T:	15	DSTSS:	194883375	DETSS:	195279102	DTSS:	195279107
HW:	CPU	TSS:	2.38798	AT:	3.20081	#T:	15	DSTSS:	195279114	DETSS:	195562732	DTSS:	195562737
HW:	CPU	TSS:	2.3885	AT:	3.14619	#T:	15	DSTSS:	195562744	DETSS:	195939064	DTSS:	195939070
HW:	CPU	TSS:	2.38972	AT:	3.18146	#T:	15	DSTSS:	195939079	DETSS:	196257109	DTSS:	196257114
HW:	CPU	TSS:	2.39023	AT:	3.1237	#T:	15	DSTSS:	196257120	DETSS:	196633716	DTSS:	196633721
HW:	CPU	TSS:	2.39081	AT:	3.12773	#T:	15	DSTSS:	196633728	DETSS:	197004095	DTSS:	197004100
HW:	CPU	TSS:	2.39245	AT:	3.12388	#T:	15	DSTSS:	197004107	DETSS:	197287339	DTSS:	197287345
HW:	CPU	TSS:	2.39283	AT:	3.11356	#T:	15	DSTSS:	197287351	DETSS:	197674040	DTSS:	197674046
HW:	CPU	TSS:	2.39443	AT:	3.10785	#T:	15	DSTSS:	197674053	DETSS:	197959448	DTSS:	197959453
HW:	CPU	TSS:	2.39489	AT:	3.10697	#T:	15	DSTSS:	197959460	DETSS:	198339105	DTSS:	198339110
HW:	CPU	TSS:	2.3958	AT:	3.12102	#T:	15	DSTSS:	198339117	DETSS:	198680995	DTSS:	198681002
HW:	CPU	TSS:	2.39654	AT:	3.11877	#T:	15	DSTSS:	198681009	DETSS:	199036735	DTSS:	199036740
HW:	CPU	TSS:	2.39679	AT:	3.10559	#T:	15	DSTSS:	199036747	DETSS:	199433108	DTSS:	199433114
HW:	CPU	TSS:	2.39869	AT:	3.11304	#T:	15	DSTSS:	199433121	DETSS:	199691946	DTSS:	199691952
HW:	CPU	TSS:	2.39906	AT:	3.10734	#T:	15	DSTSS:	199691959	DETSS:	200078522	DTSS:	200078527
HW:	CPU	TSS:	2.40015	AT:	3.07928	#T:	15	DSTSS:	200078535	DETSS:	200404139	DTSS:	200404145
HW:	CPU	TSS:	2.40071	AT:	3.09371	#T:	15	DSTSS:	200404152	DETSS:	200774122	DTSS:	200774128
HW:	CPU	TSS:	2.40182	AT:	3.07132	#T:	15	DSTSS:	200774136	DETSS:	201097813	DTSS:	201097819
HW:	CPU	TSS:	2.40259	AT:	3.08527	#T:	15	DSTSS:	201097826	DETSS:	201449095	DTSS:	201449101
HW:	CPU	TSS:	2.4032	AT:	3.05924	#T:	15	DSTSS:	201449108	DETSS:	201814048	DTSS:	201814064
HW:	CPU	TSS:	2.40476	AT:	3.11048	#T:	15	DSTSS:	201814072	DETSS:	202099119	DTSS:	202099124
HW:	CPU	TSS:	2.40552	AT:	3.12089	#T:	15	DSTSS:	202099131	DETSS:	202451267	DTSS:	202451272
HW:	CPU	TSS:	2.40703	AT:	3.11825	#T:	15	DSTSS:	202451280	DETSS:	202739119	DTSS:	202739124
HW:	CPU	TSS:	2.4074	AT:	3.11923	#T:	15	DSTSS:	202739131	DETSS:	203124107	DTSS:	203124112
HW:	CPU	TSS:	2.40888	AT:	3.11666	#T:	15	DSTSS:	203124118	DETSS:	203414013	DTSS:	203414018
HW:	CPU	TSS:	2.40943	AT:	3.12279	#T:	15	DSTSS:	203414025	DETSS:	203782951	DTSS:	203782956
HW:	CPU	TSS:	2.41006	AT:	3.11165	#T:	15	DSTSS:	203782963	DETSS:	204144335	DTSS:	204144340
HW:	CPU	TSS:	2.41085	AT:	3.11639	#T:	15	DSTSS:	204144348	DETSS:	204491769	DTSS:	204491774
HW:	CPU	TSS:	2.41137	AT:	3.131	#T:	15	DSTSS:	204491781	DETSS:	204862692	DTSS:	204862697
HW:	CPU	TSS:	2.41292	AT:	3.1173	#T:	15	DSTSS:	204862704	DETSS:	205145386	DTSS:	205145391
HW:	CPU	TSS:	2.41352	AT:	3.13043	#T:	15	DSTSS:	205145398	DETSS:	205509087	DTSS:	205509092
HW:	CPU	TSS:	2.41507	AT:	3.15575	#T:	15	DSTSS:	205509099	DETSS:	205791133	DTSS:	205791138
HW:	CPU	TSS:	2.41545	AT:	3.14884	#T:	15	DSTSS:	205791144	DETSS:	206172937	DTSS:	206172942
HW:	CPU	TSS:	2.41641	AT:	3.14404	#T:	15	DSTSS:	206172949	DETSS:	206504867	DTSS:	206504872
HW:	CPU	TSS:	2.41716	AT:	3.14502	#T:	15	DSTSS:	206504879	DETSS:	206854470	DTSS:	206854476
