0	0.0
0	0.0
500	3.43217
1000	3.297521816
1500	2.4634974658
2000	1.948738725
2500	1.64259098
3000	1.4384924843
3500	1.2907739145
4000	1.181677173
4500	1.0968241554
5000	1.02894174
5500	0.9972161279
6000	1.0051147823
6500	1.0117982618
10000	1.1043271298
15500	1.0099714747
23000	0.651277461
30500	0.623526598
38000	0.623526598
46000	0.4522699255
53500	0.36866023
61000	0.368695
68000	0.36824375
75500	0.36839898
83000	0.368695
90000	0.36830227
97500	0.36824375
105000	0.368695
112500	0.368695
119500	0.36824375
127000	0.368695
134500	0.368695
141500	0.36824375
149000	0.368695
156500	0.368695
163500	0.36824375
171000	0.368695
178500	0.368695
185500	0.36824375
193000	0.36858898
200000	0.368695
200500	0.37152125
201000	0.37389625
201500	0.37627125
202000	0.37864625
202500	0.38102125
203000	0.3838475
203500	0.3862225
204000	0.3885975
204500	0.3909725
205000	0.3933475
205500	0.39617375
206000	0.39854875
206500	0.40092375
207000	0.40329875
207500	0.40567375
208000	0.4085
208500	0.410875
209000	0.41325
209500	0.415625
210000	0.418
210500	0.418
211000	0.41772602
211500	0.41720352
212000	0.41720352
212500	0.41720352
213000	0.41720352
213500	0.41720352
214000	0.41720352
214500	0.41720352
215000	0.41720352
215500	0.41720352
216000	0.41720352
216500	0.41720352
217000	0.41720352
217500	0.41720352
218000	0.41720352
218500	0.4342562039
219000	0.4750812039
219500	0.5159062039
220000	0.5522101511
220500	0.5769354135
221000	0.6089118685
221500	0.6431343685
222000	0.6768343685
222500	0.7105343685
223000	0.7442343685
223500	0.7779343685
224000	0.8116343685
224500	0.8453343685
225000	0.8790343685
226000	0.9671667187
228500	1.9284253816
232000	2.1598816416
236000	2.359813475
239000	2.4035797623
242500	2.5690077259
245000	2.678854498
248500	2.0533203873
250500	1.8649454504
253500	1.74221194
256500	1.693699208
258500	1.685634879
261000	1.68758403
264500	1.681043545
267500	1.685003756
269500	1.679395954
272000	1.685914712
274500	1.686510131
277000	1.690200878
280000	1.696835568
282000	1.68841352
284000	1.68925348
287500	1.68624269
290000	1.686131422
292500	1.686780502
295000	1.688460618
298000	1.684580033
301000	1.688206119
303000	1.690472497
306000	1.702620291
308500	1.697069858
311500	1.692549366
313500	1.693406858
317000	1.691642525
320000	1.700654121
322000	1.682937448
324500	1.685764582
327500	1.682937217
329500	1.684850211
332500	1.691718554
334500	1.687167309
336500	1.696341004
339000	1.694684842
341500	1.696672661
343500	1.696957847
347000	1.694467635
350000	1.689873114
352000	1.680676825
354500	1.680741773
357000	1.682140436
359500	1.688115599
362000	1.700458741
365000	1.689294229
368000	1.685732489
370000	1.682752032
372500	1.687440412
375000	1.685177705
377500	1.698301763
380500	1.698509842
382500	1.690232467
385000	1.697363102
387000	1.68189278
389500	1.689471677
392000	1.687891632
394000	1.682187373
396000	1.681232485
399000	1.685795523
401500	1.691066235
404500	1.696444001
406500	1.696615083
409000	1.700404886
411000	1.694114518
413500	1.697801159
417000	1.689550904
420500	1.690647784
423500	1.692558386
425500	1.694208658
428000	1.695833141
431000	1.691710595
433000	1.684029463
435500	1.692092645
438000	1.681429108
441000	1.678109961
443000	1.687175623
446000	1.687935478
448500	1.686041961
451000	1.699430137
453500	1.697356926
456000	1.699197817
458000	1.701420083
460500	1.70069265
463000	1.69509097
466500	1.68893702
469000	1.674940479
471500	1.690576745
474500	1.678903759
477500	1.676201662
479500	1.681031242
482000	1.681468327
485000	1.686979978
487000	1.694254249
489500	1.701923756
491500	1.688644628
493500	1.690041855
495500	1.690167384
498500	1.687799609
500500	1.684289862
502500	1.692511236
505500	1.693430255
507500	1.700304069
509500	1.688456523
513000	1.690196828
515500	1.694892382
519000	1.699099119
521500	1.692238919
524000	1.695328665
527000	1.691103987
530000	1.686517578
532500	1.674179783
535000	1.689721783
538000	1.672316933
541000	1.672147576
543000	1.672547139
545500	1.677261504
548000	1.685878089
550500	1.697009893
553000	1.702758296
555500	1.702758296
558500	1.694350313
561500	1.682072313
563500	1.684978214
566500	1.694733129
568500	1.681600234
571000	1.69276137
574000	1.688015782
577000	1.691001753
579000	1.690862641
581500	1.69055247
584000	1.693653668
586500	1.686107906
590000	1.68537775
592500	1.694916681
595500	1.684503202
598500	1.681375614
601000	1.678420525
603500	1.691218788
605500	1.685926246
607500	1.696301065
610500	1.698765593
612500	1.692684851
615000	1.696329345
619000	1.698588168
621000	1.691639928
624000	1.696602985
626000	1.691596241
628500	1.694267994
631500	1.692095141
634500	1.681127614
637000	1.675656385
640500	1.682792822
643000	1.688082336
646500	1.690957139
649000	1.685580857
651500	1.692564689
654500	1.68546218
657500	1.683517543
659500	1.687102098
662000	1.686826853
665000	1.690671151
668000	1.694925203
671500	1.696659395
675000	1.688996308
677500	1.692822539
680500	1.688352688
683500	1.678867518
685500	1.672605698
688500	1.685606739
691000	1.67804844
693500	1.694253454
697000	1.702806372
700500	1.699972492
703000	1.688578532
705500	1.690217774
708500	1.677738478
711500	1.671898252
714000	1.673419344
716500	1.672312058
717000	1.61680769
717500	1.55180769
718000	1.48680769
718500	1.423352343
719000	1.358352343
719500	1.293352343
720000	1.242917102
720500	1.1779171016
721000	1.1129171018
721500	1.0479171018
722000	0.9833459299
722500	0.926613304
723000	0.895313304
723500	0.871373542
724000	0.84507464
724500	0.81377464
725500	0.76434664
729500	1.0333829898
733500	1.4408942512
738000	1.601108827
742500	1.3329334183
747000	1.0540682105
751500	1.0076690236
756000	1.0076690236
760500	1.0076690236
765000	1.0076690236
769500	1.0076690236
774000	1.0076690236
778500	1.0076690236
782500	1.0087724502
787000	1.0076690236
791500	1.0076690236
796000	1.0076690236
800500	1.0076690236
805000	1.0076690236
809500	1.0076690236
814000	1.0076690236
818500	1.0076690236
823000	1.0076690236
827500	1.0076690236
831500	1.0078583878
836000	1.0076690236
840500	1.0076690236
845000	1.0076690236
849500	1.0076690236
854000	1.0076690236
858500	1.0076690236
863000	1.0076690236
867500	1.0076690236
872000	1.0076690236
876500	1.0076690236
880500	1.0076690236
885000	1.0076690236
889500	1.0076690236
894000	1.0076690236
898500	1.0076690236
903000	1.0076690236
907500	1.0076690236
912000	1.0076690236
916500	1.0076690236
921000	1.0076690236
925000	1.0087724502
929500	1.0076690236
934000	1.0076690236
938500	1.0076690236
943000	1.0076690236
947500	1.0076690236
952000	1.0076690236
956500	1.0076690236
961000	1.0076690236
965500	1.0076690236
970000	1.0076690236
974000	1.0078583878
978500	1.0076690236
983000	1.0076690236
987500	1.0076690236
992000	1.0076690236
996500	1.0076690236
1001000	1.0076690236
1005500	1.0076690236
1010000	1.0076690236
1014500	1.0076690236
1019000	1.0076690236
1023000	1.0076690236
1027500	1.0076690236
1032000	1.0076690236
1036500	1.0076690236
