HW:	CPU	TSS:	3.63508	AT:	0	#T:	0	DSTSS:	7	DETSS:	275092	DTSS:	275097
HW:	CPU	TSS:	2.55032	AT:	3.92778	#T:	4	DSTSS:	275122	DETSS:	784209	DTSS:	784216
HW:	CPU	TSS:	1.87394	AT:	2.26266	#T:	4	DSTSS:	784246	DETSS:	1600895	DTSS:	1600902
HW:	CPU	TSS:	1.65594	AT:	1.86868	#T:	4	DSTSS:	1600932	DETSS:	2415546	DTSS:	2415551
HW:	CPU	TSS:	1.58641	AT:	1.73807	#T:	4	DSTSS:	2415560	DETSS:	3151765	DTSS:	3151770
HW:	CPU	TSS:	1.54204	AT:	1.65931	#T:	4	DSTSS:	3151789	DETSS:	3890956	DTSS:	3890961
HW:	CPU	TSS:	1.55068	AT:	1.65128	#T:	6	DSTSS:	3890969	DETSS:	4514131	DTSS:	4514136
HW:	CPU	TSS:	1.59649	AT:	1.68919	#T:	6	DSTSS:	4514144	DETSS:	5010985	DTSS:	5010990
HW:	CPU	TSS:	1.63865	AT:	1.72503	#T:	6	DSTSS:	5010997	DETSS:	5492319	DTSS:	5492324
HW:	CPU	TSS:	1.70505	AT:	1.78893	#T:	20	DSTSS:	5492342	DETSS:	5864943	DTSS:	5864947
HW:	CPU	TSS:	1.80385	AT:	1.88904	#T:	20	DSTSS:	5864952	DETSS:	6098049	DTSS:	6098054
HW:	CPU	TSS:	1.89391	AT:	1.97984	#T:	20	DSTSS:	6098061	DETSS:	6336107	DTSS:	6336112
HW:	CPU	TSS:	1.98853	AT:	2.07585	#T:	20	DSTSS:	6336119	DETSS:	6537488	DTSS:	6537494
HW:	CPU	TSS:	2.0731	AT:	2.1611	#T:	20	DSTSS:	6537500	DETSS:	6753178	DTSS:	6753183
HW:	CPU	TSS:	2.1517	AT:	2.24006	#T:	20	DSTSS:	6753190	DETSS:	6971243	DTSS:	6971247
HW:	CPU	TSS:	2.23056	AT:	2.31948	#T:	20	DSTSS:	6971253	DETSS:	7173089	DTSS:	7173095
HW:	CPU	TSS:	2.29501	AT:	2.3835	#T:	20	DSTSS:	7173104	DETSS:	7407381	DTSS:	7407387
HW:	CPU	TSS:	2.36144	AT:	2.48601	#T:	20	DSTSS:	7407406	DETSS:	7622460	DTSS:	7622475
HW:	CPU	TSS:	2.42855	AT:	2.73192	#T:	20	DSTSS:	7622483	DETSS:	7823606	DTSS:	7823611
HW:	CPU	TSS:	2.48799	AT:	3.02327	#T:	20	DSTSS:	7823617	DETSS:	8038603	DTSS:	8038609
HW:	CPU	TSS:	2.54157	AT:	3.32627	#T:	20	DSTSS:	8038616	DETSS:	8262591	DTSS:	8262597
HW:	CPU	TSS:	2.59055	AT:	3.6945	#T:	20	DSTSS:	8262606	DETSS:	8492398	DTSS:	8492405
HW:	CPU	TSS:	2.63823	AT:	4.04392	#T:	20	DSTSS:	8492414	DETSS:	8717971	DTSS:	8717976
HW:	CPU	TSS:	2.68529	AT:	4.32946	#T:	20	DSTSS:	8717982	DETSS:	8937578	DTSS:	8937583
HW:	CPU	TSS:	2.73545	AT:	4.66145	#T:	20	DSTSS:	8937588	DETSS:	9139251	DTSS:	9139256
HW:	CPU	TSS:	2.78361	AT:	4.89148	#T:	20	DSTSS:	9139262	DETSS:	9340377	DTSS:	9340382
HW:	CPU	TSS:	2.82981	AT:	4.93726	#T:	20	DSTSS:	9340389	DETSS:	9541256	DTSS:	9541261
HW:	CPU	TSS:	2.86248	AT:	4.9338	#T:	20	DSTSS:	9541271	DETSS:	9781723	DTSS:	9781729
HW:	CPU	TSS:	2.90086	AT:	4.91398	#T:	20	DSTSS:	9781736	DETSS:	9997017	DTSS:	9997025
HW:	CPU	TSS:	2.94156	AT:	4.93398	#T:	20	DSTSS:	9997034	DETSS:	10198675	DTSS:	10198680
HW:	CPU	TSS:	2.98084	AT:	4.95843	#T:	20	DSTSS:	10198686	DETSS:	10399749	DTSS:	10399755
HW:	CPU	TSS:	3.01864	AT:	4.95957	#T:	20	DSTSS:	10399762	DETSS:	10600806	DTSS:	10600811
HW:	CPU	TSS:	3.05494	AT:	5.00764	#T:	20	DSTSS:	10600816	DETSS:	10802184	DTSS:	10802190
HW:	CPU	TSS:	3.08751	AT:	5.01525	#T:	20	DSTSS:	10802215	DETSS:	11012116	DTSS:	11012121
HW:	CPU	TSS:	3.11737	AT:	4.9944	#T:	20	DSTSS:	11012128	DETSS:	11227413	DTSS:	11227418
HW:	CPU	TSS:	3.14614	AT:	4.99415	#T:	20	DSTSS:	11227424	DETSS:	11442588	DTSS:	11442592
HW:	CPU	TSS:	3.1775	AT:	5.02693	#T:	20	DSTSS:	11442600	DETSS:	11644379	DTSS:	11644383
HW:	CPU	TSS:	3.20237	AT:	5.03881	#T:	20	DSTSS:	11644389	DETSS:	11866207	DTSS:	11866212
HW:	CPU	TSS:	3.22805	AT:	5.0541	#T:	20	DSTSS:	11866219	DETSS:	12081582	DTSS:	12081587
HW:	CPU	TSS:	3.25654	AT:	5.08161	#T:	20	DSTSS:	12081593	DETSS:	12282975	DTSS:	12282981
HW:	CPU	TSS:	3.27803	AT:	5.04712	#T:	20	DSTSS:	12282988	DETSS:	12507508	DTSS:	12507513
HW:	CPU	TSS:	3.29747	AT:	5.0049	#T:	20	DSTSS:	12507518	DETSS:	12737050	DTSS:	12737056
HW:	CPU	TSS:	3.32336	AT:	5.00374	#T:	20	DSTSS:	12737064	DETSS:	12938716	DTSS:	12938721
HW:	CPU	TSS:	3.34847	AT:	5.06162	#T:	20	DSTSS:	12938728	DETSS:	13140338	DTSS:	13140344
HW:	CPU	TSS:	3.37072	AT:	5.06971	#T:	20	DSTSS:	13140352	DETSS:	13350252	DTSS:	13350257
HW:	CPU	TSS:	3.39452	AT:	5.07072	#T:	20	DSTSS:	13350266	DETSS:	13551255	DTSS:	13551260
HW:	CPU	TSS:	3.4139	AT:	5.04827	#T:	20	DSTSS:	13551267	DETSS:	13767238	DTSS:	13767244
HW:	CPU	TSS:	3.43293	AT:	5.02749	#T:	20	DSTSS:	13767251	DETSS:	13982226	DTSS:	13982231
HW:	CPU	TSS:	3.45457	AT:	5.02673	#T:	20	DSTSS:	13982240	DETSS:	14184103	DTSS:	14184109
HW:	CPU	TSS:	3.47399	AT:	5.02875	#T:	20	DSTSS:	14184119	DETSS:	14392677	DTSS:	14392684
HW:	CPU	TSS:	3.49468	AT:	5.05019	#T:	20	DSTSS:	14392691	DETSS:	14593622	DTSS:	14593627
HW:	CPU	TSS:	3.51174	AT:	5.05219	#T:	20	DSTSS:	14593634	DETSS:	14807463	DTSS:	14807468
HW:	CPU	TSS:	3.52953	AT:	5.04185	#T:	20	DSTSS:	14807474	DETSS:	15016161	DTSS:	15016166
HW:	CPU	TSS:	3.54398	AT:	5.04317	#T:	20	DSTSS:	15016172	DETSS:	15237102	DTSS:	15237107
HW:	CPU	TSS:	3.56265	AT:	5.06501	#T:	20	DSTSS:	15237113	DETSS:	15437942	DTSS:	15437947
HW:	CPU	TSS:	3.57879	AT:	5.05238	#T:	20	DSTSS:	15437954	DETSS:	15647723	DTSS:	15647728
HW:	CPU	TSS:	3.59481	AT:	5.07667	#T:	20	DSTSS:	15647735	DETSS:	15856165	DTSS:	15856171
HW:	CPU	TSS:	3.60545	AT:	5.07506	#T:	20	DSTSS:	15856179	DETSS:	16086766	DTSS:	16086772
HW:	CPU	TSS:	3.61701	AT:	5.03989	#T:	20	DSTSS:	16086780	DETSS:	16311812	DTSS:	16311817
HW:	CPU	TSS:	3.63345	AT:	5.04018	#T:	20	DSTSS:	16311824	DETSS:	16513232	DTSS:	16513237
HW:	CPU	TSS:	3.64783	AT:	5.04148	#T:	20	DSTSS:	16513244	DETSS:	16722277	DTSS:	16722282
HW:	CPU	TSS:	3.66171	AT:	5.02854	#T:	20	DSTSS:	16722288	DETSS:	16931958	DTSS:	16931963
HW:	CPU	TSS:	3.67695	AT:	5.04975	#T:	20	DSTSS:	16931969	DETSS:	17133741	DTSS:	17133746
HW:	CPU	TSS:	3.69184	AT:	5.06965	#T:	20	DSTSS:	17133756	DETSS:	17335510	DTSS:	17335517
HW:	CPU	TSS:	3.70224	AT:	5.04031	#T:	20	DSTSS:	17335524	DETSS:	17556910	DTSS:	17556915
HW:	CPU	TSS:	3.71258	AT:	5.02257	#T:	20	DSTSS:	17557000	DETSS:	17777403	DTSS:	17777408
HW:	CPU	TSS:	3.7207	AT:	4.97988	#T:	20	DSTSS:	17777415	DETSS:	18007362	DTSS:	18007370
HW:	CPU	TSS:	3.73266	AT:	4.98517	#T:	20	DSTSS:	18007377	DETSS:	18217581	DTSS:	18217587
HW:	CPU	TSS:	3.74622	AT:	4.99649	#T:	20	DSTSS:	18217594	DETSS:	18418550	DTSS:	18418562
HW:	CPU	TSS:	3.75697	AT:	5.00751	#T:	20	DSTSS:	18418569	DETSS:	18632009	DTSS:	18632014
HW:	CPU	TSS:	3.76835	AT:	4.9953	#T:	20	DSTSS:	18632022	DETSS:	18841140	DTSS:	18841145
HW:	CPU	TSS:	3.77832	AT:	4.98773	#T:	20	DSTSS:	18841152	DETSS:	19056093	DTSS:	19056098
HW:	CPU	TSS:	3.7869	AT:	4.9696	#T:	20	DSTSS:	19056106	DETSS:	19276962	DTSS:	19276968
HW:	CPU	TSS:	3.79642	AT:	4.99227	#T:	20	DSTSS:	19276976	DETSS:	19492022	DTSS:	19492026
HW:	CPU	TSS:	3.80702	AT:	5.01675	#T:	20	DSTSS:	19492032	DETSS:	19700457	DTSS:	19700462
HW:	CPU	TSS:	3.81583	AT:	4.99446	#T:	20	DSTSS:	19700469	DETSS:	19917007	DTSS:	19917013
HW:	CPU	TSS:	3.82473	AT:	4.98557	#T:	20	DSTSS:	19917024	DETSS:	20132117	DTSS:	20132121
HW:	CPU	TSS:	3.83598	AT:	4.99731	#T:	20	DSTSS:	20132127	DETSS:	20333792	DTSS:	20333797
HW:	CPU	TSS:	3.84291	AT:	4.96553	#T:	20	DSTSS:	20333804	DETSS:	20557344	DTSS:	20557349
HW:	CPU	TSS:	3.85226	AT:	4.95406	#T:	20	DSTSS:	20557356	DETSS:	20767035	DTSS:	20767041
HW:	CPU	TSS:	3.85857	AT:	4.94856	#T:	20	DSTSS:	20767047	DETSS:	20992253	DTSS:	20992258
HW:	CPU	TSS:	3.86111	AT:	4.91325	#T:	20	DSTSS:	20992263	DETSS:	21237431	DTSS:	21237435
HW:	CPU	TSS:	3.87148	AT:	4.9542	#T:	20	DSTSS:	21237441	DETSS:	21438796	DTSS:	21438802
HW:	CPU	TSS:	3.8806	AT:	4.95833	#T:	20	DSTSS:	21438809	DETSS:	21646153	DTSS:	21646159
HW:	CPU	TSS:	3.88894	AT:	4.94431	#T:	20	DSTSS:	21646167	DETSS:	21856851	DTSS:	21856858
HW:	CPU	TSS:	3.89488	AT:	4.93001	#T:	20	DSTSS:	21856865	DETSS:	22080278	DTSS:	22080284
HW:	CPU	TSS:	3.90428	AT:	4.93888	#T:	20	DSTSS:	22080291	DETSS:	22283215	DTSS:	22283219
HW:	CPU	TSS:	3.91378	AT:	4.95837	#T:	20	DSTSS:	22283225	DETSS:	22484634	DTSS:	22484640
HW:	CPU	TSS:	3.92009	AT:	4.96123	#T:	20	DSTSS:	22484646	DETSS:	22703532	DTSS:	22703538
HW:	CPU	TSS:	3.9282	AT:	4.97187	#T:	20	DSTSS:	22703546	DETSS:	22911260	DTSS:	22911267
HW:	CPU	TSS:	3.93471	AT:	4.96057	#T:	20	DSTSS:	22911273	DETSS:	23127480	DTSS:	23127485
HW:	CPU	TSS:	3.94349	AT:	4.98161	#T:	20	DSTSS:	23127492	DETSS:	23329558	DTSS:	23329564
HW:	CPU	TSS:	3.94943	AT:	4.97723	#T:	20	DSTSS:	23329571	DETSS:	23547672	DTSS:	23547677
HW:	CPU	TSS:	3.95796	AT:	4.97683	#T:	20	DSTSS:	23547683	DETSS:	23749620	DTSS:	23749625
HW:	CPU	TSS:	3.96418	AT:	4.98934	#T:	20	DSTSS:	23749632	DETSS:	23964607	DTSS:	23964612
HW:	CPU	TSS:	3.96964	AT:	4.97582	#T:	20	DSTSS:	23964619	DETSS:	24183555	DTSS:	24183560
HW:	CPU	TSS:	3.9779	AT:	5.0111	#T:	20	DSTSS:	24183566	DETSS:	24384727	DTSS:	24384731
HW:	CPU	TSS:	3.98607	AT:	5.07735	#T:	20	DSTSS:	24384736	DETSS:	24585635	DTSS:	24585643
HW:	CPU	TSS:	3.99396	AT:	5.07673	#T:	20	DSTSS:	24585651	DETSS:	24787411	DTSS:	24787417
HW:	CPU	TSS:	4.00069	AT:	5.07532	#T:	20	DSTSS:	24787423	DETSS:	24995702	DTSS:	24995709
HW:	CPU	TSS:	4.00579	AT:	5.06454	#T:	20	DSTSS:	24995718	DETSS:	25213523	DTSS:	25213528
HW:	CPU	TSS:	4.01346	AT:	5.09864	#T:	20	DSTSS:	25213535	DETSS:	25414502	DTSS:	25414509
HW:	CPU	TSS:	4.02099	AT:	5.10148	#T:	20	DSTSS:	25414518	DETSS:	25615586	DTSS:	25615590
HW:	CPU	TSS:	4.02603	AT:	5.07877	#T:	20	DSTSS:	25615596	DETSS:	25831903	DTSS:	25831909
HW:	CPU	TSS:	4.03052	AT:	5.07816	#T:	20	DSTSS:	25831916	DETSS:	26051199	DTSS:	26051204
HW:	CPU	TSS:	4.03381	AT:	5.04961	#T:	20	DSTSS:	26051209	DETSS:	26277855	DTSS:	26277861
HW:	CPU	TSS:	4.03984	AT:	5.06145	#T:	20	DSTSS:	26277867	DETSS:	26486205	DTSS:	26486211
HW:	CPU	TSS:	4.04672	AT:	5.06148	#T:	20	DSTSS:	26486219	DETSS:	26688257	DTSS:	26688262
HW:	CPU	TSS:	4.05012	AT:	5.05182	#T:	20	DSTSS:	26688273	DETSS:	26912795	DTSS:	26912800
HW:	CPU	TSS:	4.05414	AT:	5.02493	#T:	20	DSTSS:	26912806	DETSS:	27132751	DTSS:	27132756
HW:	CPU	TSS:	4.05906	AT:	5.02721	#T:	20	DSTSS:	27132761	DETSS:	27346204	DTSS:	27346208
HW:	CPU	TSS:	4.06571	AT:	5.05363	#T:	20	DSTSS:	27346214	DETSS:	27547472	DTSS:	27547478
HW:	CPU	TSS:	4.06813	AT:	5.01153	#T:	20	DSTSS:	27547484	DETSS:	27776909	DTSS:	27776913
HW:	CPU	TSS:	4.07266	AT:	4.99133	#T:	20	DSTSS:	27776919	DETSS:	27991537	DTSS:	27991541
HW:	CPU	TSS:	4.07695	AT:	4.97084	#T:	20	DSTSS:	27991547	DETSS:	28207353	DTSS:	28207358
HW:	CPU	TSS:	4.08298	AT:	4.97813	#T:	20	DSTSS:	28207366	DETSS:	28410639	DTSS:	28410644
HW:	CPU	TSS:	4.08576	AT:	4.96709	#T:	20	DSTSS:	28410651	DETSS:	28636047	DTSS:	28636051
HW:	CPU	TSS:	4.08982	AT:	4.94527	#T:	20	DSTSS:	28636056	DETSS:	28852130	DTSS:	28852135
HW:	CPU	TSS:	4.09395	AT:	4.92511	#T:	20	DSTSS:	28852144	DETSS:	29067283	DTSS:	29067288
HW:	CPU	TSS:	4.0986	AT:	4.93274	#T:	20	DSTSS:	29067294	DETSS:	29278264	DTSS:	29278268
HW:	CPU	TSS:	4.10361	AT:	4.94903	#T:	20	DSTSS:	29278274	DETSS:	29486216	DTSS:	29486220
HW:	CPU	TSS:	4.10938	AT:	4.9849	#T:	20	DSTSS:	29486225	DETSS:	29688161	DTSS:	29688167
HW:	CPU	TSS:	4.11404	AT:	4.98327	#T:	20	DSTSS:	29688175	DETSS:	29897618	DTSS:	29897622
HW:	CPU	TSS:	4.11787	AT:	4.96437	#T:	20	DSTSS:	29897628	DETSS:	30112657	DTSS:	30112665
HW:	CPU	TSS:	4.12343	AT:	4.99738	#T:	20	DSTSS:	30112672	DETSS:	30314582	DTSS:	30314587
HW:	CPU	TSS:	4.12828	AT:	5.01705	#T:	20	DSTSS:	30314595	DETSS:	30521196	DTSS:	30521202
HW:	CPU	TSS:	4.13372	AT:	5.03451	#T:	20	DSTSS:	30521208	DETSS:	30722903	DTSS:	30722908
HW:	CPU	TSS:	4.13737	AT:	5.01468	#T:	20	DSTSS:	30722914	DETSS:	30937518	DTSS:	30937523
HW:	CPU	TSS:	4.14099	AT:	5.03692	#T:	20	DSTSS:	30937530	DETSS:	31151994	DTSS:	31152000
HW:	CPU	TSS:	4.1459	AT:	5.05245	#T:	20	DSTSS:	31152116	DETSS:	31356237	DTSS:	31356242
HW:	CPU	TSS:	4.15117	AT:	5.07466	#T:	20	DSTSS:	31356249	DETSS:	31557327	DTSS:	31557332
HW:	CPU	TSS:	4.15254	AT:	5.03382	#T:	20	DSTSS:	31557339	DETSS:	31787798	DTSS:	31787803
HW:	CPU	TSS:	4.15586	AT:	5.04908	#T:	20	DSTSS:	31787811	DETSS:	32002994	DTSS:	32002998
HW:	CPU	TSS:	4.15879	AT:	5.0464	#T:	20	DSTSS:	32003005	DETSS:	32220869	DTSS:	32220876
HW:	CPU	TSS:	4.16384	AT:	5.06754	#T:	20	DSTSS:	32220884	DETSS:	32421968	DTSS:	32421974
HW:	CPU	TSS:	4.16631	AT:	5.05275	#T:	20	DSTSS:	32421983	DETSS:	32642770	DTSS:	32642775
HW:	CPU	TSS:	4.17121	AT:	5.06258	#T:	20	DSTSS:	32642782	DETSS:	32844187	DTSS:	32844193
HW:	CPU	TSS:	4.17602	AT:	5.06303	#T:	20	DSTSS:	32844202	DETSS:	33045830	DTSS:	33045836
HW:	CPU	TSS:	4.17894	AT:	5.05293	#T:	20	DSTSS:	33045843	DETSS:	33262009	DTSS:	33262014
HW:	CPU	TSS:	4.18277	AT:	5.06261	#T:	20	DSTSS:	33262021	DETSS:	33470608	DTSS:	33470613
HW:	CPU	TSS:	4.18556	AT:	5.04047	#T:	20	DSTSS:	33470619	DETSS:	33687281	DTSS:	33687286
HW:	CPU	TSS:	4.18913	AT:	5.03545	#T:	20	DSTSS:	33687293	DETSS:	33897262	DTSS:	33897268
HW:	CPU	TSS:	4.19083	AT:	5.00118	#T:	20	DSTSS:	33897276	DETSS:	34122102	DTSS:	34122109
HW:	CPU	TSS:	4.1919	AT:	4.97882	#T:	20	DSTSS:	34122118	DETSS:	34351982	DTSS:	34351989
HW:	CPU	TSS:	4.19403	AT:	4.96936	#T:	20	DSTSS:	34351997	DETSS:	34572954	DTSS:	34572959
HW:	CPU	TSS:	4.19844	AT:	4.9728	#T:	20	DSTSS:	34572966	DETSS:	34774838	DTSS:	34774845
HW:	CPU	TSS:	4.20094	AT:	4.94933	#T:	20	DSTSS:	34774853	DETSS:	34992137	DTSS:	34992142
HW:	CPU	TSS:	4.2053	AT:	4.99133	#T:	20	DSTSS:	34992149	DETSS:	35193700	DTSS:	35193708
HW:	CPU	TSS:	4.20957	AT:	5.01094	#T:	20	DSTSS:	35193716	DETSS:	35395569	DTSS:	35395574
HW:	CPU	TSS:	4.21385	AT:	5.0355	#T:	20	DSTSS:	35395580	DETSS:	35596902	DTSS:	35596907
HW:	CPU	TSS:	4.2164	AT:	5.01392	#T:	20	DSTSS:	35596913	DETSS:	35812528	DTSS:	35812532
HW:	CPU	TSS:	4.21899	AT:	5.02249	#T:	20	DSTSS:	35812538	DETSS:	36027546	DTSS:	36027551
HW:	CPU	TSS:	4.22314	AT:	5.02254	#T:	20	DSTSS:	36027558	DETSS:	36228926	DTSS:	36228930
HW:	CPU	TSS:	4.22727	AT:	5.02315	#T:	20	DSTSS:	36228937	DETSS:	36430160	DTSS:	36430165
HW:	CPU	TSS:	4.23137	AT:	5.04584	#T:	20	DSTSS:	36430171	DETSS:	36631120	DTSS:	36631125
HW:	CPU	TSS:	4.23498	AT:	5.05136	#T:	20	DSTSS:	36631135	DETSS:	36836043	DTSS:	36836048
HW:	CPU	TSS:	4.23552	AT:	5.02929	#T:	20	DSTSS:	36836056	DETSS:	37067481	DTSS:	37067486
HW:	CPU	TSS:	4.23733	AT:	5.01417	#T:	20	DSTSS:	37067494	DETSS:	37287650	DTSS:	37287654
HW:	CPU	TSS:	4.23971	AT:	5.02888	#T:	20	DSTSS:	37287661	DETSS:	37502576	DTSS:	37502582
HW:	CPU	TSS:	4.24361	AT:	5.0719	#T:	20	DSTSS:	37502588	DETSS:	37703782	DTSS:	37703789
HW:	CPU	TSS:	4.2429	AT:	5.04038	#T:	20	DSTSS:	37703797	DETSS:	37945716	DTSS:	37945722
HW:	CPU	TSS:	4.24663	AT:	5.03993	#T:	20	DSTSS:	37945741	DETSS:	38147901	DTSS:	38147907
HW:	CPU	TSS:	4.25043	AT:	5.06421	#T:	20	DSTSS:	38147914	DETSS:	38349033	DTSS:	38349038
HW:	CPU	TSS:	4.2519	AT:	5.03356	#T:	20	DSTSS:	38349047	DETSS:	38571030	DTSS:	38571035
HW:	CPU	TSS:	4.2556	AT:	5.03429	#T:	20	DSTSS:	38571042	DETSS:	38772413	DTSS:	38772417
HW:	CPU	TSS:	4.2567	AT:	4.99937	#T:	20	DSTSS:	38772444	DETSS:	38997333	DTSS:	38997339
HW:	CPU	TSS:	4.26031	AT:	5.02001	#T:	20	DSTSS:	38997346	DETSS:	39198977	DTSS:	39198982
HW:	CPU	TSS:	4.26327	AT:	5.03128	#T:	20	DSTSS:	39198987	DETSS:	39406407	DTSS:	39406413
HW:	CPU	TSS:	4.26528	AT:	5.00981	#T:	20	DSTSS:	39406418	DETSS:	39622272	DTSS:	39622278
HW:	CPU	TSS:	4.26633	AT:	4.97548	#T:	20	DSTSS:	39622286	DETSS:	39846924	DTSS:	39846932
HW:	CPU	TSS:	4.26832	AT:	4.95411	#T:	20	DSTSS:	39846941	DETSS:	40062618	DTSS:	40062623
HW:	CPU	TSS:	4.27043	AT:	4.94057	#T:	20	DSTSS:	40062629	DETSS:	40276939	DTSS:	40276944
HW:	CPU	TSS:	4.27192	AT:	4.95697	#T:	20	DSTSS:	40276951	DETSS:	40496989	DTSS:	40496996
HW:	CPU	TSS:	4.27326	AT:	4.95531	#T:	20	DSTSS:	40497002	DETSS:	40718314	DTSS:	40718318
HW:	CPU	TSS:	4.2767	AT:	4.97537	#T:	20	DSTSS:	40718324	DETSS:	40919402	DTSS:	40919407
HW:	CPU	TSS:	4.27832	AT:	4.95066	#T:	20	DSTSS:	40919412	DETSS:	41137668	DTSS:	41137674
HW:	CPU	TSS:	4.28084	AT:	4.99808	#T:	20	DSTSS:	41137680	DETSS:	41347023	DTSS:	41347027
HW:	CPU	TSS:	4.28326	AT:	4.98646	#T:	20	DSTSS:	41347033	DETSS:	41557131	DTSS:	41557134
HW:	CPU	TSS:	4.28657	AT:	4.98634	#T:	20	DSTSS:	41557140	DETSS:	41758346	DTSS:	41758350
HW:	CPU	TSS:	4.28801	AT:	4.99042	#T:	20	DSTSS:	41758356	DETSS:	41977556	DTSS:	41977562
HW:	CPU	TSS:	4.28935	AT:	4.96333	#T:	20	DSTSS:	41977568	DETSS:	42197529	DTSS:	42197533
HW:	CPU	TSS:	4.2912	AT:	4.97797	#T:	20	DSTSS:	42197538	DETSS:	42412381	DTSS:	42412388
HW:	CPU	TSS:	4.29355	AT:	4.96625	#T:	20	DSTSS:	42412396	DETSS:	42622082	DTSS:	42622088
HW:	CPU	TSS:	4.29442	AT:	4.94209	#T:	20	DSTSS:	42622095	DETSS:	42846245	DTSS:	42846249
HW:	CPU	TSS:	4.29658	AT:	4.94879	#T:	20	DSTSS:	42846254	DETSS:	43057454	DTSS:	43057459
HW:	CPU	TSS:	4.29961	AT:	4.98123	#T:	20	DSTSS:	43057466	DETSS:	43259734	DTSS:	43259765
HW:	CPU	TSS:	4.30268	AT:	5.00195	#T:	20	DSTSS:	43259776	DETSS:	43461285	DTSS:	43461290
HW:	CPU	TSS:	4.30568	AT:	5.02027	#T:	20	DSTSS:	43461297	DETSS:	43663212	DTSS:	43663218
HW:	CPU	TSS:	4.30799	AT:	5.03711	#T:	20	DSTSS:	43663226	DETSS:	43871938	DTSS:	43871943
HW:	CPU	TSS:	4.30961	AT:	5.0457	#T:	20	DSTSS:	43871949	DETSS:	44087519	DTSS:	44087523
HW:	CPU	TSS:	4.31129	AT:	5.02528	#T:	20	DSTSS:	44087529	DETSS:	44302303	DTSS:	44302308
HW:	CPU	TSS:	4.31423	AT:	5.05014	#T:	20	DSTSS:	44302313	DETSS:	44503908	DTSS:	44503912
HW:	CPU	TSS:	4.31543	AT:	5.03518	#T:	20	DSTSS:	44503918	DETSS:	44723268	DTSS:	44723273
HW:	CPU	TSS:	4.31711	AT:	5.02907	#T:	20	DSTSS:	44723279	DETSS:	44937480	DTSS:	44937484
HW:	CPU	TSS:	4.32004	AT:	5.02935	#T:	20	DSTSS:	44937490	DETSS:	45138507	DTSS:	45138511
HW:	CPU	TSS:	4.3223	AT:	5.04652	#T:	20	DSTSS:	45138517	DETSS:	45346213	DTSS:	45346218
HW:	CPU	TSS:	4.32373	AT:	5.05198	#T:	20	DSTSS:	45346224	DETSS:	45562551	DTSS:	45562556
HW:	CPU	TSS:	4.32476	AT:	5.04373	#T:	20	DSTSS:	45562561	DETSS:	45782899	DTSS:	45782905
HW:	CPU	TSS:	4.32627	AT:	5.03553	#T:	20	DSTSS:	45782911	DETSS:	45998090	DTSS:	45998095
HW:	CPU	TSS:	4.32846	AT:	5.06024	#T:	20	DSTSS:	45998102	DETSS:	46205772	DTSS:	46205778
HW:	CPU	TSS:	4.32892	AT:	5.03789	#T:	20	DSTSS:	46205784	DETSS:	46431882	DTSS:	46431887
HW:	CPU	TSS:	4.329	AT:	4.99669	#T:	20	DSTSS:	46431894	DETSS:	46661987	DTSS:	46661993
HW:	CPU	TSS:	4.3305	AT:	4.97728	#T:	20	DSTSS:	46661999	DETSS:	46876811	DTSS:	46876817
HW:	CPU	TSS:	4.33321	AT:	4.97804	#T:	20	DSTSS:	46876824	DETSS:	47078213	DTSS:	47078218
HW:	CPU	TSS:	4.33585	AT:	4.98791	#T:	20	DSTSS:	47078225	DETSS:	47280182	DTSS:	47280187
HW:	CPU	TSS:	4.33712	AT:	4.98627	#T:	20	DSTSS:	47280194	DETSS:	47496896	DTSS:	47496902
HW:	CPU	TSS:	4.3385	AT:	4.98537	#T:	20	DSTSS:	47496918	DETSS:	47712283	DTSS:	47712290
HW:	CPU	TSS:	4.3399	AT:	4.96571	#T:	20	DSTSS:	47712297	DETSS:	47927383	DTSS:	47927388
HW:	CPU	TSS:	4.34129	AT:	4.97216	#T:	20	DSTSS:	47927396	DETSS:	48142312	DTSS:	48142318
HW:	CPU	TSS:	4.34386	AT:	4.99029	#T:	20	DSTSS:	48142325	DETSS:	48344095	DTSS:	48344101
HW:	CPU	TSS:	4.34598	AT:	4.98233	#T:	20	DSTSS:	48344108	DETSS:	48550570	DTSS:	48550574
HW:	CPU	TSS:	4.34853	AT:	4.99142	#T:	20	DSTSS:	48550581	DETSS:	48752057	DTSS:	48752061
HW:	CPU	TSS:	4.35111	AT:	5.0141	#T:	20	DSTSS:	48752069	DETSS:	48952991	DTSS:	48952998
HW:	CPU	TSS:	4.35293	AT:	5.03045	#T:	20	DSTSS:	48953006	DETSS:	49162318	DTSS:	49162325
HW:	CPU	TSS:	4.35244	AT:	5.00082	#T:	20	DSTSS:	49162334	DETSS:	49397532	DTSS:	49397536
HW:	CPU	TSS:	4.35497	AT:	5.01068	#T:	20	DSTSS:	49397542	DETSS:	49598525	DTSS:	49598530
HW:	CPU	TSS:	4.35548	AT:	5.01415	#T:	20	DSTSS:	49598537	DETSS:	49822284	DTSS:	49822289
HW:	CPU	TSS:	4.35524	AT:	5.01077	#T:	20	DSTSS:	49822295	DETSS:	50054682	DTSS:	50054686
HW:	CPU	TSS:	4.3576	AT:	5.02928	#T:	20	DSTSS:	50054692	DETSS:	50257015	DTSS:	50257020
HW:	CPU	TSS:	4.36	AT:	5.02887	#T:	20	DSTSS:	50257027	DETSS:	50458694	DTSS:	50458699
HW:	CPU	TSS:	4.36188	AT:	5.02062	#T:	20	DSTSS:	50458705	DETSS:	50666221	DTSS:	50666226
HW:	CPU	TSS:	4.36347	AT:	5.02947	#T:	20	DSTSS:	50666236	DETSS:	50876962	DTSS:	50876967
HW:	CPU	TSS:	4.36307	AT:	5.00215	#T:	20	DSTSS:	50876973	DETSS:	51110815	DTSS:	51110820
HW:	CPU	TSS:	4.36382	AT:	4.99449	#T:	20	DSTSS:	51110825	DETSS:	51331137	DTSS:	51331142
HW:	CPU	TSS:	4.36466	AT:	4.98815	#T:	20	DSTSS:	51331148	DETSS:	51550383	DTSS:	51550391
HW:	CPU	TSS:	4.36488	AT:	4.95227	#T:	20	DSTSS:	51550399	DETSS:	51776862	DTSS:	51776877
HW:	CPU	TSS:	4.36603	AT:	4.9394	#T:	20	DSTSS:	51776886	DETSS:	51992286	DTSS:	51992292
HW:	CPU	TSS:	4.36826	AT:	4.93802	#T:	20	DSTSS:	51992301	DETSS:	52194735	DTSS:	52194741
HW:	CPU	TSS:	4.37053	AT:	4.93691	#T:	20	DSTSS:	52194750	DETSS:	52396442	DTSS:	52396447
HW:	CPU	TSS:	4.37197	AT:	4.93384	#T:	20	DSTSS:	52396453	DETSS:	52607909	DTSS:	52607916
HW:	CPU	TSS:	4.37313	AT:	4.96342	#T:	20	DSTSS:	52607923	DETSS:	52822592	DTSS:	52822598
HW:	CPU	TSS:	4.37536	AT:	4.96247	#T:	20	DSTSS:	52822604	DETSS:	53024237	DTSS:	53024245
HW:	CPU	TSS:	4.37757	AT:	4.99477	#T:	20	DSTSS:	53024254	DETSS:	53225844	DTSS:	53225849
HW:	CPU	TSS:	4.37651	AT:	4.9815	#T:	20	DSTSS:	53225856	DETSS:	53467311	DTSS:	53467316
HW:	CPU	TSS:	4.37869	AT:	4.98242	#T:	20	DSTSS:	53467323	DETSS:	53669017	DTSS:	53669024
HW:	CPU	TSS:	4.38047	AT:	4.9754	#T:	20	DSTSS:	53669032	DETSS:	53875510	DTSS:	53875516
HW:	CPU	TSS:	4.38149	AT:	4.96362	#T:	20	DSTSS:	53875525	DETSS:	54091142	DTSS:	54091159
HW:	CPU	TSS:	4.38362	AT:	4.97656	#T:	20	DSTSS:	54091166	DETSS:	54292971	DTSS:	54292977
HW:	CPU	TSS:	4.38525	AT:	5.01465	#T:	20	DSTSS:	54292984	DETSS:	54500880	DTSS:	54500884
HW:	CPU	TSS:	4.38738	AT:	5.04263	#T:	20	DSTSS:	54500890	DETSS:	54702392	DTSS:	54702398
HW:	CPU	TSS:	4.3893	AT:	5.06583	#T:	20	DSTSS:	54702408	DETSS:	54906201	DTSS:	54906206
HW:	CPU	TSS:	4.39021	AT:	5.08108	#T:	20	DSTSS:	54906214	DETSS:	55122611	DTSS:	55122616
HW:	CPU	TSS:	4.39229	AT:	5.1021	#T:	20	DSTSS:	55122624	DETSS:	55324248	DTSS:	55324256
HW:	CPU	TSS:	4.39343	AT:	5.08563	#T:	20	DSTSS:	55324264	DETSS:	55537486	DTSS:	55537492
HW:	CPU	TSS:	4.39366	AT:	5.05093	#T:	20	DSTSS:	55537500	DETSS:	55762162	DTSS:	55762168
HW:	CPU	TSS:	4.39462	AT:	5.04499	#T:	20	DSTSS:	55762175	DETSS:	55977587	DTSS:	55977592
HW:	CPU	TSS:	4.39555	AT:	5.04365	#T:	20	DSTSS:	55977600	DETSS:	56193167	DTSS:	56193172
HW:	CPU	TSS:	4.39762	AT:	5.04457	#T:	20	DSTSS:	56193179	DETSS:	56394195	DTSS:	56394201
HW:	CPU	TSS:	4.39968	AT:	5.04579	#T:	20	DSTSS:	56394208	DETSS:	56594993	DTSS:	56594998
HW:	CPU	TSS:	4.40047	AT:	5.08248	#T:	20	DSTSS:	56595006	DETSS:	56812135	DTSS:	56812139
HW:	CPU	TSS:	4.4019	AT:	5.07194	#T:	20	DSTSS:	56812145	DETSS:	57020788	DTSS:	57020793
HW:	CPU	TSS:	4.40388	AT:	5.07961	#T:	20	DSTSS:	57020800	DETSS:	57222216	DTSS:	57222222
HW:	CPU	TSS:	4.40589	AT:	5.10203	#T:	20	DSTSS:	57222229	DETSS:	57423155	DTSS:	57423161
HW:	CPU	TSS:	4.4066	AT:	5.07801	#T:	20	DSTSS:	57423171	DETSS:	57640742	DTSS:	57640747
HW:	CPU	TSS:	4.40855	AT:	5.08784	#T:	20	DSTSS:	57640752	DETSS:	57842183	DTSS:	57842187
HW:	CPU	TSS:	4.40944	AT:	5.0673	#T:	20	DSTSS:	57842192	DETSS:	58057238	DTSS:	58057247
HW:	CPU	TSS:	4.41129	AT:	5.06948	#T:	20	DSTSS:	58057257	DETSS:	58259608	DTSS:	58259614
HW:	CPU	TSS:	4.41282	AT:	5.08458	#T:	20	DSTSS:	58259809	DETSS:	58466055	DTSS:	58466062
HW:	CPU	TSS:	4.41363	AT:	5.06315	#T:	20	DSTSS:	58466069	DETSS:	58681840	DTSS:	58681844
HW:	CPU	TSS:	4.41337	AT:	5.03798	#T:	20	DSTSS:	58681851	DETSS:	58911853	DTSS:	58911858
HW:	CPU	TSS:	4.41472	AT:	5.06217	#T:	20	DSTSS:	58911867	DETSS:	59120403	DTSS:	59120409
HW:	CPU	TSS:	4.41656	AT:	5.08284	#T:	20	DSTSS:	59120417	DETSS:	59322175	DTSS:	59322181
HW:	CPU	TSS:	4.41841	AT:	5.10425	#T:	20	DSTSS:	59322189	DETSS:	59523730	DTSS:	59523735
HW:	CPU	TSS:	4.41934	AT:	5.08485	#T:	20	DSTSS:	59523741	DETSS:	59737458	DTSS:	59737463
HW:	CPU	TSS:	4.42021	AT:	5.0641	#T:	20	DSTSS:	59737470	DETSS:	59951953	DTSS:	59951959
HW:	CPU	TSS:	4.42203	AT:	5.08797	#T:	20	DSTSS:	59951965	DETSS:	60153351	DTSS:	60153358
HW:	CPU	TSS:	4.42075	AT:	5.03523	#T:	20	DSTSS:	60153367	DETSS:	60397000	DTSS:	60397005
HW:	CPU	TSS:	4.4226	AT:	5.03612	#T:	20	DSTSS:	60397012	DETSS:	60597831	DTSS:	60597837
HW:	CPU	TSS:	4.42311	AT:	5.00923	#T:	20	DSTSS:	60597845	DETSS:	60816888	DTSS:	60816894
HW:	CPU	TSS:	4.42277	AT:	4.98985	#T:	20	DSTSS:	60816902	DETSS:	61047658	DTSS:	61047663
HW:	CPU	TSS:	4.42326	AT:	4.9638	#T:	20	DSTSS:	61047669	DETSS:	61266982	DTSS:	61266988
HW:	CPU	TSS:	4.42269	AT:	4.93636	#T:	20	DSTSS:	61266995	DETSS:	61501068	DTSS:	61501072
HW:	CPU	TSS:	4.42373	AT:	4.92329	#T:	20	DSTSS:	61501078	DETSS:	61712578	DTSS:	61712582
HW:	CPU	TSS:	4.42498	AT:	4.92021	#T:	20	DSTSS:	61712588	DETSS:	61921191	DTSS:	61921195
HW:	CPU	TSS:	4.42574	AT:	4.92081	#T:	20	DSTSS:	61921202	DETSS:	62136558	DTSS:	62136562
HW:	CPU	TSS:	4.42534	AT:	4.9187	#T:	20	DSTSS:	62136568	DETSS:	62368053	DTSS:	62368057
HW:	CPU	TSS:	4.42709	AT:	4.92908	#T:	20	DSTSS:	62368062	DETSS:	62569326	DTSS:	62569334
HW:	CPU	TSS:	4.42812	AT:	4.91558	#T:	20	DSTSS:	62569342	DETSS:	62780568	DTSS:	62780573
HW:	CPU	TSS:	4.42875	AT:	4.89398	#T:	20	DSTSS:	62780580	DETSS:	62997388	DTSS:	62997394
HW:	CPU	TSS:	4.43045	AT:	4.91102	#T:	20	DSTSS:	62997400	DETSS:	63199064	DTSS:	63199069
HW:	CPU	TSS:	4.43217	AT:	4.9302	#T:	20	DSTSS:	63199078	DETSS:	63400091	DTSS:	63400095
HW:	CPU	TSS:	4.43388	AT:	4.93072	#T:	20	DSTSS:	63400101	DETSS:	63601122	DTSS:	63601128
HW:	CPU	TSS:	4.43554	AT:	4.99146	#T:	20	DSTSS:	63601135	DETSS:	63802816	DTSS:	63802820
HW:	CPU	TSS:	4.43529	AT:	4.9505	#T:	20	DSTSS:	63802826	DETSS:	64031827	DTSS:	64031833
HW:	CPU	TSS:	4.4356	AT:	4.94755	#T:	20	DSTSS:	64031840	DETSS:	64252929	DTSS:	64252934
HW:	CPU	TSS:	4.43727	AT:	4.9907	#T:	20	DSTSS:	64252940	DETSS:	64453996	DTSS:	64454001
HW:	CPU	TSS:	4.43749	AT:	4.98652	#T:	20	DSTSS:	64454007	DETSS:	64676169	DTSS:	64676174
HW:	CPU	TSS:	4.43914	AT:	5.0351	#T:	20	DSTSS:	64676181	DETSS:	64877365	DTSS:	64877369
HW:	CPU	TSS:	4.44078	AT:	5.05049	#T:	20	DSTSS:	64877375	DETSS:	65078588	DTSS:	65078593
HW:	CPU	TSS:	4.44122	AT:	5.03537	#T:	20	DSTSS:	65078599	DETSS:	65297304	DTSS:	65297309
HW:	CPU	TSS:	4.44088	AT:	5.01322	#T:	20	DSTSS:	65297316	DETSS:	65527593	DTSS:	65527598
HW:	CPU	TSS:	4.4425	AT:	5.05839	#T:	20	DSTSS:	65527604	DETSS:	65728811	DTSS:	65728818
HW:	CPU	TSS:	4.44303	AT:	5.03467	#T:	20	DSTSS:	65728825	DETSS:	65945910	DTSS:	65945914
HW:	CPU	TSS:	4.44357	AT:	5.02604	#T:	20	DSTSS:	65945949	DETSS:	66162947	DTSS:	66162951
HW:	CPU	TSS:	4.44515	AT:	5.04894	#T:	20	DSTSS:	66162957	DETSS:	66364433	DTSS:	66364438
HW:	CPU	TSS:	4.44674	AT:	5.04973	#T:	20	DSTSS:	66364444	DETSS:	66565577	DTSS:	66565581
HW:	CPU	TSS:	4.4476	AT:	5.03337	#T:	20	DSTSS:	66565588	DETSS:	66777554	DTSS:	66777559
HW:	CPU	TSS:	4.44919	AT:	5.03347	#T:	20	DSTSS:	66777565	DETSS:	66978512	DTSS:	66978519
HW:	CPU	TSS:	4.45072	AT:	5.03349	#T:	20	DSTSS:	66978526	DETSS:	67180192	DTSS:	67180197
HW:	CPU	TSS:	4.45226	AT:	5.07501	#T:	20	DSTSS:	67180203	DETSS:	67381575	DTSS:	67381580
HW:	CPU	TSS:	4.45292	AT:	5.08497	#T:	20	DSTSS:	67381586	DETSS:	67596119	DTSS:	67596123
HW:	CPU	TSS:	4.45311	AT:	5.05376	#T:	20	DSTSS:	67596131	DETSS:	67817831	DTSS:	67817836
HW:	CPU	TSS:	4.45342	AT:	5.05729	#T:	20	DSTSS:	67817844	DETSS:	68037656	DTSS:	68037662
HW:	CPU	TSS:	4.45318	AT:	5.01695	#T:	20	DSTSS:	68037669	DETSS:	68265887	DTSS:	68265893
HW:	CPU	TSS:	4.45367	AT:	4.99387	#T:	20	DSTSS:	68265902	DETSS:	68482767	DTSS:	68482773
HW:	CPU	TSS:	4.45443	AT:	5.00236	#T:	20	DSTSS:	68482782	DETSS:	68695702	DTSS:	68695708
HW:	CPU	TSS:	4.45506	AT:	5.02535	#T:	20	DSTSS:	68695716	DETSS:	68910436	DTSS:	68910441
HW:	CPU	TSS:	4.45564	AT:	5.00433	#T:	20	DSTSS:	68910447	DETSS:	69125869	DTSS:	69125875
HW:	CPU	TSS:	4.4571	AT:	5.02711	#T:	20	DSTSS:	69125883	DETSS:	69327574	DTSS:	69327580
HW:	CPU	TSS:	4.45856	AT:	5.05024	#T:	20	DSTSS:	69327589	DETSS:	69529125	DTSS:	69529130
HW:	CPU	TSS:	4.46001	AT:	5.05005	#T:	20	DSTSS:	69529136	DETSS:	69730743	DTSS:	69730749
HW:	CPU	TSS:	4.46049	AT:	5.02668	#T:	20	DSTSS:	69730760	DETSS:	69947531	DTSS:	69947537
HW:	CPU	TSS:	4.46137	AT:	5.02927	#T:	20	DSTSS:	69947543	DETSS:	70157763	DTSS:	70157767
HW:	CPU	TSS:	4.46281	AT:	5.02858	#T:	20	DSTSS:	70157773	DETSS:	70359191	DTSS:	70359195
HW:	CPU	TSS:	4.46428	AT:	5.02967	#T:	20	DSTSS:	70359201	DETSS:	70560140	DTSS:	70560144
HW:	CPU	TSS:	4.46572	AT:	5.03012	#T:	20	DSTSS:	70560152	DETSS:	70761219	DTSS:	70761225
HW:	CPU	TSS:	4.46716	AT:	5.05016	#T:	20	DSTSS:	70761233	DETSS:	70962348	DTSS:	70962353
HW:	CPU	TSS:	4.4681	AT:	5.06945	#T:	20	DSTSS:	70962359	DETSS:	71171251	DTSS:	71171255
HW:	CPU	TSS:	4.46856	AT:	5.07473	#T:	20	DSTSS:	71171261	DETSS:	71387588	DTSS:	71387594
HW:	CPU	TSS:	4.46946	AT:	5.10347	#T:	20	DSTSS:	71387602	DETSS:	71596948	DTSS:	71596953
HW:	CPU	TSS:	4.47085	AT:	5.12715	#T:	20	DSTSS:	71596959	DETSS:	71798447	DTSS:	71798453
HW:	CPU	TSS:	4.47138	AT:	5.12372	#T:	20	DSTSS:	71798459	DETSS:	72013605	DTSS:	72013610
HW:	CPU	TSS:	4.47275	AT:	5.14421	#T:	20	DSTSS:	72013618	DETSS:	72215126	DTSS:	72215131
HW:	CPU	TSS:	4.47415	AT:	5.16686	#T:	20	DSTSS:	72215137	DETSS:	72416064	DTSS:	72416069
HW:	CPU	TSS:	4.47491	AT:	5.15221	#T:	20	DSTSS:	72416076	DETSS:	72627127	DTSS:	72627132
HW:	CPU	TSS:	4.47628	AT:	5.15274	#T:	20	DSTSS:	72627141	DETSS:	72828343	DTSS:	72828349
HW:	CPU	TSS:	4.47682	AT:	5.13265	#T:	20	DSTSS:	72828356	DETSS:	73042869	DTSS:	73042875
HW:	CPU	TSS:	4.47714	AT:	5.13046	#T:	20	DSTSS:	73042882	DETSS:	73261074	DTSS:	73261080
HW:	CPU	TSS:	4.47849	AT:	5.14449	#T:	20	DSTSS:	73261086	DETSS:	73462267	DTSS:	73462272
HW:	CPU	TSS:	4.47984	AT:	5.14508	#T:	20	DSTSS:	73462277	DETSS:	73663322	DTSS:	73663328
HW:	CPU	TSS:	4.48118	AT:	5.14478	#T:	20	DSTSS:	73663335	DETSS:	73864458	DTSS:	73864463
HW:	CPU	TSS:	4.48166	AT:	5.1228	#T:	20	DSTSS:	73864468	DETSS:	74079718	DTSS:	74079723
HW:	CPU	TSS:	4.48206	AT:	5.09932	#T:	20	DSTSS:	74079729	DETSS:	74296124	DTSS:	74296129
HW:	CPU	TSS:	4.48246	AT:	5.08767	#T:	20	DSTSS:	74296137	DETSS:	74512664	DTSS:	74512668
HW:	CPU	TSS:	4.48324	AT:	5.09729	#T:	20	DSTSS:	74512676	DETSS:	74722696	DTSS:	74722702
HW:	CPU	TSS:	4.48316	AT:	5.07425	#T:	20	DSTSS:	74722709	DETSS:	74947204	DTSS:	74947209
HW:	CPU	TSS:	4.48359	AT:	5.05259	#T:	20	DSTSS:	74947215	DETSS:	75163057	DTSS:	75163062
HW:	CPU	TSS:	4.48484	AT:	5.07264	#T:	20	DSTSS:	75163068	DETSS:	75364920	DTSS:	75364926
HW:	CPU	TSS:	4.4852	AT:	5.04939	#T:	20	DSTSS:	75364934	DETSS:	75581864	DTSS:	75581870
HW:	CPU	TSS:	4.48594	AT:	5.03518	#T:	20	DSTSS:	75581878	DETSS:	75792311	DTSS:	75792317
HW:	CPU	TSS:	4.48641	AT:	5.02943	#T:	20	DSTSS:	75792327	DETSS:	76007235	DTSS:	76007239
HW:	CPU	TSS:	4.48716	AT:	5.01611	#T:	20	DSTSS:	76007246	DETSS:	76217421	DTSS:	76217427
HW:	CPU	TSS:	4.48701	AT:	5.00003	#T:	20	DSTSS:	76217434	DETSS:	76442844	DTSS:	76442848
HW:	CPU	TSS:	4.48829	AT:	5.02551	#T:	20	DSTSS:	76442855	DETSS:	76643817	DTSS:	76643821
HW:	CPU	TSS:	4.48884	AT:	5.00738	#T:	20	DSTSS:	76643827	DETSS:	76857256	DTSS:	76857262
HW:	CPU	TSS:	4.48907	AT:	4.98117	#T:	20	DSTSS:	76857267	DETSS:	77076176	DTSS:	77076180
HW:	CPU	TSS:	4.48894	AT:	4.94671	#T:	20	DSTSS:	77076185	DETSS:	77301086	DTSS:	77301090
HW:	CPU	TSS:	4.4902	AT:	4.96725	#T:	20	DSTSS:	77301096	DETSS:	77502139	DTSS:	77502144
HW:	CPU	TSS:	4.49091	AT:	4.97602	#T:	20	DSTSS:	77502150	DETSS:	77712509	DTSS:	77712514
HW:	CPU	TSS:	4.49215	AT:	4.99852	#T:	20	DSTSS:	77712520	DETSS:	77913665	DTSS:	77913671
HW:	CPU	TSS:	4.49255	AT:	4.99025	#T:	20	DSTSS:	77913677	DETSS:	78129341	DTSS:	78129345
HW:	CPU	TSS:	4.49288	AT:	5.00148	#T:	20	DSTSS:	78129352	DETSS:	78346195	DTSS:	78346201
HW:	CPU	TSS:	4.4936	AT:	5.01008	#T:	20	DSTSS:	78346208	DETSS:	78556215	DTSS:	78556221
HW:	CPU	TSS:	4.49482	AT:	5.01112	#T:	20	DSTSS:	78556227	DETSS:	78757373	DTSS:	78757378
HW:	CPU	TSS:	4.49526	AT:	5.01445	#T:	20	DSTSS:	78757383	DETSS:	78972066	DTSS:	78972071
HW:	CPU	TSS:	4.49646	AT:	5.02804	#T:	20	DSTSS:	78972077	DETSS:	79173349	DTSS:	79173354
HW:	CPU	TSS:	4.49766	AT:	5.04839	#T:	20	DSTSS:	79173361	DETSS:	79374649	DTSS:	79374654
HW:	CPU	TSS:	4.49886	AT:	5.06223	#T:	20	DSTSS:	79374680	DETSS:	79575624	DTSS:	79575629
HW:	CPU	TSS:	4.50005	AT:	5.09888	#T:	20	DSTSS:	79575639	DETSS:	79776918	DTSS:	79776924
HW:	CPU	TSS:	4.49939	AT:	5.04894	#T:	20	DSTSS:	79776932	DETSS:	80010864	DTSS:	80010870
HW:	CPU	TSS:	4.50057	AT:	5.06743	#T:	20	DSTSS:	80010877	DETSS:	80212016	DTSS:	80212022
HW:	CPU	TSS:	4.50176	AT:	5.09458	#T:	20	DSTSS:	80212029	DETSS:	80413059	DTSS:	80413064
HW:	CPU	TSS:	4.5008	AT:	5.07275	#T:	20	DSTSS:	80413072	DETSS:	80652332	DTSS:	80652337
HW:	CPU	TSS:	4.50094	AT:	5.04469	#T:	20	DSTSS:	80652346	DETSS:	80872020	DTSS:	80872028
HW:	CPU	TSS:	4.50211	AT:	5.05855	#T:	20	DSTSS:	80872038	DETSS:	81073156	DTSS:	81073160
HW:	CPU	TSS:	4.50325	AT:	5.05808	#T:	20	DSTSS:	81073166	DETSS:	81274627	DTSS:	81274632
HW:	CPU	TSS:	4.50441	AT:	5.0801	#T:	20	DSTSS:	81274638	DETSS:	81475731	DTSS:	81475737
HW:	CPU	TSS:	4.50556	AT:	5.10412	#T:	20	DSTSS:	81475744	DETSS:	81676835	DTSS:	81676840
HW:	CPU	TSS:	4.50538	AT:	5.081	#T:	20	DSTSS:	81676846	DETSS:	81902012	DTSS:	81902017
HW:	CPU	TSS:	4.50578	AT:	5.06047	#T:	20	DSTSS:	81902023	DETSS:	82116751	DTSS:	82116757
HW:	CPU	TSS:	4.50503	AT:	5.02906	#T:	20	DSTSS:	82116766	DETSS:	82352421	DTSS:	82352426
HW:	CPU	TSS:	4.50618	AT:	5.02964	#T:	20	DSTSS:	82352432	DETSS:	82553311	DTSS:	82553317
HW:	CPU	TSS:	4.5066	AT:	5.01051	#T:	20	DSTSS:	82553324	DETSS:	82767513	DTSS:	82767519
HW:	CPU	TSS:	4.50698	AT:	4.99014	#T:	20	DSTSS:	82767526	DETSS:	82982341	DTSS:	82982346
HW:	CPU	TSS:	4.50811	AT:	4.99057	#T:	20	DSTSS:	82982355	DETSS:	83183340	DTSS:	83183344
HW:	CPU	TSS:	4.50908	AT:	5.03481	#T:	20	DSTSS:	83183351	DETSS:	83387353	DTSS:	83387358
HW:	CPU	TSS:	4.50945	AT:	5.01437	#T:	20	DSTSS:	83387365	DETSS:	83602272	DTSS:	83602276
HW:	CPU	TSS:	4.50987	AT:	4.99545	#T:	20	DSTSS:	83602283	DETSS:	83816152	DTSS:	83816157
HW:	CPU	TSS:	4.51025	AT:	5.03171	#T:	20	DSTSS:	83816164	DETSS:	84030901	DTSS:	84030906
HW:	CPU	TSS:	4.51074	AT:	5.04256	#T:	20	DSTSS:	84030911	DETSS:	84243325	DTSS:	84243329
HW:	CPU	TSS:	4.5107	AT:	5.01072	#T:	20	DSTSS:	84243335	DETSS:	84465883	DTSS:	84465887
HW:	CPU	TSS:	4.511	AT:	4.98938	#T:	20	DSTSS:	84465892	DETSS:	84681866	DTSS:	84681872
HW:	CPU	TSS:	4.5121	AT:	4.98948	#T:	20	DSTSS:	84681880	DETSS:	84882903	DTSS:	84882908
HW:	CPU	TSS:	4.51274	AT:	4.97713	#T:	20	DSTSS:	84882915	DETSS:	85092460	DTSS:	85092467
HW:	CPU	TSS:	4.51382	AT:	5.01245	#T:	20	DSTSS:	85092475	DETSS:	85293568	DTSS:	85293574
HW:	CPU	TSS:	4.51426	AT:	5.01455	#T:	20	DSTSS:	85293581	DETSS:	85506883	DTSS:	85506889
HW:	CPU	TSS:	4.51533	AT:	5.06631	#T:	20	DSTSS:	85506897	DETSS:	85707923	DTSS:	85707930
HW:	CPU	TSS:	4.51603	AT:	5.05525	#T:	20	DSTSS:	85707937	DETSS:	85916155	DTSS:	85916160
HW:	CPU	TSS:	4.51555	AT:	5.03076	#T:	20	DSTSS:	85916167	DETSS:	86146720	DTSS:	86146725
HW:	CPU	TSS:	4.5166	AT:	5.05079	#T:	20	DSTSS:	86146730	DETSS:	86348149	DTSS:	86348153
HW:	CPU	TSS:	4.51767	AT:	5.05084	#T:	20	DSTSS:	86348160	DETSS:	86549116	DTSS:	86549121
HW:	CPU	TSS:	4.5187	AT:	5.0547	#T:	20	DSTSS:	86549126	DETSS:	86750561	DTSS:	86750566
HW:	CPU	TSS:	4.51975	AT:	5.0755	#T:	20	DSTSS:	86750572	DETSS:	86951698	DTSS:	86951702
HW:	CPU	TSS:	4.5208	AT:	5.09493	#T:	20	DSTSS:	86951707	DETSS:	87152802	DTSS:	87152807
HW:	CPU	TSS:	4.52183	AT:	5.11561	#T:	20	DSTSS:	87152814	DETSS:	87354064	DTSS:	87354069
HW:	CPU	TSS:	4.52286	AT:	5.13308	#T:	20	DSTSS:	87354076	DETSS:	87555173	DTSS:	87555178
HW:	CPU	TSS:	4.52306	AT:	5.14143	#T:	20	DSTSS:	87555185	DETSS:	87772354	DTSS:	87772358
HW:	CPU	TSS:	4.5234	AT:	5.14351	#T:	20	DSTSS:	87772363	DETSS:	87986996	DTSS:	87987002
HW:	CPU	TSS:	4.5237	AT:	5.12172	#T:	20	DSTSS:	87987009	DETSS:	88202101	DTSS:	88202107
HW:	CPU	TSS:	4.52471	AT:	5.13436	#T:	20	DSTSS:	88202116	DETSS:	88403490	DTSS:	88403495
HW:	CPU	TSS:	4.52573	AT:	5.13458	#T:	20	DSTSS:	88403502	DETSS:	88604454	DTSS:	88604459
HW:	CPU	TSS:	4.52673	AT:	5.15318	#T:	20	DSTSS:	88604467	DETSS:	88805817	DTSS:	88805822
HW:	CPU	TSS:	4.52697	AT:	5.12973	#T:	20	DSTSS:	88805834	DETSS:	89021941	DTSS:	89021946
HW:	CPU	TSS:	4.52797	AT:	5.14067	#T:	20	DSTSS:	89021953	DETSS:	89223118	DTSS:	89223123
HW:	CPU	TSS:	4.52704	AT:	5.12713	#T:	20	DSTSS:	89223131	DETSS:	89462416	DTSS:	89462423
HW:	CPU	TSS:	4.52719	AT:	5.10165	#T:	20	DSTSS:	89462431	DETSS:	89680409	DTSS:	89680414
HW:	CPU	TSS:	4.52761	AT:	5.08407	#T:	20	DSTSS:	89680422	DETSS:	89892891	DTSS:	89892896
HW:	CPU	TSS:	4.52791	AT:	5.06376	#T:	20	DSTSS:	89892904	DETSS:	90107748	DTSS:	90107754
HW:	CPU	TSS:	4.52889	AT:	5.06357	#T:	20	DSTSS:	90107761	DETSS:	90309015	DTSS:	90309021
HW:	CPU	TSS:	4.52989	AT:	5.06375	#T:	20	DSTSS:	90309029	DETSS:	90509998	DTSS:	90510005
HW:	CPU	TSS:	4.53032	AT:	5.04756	#T:	20	DSTSS:	90510013	DETSS:	90722025	DTSS:	90722029
HW:	CPU	TSS:	4.53131	AT:	5.04793	#T:	20	DSTSS:	90722035	DETSS:	90922895	DTSS:	90922901
HW:	CPU	TSS:	4.53228	AT:	5.07189	#T:	20	DSTSS:	90922910	DETSS:	91124161	DTSS:	91124165
HW:	CPU	TSS:	4.53322	AT:	5.09156	#T:	20	DSTSS:	91124171	DETSS:	91325861	DTSS:	91325868
HW:	CPU	TSS:	4.53341	AT:	5.08907	#T:	20	DSTSS:	91325876	DETSS:	91542592	DTSS:	91542597
HW:	CPU	TSS:	4.53345	AT:	5.06128	#T:	20	DSTSS:	91542604	DETSS:	91762325	DTSS:	91762329
HW:	CPU	TSS:	4.53347	AT:	5.03243	#T:	20	DSTSS:	91762335	DETSS:	91982539	DTSS:	91982544
HW:	CPU	TSS:	4.53408	AT:	5.0222	#T:	20	DSTSS:	91982550	DETSS:	92190786	DTSS:	92190792
HW:	CPU	TSS:	4.53336	AT:	4.99413	#T:	20	DSTSS:	92190798	DETSS:	92425932	DTSS:	92425938
HW:	CPU	TSS:	4.53355	AT:	4.97162	#T:	20	DSTSS:	92425944	DETSS:	92642530	DTSS:	92642535
HW:	CPU	TSS:	4.53386	AT:	5.0081	#T:	20	DSTSS:	92642541	DETSS:	92856918	DTSS:	92856923
HW:	CPU	TSS:	4.53362	AT:	4.99702	#T:	20	DSTSS:	92856958	DETSS:	93082436	DTSS:	93082442
HW:	CPU	TSS:	4.53422	AT:	5.00354	#T:	20	DSTSS:	93082450	DETSS:	93290485	DTSS:	93290490
HW:	CPU	TSS:	4.53441	AT:	5.00068	#T:	20	DSTSS:	93290497	DETSS:	93507290	DTSS:	93507296
HW:	CPU	TSS:	4.53535	AT:	5.00101	#T:	20	DSTSS:	93507302	DETSS:	93708327	DTSS:	93708332
HW:	CPU	TSS:	4.53453	AT:	4.94789	#T:	20	DSTSS:	93708338	DETSS:	93945820	DTSS:	93945827
HW:	CPU	TSS:	4.53546	AT:	4.96363	#T:	20	DSTSS:	93945835	DETSS:	94146940	DTSS:	94146945
HW:	CPU	TSS:	4.53569	AT:	4.94205	#T:	20	DSTSS:	94146951	DETSS:	94362761	DTSS:	94362770
HW:	CPU	TSS:	4.5355	AT:	4.90918	#T:	20	DSTSS:	94362780	DETSS:	94587063	DTSS:	94587068
HW:	CPU	TSS:	4.53607	AT:	4.89947	#T:	20	DSTSS:	94587075	DETSS:	94795625	DTSS:	94795630
HW:	CPU	TSS:	4.537	AT:	4.9217	#T:	20	DSTSS:	94795638	DETSS:	94996686	DTSS:	94996694
HW:	CPU	TSS:	4.53792	AT:	4.9485	#T:	20	DSTSS:	94996702	DETSS:	95197708	DTSS:	95197714
HW:	CPU	TSS:	4.53818	AT:	4.95591	#T:	20	DSTSS:	95197722	DETSS:	95412791	DTSS:	95412796
HW:	CPU	TSS:	4.53774	AT:	4.92537	#T:	20	DSTSS:	95412803	DETSS:	95642305	DTSS:	95642311
HW:	CPU	TSS:	4.53727	AT:	4.93229	#T:	20	DSTSS:	95642319	DETSS:	95872610	DTSS:	95872614
HW:	CPU	TSS:	4.53752	AT:	4.93429	#T:	20	DSTSS:	95872621	DETSS:	96087808	DTSS:	96087813
HW:	CPU	TSS:	4.53778	AT:	4.93363	#T:	20	DSTSS:	96087821	DETSS:	96302656	DTSS:	96302662
HW:	CPU	TSS:	4.53806	AT:	4.94974	#T:	20	DSTSS:	96302670	DETSS:	96516966	DTSS:	96516971
HW:	CPU	TSS:	4.53897	AT:	4.95997	#T:	20	DSTSS:	96516977	DETSS:	96717925	DTSS:	96717931
HW:	CPU	TSS:	4.53988	AT:	4.98296	#T:	20	DSTSS:	96717938	DETSS:	96918914	DTSS:	96918921
HW:	CPU	TSS:	4.54077	AT:	4.98272	#T:	20	DSTSS:	96918931	DETSS:	97120115	DTSS:	97120122
HW:	CPU	TSS:	4.54164	AT:	5.03585	#T:	20	DSTSS:	97120129	DETSS:	97321607	DTSS:	97321656
HW:	CPU	TSS:	4.5421	AT:	5.02212	#T:	20	DSTSS:	97321665	DETSS:	97531965	DTSS:	97531970
HW:	CPU	TSS:	4.54145	AT:	4.99492	#T:	20	DSTSS:	97531976	DETSS:	97766215	DTSS:	97766219
HW:	CPU	TSS:	4.54052	AT:	4.97185	#T:	20	DSTSS:	97766225	DETSS:	98006307	DTSS:	98006312
HW:	CPU	TSS:	4.54073	AT:	4.96129	#T:	20	DSTSS:	98006317	DETSS:	98222149	DTSS:	98222153
HW:	CPU	TSS:	4.541	AT:	4.94228	#T:	20	DSTSS:	98222158	DETSS:	98436390	DTSS:	98436394
HW:	CPU	TSS:	4.54119	AT:	4.92073	#T:	20	DSTSS:	98436399	DETSS:	98652479	DTSS:	98652484
HW:	CPU	TSS:	4.54077	AT:	4.90038	#T:	20	DSTSS:	98652491	DETSS:	98881912	DTSS:	98881937
HW:	CPU	TSS:	4.54084	AT:	4.91582	#T:	20	DSTSS:	98881944	DETSS:	99100530	DTSS:	99100536
HW:	CPU	TSS:	4.54098	AT:	4.93449	#T:	20	DSTSS:	99100544	DETSS:	99317751	DTSS:	99317756
HW:	CPU	TSS:	4.54148	AT:	4.94301	#T:	20	DSTSS:	99317761	DETSS:	99527007	DTSS:	99527011
HW:	CPU	TSS:	4.5417	AT:	4.9422	#T:	20	DSTSS:	99527017	DETSS:	99742427	DTSS:	99742435
HW:	CPU	TSS:	4.54196	AT:	4.94217	#T:	20	DSTSS:	99742443	DETSS:	99956747	DTSS:	99956755
HW:	CPU	TSS:	4.54133	AT:	4.895	#T:	20	DSTSS:	99956763	DETSS:	100190860	DTSS:	100190865
HW:	CPU	TSS:	4.54219	AT:	4.89456	#T:	20	DSTSS:	100190872	DETSS:	100392161	DTSS:	100392170
HW:	CPU	TSS:	4.54225	AT:	4.86989	#T:	20	DSTSS:	100392178	DETSS:	100610952	DTSS:	100610956
HW:	CPU	TSS:	4.54294	AT:	4.8653	#T:	20	DSTSS:	100610963	DETSS:	100815739	DTSS:	100815744
HW:	CPU	TSS:	4.54332	AT:	4.86333	#T:	20	DSTSS:	100815751	DETSS:	101027511	DTSS:	101027516
HW:	CPU	TSS:	4.5431	AT:	4.87635	#T:	20	DSTSS:	101027523	DETSS:	101252433	DTSS:	101252439
HW:	CPU	TSS:	4.54297	AT:	4.9004	#T:	20	DSTSS:	101252448	DETSS:	101475412	DTSS:	101475417
HW:	CPU	TSS:	4.54295	AT:	4.89381	#T:	20	DSTSS:	101475424	DETSS:	101695923	DTSS:	101695927
HW:	CPU	TSS:	4.54333	AT:	4.8975	#T:	20	DSTSS:	101695932	DETSS:	101907553	DTSS:	101907558
HW:	CPU	TSS:	4.54357	AT:	4.89932	#T:	20	DSTSS:	101907565	DETSS:	102122349	DTSS:	102122355
HW:	CPU	TSS:	4.54402	AT:	4.92698	#T:	20	DSTSS:	102122361	DETSS:	102332302	DTSS:	102332307
HW:	CPU	TSS:	4.54409	AT:	4.92705	#T:	20	DSTSS:	102332314	DETSS:	102550869	DTSS:	102550874
HW:	CPU	TSS:	4.54423	AT:	4.92778	#T:	20	DSTSS:	102550881	DETSS:	102767581	DTSS:	102767586
HW:	CPU	TSS:	4.54507	AT:	4.93953	#T:	20	DSTSS:	102767593	DETSS:	102968633	DTSS:	102968639
HW:	CPU	TSS:	4.54565	AT:	4.95173	#T:	20	DSTSS:	102968647	DETSS:	103175569	DTSS:	103175573
HW:	CPU	TSS:	4.54622	AT:	4.96228	#T:	20	DSTSS:	103175579	DETSS:	103382590	DTSS:	103382595
HW:	CPU	TSS:	4.54646	AT:	4.99074	#T:	20	DSTSS:	103382601	DETSS:	103597167	DTSS:	103597172
HW:	CPU	TSS:	4.54667	AT:	4.97064	#T:	20	DSTSS:	103597179	DETSS:	103812241	DTSS:	103812245
HW:	CPU	TSS:	4.54689	AT:	4.97635	#T:	20	DSTSS:	103812251	DETSS:	104027110	DTSS:	104027114
HW:	CPU	TSS:	4.54708	AT:	4.96075	#T:	20	DSTSS:	104027120	DETSS:	104242638	DTSS:	104242643
HW:	CPU	TSS:	4.54791	AT:	4.97638	#T:	20	DSTSS:	104242651	DETSS:	104443651	DTSS:	104443658
HW:	CPU	TSS:	4.54873	AT:	5.01151	#T:	20	DSTSS:	104443664	DETSS:	104644621	DTSS:	104644625
HW:	CPU	TSS:	4.54953	AT:	5.04374	#T:	20	DSTSS:	104644631	DETSS:	104845923	DTSS:	104845928
HW:	CPU	TSS:	4.54967	AT:	5.04951	#T:	20	DSTSS:	104845935	DETSS:	105062589	DTSS:	105062594
HW:	CPU	TSS:	4.54943	AT:	5.02912	#T:	20	DSTSS:	105062600	DETSS:	105287869	DTSS:	105287873
HW:	CPU	TSS:	4.5495	AT:	5.02387	#T:	20	DSTSS:	105287880	DETSS:	105506198	DTSS:	105506203
HW:	CPU	TSS:	4.54914	AT:	4.99701	#T:	20	DSTSS:	105506209	DETSS:	105734340	DTSS:	105734344
HW:	CPU	TSS:	4.54899	AT:	4.99025	#T:	20	DSTSS:	105734350	DETSS:	105957514	DTSS:	105957518
HW:	CPU	TSS:	4.54977	AT:	5.01245	#T:	20	DSTSS:	105957525	DETSS:	106159132	DTSS:	106159137
HW:	CPU	TSS:	4.54986	AT:	4.9879	#T:	20	DSTSS:	106159143	DETSS:	106376884	DTSS:	106376890
HW:	CPU	TSS:	4.55028	AT:	4.9835	#T:	20	DSTSS:	106376898	DETSS:	106586824	DTSS:	106586829
HW:	CPU	TSS:	4.55095	AT:	4.98794	#T:	20	DSTSS:	106586838	DETSS:	106790814	DTSS:	106790821
HW:	CPU	TSS:	4.5511	AT:	4.98536	#T:	20	DSTSS:	106790828	DETSS:	107007148	DTSS:	107007153
HW:	CPU	TSS:	4.55187	AT:	5.00539	#T:	20	DSTSS:	107007160	DETSS:	107208583	DTSS:	107208588
HW:	CPU	TSS:	4.55207	AT:	5.0052	#T:	20	DSTSS:	107208595	DETSS:	107423579	DTSS:	107423583
HW:	CPU	TSS:	4.55209	AT:	4.99977	#T:	20	DSTSS:	107423590	DETSS:	107642793	DTSS:	107642798
HW:	CPU	TSS:	4.55252	AT:	4.98707	#T:	20	DSTSS:	107642805	DETSS:	107852463	DTSS:	107852469
HW:	CPU	TSS:	4.55234	AT:	4.9539	#T:	20	DSTSS:	107852475	DETSS:	108076261	DTSS:	108076267
HW:	CPU	TSS:	4.5531	AT:	4.95361	#T:	20	DSTSS:	108076273	DETSS:	108277768	DTSS:	108277774
HW:	CPU	TSS:	4.55289	AT:	4.94198	#T:	20	DSTSS:	108277780	DETSS:	108502508	DTSS:	108502515
HW:	CPU	TSS:	4.55311	AT:	4.95756	#T:	20	DSTSS:	108502521	DETSS:	108716979	DTSS:	108716984
HW:	CPU	TSS:	4.55306	AT:	4.95408	#T:	20	DSTSS:	108716989	DETSS:	108937714	DTSS:	108937719
HW:	CPU	TSS:	4.55383	AT:	4.99328	#T:	20	DSTSS:	108937725	DETSS:	109138911	DTSS:	109138915
HW:	CPU	TSS:	4.55345	AT:	4.98533	#T:	20	DSTSS:	109138920	DETSS:	109367523	DTSS:	109367529
HW:	CPU	TSS:	4.55421	AT:	4.98559	#T:	20	DSTSS:	109367535	DETSS:	109568962	DTSS:	109568967
HW:	CPU	TSS:	4.55492	AT:	5.00811	#T:	20	DSTSS:	109568972	DETSS:	109771377	DTSS:	109771382
