K1-13080	1161097798	1161916805	8	0	1220296.458822	10.000000
K1-13080	1161916812	1162727363	8	1	1226969.777280	10.000000
K1-13080	1162727370	1163538871	8	2	1228732.181847	10.000000
K1-13080	1163538879	1164349355	8	3	1230003.222608	10.000000
K1-13080	1164349361	1165157719	8	4	1231409.412105	10.000000
K1-13080	1165157727	1165972606	8	5	1230699.806678	10.000000
K1-13080	1165972613	1166776798	8	6	1232510.022507	10.000000
K1-13080	1166776805	1167584095	8	7	1233280.379357	10.000000
K1-13080	1167584102	1168399061	8	8	1232584.606662	10.000000
K1-13080	1168399069	1169209197	8	9	1232761.981029	10.000000
K1-13080	1169209204	1170021754	8	10	1232572.682850	10.000000
K1-13080	1170021761	1170831240	8	11	1232803.799583	10.000000
K1-13080	1170831245	1171641125	8	12	1232952.651299	10.000000
K1-13080	1171641133	1172454477	8	13	1232704.061390	10.000000
K1-13080	1172454484	1173258719	8	14	1233411.844109	10.000000
K1-13080	1173258726	1174072663	8	15	1233109.102719	10.000000
K1-13080	1174072670	1174877150	8	16	1233688.192857	10.000000
K1-13080	1174877157	1175682085	8	17	1234165.485410	10.000000
K1-13080	1175682092	1176500302	8	18	1233528.178848	10.000000
K1-13080	1176500310	1177307302	8	19	1233808.499719	10.000000
K1-13080	1177307309	1178123003	8	20	1233431.418541	10.000000
K1-13080	1178123011	1178926737	8	21	1233916.529024	10.000000
K1-13080	1178926745	1179732136	8	22	1234249.500639	10.000000
K1-13080	1179732144	1180546676	8	23	1233974.717401	10.000000
K1-13080	1180546684	1181351942	8	24	1234286.788609	10.000000
K1-13080	1181351950	1182170836	8	25	1233776.725799	10.000000
K1-13080	1182170844	1182976122	8	26	1234071.846109	10.000000
K1-13080	1182976129	1183786348	8	27	1234077.208630	10.000000
K1-13080	1183786354	1184600317	8	28	1233885.718441	10.000000
K1-13080	1184600325	1185406209	8	29	1234116.966068	10.000000
K1-13080	1185406217	1186225256	8	30	1233687.173386	10.000000
K1-13080	1186225264	1187030532	8	31	1233939.410953	10.000000
K1-13080	1187030540	1187834869	8	32	1234219.798613	10.000000
K1-13080	1187834878	1188655931	8	33	1233734.704729	10.000000
K1-13080	1188655937	1189465637	8	34	1233771.237521	10.000000
K1-13080	1189465644	1190280707	8	35	1233578.965176	10.000000
K1-13080	1190280715	1191084473	8	36	1233862.166658	10.000000
K1-13080	1191084481	1191893628	8	37	1233914.583951	10.000000
K1-13080	1191893636	1192708515	8	38	1233740.564732	10.000000
K1-13080	1192708523	1193517436	8	39	1233802.296445	10.000000
K1-13080	1193517443	1194333745	8	40	1233586.715053	10.000000
K1-13080	1194333751	1195139592	8	41	1233760.589521	10.000000
K1-13080	1195139598	1195956097	8	42	1233549.116455	10.000000
K1-13080	1195956104	1196763824	8	43	1233650.866655	10.000000
K1-13080	1196763830	1197572048	8	44	1233731.299409	10.000000
K1-13080	1197572056	1198391026	8	45	1233452.464284	10.000000
K1-13080	1198391031	1199196569	8	46	1233620.440555	10.000000
K1-13080	1199196576	1200021257	8	47	1233174.680272	10.000000
K1-13080	1200021264	1200827002	8	48	1233335.125445	10.000000
K1-13080	1200827009	1201630657	8	49	1233552.854755	10.000000
K1-13080	1201630664	1202448447	8	50	1233340.352894	10.000000
K1-13080	1202448453	1203255495	8	51	1233450.269954	10.000000
K1-13080	1203255503	1204078610	8	52	1233094.965994	10.000000
K1-13080	1204078618	1204886647	8	53	1233177.517548	10.000000
K1-13080	1204886654	1205695907	8	54	1233223.231163	10.000000
K1-13080	1205695914	1206510406	8	55	1233125.041632	10.000000
K1-13080	1206510413	1207317240	8	56	1233234.768307	10.000000
K1-13080	1207317247	1208129809	8	57	1233190.392392	10.000000
K1-13080	1208129817	1208939260	8	58	1233227.865875	10.000000
K1-13080	1208939265	1209745148	8	59	1233354.417527	10.000000
K1-13080	1209745156	1210565512	8	60	1233115.889181	10.000000
K1-13080	1210565517	1211372773	8	61	1233206.438380	10.000000
K1-13080	1211372780	1212188099	8	62	1233099.490695	10.000000
K1-13080	1212188106	1212993774	8	63	1233225.174989	10.000000
K1-13080	1212993781	1213802956	8	64	1233264.950373	10.000000
K1-13080	1213802963	1214620247	8	65	1233116.670998	10.000000
K1-13080	1214620255	1215428388	8	66	1233180.499323	10.000000
K1-13080	1215428395	1216243113	8	67	1233095.216602	10.000000
K1-13080	1216243121	1217049405	8	68	1233198.254635	10.000000
K1-13080	1217049413	1217851773	8	69	1233383.635417	10.000000
K1-13080	1217851779	1218665938	8	70	1233311.043408	10.000000
K1-13080	1218665946	1219473301	8	71	1233384.216142	10.000000
K1-13080	1219473306	1220293163	8	72	1233194.910865	10.000000
K1-13080	1220293170	1221098760	8	73	1233303.960144	10.000000
K1-13080	1221098768	1221905840	8	74	1233380.039517	10.000000
K1-13080	1221905847	1222716230	8	75	1233387.807962	10.000000
K1-13080	1222716238	1223523375	8	76	1233459.547749	10.000000
K1-13080	1223523380	1224337682	8	77	1233389.738776	10.000000
K1-13080	1224337690	1225145718	8	78	1233442.459683	10.000000
K1-13080	1225145725	1225966068	8	79	1233259.713381	10.000000
K1-13080	1225966073	1226776379	8	80	1233270.007202	10.000000
K1-13080	1226776387	1227589542	8	81	1233227.151974	10.000000
K1-13080	1227589549	1228406631	8	82	1233113.403348	10.000000
K1-13080	1228406638	1229220659	8	83	1233057.804120	10.000000
K1-13080	1229220666	1230036045	8	84	1232979.193665	10.000000
K1-13080	1230036052	1230840514	8	85	1233095.426689	10.000000
K1-13080	1230840521	1231648393	8	86	1233149.403194	10.000000
K1-13080	1231648400	1232469329	8	87	1232976.534677	10.000000
K1-13080	1232469337	1233277258	8	88	1233029.786799	10.000000
K1-13080	1233277265	1234093398	8	89	1232943.139252	10.000000
K1-13080	1234093405	1234899164	8	90	1233031.705324	10.000000
K1-13080	1234899171	1235713321	8	91	1232979.687062	10.000000
K1-13080	1235713329	1236525663	8	92	1232958.459164	10.000000
K1-13080	1236525670	1237333110	8	93	1233016.848952	10.000000
K1-13080	1237333117	1238144958	8	94	1233003.581019	10.000000
K1-13080	1238144966	1238963607	8	95	1232882.897854	10.000000
K1-13080	1238963615	1239778220	8	96	1232827.961565	10.000000
K1-13080	1239778227	1240594734	8	97	1232744.672175	10.000000
K1-13080	1240594742	1241398068	8	98	1232865.396989	10.000000
K1-13080	1241398075	1242210446	8	99	1232846.254271	10.000000
K1-13080	1242210452	1243013927	8	100	1232961.389167	10.000000
K1-13080	1243013934	1243823053	8	101	1232990.145435	10.000000
K1-13080	1243823060	1244639735	8	102	1232906.809422	10.000000
K1-13080	1244639743	1245443975	8	103	1233006.970615	10.000000
K1-13080	1245443981	1246255522	8	104	1232999.404215	10.000000
K1-13080	1246255529	1247064990	8	105	1233021.841772	10.000000
K1-13080	1247064996	1247871367	8	106	1233087.740669	10.000000
K1-13080	1247871375	1248681746	8	107	1233096.093637	10.000000
K1-13080	1248681753	1249484531	8	108	1233210.238587	10.000000
K1-13080	1249484538	1250294270	8	109	1233226.176069	10.000000
K1-13080	1250294277	1251099572	8	110	1233302.624098	10.000000
K1-13080	1251099579	1251910947	8	111	1233295.249837	10.000000
K1-13080	1251910952	1252716651	8	112	1233364.316609	10.000000
K1-13080	1252716658	1253520245	8	113	1233460.351618	10.000000
K1-13080	1253520252	1254331788	8	114	1233449.560392	10.000000
K1-13080	1254331794	1255139379	8	115	1233490.789141	10.000000
K1-13080	1255139386	1255949339	8	116	1233500.494439	10.000000
K1-13080	1255949345	1256758967	8	117	1233514.342155	10.000000
K1-13080	1256758974	1257569269	8	118	1233519.313839	10.000000
K1-13080	1257569279	1258382081	8	119	1233492.402458	10.000000
K1-13080	1258382088	1259189554	8	120	1233533.072581	10.000000
K1-13080	1259189590	1259999889	8	121	1233537.344570	10.000000
K1-13080	1259999897	1260821744	8	122	1233399.075175	10.000000
K1-13080	1260821754	1261629079	8	123	1233441.201082	10.000000
K1-13080	1261629085	1262447112	8	124	1233352.430891	10.000000
K1-13080	1262447121	1263258751	8	125	1233342.305083	10.000000
K1-13080	1263258757	1264080364	8	126	1233212.841641	10.000000
K1-13080	1264080372	1264886852	8	127	1233265.157857	10.000000
K1-13080	1264886858	1265692694	8	128	1233324.272702	10.000000
K1-13080	1265692701	1266508349	8	129	1233267.664676	10.000000
K1-13080	1266508355	1267313728	8	130	1233331.234160	10.000000
K1-13080	1267313736	1268126149	8	131	1233312.695278	10.000000
K1-13080	1268126155	1268936479	8	132	1233318.349288	10.000000
K1-13080	1268936486	1269741058	8	133	1233389.204330	10.000000
K1-13080	1269741065	1270561807	8	134	1233276.812105	10.000000
K1-13080	1270561815	1271367585	8	135	1233333.504126	10.000000
K1-13080	1271367593	1272183218	8	136	1233279.964418	10.000000
K1-13080	1272183227	1272987551	8	137	1233351.762111	10.000000
K1-13080	1272987558	1273791580	8	138	1233425.851216	10.000000
K1-13080	1273791589	1274608481	8	139	1233359.013630	10.000000
K1-13080	1274608488	1275414638	8	140	1233409.041030	10.000000
K1-13080	1275414645	1276232338	8	141	1233334.695213	10.000000
K1-13080	1276232346	1277039089	8	142	1233377.893350	10.000000
K1-13080	1277039095	1277862079	8	143	1233248.914876	10.000000
K1-13080	1277862087	1278675986	8	144	1233217.021974	10.000000
K1-13080	1278675993	1279486099	8	145	1233225.087424	10.000000
K1-13080	1279486108	1280312268	8	146	1233066.950049	10.000000
K1-13080	1280312277	1281120865	8	147	1233091.493264	10.000000
K1-13080	1281120873	1281932668	8	148	1233083.011413	10.000000
K1-13080	1281932673	1282736688	8	149	1233153.509682	10.000000
K1-13080	1282736694	1283543989	8	150	1233190.047539	10.000000
K1-13080	1283543994	1284358050	8	151	1233158.472814	10.000000
K1-13080	1284358058	1285167597	8	152	1233172.166866	10.000000
K1-13080	1285167603	1285985725	8	153	1233100.961863	10.000000
K1-13080	1285985733	1286790753	8	154	1233159.202237	10.000000
K1-13080	1286790759	1287596309	8	155	1233211.544207	10.000000
K1-13080	1287596316	1288414631	8	156	1233139.575165	10.000000
K1-13080	1288414637	1289218303	8	157	1233209.501408	10.000000
K1-13080	1289218309	1290034420	8	158	1233159.519887	10.000000
K1-13080	1290034428	1290840658	8	159	1233204.078388	10.000000
K1-13080	1290840665	1291646514	8	160	1233251.685688	10.000000
K1-13080	1291646521	1292466324	8	161	1233167.707999	10.000000
K1-13080	1292466332	1293273427	8	162	1233203.316884	10.000000
K1-13080	1293273434	1294090567	8	163	1233145.421020	10.000000
K1-13080	1294090574	1294894023	8	164	1233214.345837	10.000000
K1-13080	1294894030	1295698252	8	165	1233275.365181	10.000000
K1-13080	1295698259	1296514154	8	166	1233229.336408	10.000000
K1-13080	1296514162	1297317221	8	167	1233300.061883	10.000000
K1-13080	1297317229	1298139877	8	168	1233193.668191	10.000000
K1-13080	1298139882	1298955013	8	169	1233155.790091	10.000000
K1-13080	1298955021	1299758865	8	170	1233218.723803	10.000000
K1-13080	1299758873	1300574875	8	171	1233173.420375	10.000000
K1-13080	1300574883	1301394256	8	172	1233099.014822	10.000000
K1-13080	1301394263	1302210225	8	173	1233055.286925	10.000000
K1-13080	1302210232	1303018907	8	174	1233075.371147	10.000000
K1-13080	1303018915	1303823319	8	175	1233132.118868	10.000000
K1-13080	1303823325	1304641900	8	176	1233066.504940	10.000000
K1-13080	1304641907	1305447241	8	177	1233114.727955	10.000000
K1-13080	1305447248	1306267463	8	178	1233036.007710	10.000000
K1-13080	1306267469	1307073948	8	179	1233074.198452	10.000000
K1-13080	1307073955	1307877503	8	180	1233136.584688	10.000000
K1-13080	1307877510	1308696327	8	181	1233070.718178	10.000000
K1-13080	1308696334	1309500780	8	182	1233124.971151	10.000000
K1-13080	1309500787	1310317778	8	183	1233074.982010	10.000000
K1-13080	1310317785	1311124340	8	184	1233111.299313	10.000000
K1-13080	1311124346	1311940945	8	185	1233065.126642	10.000000
K1-13080	1311940952	1312749994	8	186	1233080.885629	10.000000
K1-13080	1312750001	1313554766	8	187	1233131.070321	10.000000
K1-13080	1313554773	1314370282	8	188	1233094.285501	10.000000
K1-13080	1314370290	1315175563	8	189	1233139.798748	10.000000
K1-13080	1315175570	1315988309	8	190	1233125.405148	10.000000
K1-13080	1315988317	1316795701	8	191	1233153.564806	10.000000
K1-13080	1316795708	1317602246	8	192	1233188.107862	10.000000
K1-13080	1317602253	1318418274	8	193	1233147.952634	10.000000
K1-13080	1318418282	1319225203	8	194	1233179.182984	10.000000
K1-13080	1319225211	1320043186	8	195	1233124.324003	10.000000
K1-13080	1320043193	1320855790	8	196	1233111.543721	10.000000
K1-13080	1320855796	1321664486	8	197	1233128.904850	10.000000
K1-13080	1321664493	1322533057	8	198	1232688.721995	10.000000
K1-13080	1322533065	1323339048	8	199	1232728.571284	10.000000
K1-13080	1323339055	1324155522	8	200	1232688.764467	10.000000
K1-13080	1324155529	1324968536	8	201	1232675.373122	10.000000
K1-13080	1324968544	1325773881	8	202	1232719.526656	10.000000
K1-13080	1325773889	1326588724	8	203	1232692.506250	10.000000
K1-13080	1326588731	1327394761	8	204	1232731.016950	10.000000
K1-13080	1327394766	1328216451	8	205	1232653.690374	10.000000
K1-13080	1328216459	1329023064	8	206	1232687.785856	10.000000
K1-13080	1329023071	1329829468	8	207	1232723.082266	10.000000
K1-13080	1329829475	1330645225	8	208	1232690.038603	10.000000
K1-13080	1330645233	1331450863	8	209	1232730.531234	10.000000
K1-13080	1331450870	1332266936	8	210	1232695.489366	10.000000
K1-13080	1332266944	1333072868	8	211	1232733.467202	10.000000
K1-13080	1333072875	1333886481	8	212	1232716.283212	10.000000
K1-13080	1333886489	1334698829	8	213	1232708.256930	10.000000
K1-13080	1334698836	1335504139	8	214	1232750.042647	10.000000
K1-13080	1335504146	1336311475	8	215	1232777.182459	10.000000
K1-13080	1336311483	1337116141	8	216	1232822.787519	10.000000
K1-13080	1337116147	1337921806	8	217	1232861.005243	10.000000
K1-13080	1337921812	1338726121	8	218	1232908.246462	10.000000
K1-13080	1338726128	1339542170	8	219	1232873.986342	10.000000
K1-13080	1339542176	1340350729	8	220	1232891.551657	10.000000
K1-13080	1340350737	1341155259	8	221	1232936.546954	10.000000
K1-13080	1341155266	1341959186	8	222	1232985.245933	10.000000
K1-13080	1341959194	1342763382	8	223	1233031.701669	10.000000
K1-13080	1342763389	1343568092	8	224	1233074.267718	10.000000
K1-13080	1343568099	1344373869	8	225	1233109.274286	10.000000
K1-13080	1344373877	1345178774	8	226	1233149.829231	10.000000
K1-13080	1345178781	1345987414	8	227	1233165.112485	10.000000
K1-13080	1345987420	1346791588	8	228	1233209.920972	10.000000
K1-13080	1346791595	1347596200	8	229	1233251.446688	10.000000
K1-13080	1347596207	1348401102	8	230	1233290.706144	10.000000
K1-13080	1348401109	1349204921	8	231	1233336.730325	10.000000
K1-13080	1349204927	1350011120	8	232	1233366.824271	10.000000
K1-13080	1350011127	1350814991	8	233	1233411.797299	10.000000
K1-13080	1350814997	1351622720	8	234	1233431.414225	10.000000
K1-13080	1351622727	1352430129	8	235	1233452.928441	10.000000
K1-13080	1352430137	1353234043	8	236	1233496.698955	10.000000
K1-13080	1353234051	1354043564	8	237	1233504.258153	10.000000
K1-13080	1354043570	1354846857	8	238	1233551.404921	10.000000
K1-13080	1354846863	1355651404	8	239	1233590.211190	10.000000
K1-13080	1355651411	1356459369	8	240	1233607.114602	10.000000
K1-13080	1356459377	1357265480	8	241	1233635.537847	10.000000
K1-13080	1357265486	1358074405	8	242	1233646.104419	10.000000
K1-13080	1358074413	1358888531	8	243	1233624.145058	10.000000
K1-13080	1358888536	1359695910	8	244	1233644.268756	10.000000
K1-13080	1359695916	1360503442	8	245	1233663.295304	10.000000
K1-13080	1360503449	1361307468	8	246	1233703.765959	10.000000
K1-13080	1361307474	1362116229	8	247	1233714.852024	10.000000
K1-13080	1362116235	1362920643	8	248	1233752.422020	10.000000
K1-13080	1362920692	1363725862	8	249	1233784.792133	10.000000
K1-13080	1363725869	1364531178	8	250	1233816.317695	10.000000
K1-13080	1364531185	1365335952	8	251	1233850.862938	10.000000
K1-13080	1365335960	1366142011	8	252	1233877.416376	10.000000
K1-13080	1366142019	1366949438	8	253	1233895.549906	10.000000
K1-13080	1366949446	1367758670	8	254	1233902.776561	10.000000
K1-13080	1367758677	1368565712	8	255	1233922.965833	10.000000
K1-13080	1368565719	1369373873	8	256	1233936.369080	10.000000
K1-13080	1369373880	1370181436	8	257	1233953.192023	10.000000
K1-13080	1370181444	1370988624	8	258	1233972.096051	10.000000
K1-13080	1370988632	1371795748	8	259	1233991.235919	10.000000
K1-13080	1371795754	1372602822	8	260	1234010.509760	10.000000
K1-13080	1372602830	1373407432	8	261	1234043.970428	10.000000
K1-13080	1373407440	1374214853	8	262	1234060.889493	10.000000
K1-13080	1374214861	1375017661	8	263	1234104.304158	10.000000
K1-13080	1375017668	1375822467	8	264	1234135.904797	10.000000
K1-13080	1375822474	1376627599	8	265	1234165.402699	10.000000
K1-13080	1376627606	1377443262	8	266	1234134.598842	10.000000
K1-13080	1377443271	1378248851	8	267	1234161.289776	10.000000
K1-13080	1378248858	1379059542	8	268	1234158.893874	10.000000
K1-13080	1379059549	1379874333	8	269	1234133.375683	10.000000
K1-13080	1379874341	1380682434	8	270	1234145.645872	10.000000
K1-13080	1380682442	1381488418	8	271	1234169.686571	10.000000
K1-13080	1381488426	1382297261	8	272	1234177.605752	10.000000
K1-13080	1382297268	1383101413	8	273	1234211.540309	10.000000
K1-13080	1383101420	1383909207	8	274	1234225.055401	10.000000
K1-13080	1383909214	1384719130	8	275	1234226.716715	10.000000
K1-13080	1384719136	1385524439	8	276	1234253.746057	10.000000
K1-13080	1385524446	1386333273	8	277	1234261.265308	10.000000
K1-13080	1386333279	1387140602	8	278	1234276.953991	10.000000
K1-13080	1387140609	1387947778	8	279	1234293.358038	10.000000
K1-13080	1387947785	1388754111	8	280	1234314.216339	10.000000
K1-13080	1388754118	1389559001	8	281	1234342.718258	10.000000
K1-13080	1389559008	1390367636	8	282	1234350.862689	10.000000
K1-13080	1390367644	1391174942	8	283	1234366.085277	10.000000
K1-13080	1391174949	1391979367	8	284	1234396.598963	10.000000
K1-13080	1391979373	1392784318	8	285	1234424.098234	10.000000
K1-13080	1392784325	1393589807	8	286	1234448.545189	10.000000
K1-13080	1393589814	1394395287	8	287	1234472.881537	10.000000
K1-13080	1394395294	1395204352	8	288	1234478.140662	10.000000
K1-13080	1395204359	1396007698	8	289	1234513.417622	10.000000
K1-13080	1396007705	1396814527	8	290	1234530.206975	10.000000
K1-13080	1396814535	1397618168	8	291	1234563.527126	10.000000
K1-13080	1397618176	1398423845	8	292	1234586.035339	10.000000
K1-13080	1398423852	1399233278	8	293	1234588.913198	10.000000
K1-13080	1399233284	1400037380	8	294	1234619.311413	10.000000
K1-13080	1400037388	1400844802	8	295	1234632.418709	10.000000
K1-13080	1400844808	1401649474	8	296	1234659.547390	10.000000
K1-13080	1401649482	1402463990	8	297	1234636.134087	10.000000
K1-13080	1402463998	1403269019	8	298	1234661.254044	10.000000
K1-13080	1403269026	1404077019	8	299	1234671.100431	10.000000
K1-13080	1404077027	1404882303	8	300	1234694.647216	10.000000
K1-13080	1404882311	1405687419	8	301	1234718.881985	10.000000
K1-13080	1405687427	1406496123	8	302	1234724.904432	10.000000
K1-13080	1406496129	1407302187	8	303	1234744.122046	10.000000
K1-13080	1407302195	1408110870	8	304	1234750.132461	10.000000
K1-13080	1408110878	1408919942	8	305	1234754.160507	10.000000
K1-13080	1408919948	1409726100	8	306	1234772.634055	10.000000
K1-13080	1409726107	1410533818	8	307	1234783.265690	10.000000
K1-13080	1410533825	1411341136	8	308	1234795.802438	10.000000
K1-13080	1411341143	1412148860	8	309	1234806.261626	10.000000
K1-13080	1412148868	1412953675	8	310	1234830.916151	10.000000
K1-13080	1412953682	1413760442	8	311	1234845.873484	10.000000
K1-13080	1413760449	1414566291	8	312	1234865.207953	10.000000
K1-13080	1414566298	1415372093	8	313	1234884.643271	10.000000
K1-13080	1415372101	1416178297	8	314	1234902.019306	10.000000
K1-13080	1416178304	1416985768	8	315	1234913.166475	10.000000
K1-13080	1416985775	1417794021	8	316	1234920.481444	10.000000
K1-13080	1417794028	1418603602	8	317	1234921.381779	10.000000
K1-13080	1418603609	1419411762	8	318	1234929.065055	10.000000
K1-13080	1419411770	1420215657	8	319	1234957.036578	10.000000
K1-13080	1420215664	1421022722	8	320	1234969.763939	10.000000
K1-13080	1421022729	1421826357	8	321	1234998.668694	10.000000
K1-13080	1421826364	1422639901	8	322	1234980.595186	10.000000
K1-13080	1422639909	1423445804	8	323	1234998.611942	10.000000
K1-13080	1423445812	1424250834	8	324	1235020.610765	10.000000
K1-13080	1424250840	1425057192	8	325	1235036.261820	10.000000
K1-13080	1425057199	1425859952	8	326	1235068.601319	10.000000
K1-13080	1425859959	1426667619	8	327	1235077.924079	10.000000
K1-13080	1426667627	1427471163	8	328	1235106.307289	10.000000
K1-13080	1427471170	1428274318	8	329	1235136.313461	10.000000
K1-13080	1428274326	1429080362	8	330	1235152.833240	10.000000
K1-13080	1429080369	1429884351	8	331	1235178.692781	10.000000
K1-13080	1429884358	1430691484	8	332	1235189.993160	10.000000
K1-13080	1430691491	1431497227	8	333	1235207.575672	10.000000
K1-13080	1431497233	1432303494	8	334	1235222.662565	10.000000
K1-13080	1432303501	1433113142	8	335	1235222.315809	10.000000
K1-13080	1433113149	1433922010	8	336	1235225.498057	10.000000
K1-13080	1433922017	1434734895	8	337	1235210.528332	10.000000
K1-13080	1434734901	1435541502	8	338	1235223.898287	10.000000
K1-13080	1435541510	1436349843	8	339	1235229.412783	10.000000
K1-13080	1436349850	1437158322	8	340	1235234.281978	10.000000
K1-13080	1437158330	1437966748	8	341	1235239.354732	10.000000
K1-13080	1437966755	1438772693	8	342	1235255.434726	10.000000
K1-13080	1438772700	1439582499	8	343	1235254.295482	10.000000
K1-13080	1439582506	1440408308	8	344	1235182.389556	10.000000
K1-13080	1440408315	1441214295	8	345	1235198.308090	10.000000
K1-13080	1441214302	1442020344	8	346	1235213.862668	10.000000
K1-13080	1442020351	1442827289	8	347	1235225.395394	10.000000
K1-13080	1442827296	1443634763	8	348	1235234.558230	10.000000
K1-13080	1443634771	1444443985	8	349	1235236.039755	10.000000
K1-13080	1444443993	1445252532	8	350	1235240.451449	10.000000
K1-13080	1445252538	1446057243	8	351	1235261.470743	10.000000
K1-13080	1446057249	1446867441	8	352	1235258.644666	10.000000
K1-13080	1446867449	1447676075	8	353	1235262.580273	10.000000
K1-13080	1447676083	1448483914	8	354	1235269.915158	10.000000
K1-13080	1448483921	1449293369	8	355	1235270.278074	10.000000
K1-13080	1449293376	1450108402	8	356	1235246.797864	10.000000
K1-13080	1450108409	1450917977	8	357	1235246.711858	10.000000
K1-13080	1450917984	1451724833	8	358	1235258.178576	10.000000
K1-13080	1451724841	1452529632	8	359	1235278.309112	10.000000
K1-13080	1452529639	1453339874	8	360	1235275.317187	10.000000
K1-13080	1453339881	1454149223	8	361	1235276.101765	10.000000
K1-13080	1454149230	1454953213	8	362	1235299.417964	10.000000
K1-13080	1454953220	1455766988	8	363	1235281.581775	10.000000
K1-13080	1455766994	1456576465	8	364	1235281.811811	10.000000
K1-13080	1456576473	1457384908	8	365	1235286.351544	10.000000
K1-13080	1457384915	1458192822	8	366	1235293.066094	10.000000
K1-13080	1458192830	1459003982	8	367	1235286.284360	10.000000
K1-13080	1459003989	1459812601	8	368	1235290.043139	10.000000
K1-13080	1459812608	1460615015	8	369	1235319.381009	10.000000
K1-13080	1460615022	1461425133	8	370	1235316.868866	10.000000
K1-13080	1461425140	1462229497	8	371	1235337.974489	10.000000
K1-13080	1462229504	1463034529	8	372	1235356.234577	10.000000
K1-13080	1463034536	1463845215	8	373	1235351.326188	10.000000
K1-13080	1463845222	1464657479	8	374	1235340.018231	10.000000
K1-13080	1464657486	1465462876	8	375	1235356.649847	10.000000
K1-13080	1465462882	1466271540	8	376	1235359.964511	10.000000
K1-13080	1466271547	1467076216	8	377	1235379.358823	10.000000
K1-13080	1467076224	1467885342	8	378	1235380.739829	10.000000
K1-13080	1467885348	1468691008	8	379	1235396.005881	10.000000
K1-13080	1468691015	1469495705	8	380	1235415.069875	10.000000
K1-13080	1469495713	1470301854	8	381	1235428.241132	10.000000
K1-13080	1470301861	1471107894	8	382	1235441.770300	10.000000
K1-13080	1471107903	1471917949	8	383	1235439.278356	10.000000
K1-13080	1471917956	1472729354	8	384	1235431.443450	10.000000
K1-13080	1472729361	1473543879	8	385	1235411.312658	10.000000
K1-13080	1473543887	1474357136	8	386	1235396.287117	10.000000
K1-13080	1474357142	1475169331	8	387	1235385.516697	10.000000
K1-13080	1475169336	1475984393	8	388	1235363.553934	10.000000
K1-13080	1475984401	1476796710	8	389	1235352.445847	10.000000
K1-13080	1476796717	1477607174	8	390	1235348.627057	10.000000
K1-13080	1477607181	1478417348	8	391	1235345.956760	10.000000
K1-13080	1478417355	1479225529	8	392	1235351.039206	10.000000
K1-13080	1479225536	1480036676	8	393	1235344.607609	10.000000
K1-13080	1480036682	1480848034	8	394	1235337.393457	10.000000
K1-13080	1480848040	1481653918	8	395	1235351.311000	10.000000
K1-13080	1481653925	1482465001	8	396	1235345.169490	10.000000
K1-13080	1482465007	1483273483	8	397	1235349.039739	10.000000
K1-13080	1483273490	1484083285	8	398	1235347.834243	10.000000
K1-13080	1484083291	1484889938	8	399	1235358.656598	10.000000
K1-13080	1484889945	1485701067	8	400	1235352.386702	10.000000
K1-13080	1485701074	1486506907	8	401	1235366.222796	10.000000
K1-13080	1486506915	1487313489	8	402	1235377.188153	10.000000
K1-13080	1487313497	1488120073	8	403	1235388.088086	10.000000
K1-13080	1488120081	1488933812	8	404	1235371.971919	10.000000
K1-13080	1488933818	1489737933	8	405	1235392.089502	10.000000
K1-13080	1489737941	1490548198	8	406	1235389.069412	10.000000
K1-13080	1490548206	1491355840	8	407	1235395.875902	10.000000
K1-13080	1491355848	1492163486	8	408	1235402.630524	10.000000
K1-13080	1492163493	1492970051	8	409	1235413.383782	10.000000
K1-13080	1492970058	1493776373	8	410	1235424.983579	10.000000
K1-13080	1493776381	1494589441	8	411	1235411.536423	10.000000
K1-13080	1494589449	1495394324	8	412	1235428.402433	10.000000
K1-13080	1495394331	1496202359	8	413	1235433.566816	10.000000
K1-13080	1496202366	1497009316	8	414	1235442.671091	10.000000
K1-13080	1497009323	1497814795	8	415	1235457.154667	10.000000
K1-13080	1497814802	1498621506	8	416	1235467.059508	10.000000
K1-13080	1498621513	1499430809	8	417	1235467.452027	10.000000
K1-13080	1499430816	1500241488	8	418	1235462.830044	10.000000
K1-13080	1500241494	1501055426	8	419	1235446.386414	10.000000
K1-13080	1501055432	1501865528	8	420	1235443.928472	10.000000
K1-13080	1501865535	1502676060	8	421	1235439.926940	10.000000
K1-13080	1502676067	1503484955	8	422	1235441.851134	10.000000
K1-13080	1503484961	1504294538	8	423	1235441.285991	10.000000
K1-13080	1504294545	1505107680	8	424	1235427.945700	10.000000
K1-13080	1505107688	1505916229	8	425	1235431.127676	10.000000
K1-13080	1505916236	1506721079	8	426	1235447.513288	10.000000
K1-13080	1506721086	1507527513	8	427	1235458.173792	10.000000
K1-13080	1507527520	1508332491	8	428	1235473.961694	10.000000
K1-13080	1508332498	1509140614	8	429	1235478.515942	10.000000
K1-13080	1509140621	1509949642	8	430	1235479.843975	10.000000
K1-13080	1509949650	1510755434	8	431	1235492.603470	10.000000
K1-13080	1510755441	1511560004	8	432	1235509.608751	10.000000
K1-13080	1511560010	1512365288	8	433	1235524.024755	10.000000
K1-13080	1512365295	1513173288	8	434	1235528.840058	10.000000
K1-13080	1513173295	1513977399	8	435	1235547.256809	10.000000
K1-13080	1513977406	1514790920	8	436	1235532.714165	10.000000
K1-13080	1514790926	1515602555	8	437	1235524.811335	10.000000
K1-13080	1515602562	1516420324	8	438	1235495.615675	10.000000
K1-13080	1516420331	1517229731	8	439	1235495.559417	10.000000
K1-13080	1517229739	1518034473	8	440	1235511.654219	10.000000
K1-13080	1518034481	1518839903	8	441	1235525.307386	10.000000
K1-13080	1518839910	1519653707	8	442	1235510.029710	10.000000
K1-13080	1519653715	1520462154	8	443	1235513.248886	10.000000
K1-13080	1520462161	1521273536	8	444	1235506.382216	10.000000
K1-13080	1521273542	1522082203	8	445	1235508.838719	10.000000
K1-13080	1522082210	1522888003	8	446	1235521.075015	10.000000
K1-13080	1522888010	1523695404	8	447	1235527.801605	10.000000
K1-13080	1523695411	1524500133	8	448	1235543.579448	10.000000
K1-13080	1524500140	1525308254	8	449	1235547.783844	10.000000
K1-13080	1525308260	1526114296	8	450	1235559.010250	10.000000
K1-13080	1526114302	1526921026	8	451	1235567.860086	10.000000
K1-13080	1526921033	1527728887	8	452	1235572.859419	10.000000
K1-13080	1527728894	1528534535	8	453	1235585.278403	10.000000
K1-13080	1528534542	1529343882	8	454	1235585.231591	10.000000
K1-13080	1529343889	1530148688	8	455	1235600.388268	10.000000
K1-13080	1530148695	1530957686	8	456	1235601.471167	10.000000
K1-13080	1530957694	1531769286	8	457	1235593.882467	10.000000
K1-13080	1531769294	1532574832	8	458	1235606.460053	10.000000
K1-13080	1532574839	1533384631	8	459	1235604.867531	10.000000
K1-13080	1533384638	1534189618	8	460	1235619.218255	10.000000
K1-13080	1534189625	1535017655	8	461	1235557.334306	10.000000
K1-13080	1535017664	1535828146	8	462	1235553.576677	10.000000
K1-13080	1535828153	1536640743	8	463	1235542.909750	10.000000
K1-13080	1536640750	1537454245	8	464	1235529.311319	10.000000
K1-13080	1537454253	1538264847	8	465	1235525.277845	10.000000
K1-13080	1538264854	1539071730	8	466	1235533.415055	10.000000
K1-13080	1539071738	1539878915	8	467	1235540.529247	10.000000
K1-13080	1539878923	1540683651	8	468	1235555.591150	10.000000
K1-13080	1540683659	1541496217	8	469	1235545.153516	10.000000
K1-13080	1541496224	1542304390	8	470	1235548.998582	10.000000
K1-13080	1542304397	1543115566	8	471	1235543.114846	10.000000
K1-13080	1543115573	1543930478	8	472	1235525.195431	10.000000
K1-13080	1543930486	1544735551	8	473	1235539.045093	10.000000
K1-13080	1544735558	1545548352	8	474	1235527.997206	10.000000
K1-13080	1545548360	1546356586	8	475	1235531.642192	10.000000
K1-13080	1546356593	1547165145	8	476	1235534.228617	10.000000
K1-13080	1547165152	1547973143	8	477	1235538.602243	10.000000
K1-13080	1547973149	1548784655	8	478	1235531.755482	10.000000
K1-13080	1548784662	1549592326	8	479	1235537.152802	10.000000
K1-13080	1549592332	1550403679	8	480	1235530.842153	10.000000
K1-13080	1550403685	1551216144	8	481	1235521.035998	10.000000
K1-13080	1551216151	1552029442	8	482	1235508.637969	10.000000
K1-13080	1552029449	1552841193	8	483	1235501.170405	10.000000
K1-13080	1552841200	1553657972	8	484	1235477.909259	10.000000
K1-13080	1553657979	1554468183	8	485	1235475.372741	10.000000
K1-13080	1554468191	1555273220	8	486	1235489.060480	10.000000
K1-13080	1555273227	1556082623	8	487	1235489.041957	10.000000
K1-13080	1556082630	1556890497	8	488	1235493.793240	10.000000
K1-13080	1556890504	1557693400	8	489	1235514.011108	10.000000
K1-13080	1557693406	1558502598	8	490	1235514.576107	10.000000
K1-13080	1558502606	1559313155	8	491	1235510.922338	10.000000
K1-13080	1559313162	1560118773	8	492	1235522.576253	10.000000
K1-13080	1560118780	1560922961	8	493	1235538.602165	10.000000
K1-13080	1560922968	1561727986	8	494	1235551.982411	10.000000
K1-13080	1561727993	1562535747	8	495	1235556.888008	10.000000
K1-13080	1562535755	1563340609	8	496	1235570.675626	10.000000
K1-13080	1563340617	1564149975	8	497	1235570.607000	10.000000
K1-13080	1564149983	1564964143	8	498	1235555.844584	10.000000
K1-13080	1564964150	1565767973	8	499	1235572.705568	10.000000
