HW:	CPU	TSS:	2.06478	AT:	0	#T:	4	DSTSS:	10	DETSS:	484307	DTSS:	484312
HW:	CPU	TSS:	1.48061	AT:	2.308	#T:	4	DSTSS:	484338	DETSS:	1350787	DTSS:	1350795
HW:	CPU	TSS:	1.37977	AT:	1.77511	#T:	4	DSTSS:	1350823	DETSS:	2174271	DTSS:	2174279
HW:	CPU	TSS:	1.33669	AT:	1.59474	#T:	4	DSTSS:	2174310	DETSS:	2992459	DTSS:	2992464
HW:	CPU	TSS:	1.33693	AT:	1.53577	#T:	4	DSTSS:	2992473	DETSS:	3739918	DTSS:	3739924
HW:	CPU	TSS:	1.34426	AT:	1.50785	#T:	4	DSTSS:	3739943	DETSS:	4463403	DTSS:	4463409
HW:	CPU	TSS:	1.37519	AT:	1.51976	#T:	15	DSTSS:	4463417	DETSS:	5090207	DTSS:	5090211
HW:	CPU	TSS:	1.4398	AT:	1.57726	#T:	15	DSTSS:	5090219	DETSS:	5556309	DTSS:	5556315
HW:	CPU	TSS:	1.49247	AT:	1.62278	#T:	15	DSTSS:	5556324	DETSS:	6030260	DTSS:	6030265
HW:	CPU	TSS:	1.52899	AT:	1.65124	#T:	8	DSTSS:	6030282	DETSS:	6540256	DTSS:	6540262
HW:	CPU	TSS:	1.46377	AT:	1.56508	#T:	8	DSTSS:	6540270	DETSS:	7514811	DTSS:	7514817
HW:	CPU	TSS:	1.39853	AT:	1.48217	#T:	3	DSTSS:	7514825	DETSS:	8580435	DTSS:	8580443
HW:	CPU	TSS:	1.37496	AT:	1.44918	#T:	3	DSTSS:	8580458	DETSS:	9454830	DTSS:	9454839
HW:	CPU	TSS:	1.32996	AT:	1.39409	#T:	8	DSTSS:	9454855	DETSS:	10526590	DTSS:	10526595
HW:	CPU	TSS:	1.30413	AT:	1.36145	#T:	8	DSTSS:	10526604	DETSS:	11501892	DTSS:	11501898
HW:	CPU	TSS:	1.28251	AT:	1.3343	#T:	8	DSTSS:	11501906	DETSS:	12475504	DTSS:	12475510
HW:	CPU	TSS:	1.2534	AT:	1.2998	#T:	4	DSTSS:	12475517	DETSS:	13563136	DTSS:	13563147
HW:	CPU	TSS:	1.25098	AT:	1.30389	#T:	4	DSTSS:	13563195	DETSS:	14388731	DTSS:	14388742
HW:	CPU	TSS:	1.24803	AT:	1.30271	#T:	4	DSTSS:	14388758	DETSS:	15223986	DTSS:	15223996
HW:	CPU	TSS:	1.24686	AT:	1.3029	#T:	4	DSTSS:	15224014	DETSS:	16040255	DTSS:	16040265
HW:	CPU	TSS:	1.24411	AT:	1.2938	#T:	4	DSTSS:	16040283	DETSS:	16879564	DTSS:	16879574
HW:	CPU	TSS:	1.24335	AT:	1.28489	#T:	4	DSTSS:	16879591	DETSS:	17694134	DTSS:	17694145
HW:	CPU	TSS:	1.24221	AT:	1.26628	#T:	4	DSTSS:	17694161	DETSS:	18515395	DTSS:	18515405
HW:	CPU	TSS:	1.2402	AT:	1.23229	#T:	4	DSTSS:	18515422	DETSS:	19351735	DTSS:	19351746
HW:	CPU	TSS:	1.23931	AT:	1.20207	#T:	4	DSTSS:	19351764	DETSS:	20172577	DTSS:	20172587
HW:	CPU	TSS:	1.23746	AT:	1.1748	#T:	4	DSTSS:	20172604	DETSS:	21010763	DTSS:	21010774
HW:	CPU	TSS:	1.23704	AT:	1.18767	#T:	4	DSTSS:	21010791	DETSS:	21826354	DTSS:	21826364
HW:	CPU	TSS:	1.23667	AT:	1.20902	#T:	4	DSTSS:	21826381	DETSS:	22641445	DTSS:	22641456
HW:	CPU	TSS:	1.23513	AT:	1.21217	#T:	4	DSTSS:	22641473	DETSS:	23479260	DTSS:	23479270
HW:	CPU	TSS:	1.23485	AT:	1.23476	#T:	4	DSTSS:	23479288	DETSS:	24294435	DTSS:	24294445
HW:	CPU	TSS:	1.23266	AT:	1.2457	#T:	4	DSTSS:	24294462	DETSS:	25148890	DTSS:	25148900
HW:	CPU	TSS:	1.23246	AT:	1.2603	#T:	4	DSTSS:	25148917	DETSS:	25964385	DTSS:	25964396
HW:	CPU	TSS:	1.23141	AT:	1.28443	#T:	4	DSTSS:	25964413	DETSS:	26798530	DTSS:	26798540
HW:	CPU	TSS:	1.2312	AT:	1.28529	#T:	4	DSTSS:	26798662	DETSS:	27615339	DTSS:	27615350
HW:	CPU	TSS:	1.23097	AT:	1.28701	#T:	4	DSTSS:	27615367	DETSS:	28432919	DTSS:	28432929
HW:	CPU	TSS:	1.23016	AT:	1.28553	#T:	4	DSTSS:	28432946	DETSS:	29264390	DTSS:	29264400
HW:	CPU	TSS:	1.22982	AT:	1.28728	#T:	4	DSTSS:	29264417	DETSS:	30085715	DTSS:	30085726
HW:	CPU	TSS:	1.22911	AT:	1.28568	#T:	4	DSTSS:	30085743	DETSS:	30916669	DTSS:	30916679
HW:	CPU	TSS:	1.22899	AT:	1.28613	#T:	4	DSTSS:	30916696	DETSS:	31733294	DTSS:	31733304
HW:	CPU	TSS:	1.22888	AT:	1.28806	#T:	4	DSTSS:	31733321	DETSS:	32549886	DTSS:	32549896
HW:	CPU	TSS:	1.22824	AT:	1.28704	#T:	4	DSTSS:	32549913	DETSS:	33381132	DTSS:	33381143
HW:	CPU	TSS:	1.22794	AT:	1.28857	#T:	4	DSTSS:	33381160	DETSS:	34203635	DTSS:	34203646
HW:	CPU	TSS:	1.22727	AT:	1.28682	#T:	4	DSTSS:	34203663	DETSS:	35037209	DTSS:	35037220
HW:	CPU	TSS:	1.22711	AT:	1.28639	#T:	4	DSTSS:	35037236	DETSS:	35856699	DTSS:	35856709
HW:	CPU	TSS:	1.22677	AT:	1.28764	#T:	4	DSTSS:	35856726	DETSS:	36681730	DTSS:	36681741
HW:	CPU	TSS:	1.2266	AT:	1.28714	#T:	4	DSTSS:	36681758	DETSS:	37502043	DTSS:	37502053
HW:	CPU	TSS:	1.22646	AT:	1.29055	#T:	4	DSTSS:	37502070	DETSS:	38321599	DTSS:	38321609
HW:	CPU	TSS:	1.22574	AT:	1.28831	#T:	4	DSTSS:	38321626	DETSS:	39159987	DTSS:	39159997
HW:	CPU	TSS:	1.22559	AT:	1.28961	#T:	4	DSTSS:	39160014	DETSS:	39980816	DTSS:	39980827
HW:	CPU	TSS:	1.22485	AT:	1.28728	#T:	4	DSTSS:	39980843	DETSS:	40821477	DTSS:	40821488
HW:	CPU	TSS:	1.22486	AT:	1.28743	#T:	4	DSTSS:	40821505	DETSS:	41637539	DTSS:	41637550
HW:	CPU	TSS:	1.22491	AT:	1.28909	#T:	4	DSTSS:	41637567	DETSS:	42452030	DTSS:	42452041
HW:	CPU	TSS:	1.22427	AT:	1.28734	#T:	4	DSTSS:	42452057	DETSS:	43291241	DTSS:	43291251
HW:	CPU	TSS:	1.22414	AT:	1.28827	#T:	4	DSTSS:	43291268	DETSS:	44112649	DTSS:	44112659
HW:	CPU	TSS:	1.22361	AT:	1.28636	#T:	4	DSTSS:	44112677	DETSS:	44948910	DTSS:	44948921
HW:	CPU	TSS:	1.22359	AT:	1.28623	#T:	4	DSTSS:	44948938	DETSS:	45766849	DTSS:	45766860
HW:	CPU	TSS:	1.22356	AT:	1.28746	#T:	4	DSTSS:	45766876	DETSS:	46585386	DTSS:	46585397
HW:	CPU	TSS:	1.22305	AT:	1.28604	#T:	4	DSTSS:	46585414	DETSS:	47422509	DTSS:	47422519
HW:	CPU	TSS:	1.22307	AT:	1.28769	#T:	4	DSTSS:	47422536	DETSS:	48239121	DTSS:	48239132
HW:	CPU	TSS:	1.22265	AT:	1.28623	#T:	4	DSTSS:	48239149	DETSS:	49073582	DTSS:	49073593
HW:	CPU	TSS:	1.22268	AT:	1.28703	#T:	4	DSTSS:	49073609	DETSS:	49890457	DTSS:	49890468
HW:	CPU	TSS:	1.2222	AT:	1.28534	#T:	4	DSTSS:	49890485	DETSS:	50728142	DTSS:	50728152
HW:	CPU	TSS:	1.22225	AT:	1.28565	#T:	4	DSTSS:	50728168	DETSS:	51544435	DTSS:	51544446
HW:	CPU	TSS:	1.22229	AT:	1.2878	#T:	4	DSTSS:	51544463	DETSS:	52360834	DTSS:	52360844
HW:	CPU	TSS:	1.22181	AT:	1.28605	#T:	4	DSTSS:	52360861	DETSS:	53199539	DTSS:	53199549
HW:	CPU	TSS:	1.22187	AT:	1.28845	#T:	4	DSTSS:	53199755	DETSS:	54015612	DTSS:	54015623
HW:	CPU	TSS:	1.22141	AT:	1.28621	#T:	4	DSTSS:	54015640	DETSS:	54854643	DTSS:	54854653
HW:	CPU	TSS:	1.22148	AT:	1.2861	#T:	4	DSTSS:	54854670	DETSS:	55670301	DTSS:	55670312
HW:	CPU	TSS:	1.22154	AT:	1.28837	#T:	4	DSTSS:	55670329	DETSS:	56486120	DTSS:	56486130
HW:	CPU	TSS:	1.2211	AT:	1.28664	#T:	4	DSTSS:	56486147	DETSS:	57325400	DTSS:	57325410
HW:	CPU	TSS:	1.22118	AT:	1.28868	#T:	4	DSTSS:	57325427	DETSS:	58140669	DTSS:	58140679
HW:	CPU	TSS:	1.22077	AT:	1.28668	#T:	4	DSTSS:	58140696	DETSS:	58979128	DTSS:	58979138
HW:	CPU	TSS:	1.22071	AT:	1.28631	#T:	4	DSTSS:	58979155	DETSS:	59801465	DTSS:	59801475
HW:	CPU	TSS:	1.22068	AT:	1.28794	#T:	4	DSTSS:	59801492	DETSS:	60621861	DTSS:	60621872
HW:	CPU	TSS:	1.22031	AT:	1.28584	#T:	4	DSTSS:	60621889	DETSS:	61460025	DTSS:	61460035
HW:	CPU	TSS:	1.22031	AT:	1.28735	#T:	4	DSTSS:	61460052	DETSS:	62279031	DTSS:	62279041
HW:	CPU	TSS:	1.22004	AT:	1.28573	#T:	4	DSTSS:	62279058	DETSS:	63112532	DTSS:	63112542
HW:	CPU	TSS:	1.22007	AT:	1.28763	#T:	4	DSTSS:	63112559	DETSS:	63930674	DTSS:	63930684
HW:	CPU	TSS:	1.21972	AT:	1.28548	#T:	4	DSTSS:	63930701	DETSS:	64769042	DTSS:	64769068
HW:	CPU	TSS:	1.21972	AT:	1.28516	#T:	4	DSTSS:	64769084	DETSS:	65588749	DTSS:	65588759
HW:	CPU	TSS:	1.21974	AT:	1.28712	#T:	4	DSTSS:	65588777	DETSS:	66407326	DTSS:	66407336
HW:	CPU	TSS:	1.21941	AT:	1.28495	#T:	4	DSTSS:	66407353	DETSS:	67245705	DTSS:	67245715
HW:	CPU	TSS:	1.21945	AT:	1.28701	#T:	4	DSTSS:	67245731	DETSS:	68063562	DTSS:	68063572
HW:	CPU	TSS:	1.21913	AT:	1.28484	#T:	4	DSTSS:	68063589	DETSS:	68901526	DTSS:	68901537
HW:	CPU	TSS:	1.21919	AT:	1.28475	#T:	4	DSTSS:	68901554	DETSS:	69718255	DTSS:	69718266
HW:	CPU	TSS:	1.21924	AT:	1.28688	#T:	4	DSTSS:	69718283	DETSS:	70535626	DTSS:	70535637
HW:	CPU	TSS:	1.21892	AT:	1.28459	#T:	4	DSTSS:	70535653	DETSS:	71374439	DTSS:	71374449
HW:	CPU	TSS:	1.21891	AT:	1.2863	#T:	4	DSTSS:	71374467	DETSS:	72195360	DTSS:	72195370
HW:	CPU	TSS:	1.21861	AT:	1.28472	#T:	4	DSTSS:	72195387	DETSS:	73033891	DTSS:	73033902
HW:	CPU	TSS:	1.21861	AT:	1.28469	#T:	4	DSTSS:	73033919	DETSS:	73854671	DTSS:	73854682
HW:	CPU	TSS:	1.21848	AT:	1.28562	#T:	4	DSTSS:	73854699	DETSS:	74683214	DTSS:	74683224
HW:	CPU	TSS:	1.2185	AT:	1.28555	#T:	4	DSTSS:	74683241	DETSS:	75502915	DTSS:	75502926
HW:	CPU	TSS:	1.21851	AT:	1.28687	#T:	4	DSTSS:	75502942	DETSS:	76322890	DTSS:	76322901
HW:	CPU	TSS:	1.21831	AT:	1.28542	#T:	4	DSTSS:	76322917	DETSS:	77155884	DTSS:	77155895
HW:	CPU	TSS:	1.21835	AT:	1.28736	#T:	4	DSTSS:	77155912	DETSS:	77974346	DTSS:	77974357
HW:	CPU	TSS:	1.21815	AT:	1.28599	#T:	4	DSTSS:	77974373	DETSS:	78808134	DTSS:	78808145
HW:	CPU	TSS:	1.21821	AT:	1.28613	#T:	4	DSTSS:	78808162	DETSS:	79625267	DTSS:	79625278
HW:	CPU	TSS:	1.21826	AT:	1.28817	#T:	4	DSTSS:	79625295	DETSS:	80442748	DTSS:	80442758
HW:	CPU	TSS:	1.21805	AT:	1.28653	#T:	4	DSTSS:	80442775	DETSS:	81277408	DTSS:	81277418
HW:	CPU	TSS:	1.21812	AT:	1.28861	#T:	4	DSTSS:	81277435	DETSS:	82094011	DTSS:	82094022
HW:	CPU	TSS:	1.21792	AT:	1.28693	#T:	4	DSTSS:	82094039	DETSS:	82928037	DTSS:	82928047
HW:	CPU	TSS:	1.21799	AT:	1.287	#T:	4	DSTSS:	82928064	DETSS:	83744634	DTSS:	83744644
HW:	CPU	TSS:	1.21806	AT:	1.28922	#T:	4	DSTSS:	83744661	DETSS:	84560658	DTSS:	84560669
HW:	CPU	TSS:	1.21785	AT:	1.28776	#T:	4	DSTSS:	84560685	DETSS:	85396627	DTSS:	85396637
HW:	CPU	TSS:	1.21791	AT:	1.28988	#T:	4	DSTSS:	85396654	DETSS:	86213454	DTSS:	86213465
HW:	CPU	TSS:	1.21772	AT:	1.28856	#T:	4	DSTSS:	86213482	DETSS:	87047671	DTSS:	87047681
HW:	CPU	TSS:	1.2177	AT:	1.28914	#T:	4	DSTSS:	87047698	DETSS:	87870343	DTSS:	87870353
HW:	CPU	TSS:	1.21764	AT:	1.28855	#T:	4	DSTSS:	87870370	DETSS:	88696053	DTSS:	88696064
HW:	CPU	TSS:	1.21766	AT:	1.28857	#T:	4	DSTSS:	88696081	DETSS:	89515859	DTSS:	89515869
HW:	CPU	TSS:	1.21766	AT:	1.2897	#T:	4	DSTSS:	89515886	DETSS:	90337230	DTSS:	90337240
HW:	CPU	TSS:	1.21751	AT:	1.28837	#T:	4	DSTSS:	90337258	DETSS:	91169321	DTSS:	91169332
HW:	CPU	TSS:	1.21753	AT:	1.28973	#T:	4	DSTSS:	91169349	DETSS:	91989219	DTSS:	91989229
HW:	CPU	TSS:	1.21739	AT:	1.28823	#T:	4	DSTSS:	91989246	DETSS:	92821664	DTSS:	92821674
HW:	CPU	TSS:	1.21744	AT:	1.28825	#T:	4	DSTSS:	92821692	DETSS:	93638926	DTSS:	93638936
HW:	CPU	TSS:	1.21749	AT:	1.28992	#T:	4	DSTSS:	93638953	DETSS:	94456558	DTSS:	94456568
HW:	CPU	TSS:	1.21729	AT:	1.28794	#T:	4	DSTSS:	94456585	DETSS:	95293357	DTSS:	95293367
HW:	CPU	TSS:	1.21736	AT:	1.28965	#T:	4	DSTSS:	95293384	DETSS:	96109957	DTSS:	96109967
HW:	CPU	TSS:	1.21722	AT:	1.28814	#T:	4	DSTSS:	96109984	DETSS:	96941994	DTSS:	96942005
HW:	CPU	TSS:	1.21729	AT:	1.2881	#T:	4	DSTSS:	96942022	DETSS:	97758406	DTSS:	97758417
HW:	CPU	TSS:	1.21735	AT:	1.29003	#T:	4	DSTSS:	97758433	DETSS:	98574580	DTSS:	98574591
HW:	CPU	TSS:	1.21718	AT:	1.28824	#T:	4	DSTSS:	98574608	DETSS:	99409725	DTSS:	99409735
HW:	CPU	TSS:	1.21725	AT:	1.28997	#T:	4	DSTSS:	99409752	DETSS:	100226276	DTSS:	100226287
HW:	CPU	TSS:	1.21704	AT:	1.28843	#T:	4	DSTSS:	100226304	DETSS:	101064680	DTSS:	101064690
HW:	CPU	TSS:	1.21711	AT:	1.2894	#T:	4	DSTSS:	101064707	DETSS:	101880467	DTSS:	101880477
HW:	CPU	TSS:	1.217	AT:	1.28826	#T:	4	DSTSS:	101880493	DETSS:	102711939	DTSS:	102711950
HW:	CPU	TSS:	1.21707	AT:	1.28882	#T:	4	DSTSS:	102711967	DETSS:	103527558	DTSS:	103527568
HW:	CPU	TSS:	1.21715	AT:	1.29051	#T:	4	DSTSS:	103527585	DETSS:	104342440	DTSS:	104342451
HW:	CPU	TSS:	1.21703	AT:	1.28936	#T:	4	DSTSS:	104342468	DETSS:	105174073	DTSS:	105174083
HW:	CPU	TSS:	1.21711	AT:	1.2911	#T:	4	DSTSS:	105174100	DETSS:	105988703	DTSS:	105988714
HW:	CPU	TSS:	1.21696	AT:	1.28939	#T:	4	DSTSS:	105989018	DETSS:	106823500	DTSS:	106823511
HW:	CPU	TSS:	1.21702	AT:	1.28952	#T:	4	DSTSS:	106823528	DETSS:	107639781	DTSS:	107639792
HW:	CPU	TSS:	1.21708	AT:	1.29153	#T:	4	DSTSS:	107639809	DETSS:	108455996	DTSS:	108456006
HW:	CPU	TSS:	1.21697	AT:	1.29001	#T:	4	DSTSS:	108456023	DETSS:	109288199	DTSS:	109288209
HW:	CPU	TSS:	1.21703	AT:	1.29157	#T:	4	DSTSS:	109288227	DETSS:	110104229	DTSS:	110104240
HW:	CPU	TSS:	1.2169	AT:	1.28993	#T:	4	DSTSS:	110104257	DETSS:	110937397	DTSS:	110937407
HW:	CPU	TSS:	1.21693	AT:	1.28964	#T:	4	DSTSS:	110937424	DETSS:	111756588	DTSS:	111756598
HW:	CPU	TSS:	1.21696	AT:	1.29125	#T:	4	DSTSS:	111756615	DETSS:	112575297	DTSS:	112575307
HW:	CPU	TSS:	1.21684	AT:	1.28961	#T:	4	DSTSS:	112575325	DETSS:	113408569	DTSS:	113408579
HW:	CPU	TSS:	1.21687	AT:	1.29152	#T:	4	DSTSS:	113408596	DETSS:	114227502	DTSS:	114227512
HW:	CPU	TSS:	1.21674	AT:	1.28971	#T:	4	DSTSS:	114227529	DETSS:	115061695	DTSS:	115061706
HW:	CPU	TSS:	1.21677	AT:	1.29094	#T:	4	DSTSS:	115061723	DETSS:	115880592	DTSS:	115880602
HW:	CPU	TSS:	1.21666	AT:	1.28931	#T:	4	DSTSS:	115880620	DETSS:	116712943	DTSS:	116712953
HW:	CPU	TSS:	1.21672	AT:	1.28914	#T:	4	DSTSS:	116712970	DETSS:	117529560	DTSS:	117529570
HW:	CPU	TSS:	1.21675	AT:	1.2904	#T:	4	DSTSS:	117529587	DETSS:	118348238	DTSS:	118348248
HW:	CPU	TSS:	1.21665	AT:	1.28875	#T:	4	DSTSS:	118348265	DETSS:	119179765	DTSS:	119179776
HW:	CPU	TSS:	1.21671	AT:	1.29061	#T:	4	DSTSS:	119179794	DETSS:	119995577	DTSS:	119995588
HW:	CPU	TSS:	1.2166	AT:	1.28896	#T:	4	DSTSS:	119995605	DETSS:	120828751	DTSS:	120828762
HW:	CPU	TSS:	1.21664	AT:	1.28879	#T:	4	DSTSS:	120828779	DETSS:	121646673	DTSS:	121646684
HW:	CPU	TSS:	1.21668	AT:	1.29022	#T:	4	DSTSS:	121646701	DETSS:	122464217	DTSS:	122464227
HW:	CPU	TSS:	1.21656	AT:	1.28843	#T:	4	DSTSS:	122464245	DETSS:	123298573	DTSS:	123298584
HW:	CPU	TSS:	1.21662	AT:	1.29013	#T:	4	DSTSS:	123298601	DETSS:	124114346	DTSS:	124114357
HW:	CPU	TSS:	1.21653	AT:	1.28895	#T:	4	DSTSS:	124114374	DETSS:	124945651	DTSS:	124945661
HW:	CPU	TSS:	1.21658	AT:	1.2891	#T:	4	DSTSS:	124945678	DETSS:	125762825	DTSS:	125762836
HW:	CPU	TSS:	1.21664	AT:	1.29082	#T:	4	DSTSS:	125762853	DETSS:	126578496	DTSS:	126578506
HW:	CPU	TSS:	1.21656	AT:	1.28969	#T:	4	DSTSS:	126578523	DETSS:	127408938	DTSS:	127408948
HW:	CPU	TSS:	1.21661	AT:	1.29143	#T:	4	DSTSS:	127408966	DETSS:	128225408	DTSS:	128225418
HW:	CPU	TSS:	1.21649	AT:	1.28994	#T:	4	DSTSS:	128225435	DETSS:	129059486	DTSS:	129059496
HW:	CPU	TSS:	1.2165	AT:	1.29102	#T:	4	DSTSS:	129059514	DETSS:	129880775	DTSS:	129880786
HW:	CPU	TSS:	1.2164	AT:	1.28941	#T:	4	DSTSS:	129880803	DETSS:	130713925	DTSS:	130713936
HW:	CPU	TSS:	1.21644	AT:	1.28952	#T:	4	DSTSS:	130713953	DETSS:	131531462	DTSS:	131531472
HW:	CPU	TSS:	1.21648	AT:	1.29092	#T:	4	DSTSS:	131531532	DETSS:	132348718	DTSS:	132348729
HW:	CPU	TSS:	1.21638	AT:	1.28918	#T:	4	DSTSS:	132348746	DETSS:	133182264	DTSS:	133182275
HW:	CPU	TSS:	1.2164	AT:	1.29046	#T:	4	DSTSS:	133182291	DETSS:	134002313	DTSS:	134002323
HW:	CPU	TSS:	1.21628	AT:	1.28884	#T:	4	DSTSS:	134002340	DETSS:	134836861	DTSS:	134836872
HW:	CPU	TSS:	1.21632	AT:	1.28878	#T:	4	DSTSS:	134836889	DETSS:	135654947	DTSS:	135654957
HW:	CPU	TSS:	1.21635	AT:	1.29031	#T:	4	DSTSS:	135654974	DETSS:	136473671	DTSS:	136473681
HW:	CPU	TSS:	1.21626	AT:	1.28873	#T:	4	DSTSS:	136473698	DETSS:	137305593	DTSS:	137305604
HW:	CPU	TSS:	1.21629	AT:	1.28995	#T:	4	DSTSS:	137305620	DETSS:	138124484	DTSS:	138124495
HW:	CPU	TSS:	1.21617	AT:	1.28808	#T:	4	DSTSS:	138124512	DETSS:	138960723	DTSS:	138960733
HW:	CPU	TSS:	1.2162	AT:	1.2878	#T:	4	DSTSS:	138960751	DETSS:	139779342	DTSS:	139779353
HW:	CPU	TSS:	1.21626	AT:	1.28919	#T:	4	DSTSS:	139779370	DETSS:	140595464	DTSS:	140595474
HW:	CPU	TSS:	1.21615	AT:	1.28739	#T:	4	DSTSS:	140595491	DETSS:	141430441	DTSS:	141430452
HW:	CPU	TSS:	1.21621	AT:	1.28926	#T:	4	DSTSS:	141430469	DETSS:	142245353	DTSS:	142245364
HW:	CPU	TSS:	1.2161	AT:	1.28792	#T:	4	DSTSS:	142245381	DETSS:	143080346	DTSS:	143080357
HW:	CPU	TSS:	1.21612	AT:	1.2892	#T:	4	DSTSS:	143080373	DETSS:	143900400	DTSS:	143900410
HW:	CPU	TSS:	1.21602	AT:	1.28759	#T:	4	DSTSS:	143900427	DETSS:	144734398	DTSS:	144734409
HW:	CPU	TSS:	1.21604	AT:	1.28731	#T:	4	DSTSS:	144734426	DETSS:	145554573	DTSS:	145554583
HW:	CPU	TSS:	1.21606	AT:	1.28865	#T:	4	DSTSS:	145554600	DETSS:	146374362	DTSS:	146374373
HW:	CPU	TSS:	1.21598	AT:	1.2875	#T:	4	DSTSS:	146374390	DETSS:	147206152	DTSS:	147206163
HW:	CPU	TSS:	1.216	AT:	1.28894	#T:	4	DSTSS:	147206179	DETSS:	148026007	DTSS:	148026017
HW:	CPU	TSS:	1.21591	AT:	1.28742	#T:	4	DSTSS:	148026034	DETSS:	148859639	DTSS:	148859650
HW:	CPU	TSS:	1.21595	AT:	1.28756	#T:	4	DSTSS:	148859667	DETSS:	149676915	DTSS:	149676925
HW:	CPU	TSS:	1.21596	AT:	1.28856	#T:	4	DSTSS:	149676942	DETSS:	150498631	DTSS:	150498641
HW:	CPU	TSS:	1.21586	AT:	1.287	#T:	4	DSTSS:	150498658	DETSS:	151333541	DTSS:	151333552
HW:	CPU	TSS:	1.21588	AT:	1.28858	#T:	4	DSTSS:	151333569	DETSS:	152153499	DTSS:	152153509
HW:	CPU	TSS:	1.21581	AT:	1.28739	#T:	4	DSTSS:	152153527	DETSS:	152984324	DTSS:	152984334
HW:	CPU	TSS:	1.21584	AT:	1.28708	#T:	4	DSTSS:	152984351	DETSS:	153803659	DTSS:	153803669
HW:	CPU	TSS:	1.21585	AT:	1.28853	#T:	4	DSTSS:	153803686	DETSS:	154623745	DTSS:	154623756
HW:	CPU	TSS:	1.21577	AT:	1.28669	#T:	4	DSTSS:	154623773	DETSS:	155457525	DTSS:	155457536
HW:	CPU	TSS:	1.21577	AT:	1.28793	#T:	4	DSTSS:	155457553	DETSS:	156279832	DTSS:	156279842
HW:	CPU	TSS:	1.21568	AT:	1.28657	#T:	4	DSTSS:	156279858	DETSS:	157113855	DTSS:	157113866
HW:	CPU	TSS:	1.21569	AT:	1.28779	#T:	4	DSTSS:	157113883	DETSS:	157935284	DTSS:	157935295
HW:	CPU	TSS:	1.21563	AT:	1.28682	#T:	4	DSTSS:	157935312	DETSS:	158765404	DTSS:	158765414
HW:	CPU	TSS:	1.21565	AT:	1.28681	#T:	4	DSTSS:	158765431	DETSS:	159585301	DTSS:	159585311
HW:	CPU	TSS:	1.21565	AT:	1.28769	#T:	4	DSTSS:	159585328	DETSS:	160408056	DTSS:	160408067
HW:	CPU	TSS:	1.21559	AT:	1.28668	#T:	4	DSTSS:	160408084	DETSS:	161238315	DTSS:	161238325
HW:	CPU	TSS:	1.21558	AT:	1.28764	#T:	4	DSTSS:	161238342	DETSS:	162062048	DTSS:	162062059
HW:	CPU	TSS:	1.21552	AT:	1.28627	#T:	4	DSTSS:	162062075	DETSS:	162893461	DTSS:	162893472
HW:	CPU	TSS:	1.21553	AT:	1.28638	#T:	4	DSTSS:	162893489	DETSS:	163714053	DTSS:	163714064
HW:	CPU	TSS:	1.21558	AT:	1.28821	#T:	4	DSTSS:	163714081	DETSS:	164530125	DTSS:	164530135
HW:	CPU	TSS:	1.2155	AT:	1.28681	#T:	4	DSTSS:	164530152	DETSS:	165364476	DTSS:	165364486
HW:	CPU	TSS:	1.21554	AT:	1.28823	#T:	4	DSTSS:	165364503	DETSS:	166180677	DTSS:	166180687
HW:	CPU	TSS:	1.21546	AT:	1.28672	#T:	4	DSTSS:	166180704	DETSS:	167015546	DTSS:	167015557
HW:	CPU	TSS:	1.21552	AT:	1.28731	#T:	4	DSTSS:	167015574	DETSS:	167829552	DTSS:	167829562
HW:	CPU	TSS:	1.21557	AT:	1.28914	#T:	4	DSTSS:	167829579	DETSS:	168644611	DTSS:	168644622
HW:	CPU	TSS:	1.21548	AT:	1.2879	#T:	4	DSTSS:	168644638	DETSS:	169479665	DTSS:	169479675
HW:	CPU	TSS:	1.21553	AT:	1.28963	#T:	4	DSTSS:	169479691	DETSS:	170295899	DTSS:	170295909
HW:	CPU	TSS:	1.21544	AT:	1.28828	#T:	4	DSTSS:	170295926	DETSS:	171131147	DTSS:	171131158
HW:	CPU	TSS:	1.21548	AT:	1.28959	#T:	4	DSTSS:	171131175	DETSS:	171947841	DTSS:	171947851
HW:	CPU	TSS:	1.2154	AT:	1.28821	#T:	4	DSTSS:	171947869	DETSS:	172781908	DTSS:	172781918
HW:	CPU	TSS:	1.21543	AT:	1.28855	#T:	4	DSTSS:	172781935	DETSS:	173601157	DTSS:	173601168
HW:	CPU	TSS:	1.21546	AT:	1.28966	#T:	4	DSTSS:	173601256	DETSS:	174420086	DTSS:	174420097
HW:	CPU	TSS:	1.21539	AT:	1.28884	#T:	4	DSTSS:	174420114	DETSS:	175252178	DTSS:	175252188
HW:	CPU	TSS:	1.21543	AT:	1.29022	#T:	4	DSTSS:	175252205	DETSS:	176069543	DTSS:	176069553
HW:	CPU	TSS:	1.21536	AT:	1.28904	#T:	4	DSTSS:	176069570	DETSS:	176902161	DTSS:	176902171
HW:	CPU	TSS:	1.21537	AT:	1.28857	#T:	4	DSTSS:	176902188	DETSS:	177723065	DTSS:	177723075
HW:	CPU	TSS:	1.2154	AT:	1.29006	#T:	4	DSTSS:	177723092	DETSS:	178542192	DTSS:	178542202
HW:	CPU	TSS:	1.21531	AT:	1.28815	#T:	4	DSTSS:	178542219	DETSS:	179377889	DTSS:	179377899
HW:	CPU	TSS:	1.21535	AT:	1.28983	#T:	4	DSTSS:	179377916	DETSS:	180195601	DTSS:	180195612
HW:	CPU	TSS:	1.21524	AT:	1.28744	#T:	4	DSTSS:	180195629	DETSS:	181034019	DTSS:	181034030
HW:	CPU	TSS:	1.21527	AT:	1.28706	#T:	4	DSTSS:	181034047	DETSS:	181853043	DTSS:	181853053
HW:	CPU	TSS:	1.21523	AT:	1.28764	#T:	4	DSTSS:	181853070	DETSS:	182682086	DTSS:	182682097
HW:	CPU	TSS:	1.21527	AT:	1.28769	#T:	4	DSTSS:	182682114	DETSS:	183497795	DTSS:	183497806
HW:	CPU	TSS:	1.21529	AT:	1.28914	#T:	4	DSTSS:	183497822	DETSS:	184318263	DTSS:	184318273
HW:	CPU	TSS:	1.2152	AT:	1.28719	#T:	4	DSTSS:	184318290	DETSS:	185154894	DTSS:	185154905
HW:	CPU	TSS:	1.21525	AT:	1.28901	#T:	4	DSTSS:	185154922	DETSS:	185970300	DTSS:	185970311
HW:	CPU	TSS:	1.21516	AT:	1.28734	#T:	4	DSTSS:	185970328	DETSS:	186806641	DTSS:	186806651
HW:	CPU	TSS:	1.21519	AT:	1.28737	#T:	4	DSTSS:	186806669	DETSS:	187625313	DTSS:	187625324
HW:	CPU	TSS:	1.21524	AT:	1.28905	#T:	4	DSTSS:	187625341	DETSS:	188440154	DTSS:	188440165
HW:	CPU	TSS:	1.21512	AT:	1.28664	#T:	4	DSTSS:	188440182	DETSS:	189282235	DTSS:	189282246
HW:	CPU	TSS:	1.21517	AT:	1.28834	#T:	4	DSTSS:	189282263	DETSS:	190097454	DTSS:	190097465
HW:	CPU	TSS:	1.21508	AT:	1.28685	#T:	4	DSTSS:	190097481	DETSS:	190933631	DTSS:	190933641
HW:	CPU	TSS:	1.21511	AT:	1.2869	#T:	4	DSTSS:	190933658	DETSS:	191752271	DTSS:	191752281
HW:	CPU	TSS:	1.21516	AT:	1.28889	#T:	4	DSTSS:	191752298	DETSS:	192567563	DTSS:	192567573
HW:	CPU	TSS:	1.21507	AT:	1.28708	#T:	4	DSTSS:	192567590	DETSS:	193403769	DTSS:	193403779
HW:	CPU	TSS:	1.2151	AT:	1.28904	#T:	4	DSTSS:	193403797	DETSS:	194222137	DTSS:	194222147
HW:	CPU	TSS:	1.21495	AT:	1.28624	#T:	4	DSTSS:	194222165	DETSS:	195069913	DTSS:	195069923
HW:	CPU	TSS:	1.21498	AT:	1.28733	#T:	4	DSTSS:	195069941	DETSS:	195887759	DTSS:	195887769
HW:	CPU	TSS:	1.21488	AT:	1.285	#T:	4	DSTSS:	195887786	DETSS:	196727415	DTSS:	196727426
HW:	CPU	TSS:	1.21493	AT:	1.28553	#T:	4	DSTSS:	196727443	DETSS:	197542427	DTSS:	197542437
HW:	CPU	TSS:	1.21496	AT:	1.28736	#T:	4	DSTSS:	197542455	DETSS:	198360181	DTSS:	198360192
HW:	CPU	TSS:	1.21488	AT:	1.28529	#T:	4	DSTSS:	198360209	DETSS:	199196932	DTSS:	199196943
HW:	CPU	TSS:	1.21489	AT:	1.28682	#T:	4	DSTSS:	199196960	DETSS:	200017478	DTSS:	200017488
HW:	CPU	TSS:	1.21481	AT:	1.28511	#T:	4	DSTSS:	200017505	DETSS:	200853708	DTSS:	200853719
HW:	CPU	TSS:	1.21486	AT:	1.28505	#T:	4	DSTSS:	200853736	DETSS:	201669250	DTSS:	201669260
HW:	CPU	TSS:	1.21489	AT:	1.28733	#T:	4	DSTSS:	201669277	DETSS:	202487836	DTSS:	202487846
HW:	CPU	TSS:	1.21481	AT:	1.28527	#T:	4	DSTSS:	202487863	DETSS:	203324241	DTSS:	203324251
HW:	CPU	TSS:	1.21485	AT:	1.28727	#T:	4	DSTSS:	203324268	DETSS:	204139835	DTSS:	204139845
HW:	CPU	TSS:	1.21477	AT:	1.28548	#T:	4	DSTSS:	204139862	DETSS:	204976939	DTSS:	204976949
HW:	CPU	TSS:	1.2148	AT:	1.28524	#T:	4	DSTSS:	204976966	DETSS:	205794631	DTSS:	205794642
HW:	CPU	TSS:	1.21485	AT:	1.28731	#T:	4	DSTSS:	205794659	DETSS:	206609640	DTSS:	206609651
HW:	CPU	TSS:	1.21477	AT:	1.28557	#T:	4	DSTSS:	206609667	DETSS:	207445886	DTSS:	207445897
HW:	CPU	TSS:	1.2148	AT:	1.28842	#T:	4	DSTSS:	207445913	DETSS:	208264383	DTSS:	208264393
HW:	CPU	TSS:	1.21472	AT:	1.28651	#T:	4	DSTSS:	208264410	DETSS:	209101779	DTSS:	209101790
HW:	CPU	TSS:	1.21472	AT:	1.28821	#T:	4	DSTSS:	209101807	DETSS:	209924052	DTSS:	209924062
HW:	CPU	TSS:	1.21463	AT:	1.28578	#T:	4	DSTSS:	209924079	DETSS:	210763994	DTSS:	210764004
HW:	CPU	TSS:	1.21465	AT:	1.28565	#T:	4	DSTSS:	210764021	DETSS:	211583101	DTSS:	211583111
HW:	CPU	TSS:	1.21468	AT:	1.28736	#T:	4	DSTSS:	211583663	DETSS:	212402233	DTSS:	212402243
HW:	CPU	TSS:	1.21458	AT:	1.28543	#T:	4	DSTSS:	212402260	DETSS:	213242655	DTSS:	213242666
HW:	CPU	TSS:	1.2146	AT:	1.28712	#T:	4	DSTSS:	213242683	DETSS:	214061481	DTSS:	214061491
HW:	CPU	TSS:	1.21453	AT:	1.28501	#T:	4	DSTSS:	214061508	DETSS:	214898678	DTSS:	214898688
HW:	CPU	TSS:	1.21457	AT:	1.28533	#T:	4	DSTSS:	214898721	DETSS:	215714010	DTSS:	215714021
HW:	CPU	TSS:	1.21461	AT:	1.2873	#T:	4	DSTSS:	215714038	DETSS:	216530199	DTSS:	216530209
HW:	CPU	TSS:	1.21452	AT:	1.28505	#T:	4	DSTSS:	216530226	DETSS:	217368930	DTSS:	217368941
HW:	CPU	TSS:	1.21457	AT:	1.28716	#T:	4	DSTSS:	217368958	DETSS:	218184306	DTSS:	218184317
HW:	CPU	TSS:	1.21448	AT:	1.28511	#T:	4	DSTSS:	218184334	DETSS:	219023063	DTSS:	219023073
HW:	CPU	TSS:	1.21453	AT:	1.28511	#T:	4	DSTSS:	219023090	DETSS:	219838089	DTSS:	219838099
HW:	CPU	TSS:	1.21457	AT:	1.28706	#T:	4	DSTSS:	219838116	DETSS:	220654302	DTSS:	220654313
HW:	CPU	TSS:	1.21447	AT:	1.28489	#T:	4	DSTSS:	220654329	DETSS:	221495103	DTSS:	221495114
HW:	CPU	TSS:	1.21452	AT:	1.28709	#T:	4	DSTSS:	221495131	DETSS:	222309885	DTSS:	222309896
HW:	CPU	TSS:	1.21444	AT:	1.2855	#T:	4	DSTSS:	222309913	DETSS:	223148468	DTSS:	223148479
HW:	CPU	TSS:	1.21448	AT:	1.28785	#T:	4	DSTSS:	223148496	DETSS:	223964257	DTSS:	223964267
HW:	CPU	TSS:	1.21442	AT:	1.28631	#T:	4	DSTSS:	223964285	DETSS:	224799207	DTSS:	224799218
HW:	CPU	TSS:	1.21446	AT:	1.28662	#T:	4	DSTSS:	224799235	DETSS:	225615175	DTSS:	225615186
HW:	CPU	TSS:	1.21449	AT:	1.28896	#T:	4	DSTSS:	225615204	DETSS:	226431618	DTSS:	226431629
HW:	CPU	TSS:	1.21444	AT:	1.28748	#T:	4	DSTSS:	226431647	DETSS:	227265540	DTSS:	227265550
HW:	CPU	TSS:	1.21448	AT:	1.28951	#T:	4	DSTSS:	227265568	DETSS:	228081983	DTSS:	228081993
HW:	CPU	TSS:	1.21441	AT:	1.28743	#T:	4	DSTSS:	228082011	DETSS:	228918659	DTSS:	228918669
HW:	CPU	TSS:	1.21442	AT:	1.28694	#T:	4	DSTSS:	228918686	DETSS:	229739869	DTSS:	229739879
HW:	CPU	TSS:	1.2144	AT:	1.28816	#T:	4	DSTSS:	229739896	DETSS:	230566051	DTSS:	230566062
HW:	CPU	TSS:	1.21436	AT:	1.28653	#T:	4	DSTSS:	230566079	DETSS:	231398162	DTSS:	231398173
HW:	CPU	TSS:	1.21434	AT:	1.28778	#T:	4	DSTSS:	231398190	DETSS:	232224045	DTSS:	232224055
HW:	CPU	TSS:	1.2143	AT:	1.28608	#T:	4	DSTSS:	232224073	DETSS:	233056565	DTSS:	233056576
HW:	CPU	TSS:	1.21431	AT:	1.28562	#T:	4	DSTSS:	233056593	DETSS:	233877457	DTSS:	233877467
HW:	CPU	TSS:	1.21426	AT:	1.28644	#T:	4	DSTSS:	233877484	DETSS:	234709905	DTSS:	234709915
HW:	CPU	TSS:	1.21425	AT:	1.28538	#T:	4	DSTSS:	234709932	DETSS:	235535588	DTSS:	235535598
HW:	CPU	TSS:	1.21427	AT:	1.28705	#T:	4	DSTSS:	235535615	DETSS:	236356926	DTSS:	236356937
HW:	CPU	TSS:	1.21422	AT:	1.28541	#T:	4	DSTSS:	236356954	DETSS:	237189637	DTSS:	237189648
HW:	CPU	TSS:	1.21421	AT:	1.28626	#T:	4	DSTSS:	237189708	DETSS:	238015786	DTSS:	238015796
HW:	CPU	TSS:	1.21417	AT:	1.28476	#T:	4	DSTSS:	238015813	DETSS:	238847213	DTSS:	238847224
HW:	CPU	TSS:	1.21416	AT:	1.28391	#T:	4	DSTSS:	238847241	DETSS:	239672406	DTSS:	239672416
HW:	CPU	TSS:	1.21415	AT:	1.28482	#T:	4	DSTSS:	239672433	DETSS:	240496944	DTSS:	240496955
HW:	CPU	TSS:	1.21409	AT:	1.283	#T:	4	DSTSS:	240496971	DETSS:	241332228	DTSS:	241332239
HW:	CPU	TSS:	1.21413	AT:	1.28492	#T:	4	DSTSS:	241332256	DETSS:	242149085	DTSS:	242149095
HW:	CPU	TSS:	1.21408	AT:	1.28376	#T:	4	DSTSS:	242149112	DETSS:	242982206	DTSS:	242982217
HW:	CPU	TSS:	1.2141	AT:	1.28442	#T:	4	DSTSS:	242982234	DETSS:	243801649	DTSS:	243801659
HW:	CPU	TSS:	1.21414	AT:	1.28598	#T:	4	DSTSS:	243801676	DETSS:	244617669	DTSS:	244617680
HW:	CPU	TSS:	1.2141	AT:	1.28537	#T:	4	DSTSS:	244617697	DETSS:	245449851	DTSS:	245449861
HW:	CPU	TSS:	1.21412	AT:	1.28672	#T:	4	DSTSS:	245449878	DETSS:	246268428	DTSS:	246268438
HW:	CPU	TSS:	1.21408	AT:	1.28559	#T:	4	DSTSS:	246268455	DETSS:	247100960	DTSS:	247100970
HW:	CPU	TSS:	1.21411	AT:	1.28713	#T:	4	DSTSS:	247100987	DETSS:	247917571	DTSS:	247917582
HW:	CPU	TSS:	1.21408	AT:	1.2866	#T:	4	DSTSS:	247917598	DETSS:	248748737	DTSS:	248748748
HW:	CPU	TSS:	1.21411	AT:	1.28706	#T:	4	DSTSS:	248748765	DETSS:	249565290	DTSS:	249565301
HW:	CPU	TSS:	1.21415	AT:	1.28866	#T:	4	DSTSS:	249565318	DETSS:	250381609	DTSS:	250381619
HW:	CPU	TSS:	1.21408	AT:	1.28747	#T:	4	DSTSS:	250381636	DETSS:	251219926	DTSS:	251219936
HW:	CPU	TSS:	1.21411	AT:	1.28901	#T:	4	DSTSS:	251219953	DETSS:	252035619	DTSS:	252035630
HW:	CPU	TSS:	1.21404	AT:	1.2876	#T:	4	DSTSS:	252035646	DETSS:	252875309	DTSS:	252875320
HW:	CPU	TSS:	1.21407	AT:	1.28825	#T:	4	DSTSS:	252875337	DETSS:	253693139	DTSS:	253693149
HW:	CPU	TSS:	1.2141	AT:	1.2902	#T:	4	DSTSS:	253693166	DETSS:	254508518	DTSS:	254508529
HW:	CPU	TSS:	1.21402	AT:	1.28788	#T:	4	DSTSS:	254508546	DETSS:	255349037	DTSS:	255349047
HW:	CPU	TSS:	1.21405	AT:	1.28934	#T:	4	DSTSS:	255349064	DETSS:	256167245	DTSS:	256167255
HW:	CPU	TSS:	1.21399	AT:	1.28759	#T:	4	DSTSS:	256167273	DETSS:	257004580	DTSS:	257004590
HW:	CPU	TSS:	1.21401	AT:	1.28738	#T:	4	DSTSS:	257004607	DETSS:	257822747	DTSS:	257822757
HW:	CPU	TSS:	1.21405	AT:	1.28907	#T:	4	DSTSS:	257822774	DETSS:	258637681	DTSS:	258637692
HW:	CPU	TSS:	1.214	AT:	1.28755	#T:	4	DSTSS:	258637708	DETSS:	259471765	DTSS:	259471775
HW:	CPU	TSS:	1.21404	AT:	1.28915	#T:	4	DSTSS:	259471792	DETSS:	260287950	DTSS:	260287961
HW:	CPU	TSS:	1.21399	AT:	1.28737	#T:	4	DSTSS:	260287978	DETSS:	261122800	DTSS:	261122811
HW:	CPU	TSS:	1.21403	AT:	1.2889	#T:	4	DSTSS:	261122828	DETSS:	261938321	DTSS:	261938331
HW:	CPU	TSS:	1.21396	AT:	1.28676	#T:	4	DSTSS:	261938349	DETSS:	262776783	DTSS:	262776793
HW:	CPU	TSS:	1.214	AT:	1.28692	#T:	4	DSTSS:	262776811	DETSS:	263591476	DTSS:	263591487
HW:	CPU	TSS:	1.21403	AT:	1.28909	#T:	4	DSTSS:	263591504	DETSS:	264407556	DTSS:	264407567
HW:	CPU	TSS:	1.21397	AT:	1.28687	#T:	4	DSTSS:	264407583	DETSS:	265246005	DTSS:	265246015
HW:	CPU	TSS:	1.214	AT:	1.28902	#T:	4	DSTSS:	265246032	DETSS:	266063622	DTSS:	266063632
HW:	CPU	TSS:	1.21392	AT:	1.28693	#T:	4	DSTSS:	266063649	DETSS:	266902906	DTSS:	266902916
HW:	CPU	TSS:	1.21397	AT:	1.28699	#T:	4	DSTSS:	266902933	DETSS:	267717677	DTSS:	267717687
HW:	CPU	TSS:	1.21399	AT:	1.28915	#T:	4	DSTSS:	267717704	DETSS:	268536036	DTSS:	268536047
HW:	CPU	TSS:	1.21392	AT:	1.28713	#T:	4	DSTSS:	268536063	DETSS:	269374891	DTSS:	269374901
HW:	CPU	TSS:	1.21395	AT:	1.28904	#T:	4	DSTSS:	269374918	DETSS:	270192730	DTSS:	270192740
HW:	CPU	TSS:	1.21388	AT:	1.28696	#T:	4	DSTSS:	270192757	DETSS:	271032196	DTSS:	271032206
HW:	CPU	TSS:	1.21391	AT:	1.28682	#T:	4	DSTSS:	271032223	DETSS:	271848587	DTSS:	271848597
HW:	CPU	TSS:	1.21385	AT:	1.28653	#T:	4	DSTSS:	271848615	DETSS:	272685642	DTSS:	272685653
HW:	CPU	TSS:	1.21388	AT:	1.28638	#T:	4	DSTSS:	272685669	DETSS:	273503335	DTSS:	273503345
HW:	CPU	TSS:	1.21391	AT:	1.28804	#T:	4	DSTSS:	273503362	DETSS:	274321107	DTSS:	274321118
HW:	CPU	TSS:	1.21386	AT:	1.28615	#T:	4	DSTSS:	274321134	DETSS:	275156088	DTSS:	275156098
HW:	CPU	TSS:	1.21388	AT:	1.2882	#T:	4	DSTSS:	275156115	DETSS:	275973531	DTSS:	275973541
HW:	CPU	TSS:	1.21384	AT:	1.28631	#T:	4	DSTSS:	275973559	DETSS:	276807522	DTSS:	276807532
HW:	CPU	TSS:	1.21388	AT:	1.2864	#T:	4	DSTSS:	276807549	DETSS:	277622765	DTSS:	277622776
HW:	CPU	TSS:	1.2139	AT:	1.28826	#T:	4	DSTSS:	277622793	DETSS:	278442115	DTSS:	278442126
HW:	CPU	TSS:	1.21386	AT:	1.28673	#T:	4	DSTSS:	278442143	DETSS:	279275398	DTSS:	279275408
HW:	CPU	TSS:	1.21386	AT:	1.28836	#T:	4	DSTSS:	279275425	DETSS:	280098006	DTSS:	280098017
HW:	CPU	TSS:	1.21383	AT:	1.2868	#T:	4	DSTSS:	280098034	DETSS:	280928756	DTSS:	280928766
HW:	CPU	TSS:	1.21385	AT:	1.28674	#T:	4	DSTSS:	280928784	DETSS:	281747691	DTSS:	281747702
HW:	CPU	TSS:	1.21386	AT:	1.28836	#T:	4	DSTSS:	281747719	DETSS:	282569919	DTSS:	282569930
HW:	CPU	TSS:	1.21383	AT:	1.28718	#T:	4	DSTSS:	282569947	DETSS:	283399888	DTSS:	283399898
HW:	CPU	TSS:	1.21386	AT:	1.28922	#T:	4	DSTSS:	283399915	DETSS:	284218444	DTSS:	284218455
HW:	CPU	TSS:	1.21382	AT:	1.28778	#T:	4	DSTSS:	284218472	DETSS:	285049614	DTSS:	285049624
HW:	CPU	TSS:	1.21384	AT:	1.28949	#T:	4	DSTSS:	285049641	DETSS:	285869119	DTSS:	285869130
HW:	CPU	TSS:	1.2138	AT:	1.28784	#T:	4	DSTSS:	285869147	DETSS:	286703703	DTSS:	286703714
HW:	CPU	TSS:	1.21383	AT:	1.28798	#T:	4	DSTSS:	286703731	DETSS:	287520046	DTSS:	287520057
HW:	CPU	TSS:	1.21384	AT:	1.28926	#T:	4	DSTSS:	287520074	DETSS:	288341931	DTSS:	288341941
HW:	CPU	TSS:	1.2138	AT:	1.28781	#T:	4	DSTSS:	288341959	DETSS:	289174212	DTSS:	289174223
HW:	CPU	TSS:	1.21383	AT:	1.2895	#T:	4	DSTSS:	289174239	DETSS:	289990896	DTSS:	289990907
HW:	CPU	TSS:	1.2138	AT:	1.28782	#T:	4	DSTSS:	289990968	DETSS:	290823392	DTSS:	290823403
HW:	CPU	TSS:	1.21381	AT:	1.28781	#T:	4	DSTSS:	290823420	DETSS:	291642826	DTSS:	291642836
HW:	CPU	TSS:	1.21383	AT:	1.28915	#T:	4	DSTSS:	291642853	DETSS:	292462367	DTSS:	292462378
HW:	CPU	TSS:	1.21379	AT:	1.28802	#T:	4	DSTSS:	292462395	DETSS:	293296586	DTSS:	293296597
HW:	CPU	TSS:	1.2138	AT:	1.28897	#T:	4	DSTSS:	293296614	DETSS:	294117548	DTSS:	294117558
HW:	CPU	TSS:	1.21376	AT:	1.28743	#T:	4	DSTSS:	294117576	DETSS:	294952315	DTSS:	294952325
HW:	CPU	TSS:	1.21376	AT:	1.28746	#T:	4	DSTSS:	294952342	DETSS:	295774230	DTSS:	295774241
HW:	CPU	TSS:	1.21379	AT:	1.28866	#T:	4	DSTSS:	295774259	DETSS:	296591869	DTSS:	296591880
HW:	CPU	TSS:	1.21374	AT:	1.28706	#T:	4	DSTSS:	296591897	DETSS:	297426816	DTSS:	297426826
HW:	CPU	TSS:	1.21377	AT:	1.28845	#T:	4	DSTSS:	297426843	DETSS:	298243780	DTSS:	298243790
HW:	CPU	TSS:	1.21373	AT:	1.28697	#T:	4	DSTSS:	298243807	DETSS:	299078441	DTSS:	299078452
HW:	CPU	TSS:	1.21376	AT:	1.28878	#T:	4	DSTSS:	299078470	DETSS:	299894430	DTSS:	299894440
HW:	CPU	TSS:	1.21373	AT:	1.28734	#T:	4	DSTSS:	299894457	DETSS:	300725608	DTSS:	300725618
HW:	CPU	TSS:	1.21376	AT:	1.28788	#T:	4	DSTSS:	300725636	DETSS:	301541921	DTSS:	301541932
HW:	CPU	TSS:	1.21379	AT:	1.28944	#T:	4	DSTSS:	301541949	DETSS:	302358205	DTSS:	302358215
HW:	CPU	TSS:	1.21376	AT:	1.28798	#T:	4	DSTSS:	302358232	DETSS:	303189821	DTSS:	303189832
HW:	CPU	TSS:	1.21379	AT:	1.28952	#T:	4	DSTSS:	303189849	DETSS:	304006569	DTSS:	304006580
HW:	CPU	TSS:	1.21375	AT:	1.28821	#T:	4	DSTSS:	304006597	DETSS:	304839433	DTSS:	304839443
HW:	CPU	TSS:	1.21378	AT:	1.28846	#T:	4	DSTSS:	304839460	DETSS:	305656422	DTSS:	305656432
HW:	CPU	TSS:	1.21381	AT:	1.29023	#T:	4	DSTSS:	305656450	DETSS:	306472531	DTSS:	306472542
HW:	CPU	TSS:	1.21375	AT:	1.28844	#T:	4	DSTSS:	306472558	DETSS:	307311845	DTSS:	307311856
HW:	CPU	TSS:	1.21378	AT:	1.29015	#T:	4	DSTSS:	307311873	DETSS:	308129070	DTSS:	308129081
HW:	CPU	TSS:	1.21373	AT:	1.28887	#T:	4	DSTSS:	308129098	DETSS:	308964110	DTSS:	308964120
HW:	CPU	TSS:	1.21376	AT:	1.28895	#T:	4	DSTSS:	308964137	DETSS:	309780928	DTSS:	309780939
HW:	CPU	TSS:	1.21374	AT:	1.28961	#T:	4	DSTSS:	309780956	DETSS:	310609126	DTSS:	310609137
HW:	CPU	TSS:	1.2137	AT:	1.28781	#T:	4	DSTSS:	310609153	DETSS:	311444530	DTSS:	311444541
HW:	CPU	TSS:	1.21372	AT:	1.28949	#T:	4	DSTSS:	311444558	DETSS:	312261918	DTSS:	312261928
HW:	CPU	TSS:	1.21366	AT:	1.2872	#T:	4	DSTSS:	312261945	DETSS:	313101404	DTSS:	313101414
HW:	CPU	TSS:	1.2137	AT:	1.28885	#T:	4	DSTSS:	313101431	DETSS:	313915660	DTSS:	313915671
HW:	CPU	TSS:	1.21364	AT:	1.2866	#T:	4	DSTSS:	313915688	DETSS:	314755079	DTSS:	314755090
HW:	CPU	TSS:	1.21368	AT:	1.28675	#T:	4	DSTSS:	314755107	DETSS:	315569832	DTSS:	315569843
HW:	CPU	TSS:	1.2137	AT:	1.28812	#T:	4	DSTSS:	315569860	DETSS:	316387387	DTSS:	316387398
HW:	CPU	TSS:	1.21364	AT:	1.28589	#T:	4	DSTSS:	316387414	DETSS:	317226951	DTSS:	317226961
HW:	CPU	TSS:	1.21368	AT:	1.28768	#T:	4	DSTSS:	317226978	DETSS:	318041493	DTSS:	318041503
HW:	CPU	TSS:	1.21362	AT:	1.28553	#T:	4	DSTSS:	318041520	DETSS:	318880576	DTSS:	318880586
HW:	CPU	TSS:	1.21364	AT:	1.28516	#T:	4	DSTSS:	318880604	DETSS:	319700440	DTSS:	319700450
HW:	CPU	TSS:	1.21365	AT:	1.2871	#T:	4	DSTSS:	319700467	DETSS:	320519782	DTSS:	320519792
HW:	CPU	TSS:	1.21359	AT:	1.28488	#T:	4	DSTSS:	320519809	DETSS:	321359884	DTSS:	321359894
HW:	CPU	TSS:	1.21361	AT:	1.28634	#T:	4	DSTSS:	321359910	DETSS:	322179925	DTSS:	322179935
HW:	CPU	TSS:	1.21357	AT:	1.28457	#T:	4	DSTSS:	322179953	DETSS:	323014912	DTSS:	323014922
HW:	CPU	TSS:	1.21358	AT:	1.28538	#T:	4	DSTSS:	323014939	DETSS:	323834791	DTSS:	323834802
HW:	CPU	TSS:	1.21353	AT:	1.28527	#T:	4	DSTSS:	323834819	DETSS:	324671367	DTSS:	324671378
HW:	CPU	TSS:	1.21356	AT:	1.28518	#T:	4	DSTSS:	324671395	DETSS:	325489630	DTSS:	325489640
HW:	CPU	TSS:	1.21359	AT:	1.2875	#T:	4	DSTSS:	325489657	DETSS:	326305292	DTSS:	326305303
HW:	CPU	TSS:	1.21354	AT:	1.28531	#T:	4	DSTSS:	326305320	DETSS:	327142075	DTSS:	327142086
HW:	CPU	TSS:	1.21356	AT:	1.28725	#T:	4	DSTSS:	327142103	DETSS:	327961572	DTSS:	327961582
HW:	CPU	TSS:	1.21352	AT:	1.28549	#T:	4	DSTSS:	327961599	DETSS:	328794354	DTSS:	328794365
HW:	CPU	TSS:	1.21356	AT:	1.28568	#T:	4	DSTSS:	328794382	DETSS:	329609936	DTSS:	329609947
HW:	CPU	TSS:	1.21357	AT:	1.28764	#T:	4	DSTSS:	329609964	DETSS:	330429375	DTSS:	330429385
HW:	CPU	TSS:	1.21354	AT:	1.28576	#T:	4	DSTSS:	330429402	DETSS:	331263246	DTSS:	331263257
HW:	CPU	TSS:	1.21355	AT:	1.28754	#T:	4	DSTSS:	331263274	DETSS:	332084079	DTSS:	332084089
HW:	CPU	TSS:	1.21352	AT:	1.2863	#T:	4	DSTSS:	332084107	DETSS:	332916612	DTSS:	332916622
HW:	CPU	TSS:	1.21353	AT:	1.28611	#T:	4	DSTSS:	332916639	DETSS:	333737919	DTSS:	333737929
HW:	CPU	TSS:	1.21354	AT:	1.288	#T:	4	DSTSS:	333737946	DETSS:	334558652	DTSS:	334558662
HW:	CPU	TSS:	1.21351	AT:	1.28685	#T:	4	DSTSS:	334558679	DETSS:	335390428	DTSS:	335390439
HW:	CPU	TSS:	1.21352	AT:	1.2882	#T:	4	DSTSS:	335390455	DETSS:	336211603	DTSS:	336211613
HW:	CPU	TSS:	1.2135	AT:	1.28711	#T:	4	DSTSS:	336211630	DETSS:	337042688	DTSS:	337042698
HW:	CPU	TSS:	1.21349	AT:	1.28826	#T:	4	DSTSS:	337042715	DETSS:	337867474	DTSS:	337867485
HW:	CPU	TSS:	1.21347	AT:	1.28694	#T:	4	DSTSS:	337867502	DETSS:	338699232	DTSS:	338699242
HW:	CPU	TSS:	1.21349	AT:	1.28669	#T:	4	DSTSS:	338699260	DETSS:	339517501	DTSS:	339517512
HW:	CPU	TSS:	1.21351	AT:	1.28846	#T:	4	DSTSS:	339517528	DETSS:	340336162	DTSS:	340336173
HW:	CPU	TSS:	1.21348	AT:	1.28732	#T:	4	DSTSS:	340336241	DETSS:	341167297	DTSS:	341167308
HW:	CPU	TSS:	1.2135	AT:	1.28873	#T:	4	DSTSS:	341167324	DETSS:	341985687	DTSS:	341985697
HW:	CPU	TSS:	1.21347	AT:	1.28708	#T:	4	DSTSS:	341985714	DETSS:	342818118	DTSS:	342818128
HW:	CPU	TSS:	1.21348	AT:	1.28677	#T:	4	DSTSS:	342818186	DETSS:	343640790	DTSS:	343640800
HW:	CPU	TSS:	1.21349	AT:	1.28812	#T:	4	DSTSS:	343640817	DETSS:	344460744	DTSS:	344460754
HW:	CPU	TSS:	1.21346	AT:	1.28685	#T:	4	DSTSS:	344460772	DETSS:	345294675	DTSS:	345294686
HW:	CPU	TSS:	1.21347	AT:	1.28792	#T:	4	DSTSS:	345294703	DETSS:	346116151	DTSS:	346116161
HW:	CPU	TSS:	1.21344	AT:	1.28695	#T:	4	DSTSS:	346116178	DETSS:	346947474	DTSS:	346947485
HW:	CPU	TSS:	1.21345	AT:	1.28691	#T:	4	DSTSS:	346947502	DETSS:	347768559	DTSS:	347768569
HW:	CPU	TSS:	1.21346	AT:	1.28802	#T:	4	DSTSS:	347768586	DETSS:	348589030	DTSS:	348589041
HW:	CPU	TSS:	1.21343	AT:	1.28692	#T:	4	DSTSS:	348589058	DETSS:	349421451	DTSS:	349421462
HW:	CPU	TSS:	1.21344	AT:	1.28781	#T:	4	DSTSS:	349421479	DETSS:	350243431	DTSS:	350243442
HW:	CPU	TSS:	1.21339	AT:	1.2865	#T:	4	DSTSS:	350243459	DETSS:	351081644	DTSS:	351081655
HW:	CPU	TSS:	1.21341	AT:	1.2878	#T:	4	DSTSS:	351081672	DETSS:	351900073	DTSS:	351900083
HW:	CPU	TSS:	1.21336	AT:	1.28587	#T:	4	DSTSS:	351900101	DETSS:	352738129	DTSS:	352738140
HW:	CPU	TSS:	1.21338	AT:	1.28572	#T:	4	DSTSS:	352738157	DETSS:	353558317	DTSS:	353558328
HW:	CPU	TSS:	1.21339	AT:	1.2867	#T:	4	DSTSS:	353558345	DETSS:	354379390	DTSS:	354379401
HW:	CPU	TSS:	1.21335	AT:	1.28505	#T:	4	DSTSS:	354379418	DETSS:	355214763	DTSS:	355214773
HW:	CPU	TSS:	1.21336	AT:	1.28621	#T:	4	DSTSS:	355214791	DETSS:	356035266	DTSS:	356035276
HW:	CPU	TSS:	1.21332	AT:	1.28493	#T:	4	DSTSS:	356035293	DETSS:	356871111	DTSS:	356871121
HW:	CPU	TSS:	1.21334	AT:	1.2849	#T:	4	DSTSS:	356871138	DETSS:	357691348	DTSS:	357691358
HW:	CPU	TSS:	1.21335	AT:	1.28636	#T:	4	DSTSS:	357691376	DETSS:	358510226	DTSS:	358510236
HW:	CPU	TSS:	1.21331	AT:	1.28488	#T:	4	DSTSS:	358510253	DETSS:	359346911	DTSS:	359346921
HW:	CPU	TSS:	1.21333	AT:	1.2861	#T:	4	DSTSS:	359346939	DETSS:	360165721	DTSS:	360165731
HW:	CPU	TSS:	1.2133	AT:	1.28483	#T:	4	DSTSS:	360165748	DETSS:	360999851	DTSS:	360999861
HW:	CPU	TSS:	1.21333	AT:	1.28546	#T:	4	DSTSS:	360999878	DETSS:	361813906	DTSS:	361813916
HW:	CPU	TSS:	1.21336	AT:	1.28696	#T:	4	DSTSS:	361813933	DETSS:	362630830	DTSS:	362630841
HW:	CPU	TSS:	1.21331	AT:	1.28543	#T:	4	DSTSS:	362630858	DETSS:	363468612	DTSS:	363468622
HW:	CPU	TSS:	1.21334	AT:	1.28768	#T:	4	DSTSS:	363468639	DETSS:	364283655	DTSS:	364283666
HW:	CPU	TSS:	1.2133	AT:	1.2859	#T:	4	DSTSS:	364283683	DETSS:	365120423	DTSS:	365120434
HW:	CPU	TSS:	1.21331	AT:	1.28765	#T:	4	DSTSS:	365120451	DETSS:	365940467	DTSS:	365940478
HW:	CPU	TSS:	1.21327	AT:	1.28607	#T:	4	DSTSS:	365940495	DETSS:	366776841	DTSS:	366776851
HW:	CPU	TSS:	1.21329	AT:	1.28633	#T:	4	DSTSS:	366776869	DETSS:	367595252	DTSS:	367595262
HW:	CPU	TSS:	1.21333	AT:	1.28844	#T:	4	DSTSS:	367595280	DETSS:	368408975	DTSS:	368408985
HW:	CPU	TSS:	1.21329	AT:	1.28691	#T:	4	DSTSS:	368409002	DETSS:	369245224	DTSS:	369245234
HW:	CPU	TSS:	1.2133	AT:	1.28837	#T:	4	DSTSS:	369245251	DETSS:	370066076	DTSS:	370066087
HW:	CPU	TSS:	1.21328	AT:	1.28736	#T:	4	DSTSS:	370066104	DETSS:	370896668	DTSS:	370896678
HW:	CPU	TSS:	1.21328	AT:	1.28685	#T:	4	DSTSS:	370896696	DETSS:	371720760	DTSS:	371720771
HW:	CPU	TSS:	1.21329	AT:	1.28843	#T:	4	DSTSS:	371720788	DETSS:	372541303	DTSS:	372541314
HW:	CPU	TSS:	1.21326	AT:	1.28719	#T:	4	DSTSS:	372541331	DETSS:	373372754	DTSS:	373372764
HW:	CPU	TSS:	1.21328	AT:	1.28869	#T:	4	DSTSS:	373372781	DETSS:	374191519	DTSS:	374191529
HW:	CPU	TSS:	1.21326	AT:	1.28704	#T:	4	DSTSS:	374191546	DETSS:	375022496	DTSS:	375022506
HW:	CPU	TSS:	1.21327	AT:	1.28676	#T:	4	DSTSS:	375022524	DETSS:	375842342	DTSS:	375842353
HW:	CPU	TSS:	1.21323	AT:	1.28686	#T:	4	DSTSS:	375842370	DETSS:	376679028	DTSS:	376679038
HW:	CPU	TSS:	1.21327	AT:	1.28701	#T:	4	DSTSS:	376679055	DETSS:	377492559	DTSS:	377492570
HW:	CPU	TSS:	1.21329	AT:	1.28891	#T:	4	DSTSS:	377492587	DETSS:	378309881	DTSS:	378309892
HW:	CPU	TSS:	1.21326	AT:	1.28756	#T:	4	DSTSS:	378309909	DETSS:	379143733	DTSS:	379143743
HW:	CPU	TSS:	1.21329	AT:	1.28957	#T:	4	DSTSS:	379143760	DETSS:	379959499	DTSS:	379959509
HW:	CPU	TSS:	1.21326	AT:	1.28822	#T:	4	DSTSS:	379959526	DETSS:	380791784	DTSS:	380791795
HW:	CPU	TSS:	1.21329	AT:	1.28802	#T:	4	DSTSS:	380791811	DETSS:	381607492	DTSS:	381607502
HW:	CPU	TSS:	1.2133	AT:	1.28962	#T:	4	DSTSS:	381607519	DETSS:	382427360	DTSS:	382427371
HW:	CPU	TSS:	1.21328	AT:	1.28848	#T:	4	DSTSS:	382427388	DETSS:	383259892	DTSS:	383259902
HW:	CPU	TSS:	1.21329	AT:	1.28956	#T:	4	DSTSS:	383259920	DETSS:	384079423	DTSS:	384079434
HW:	CPU	TSS:	1.21327	AT:	1.28877	#T:	4	DSTSS:	384079450	DETSS:	384911614	DTSS:	384911624
HW:	CPU	TSS:	1.21327	AT:	1.2886	#T:	4	DSTSS:	384911641	DETSS:	385733921	DTSS:	385733931
HW:	CPU	TSS:	1.2133	AT:	1.29018	#T:	4	DSTSS:	385733948	DETSS:	386549177	DTSS:	386549187
HW:	CPU	TSS:	1.21328	AT:	1.28893	#T:	4	DSTSS:	386549204	DETSS:	387380706	DTSS:	387380717
HW:	CPU	TSS:	1.21328	AT:	1.28966	#T:	4	DSTSS:	387380734	DETSS:	388204272	DTSS:	388204282
HW:	CPU	TSS:	1.21326	AT:	1.28866	#T:	4	DSTSS:	388204300	DETSS:	389034338	DTSS:	389034348
HW:	CPU	TSS:	1.21327	AT:	1.29019	#T:	4	DSTSS:	389034366	DETSS:	389855362	DTSS:	389855373
HW:	CPU	TSS:	1.21325	AT:	1.28851	#T:	4	DSTSS:	389855390	DETSS:	390686047	DTSS:	390686057
HW:	CPU	TSS:	1.21326	AT:	1.2882	#T:	4	DSTSS:	390686074	DETSS:	391506641	DTSS:	391506651
HW:	CPU	TSS:	1.21327	AT:	1.28947	#T:	4	DSTSS:	391506668	DETSS:	392327468	DTSS:	392327478
HW:	CPU	TSS:	1.21325	AT:	1.28801	#T:	4	DSTSS:	392327496	DETSS:	393158106	DTSS:	393158117
HW:	CPU	TSS:	1.21326	AT:	1.28911	#T:	4	DSTSS:	393158133	DETSS:	393979158	DTSS:	393979169
HW:	CPU	TSS:	1.21323	AT:	1.28728	#T:	4	DSTSS:	393979185	DETSS:	394813634	DTSS:	394813645
HW:	CPU	TSS:	1.21324	AT:	1.28702	#T:	4	DSTSS:	394813662	DETSS:	395636237	DTSS:	395636247
HW:	CPU	TSS:	1.21325	AT:	1.2884	#T:	4	DSTSS:	395636265	DETSS:	396454603	DTSS:	396454614
HW:	CPU	TSS:	1.21323	AT:	1.2871	#T:	4	DSTSS:	396454631	DETSS:	397287412	DTSS:	397287423
HW:	CPU	TSS:	1.21325	AT:	1.28871	#T:	4	DSTSS:	397287439	DETSS:	398103131	DTSS:	398103141
HW:	CPU	TSS:	1.21323	AT:	1.28784	#T:	4	DSTSS:	398103159	DETSS:	398934325	DTSS:	398934336
HW:	CPU	TSS:	1.21325	AT:	1.2876	#T:	4	DSTSS:	398934353	DETSS:	399752036	DTSS:	399752047
HW:	CPU	TSS:	1.21327	AT:	1.28897	#T:	4	DSTSS:	399752064	DETSS:	400569513	DTSS:	400569523
HW:	CPU	TSS:	1.21325	AT:	1.28824	#T:	4	DSTSS:	400569540	DETSS:	401400622	DTSS:	401400632
HW:	CPU	TSS:	1.21327	AT:	1.28941	#T:	4	DSTSS:	401400649	DETSS:	402218694	DTSS:	402218705
HW:	CPU	TSS:	1.21324	AT:	1.28797	#T:	4	DSTSS:	402218722	DETSS:	403054380	DTSS:	403054390
HW:	CPU	TSS:	1.21324	AT:	1.28889	#T:	4	DSTSS:	403054407	DETSS:	403875647	DTSS:	403875657
HW:	CPU	TSS:	1.21321	AT:	1.28732	#T:	4	DSTSS:	403875674	DETSS:	404712408	DTSS:	404712418
HW:	CPU	TSS:	1.21323	AT:	1.28756	#T:	4	DSTSS:	404712435	DETSS:	405530688	DTSS:	405530698
HW:	CPU	TSS:	1.21324	AT:	1.28871	#T:	4	DSTSS:	405530715	DETSS:	406349579	DTSS:	406349589
HW:	CPU	TSS:	1.21322	AT:	1.28762	#T:	4	DSTSS:	406349606	DETSS:	407181779	DTSS:	407181789
HW:	CPU	TSS:	1.21324	AT:	1.28922	#T:	4	DSTSS:	407181807	DETSS:	407999937	DTSS:	407999947
HW:	CPU	TSS:	1.21321	AT:	1.28822	#T:	4	DSTSS:	407999964	DETSS:	408832643	DTSS:	408832654
HW:	CPU	TSS:	1.21322	AT:	1.28805	#T:	4	DSTSS:	408832671	DETSS:	409652804	DTSS:	409652815
HW:	CPU	TSS:	1.21324	AT:	1.28958	#T:	4	DSTSS:	409652832	DETSS:	410469950	DTSS:	410469961
HW:	CPU	TSS:	1.21322	AT:	1.28803	#T:	4	DSTSS:	410469978	DETSS:	411301607	DTSS:	411301617
HW:	CPU	TSS:	1.21325	AT:	1.2896	#T:	4	DSTSS:	411301635	DETSS:	412116729	DTSS:	412116739
