StartAllocTime:	1107021134
EndAllocTime:	1107716598
TotalAllocTime:	0.695464
StartDeallocTime:	1225322685
EndDeallocTime:	1225330166
TotalDeallocTime:	0.007481
StartExecTime:	1107716599
EndExecTime:	1225322683
TotalExecTime:	117.606
Iteration 0
HW:	CPU	TSS:	1.11685	AT:	0	#T:	8	DSTSS:	6	DETSS:	895373	DTSS:	895379
Iteration 1
HW:	CPU	TSS:	1.41343	AT:	1.92426	#T:	8	DSTSS:	895403	DETSS:	1414986	DTSS:	1414993
Iteration 2
HW:	CPU	TSS:	1.55357	AT:	1.93102	#T:	8	DSTSS:	1415020	DETSS:	1931030	DTSS:	1931038
Iteration 3
HW:	CPU	TSS:	1.70248	AT:	2.06297	#T:	8	DSTSS:	1931066	DETSS:	2349507	DTSS:	2349514
Iteration 4
HW:	CPU	TSS:	1.76428	AT:	2.06322	#T:	8	DSTSS:	2349531	DETSS:	2834012	DTSS:	2834017
Iteration 5
HW:	CPU	TSS:	1.81821	AT:	2.0793	#T:	8	DSTSS:	2834035	DETSS:	3299944	DTSS:	3299951
Iteration 6
HW:	CPU	TSS:	1.87648	AT:	2.11633	#T:	8	DSTSS:	3299961	DETSS:	3730391	DTSS:	3730398
Iteration 7
HW:	CPU	TSS:	1.95241	AT:	2.18599	#T:	8	DSTSS:	3730414	DETSS:	4097500	DTSS:	4097505
Iteration 8
HW:	CPU	TSS:	2.01598	AT:	2.24151	#T:	8	DSTSS:	4097513	DETSS:	4464316	DTSS:	4464322
Iteration 9
HW:	CPU	TSS:	2.06406	AT:	2.27875	#T:	8	DSTSS:	4464340	DETSS:	4844821	DTSS:	4844826
Iteration 10
HW:	CPU	TSS:	2.12324	AT:	2.33347	#T:	8	DSTSS:	4844834	DETSS:	5180752	DTSS:	5180756
Iteration 11
HW:	CPU	TSS:	2.2036	AT:	2.41739	#T:	8	DSTSS:	5180761	DETSS:	5445636	DTSS:	5445640
Iteration 12
HW:	CPU	TSS:	2.29279	AT:	2.51327	#T:	8	DSTSS:	5445646	DETSS:	5669945	DTSS:	5669949
Iteration 13
HW:	CPU	TSS:	2.37524	AT:	2.6006	#T:	8	DSTSS:	5669954	DETSS:	5894134	DTSS:	5894139
Iteration 14
HW:	CPU	TSS:	2.45191	AT:	2.68076	#T:	8	DSTSS:	5894144	DETSS:	6117685	DTSS:	6117690
Iteration 15
HW:	CPU	TSS:	2.52164	AT:	2.7524	#T:	8	DSTSS:	6117696	DETSS:	6345063	DTSS:	6345067
Iteration 16
HW:	CPU	TSS:	2.58815	AT:	2.82033	#T:	8	DSTSS:	6345072	DETSS:	6568392	DTSS:	6568396
Iteration 17
HW:	CPU	TSS:	2.64922	AT:	2.97426	#T:	8	DSTSS:	6568411	DETSS:	6794458	DTSS:	6794462
Iteration 18
HW:	CPU	TSS:	2.70729	AT:	3.14522	#T:	8	DSTSS:	6794467	DETSS:	7018084	DTSS:	7018087
Iteration 19
HW:	CPU	TSS:	2.7612	AT:	3.26949	#T:	8	DSTSS:	7018093	DETSS:	7243229	DTSS:	7243233
Iteration 20
HW:	CPU	TSS:	2.81179	AT:	3.45234	#T:	8	DSTSS:	7243238	DETSS:	7468541	DTSS:	7468545
Iteration 21
HW:	CPU	TSS:	2.86003	AT:	3.64276	#T:	8	DSTSS:	7468550	DETSS:	7692211	DTSS:	7692216
Iteration 22
HW:	CPU	TSS:	2.90504	AT:	3.82147	#T:	8	DSTSS:	7692221	DETSS:	7917258	DTSS:	7917262
Iteration 23
HW:	CPU	TSS:	2.94794	AT:	3.95669	#T:	8	DSTSS:	7917268	DETSS:	8141282	DTSS:	8141286
Iteration 24
HW:	CPU	TSS:	2.98792	AT:	4.09971	#T:	8	DSTSS:	8141291	DETSS:	8367024	DTSS:	8367028
Iteration 25
HW:	CPU	TSS:	3.02621	AT:	4.27032	#T:	8	DSTSS:	8367033	DETSS:	8591612	DTSS:	8591616
Iteration 26
HW:	CPU	TSS:	3.06146	AT:	4.39734	#T:	8	DSTSS:	8591621	DETSS:	8819316	DTSS:	8819320
Iteration 27
HW:	CPU	TSS:	3.0962	AT:	4.44729	#T:	8	DSTSS:	8819326	DETSS:	9043333	DTSS:	9043337
Iteration 28
HW:	CPU	TSS:	3.12887	AT:	4.44619	#T:	8	DSTSS:	9043342	DETSS:	9268528	DTSS:	9268532
Iteration 29
HW:	CPU	TSS:	3.16029	AT:	4.4461	#T:	8	DSTSS:	9268538	DETSS:	9492792	DTSS:	9492796
Iteration 30
HW:	CPU	TSS:	3.19049	AT:	4.44608	#T:	8	DSTSS:	9492802	DETSS:	9716364	DTSS:	9716368
Iteration 31
HW:	CPU	TSS:	3.21673	AT:	4.44085	#T:	8	DSTSS:	9716374	DETSS:	9947980	DTSS:	9947984
Iteration 32
HW:	CPU	TSS:	3.2439	AT:	4.43882	#T:	8	DSTSS:	9947989	DETSS:	10172951	DTSS:	10172955
Iteration 33
HW:	CPU	TSS:	3.26985	AT:	4.44003	#T:	8	DSTSS:	10172977	DETSS:	10398039	DTSS:	10398044
Iteration 34
HW:	CPU	TSS:	3.29433	AT:	4.43678	#T:	8	DSTSS:	10398049	DETSS:	10624299	DTSS:	10624303
Iteration 35
HW:	CPU	TSS:	3.31524	AT:	4.42516	#T:	8	DSTSS:	10624309	DETSS:	10858922	DTSS:	10858926
Iteration 36
HW:	CPU	TSS:	3.33836	AT:	4.42631	#T:	8	DSTSS:	10858931	DETSS:	11083289	DTSS:	11083294
Iteration 37
HW:	CPU	TSS:	3.3605	AT:	4.42523	#T:	8	DSTSS:	11083299	DETSS:	11307839	DTSS:	11307843
Iteration 38
HW:	CPU	TSS:	3.38173	AT:	4.42565	#T:	8	DSTSS:	11307849	DETSS:	11532549	DTSS:	11532553
Iteration 39
HW:	CPU	TSS:	3.4017	AT:	4.42291	#T:	8	DSTSS:	11532558	DETSS:	11758808	DTSS:	11758812
Iteration 40
HW:	CPU	TSS:	3.42127	AT:	4.42378	#T:	8	DSTSS:	11758817	DETSS:	11983843	DTSS:	11983848
Iteration 41
HW:	CPU	TSS:	3.43988	AT:	4.42219	#T:	8	DSTSS:	11983854	DETSS:	12209730	DTSS:	12209734
Iteration 42
HW:	CPU	TSS:	3.45834	AT:	4.42673	#T:	8	DSTSS:	12209740	DETSS:	12433724	DTSS:	12433728
Iteration 43
HW:	CPU	TSS:	3.47596	AT:	4.42595	#T:	8	DSTSS:	12433733	DETSS:	12658376	DTSS:	12658380
Iteration 44
HW:	CPU	TSS:	3.49082	AT:	4.41692	#T:	8	DSTSS:	12658385	DETSS:	12890965	DTSS:	12890969
Iteration 45
HW:	CPU	TSS:	3.50696	AT:	4.41503	#T:	8	DSTSS:	12890974	DETSS:	13116774	DTSS:	13116778
Iteration 46
HW:	CPU	TSS:	3.5227	AT:	4.41295	#T:	8	DSTSS:	13116784	DETSS:	13342053	DTSS:	13342057
Iteration 47
HW:	CPU	TSS:	3.53784	AT:	4.42038	#T:	8	DSTSS:	13342062	DETSS:	13567579	DTSS:	13567583
Iteration 48
HW:	CPU	TSS:	3.55266	AT:	4.42045	#T:	8	DSTSS:	13567589	DETSS:	13792494	DTSS:	13792498
Iteration 49
HW:	CPU	TSS:	3.56671	AT:	4.41931	#T:	8	DSTSS:	13792504	DETSS:	14018511	DTSS:	14018515
Iteration 50
HW:	CPU	TSS:	3.57962	AT:	4.41621	#T:	8	DSTSS:	14018520	DETSS:	14247313	DTSS:	14247317
Iteration 51
HW:	CPU	TSS:	3.59283	AT:	4.42679	#T:	8	DSTSS:	14247323	DETSS:	14473278	DTSS:	14473282
Iteration 52
HW:	CPU	TSS:	3.60441	AT:	4.41877	#T:	8	DSTSS:	14473287	DETSS:	14704204	DTSS:	14704208
Iteration 53
HW:	CPU	TSS:	3.61596	AT:	4.41262	#T:	8	DSTSS:	14704213	DETSS:	14933804	DTSS:	14933808
Iteration 54
HW:	CPU	TSS:	3.62817	AT:	4.41185	#T:	8	DSTSS:	14933815	DETSS:	15159149	DTSS:	15159153
Iteration 55
HW:	CPU	TSS:	3.63941	AT:	4.40977	#T:	8	DSTSS:	15159159	DETSS:	15387115	DTSS:	15387119
Iteration 56
HW:	CPU	TSS:	3.64943	AT:	4.40162	#T:	8	DSTSS:	15387125	DETSS:	15618872	DTSS:	15618876
Iteration 57
HW:	CPU	TSS:	3.6603	AT:	4.4005	#T:	8	DSTSS:	15618881	DETSS:	15845686	DTSS:	15845690
Iteration 58
HW:	CPU	TSS:	3.6716	AT:	4.40095	#T:	8	DSTSS:	15845695	DETSS:	16069300	DTSS:	16069304
Iteration 59
HW:	CPU	TSS:	3.68228	AT:	4.40059	#T:	8	DSTSS:	16069311	DETSS:	16294252	DTSS:	16294257
Iteration 60
HW:	CPU	TSS:	3.69263	AT:	4.40961	#T:	8	DSTSS:	16294264	DETSS:	16519403	DTSS:	16519407
Iteration 61
HW:	CPU	TSS:	3.70256	AT:	4.40968	#T:	8	DSTSS:	16519412	DETSS:	16745152	DTSS:	16745156
Iteration 62
HW:	CPU	TSS:	3.71235	AT:	4.40974	#T:	8	DSTSS:	16745162	DETSS:	16970389	DTSS:	16970394
Iteration 63
HW:	CPU	TSS:	3.72045	AT:	4.4021	#T:	8	DSTSS:	16970400	DETSS:	17202208	DTSS:	17202212
Iteration 64
HW:	CPU	TSS:	3.72841	AT:	4.39416	#T:	8	DSTSS:	17202218	DETSS:	17433692	DTSS:	17433696
Iteration 65
HW:	CPU	TSS:	3.73779	AT:	4.39683	#T:	8	DSTSS:	17433755	DETSS:	17657498	DTSS:	17657502
Iteration 66
HW:	CPU	TSS:	3.74643	AT:	4.39998	#T:	8	DSTSS:	17657508	DETSS:	17883689	DTSS:	17883693
Iteration 67
HW:	CPU	TSS:	3.75501	AT:	4.40064	#T:	8	DSTSS:	17883699	DETSS:	18109114	DTSS:	18109119
Iteration 68
HW:	CPU	TSS:	3.76361	AT:	4.40862	#T:	8	DSTSS:	18109124	DETSS:	18333462	DTSS:	18333467
Iteration 69
HW:	CPU	TSS:	3.77175	AT:	4.41354	#T:	8	DSTSS:	18333473	DETSS:	18559009	DTSS:	18559013
Iteration 70
HW:	CPU	TSS:	3.77999	AT:	4.41506	#T:	8	DSTSS:	18559018	DETSS:	18783108	DTSS:	18783112
Iteration 71
HW:	CPU	TSS:	3.78784	AT:	4.4186	#T:	8	DSTSS:	18783118	DETSS:	19008172	DTSS:	19008176
Iteration 72
HW:	CPU	TSS:	3.7957	AT:	4.42795	#T:	8	DSTSS:	19008181	DETSS:	19232279	DTSS:	19232283
Iteration 73
HW:	CPU	TSS:	3.80305	AT:	4.42918	#T:	8	DSTSS:	19232289	DETSS:	19458088	DTSS:	19458092
Iteration 74
HW:	CPU	TSS:	3.8083	AT:	4.41439	#T:	8	DSTSS:	19458098	DETSS:	19693808	DTSS:	19693811
Iteration 75
HW:	CPU	TSS:	3.81507	AT:	4.41165	#T:	8	DSTSS:	19693817	DETSS:	19921012	DTSS:	19921016
Iteration 76
HW:	CPU	TSS:	3.82093	AT:	4.40438	#T:	8	DSTSS:	19921022	DETSS:	20152152	DTSS:	20152156
Iteration 77
HW:	CPU	TSS:	3.82754	AT:	4.40352	#T:	8	DSTSS:	20152162	DETSS:	20378612	DTSS:	20378616
Iteration 78
HW:	CPU	TSS:	3.83424	AT:	4.40354	#T:	8	DSTSS:	20378622	DETSS:	20603833	DTSS:	20603836
Iteration 79
HW:	CPU	TSS:	3.83902	AT:	4.39991	#T:	8	DSTSS:	20603842	DETSS:	20838647	DTSS:	20838651
Iteration 80
HW:	CPU	TSS:	3.84558	AT:	4.40841	#T:	8	DSTSS:	20838657	DETSS:	21063122	DTSS:	21063126
Iteration 81
HW:	CPU	TSS:	3.85201	AT:	4.40758	#T:	8	DSTSS:	21063131	DETSS:	21287605	DTSS:	21287609
Iteration 82
HW:	CPU	TSS:	3.85823	AT:	4.40922	#T:	8	DSTSS:	21287615	DETSS:	21512448	DTSS:	21512452
Iteration 83
HW:	CPU	TSS:	3.86442	AT:	4.41058	#T:	8	DSTSS:	21512457	DETSS:	21736757	DTSS:	21736761
Iteration 84
HW:	CPU	TSS:	3.87037	AT:	4.40985	#T:	8	DSTSS:	21736766	DETSS:	21961705	DTSS:	21961709
Iteration 85
HW:	CPU	TSS:	3.87344	AT:	4.39144	#T:	8	DSTSS:	21961714	DETSS:	22202458	DTSS:	22202462
Iteration 86
HW:	CPU	TSS:	3.87879	AT:	4.38766	#T:	8	DSTSS:	22202468	DETSS:	22429700	DTSS:	22429704
Iteration 87
HW:	CPU	TSS:	3.88307	AT:	4.37842	#T:	8	DSTSS:	22429710	DETSS:	22662462	DTSS:	22662469
Iteration 88
HW:	CPU	TSS:	3.88636	AT:	4.3617	#T:	8	DSTSS:	22662478	DETSS:	22900577	DTSS:	22900580
Iteration 89
HW:	CPU	TSS:	3.89063	AT:	4.35445	#T:	8	DSTSS:	22900585	DETSS:	23132491	DTSS:	23132495
Iteration 90
HW:	CPU	TSS:	3.89587	AT:	4.36652	#T:	8	DSTSS:	23132501	DETSS:	23358052	DTSS:	23358056
Iteration 91
HW:	CPU	TSS:	3.90058	AT:	4.36536	#T:	8	DSTSS:	23358061	DETSS:	23586233	DTSS:	23586237
Iteration 92
HW:	CPU	TSS:	3.90471	AT:	4.36536	#T:	8	DSTSS:	23586242	DETSS:	23817373	DTSS:	23817379
Iteration 93
HW:	CPU	TSS:	3.9086	AT:	4.35855	#T:	8	DSTSS:	23817389	DETSS:	24049556	DTSS:	24049560
Iteration 94
HW:	CPU	TSS:	3.91341	AT:	4.35768	#T:	8	DSTSS:	24049566	DETSS:	24275511	DTSS:	24275515
Iteration 95
HW:	CPU	TSS:	3.91788	AT:	4.36637	#T:	8	DSTSS:	24275520	DETSS:	24503022	DTSS:	24503026
Iteration 96
HW:	CPU	TSS:	3.92149	AT:	4.35685	#T:	8	DSTSS:	24503032	DETSS:	24735497	DTSS:	24735501
Iteration 97
HW:	CPU	TSS:	3.92592	AT:	4.35408	#T:	8	DSTSS:	24735507	DETSS:	24962317	DTSS:	24962321
Iteration 98
HW:	CPU	TSS:	3.93009	AT:	4.35039	#T:	8	DSTSS:	24962327	DETSS:	25190276	DTSS:	25190280
Iteration 99
HW:	CPU	TSS:	3.93298	AT:	4.33694	#T:	8	DSTSS:	25190286	DETSS:	25425996	DTSS:	25426000
Iteration 100
HW:	CPU	TSS:	3.93522	AT:	4.31969	#T:	8	DSTSS:	25426006	DETSS:	25665672	DTSS:	25665676
Iteration 101
HW:	CPU	TSS:	3.93962	AT:	4.33799	#T:	8	DSTSS:	25665681	DETSS:	25890798	DTSS:	25890803
Iteration 102
HW:	CPU	TSS:	3.94389	AT:	4.33995	#T:	8	DSTSS:	25890808	DETSS:	26116376	DTSS:	26116380
Iteration 103
HW:	CPU	TSS:	3.94682	AT:	4.33857	#T:	8	DSTSS:	26116386	DETSS:	26350309	DTSS:	26350315
Iteration 104
HW:	CPU	TSS:	3.94997	AT:	4.34562	#T:	8	DSTSS:	26350324	DETSS:	26582448	DTSS:	26582452
Iteration 105
HW:	CPU	TSS:	3.95338	AT:	4.3478	#T:	8	DSTSS:	26582458	DETSS:	26812512	DTSS:	26812516
Iteration 106
HW:	CPU	TSS:	3.95654	AT:	4.34099	#T:	8	DSTSS:	26812522	DETSS:	27043849	DTSS:	27043853
Iteration 107
HW:	CPU	TSS:	3.96035	AT:	4.34298	#T:	8	DSTSS:	27043858	DETSS:	27270342	DTSS:	27270346
Iteration 108
HW:	CPU	TSS:	3.96225	AT:	4.33344	#T:	8	DSTSS:	27270353	DETSS:	27509586	DTSS:	27509590
Iteration 109
HW:	CPU	TSS:	3.96585	AT:	4.33929	#T:	8	DSTSS:	27509596	DETSS:	27736800	DTSS:	27736804
Iteration 110
HW:	CPU	TSS:	3.96903	AT:	4.33489	#T:	8	DSTSS:	27736810	DETSS:	27966498	DTSS:	27966502
Iteration 111
HW:	CPU	TSS:	3.97123	AT:	4.32449	#T:	8	DSTSS:	27966507	DETSS:	28202878	DTSS:	28202881
Iteration 112
HW:	CPU	TSS:	3.97461	AT:	4.33025	#T:	8	DSTSS:	28202887	DETSS:	28430436	DTSS:	28430440
Iteration 113
HW:	CPU	TSS:	3.97593	AT:	4.3124	#T:	8	DSTSS:	28430446	DETSS:	28672556	DTSS:	28672562
Iteration 114
HW:	CPU	TSS:	3.97805	AT:	4.303	#T:	8	DSTSS:	28672571	DETSS:	28908612	DTSS:	28908617
Iteration 115
HW:	CPU	TSS:	3.98164	AT:	4.31535	#T:	8	DSTSS:	28908622	DETSS:	29133688	DTSS:	29133692
Iteration 116
HW:	CPU	TSS:	3.98487	AT:	4.32974	#T:	8	DSTSS:	29133698	DETSS:	29361045	DTSS:	29361050
Iteration 117
HW:	CPU	TSS:	3.98739	AT:	4.32138	#T:	8	DSTSS:	29361055	DETSS:	29593317	DTSS:	29593321
Iteration 118
HW:	CPU	TSS:	3.98978	AT:	4.31287	#T:	8	DSTSS:	29593326	DETSS:	29826203	DTSS:	29826207
Iteration 119
HW:	CPU	TSS:	3.99134	AT:	4.30708	#T:	8	DSTSS:	29826212	DETSS:	30065119	DTSS:	30065123
Iteration 120
HW:	CPU	TSS:	3.99358	AT:	4.30552	#T:	8	DSTSS:	30065129	DETSS:	30298610	DTSS:	30298614
Iteration 121
HW:	CPU	TSS:	3.99642	AT:	4.30706	#T:	8	DSTSS:	30298619	DETSS:	30527341	DTSS:	30527344
Iteration 122
HW:	CPU	TSS:	3.99962	AT:	4.31375	#T:	8	DSTSS:	30527350	DETSS:	30752916	DTSS:	30752920
Iteration 123
HW:	CPU	TSS:	4.00254	AT:	4.31266	#T:	8	DSTSS:	30752925	DETSS:	30980348	DTSS:	30980352
Iteration 124
HW:	CPU	TSS:	4.00486	AT:	4.32142	#T:	8	DSTSS:	30980357	DETSS:	31212075	DTSS:	31212079
Iteration 125
HW:	CPU	TSS:	4.00625	AT:	4.308	#T:	8	DSTSS:	31212085	DETSS:	31450815	DTSS:	31450819
Iteration 126
HW:	CPU	TSS:	4.00916	AT:	4.31156	#T:	8	DSTSS:	31450824	DETSS:	31677453	DTSS:	31677457
Iteration 127
HW:	CPU	TSS:	4.01184	AT:	4.32118	#T:	8	DSTSS:	31677462	DETSS:	31905569	DTSS:	31905573
Iteration 128
HW:	CPU	TSS:	4.01426	AT:	4.31852	#T:	8	DSTSS:	31905579	DETSS:	32135410	DTSS:	32135414
Iteration 129
HW:	CPU	TSS:	4.01704	AT:	4.33652	#T:	8	DSTSS:	32135503	DETSS:	32362145	DTSS:	32362149
Iteration 130
HW:	CPU	TSS:	4.01996	AT:	4.34931	#T:	8	DSTSS:	32362154	DETSS:	32587354	DTSS:	32587358
Iteration 131
HW:	CPU	TSS:	4.02174	AT:	4.33847	#T:	8	DSTSS:	32587364	DETSS:	32821620	DTSS:	32821624
Iteration 132
HW:	CPU	TSS:	4.0237	AT:	4.3324	#T:	8	DSTSS:	32821629	DETSS:	33054152	DTSS:	33054156
Iteration 133
HW:	CPU	TSS:	4.02649	AT:	4.34042	#T:	8	DSTSS:	33054161	DETSS:	33279597	DTSS:	33279601
Iteration 134
HW:	CPU	TSS:	4.02898	AT:	4.34659	#T:	8	DSTSS:	33279606	DETSS:	33507251	DTSS:	33507255
Iteration 135
HW:	CPU	TSS:	4.0305	AT:	4.35069	#T:	8	DSTSS:	33507261	DETSS:	33742693	DTSS:	33742696
Iteration 136
HW:	CPU	TSS:	4.03293	AT:	4.35758	#T:	8	DSTSS:	33742702	DETSS:	33970373	DTSS:	33970378
Iteration 137
HW:	CPU	TSS:	4.0354	AT:	4.35966	#T:	8	DSTSS:	33970383	DETSS:	34197351	DTSS:	34197355
Iteration 138
HW:	CPU	TSS:	4.03801	AT:	4.35969	#T:	8	DSTSS:	34197361	DETSS:	34422899	DTSS:	34422903
Iteration 139
HW:	CPU	TSS:	4.0407	AT:	4.36306	#T:	8	DSTSS:	34422908	DETSS:	34647499	DTSS:	34647503
Iteration 140
HW:	CPU	TSS:	4.04209	AT:	4.35862	#T:	8	DSTSS:	34647509	DETSS:	34882959	DTSS:	34882962
Iteration 141
HW:	CPU	TSS:	4.04474	AT:	4.37575	#T:	8	DSTSS:	34882968	DETSS:	35107329	DTSS:	35107333
Iteration 142
HW:	CPU	TSS:	4.0472	AT:	4.37681	#T:	8	DSTSS:	35107339	DETSS:	35333088	DTSS:	35333091
Iteration 143
HW:	CPU	TSS:	4.04972	AT:	4.38065	#T:	8	DSTSS:	35333097	DETSS:	35557992	DTSS:	35557996
Iteration 144
HW:	CPU	TSS:	4.0522	AT:	4.38639	#T:	8	DSTSS:	35558002	DETSS:	35783053	DTSS:	35783057
Iteration 145
HW:	CPU	TSS:	4.05388	AT:	4.38033	#T:	8	DSTSS:	35783063	DETSS:	36014838	DTSS:	36014842
Iteration 146
HW:	CPU	TSS:	4.05641	AT:	4.38161	#T:	8	DSTSS:	36014847	DETSS:	36238980	DTSS:	36238984
Iteration 147
HW:	CPU	TSS:	4.05848	AT:	4.38926	#T:	8	DSTSS:	36238989	DETSS:	36466878	DTSS:	36466883
Iteration 148
HW:	CPU	TSS:	4.06017	AT:	4.391	#T:	8	DSTSS:	36466888	DETSS:	36697968	DTSS:	36697973
Iteration 149
HW:	CPU	TSS:	4.0611	AT:	4.37611	#T:	8	DSTSS:	36697978	DETSS:	36935814	DTSS:	36935818
Iteration 150
HW:	CPU	TSS:	4.06304	AT:	4.37509	#T:	8	DSTSS:	36935824	DETSS:	37164325	DTSS:	37164332
Iteration 151
HW:	CPU	TSS:	4.06528	AT:	4.38708	#T:	8	DSTSS:	37164342	DETSS:	37389765	DTSS:	37389769
Iteration 152
HW:	CPU	TSS:	4.06746	AT:	4.38929	#T:	8	DSTSS:	37389775	DETSS:	37615612	DTSS:	37615617
Iteration 153
HW:	CPU	TSS:	4.06886	AT:	4.38227	#T:	8	DSTSS:	37615643	DETSS:	37848429	DTSS:	37848433
Iteration 154
HW:	CPU	TSS:	4.0708	AT:	4.37982	#T:	8	DSTSS:	37848439	DETSS:	38076019	DTSS:	38076023
Iteration 155
HW:	CPU	TSS:	4.07118	AT:	4.35898	#T:	8	DSTSS:	38076028	DETSS:	38318087	DTSS:	38318090
Iteration 156
HW:	CPU	TSS:	4.07242	AT:	4.36078	#T:	8	DSTSS:	38318096	DETSS:	38552026	DTSS:	38552031
Iteration 157
HW:	CPU	TSS:	4.07459	AT:	4.36022	#T:	8	DSTSS:	38552036	DETSS:	38776870	DTSS:	38776874
Iteration 158
HW:	CPU	TSS:	4.07647	AT:	4.35816	#T:	8	DSTSS:	38776879	DETSS:	39004366	DTSS:	39004370
Iteration 159
HW:	CPU	TSS:	4.0786	AT:	4.35825	#T:	8	DSTSS:	39004376	DETSS:	39229190	DTSS:	39229193
Iteration 160
HW:	CPU	TSS:	4.08007	AT:	4.35129	#T:	8	DSTSS:	39229199	DETSS:	39460123	DTSS:	39460127
Iteration 161
HW:	CPU	TSS:	4.08168	AT:	4.35406	#T:	8	DSTSS:	39460133	DETSS:	39689567	DTSS:	39689570
Iteration 162
HW:	CPU	TSS:	4.08364	AT:	4.35215	#T:	8	DSTSS:	39689576	DETSS:	39915322	DTSS:	39915326
Iteration 163
HW:	CPU	TSS:	4.08545	AT:	4.35301	#T:	8	DSTSS:	39915331	DETSS:	40142497	DTSS:	40142501
Iteration 164
HW:	CPU	TSS:	4.08734	AT:	4.35898	#T:	8	DSTSS:	40142507	DETSS:	40368549	DTSS:	40368553
Iteration 165
HW:	CPU	TSS:	4.08817	AT:	4.36073	#T:	8	DSTSS:	40368558	DETSS:	40604925	DTSS:	40604929
Iteration 166
HW:	CPU	TSS:	4.08925	AT:	4.35442	#T:	8	DSTSS:	40604935	DETSS:	40838748	DTSS:	40838752
Iteration 167
HW:	CPU	TSS:	4.08998	AT:	4.34046	#T:	8	DSTSS:	40838758	DETSS:	41076015	DTSS:	41076019
Iteration 168
HW:	CPU	TSS:	4.09172	AT:	4.33919	#T:	8	DSTSS:	41076025	DETSS:	41302931	DTSS:	41302935
Iteration 169
HW:	CPU	TSS:	4.0932	AT:	4.34325	#T:	8	DSTSS:	41302941	DETSS:	41532306	DTSS:	41532311
Iteration 170
HW:	CPU	TSS:	4.09474	AT:	4.34207	#T:	8	DSTSS:	41532316	DETSS:	41760894	DTSS:	41760898
Iteration 171
HW:	CPU	TSS:	4.09533	AT:	4.34663	#T:	8	DSTSS:	41760903	DETSS:	41999099	DTSS:	41999103
Iteration 172
HW:	CPU	TSS:	4.09709	AT:	4.35601	#T:	8	DSTSS:	41999108	DETSS:	42225116	DTSS:	42225120
Iteration 173
HW:	CPU	TSS:	4.09863	AT:	4.35213	#T:	8	DSTSS:	42225126	DETSS:	42453228	DTSS:	42453232
Iteration 174
HW:	CPU	TSS:	4.10015	AT:	4.35133	#T:	8	DSTSS:	42453237	DETSS:	42681401	DTSS:	42681404
Iteration 175
HW:	CPU	TSS:	4.10036	AT:	4.33149	#T:	8	DSTSS:	42681410	DETSS:	42923068	DTSS:	42923073
Iteration 176
HW:	CPU	TSS:	4.10133	AT:	4.32836	#T:	8	DSTSS:	42923079	DETSS:	43156677	DTSS:	43156681
Iteration 177
HW:	CPU	TSS:	4.10244	AT:	4.32525	#T:	8	DSTSS:	43156687	DETSS:	43388777	DTSS:	43388781
Iteration 178
HW:	CPU	TSS:	4.10404	AT:	4.32411	#T:	8	DSTSS:	43388787	DETSS:	43615503	DTSS:	43615508
Iteration 179
HW:	CPU	TSS:	4.10503	AT:	4.31711	#T:	8	DSTSS:	43615514	DETSS:	43848679	DTSS:	43848683
Iteration 180
HW:	CPU	TSS:	4.10643	AT:	4.31425	#T:	8	DSTSS:	43848688	DETSS:	44077184	DTSS:	44077188
Iteration 181
HW:	CPU	TSS:	4.10723	AT:	4.31595	#T:	8	DSTSS:	44077194	DETSS:	44312108	DTSS:	44312112
Iteration 182
HW:	CPU	TSS:	4.10793	AT:	4.31356	#T:	8	DSTSS:	44312118	DETSS:	44547982	DTSS:	44547987
Iteration 183
HW:	CPU	TSS:	4.10938	AT:	4.32477	#T:	8	DSTSS:	44547992	DETSS:	44775633	DTSS:	44775637
Iteration 184
HW:	CPU	TSS:	4.11031	AT:	4.31748	#T:	8	DSTSS:	44775643	DETSS:	45008798	DTSS:	45008802
Iteration 185
HW:	CPU	TSS:	4.11098	AT:	4.30991	#T:	8	DSTSS:	45008808	DETSS:	45244684	DTSS:	45244688
Iteration 186
HW:	CPU	TSS:	4.11254	AT:	4.31298	#T:	8	DSTSS:	45244694	DETSS:	45470628	DTSS:	45470632
Iteration 187
HW:	CPU	TSS:	4.11397	AT:	4.3257	#T:	8	DSTSS:	45470638	DETSS:	45697926	DTSS:	45697930
Iteration 188
HW:	CPU	TSS:	4.11502	AT:	4.31944	#T:	8	DSTSS:	45697936	DETSS:	45929296	DTSS:	45929300
Iteration 189
HW:	CPU	TSS:	4.116	AT:	4.31487	#T:	8	DSTSS:	45929306	DETSS:	46161333	DTSS:	46161336
Iteration 190
HW:	CPU	TSS:	4.11697	AT:	4.31037	#T:	8	DSTSS:	46161342	DETSS:	46393381	DTSS:	46393385
Iteration 191
HW:	CPU	TSS:	4.11838	AT:	4.32753	#T:	8	DSTSS:	46393390	DETSS:	46620325	DTSS:	46620329
Iteration 192
HW:	CPU	TSS:	4.11825	AT:	4.31519	#T:	8	DSTSS:	46620335	DETSS:	46864512	DTSS:	46864516
Iteration 193
HW:	CPU	TSS:	4.11858	AT:	4.30702	#T:	8	DSTSS:	46864521	DETSS:	47103647	DTSS:	47103651
Iteration 194
HW:	CPU	TSS:	4.1194	AT:	4.29939	#T:	8	DSTSS:	47103656	DETSS:	47336960	DTSS:	47336964
Iteration 195
HW:	CPU	TSS:	4.11954	AT:	4.29017	#T:	8	DSTSS:	47336969	DETSS:	47578137	DTSS:	47578144
Iteration 196
HW:	CPU	TSS:	4.1205	AT:	4.28658	#T:	8	DSTSS:	47578153	DETSS:	47809761	DTSS:	47809765
Iteration 197
HW:	CPU	TSS:	4.12178	AT:	4.2948	#T:	8	DSTSS:	47809771	DETSS:	48037545	DTSS:	48037549
Iteration 198
HW:	CPU	TSS:	4.12276	AT:	4.30034	#T:	8	DSTSS:	48037554	DETSS:	48268618	DTSS:	48268622
Iteration 199
HW:	CPU	TSS:	4.12412	AT:	4.30164	#T:	8	DSTSS:	48268627	DETSS:	48495146	DTSS:	48495150
Iteration 200
HW:	CPU	TSS:	4.12502	AT:	4.30307	#T:	8	DSTSS:	48495156	DETSS:	48727070	DTSS:	48727074
Iteration 201
HW:	CPU	TSS:	4.12615	AT:	4.31109	#T:	8	DSTSS:	48727079	DETSS:	48956043	DTSS:	48956047
Iteration 202
HW:	CPU	TSS:	4.12695	AT:	4.30309	#T:	8	DSTSS:	48956052	DETSS:	49188886	DTSS:	49188890
Iteration 203
HW:	CPU	TSS:	4.12759	AT:	4.29457	#T:	8	DSTSS:	49188895	DETSS:	49423565	DTSS:	49423571
Iteration 204
HW:	CPU	TSS:	4.1288	AT:	4.29883	#T:	8	DSTSS:	49423577	DETSS:	49651241	DTSS:	49651245
Iteration 205
HW:	CPU	TSS:	4.12949	AT:	4.29674	#T:	8	DSTSS:	49651250	DETSS:	49885085	DTSS:	49885089
Iteration 206
HW:	CPU	TSS:	4.12951	AT:	4.28537	#T:	8	DSTSS:	49885096	DETSS:	50127022	DTSS:	50127029
Iteration 207
HW:	CPU	TSS:	4.13032	AT:	4.27932	#T:	8	DSTSS:	50127039	DETSS:	50359242	DTSS:	50359247
Iteration 208
HW:	CPU	TSS:	4.13149	AT:	4.29819	#T:	8	DSTSS:	50359253	DETSS:	50587013	DTSS:	50587017
Iteration 209
HW:	CPU	TSS:	4.13204	AT:	4.3026	#T:	8	DSTSS:	50587022	DETSS:	50822325	DTSS:	50822329
Iteration 210
HW:	CPU	TSS:	4.13326	AT:	4.30994	#T:	8	DSTSS:	50822334	DETSS:	51049309	DTSS:	51049313
Iteration 211
HW:	CPU	TSS:	4.13443	AT:	4.32605	#T:	8	DSTSS:	51049319	DETSS:	51276657	DTSS:	51276661
Iteration 212
HW:	CPU	TSS:	4.13536	AT:	4.32753	#T:	8	DSTSS:	51276667	DETSS:	51507017	DTSS:	51507021
Iteration 213
HW:	CPU	TSS:	4.1363	AT:	4.32497	#T:	8	DSTSS:	51507026	DETSS:	51736995	DTSS:	51736999
Iteration 214
HW:	CPU	TSS:	4.13764	AT:	4.33214	#T:	8	DSTSS:	51737005	DETSS:	51961948	DTSS:	51961952
Iteration 215
HW:	CPU	TSS:	4.13885	AT:	4.33228	#T:	8	DSTSS:	51961957	DETSS:	52188349	DTSS:	52188353
Iteration 216
HW:	CPU	TSS:	4.13868	AT:	4.31842	#T:	8	DSTSS:	52188358	DETSS:	52432128	DTSS:	52432132
Iteration 217
HW:	CPU	TSS:	4.14013	AT:	4.32508	#T:	8	DSTSS:	52432137	DETSS:	52655398	DTSS:	52655402
Iteration 218
HW:	CPU	TSS:	4.14104	AT:	4.32855	#T:	8	DSTSS:	52655407	DETSS:	52885276	DTSS:	52885281
Iteration 219
HW:	CPU	TSS:	4.14177	AT:	4.33152	#T:	8	DSTSS:	52885286	DETSS:	53117418	DTSS:	53117422
Iteration 220
HW:	CPU	TSS:	4.14282	AT:	4.33124	#T:	8	DSTSS:	53117428	DETSS:	53345333	DTSS:	53345336
Iteration 221
HW:	CPU	TSS:	4.14396	AT:	4.33968	#T:	8	DSTSS:	53345342	DETSS:	53571997	DTSS:	53572001
Iteration 222
HW:	CPU	TSS:	4.1452	AT:	4.35955	#T:	8	DSTSS:	53572006	DETSS:	53797124	DTSS:	53797128
Iteration 223
HW:	CPU	TSS:	4.14645	AT:	4.36823	#T:	8	DSTSS:	53797133	DETSS:	54022051	DTSS:	54022055
Iteration 224
HW:	CPU	TSS:	4.1476	AT:	4.37011	#T:	8	DSTSS:	54022061	DETSS:	54248245	DTSS:	54248249
Iteration 225
HW:	CPU	TSS:	4.14891	AT:	4.38374	#T:	8	DSTSS:	54248254	DETSS:	54472174	DTSS:	54472178
Iteration 226
HW:	CPU	TSS:	4.14932	AT:	4.3735	#T:	8	DSTSS:	54472184	DETSS:	54707708	DTSS:	54707712
Iteration 227
HW:	CPU	TSS:	4.15024	AT:	4.37164	#T:	8	DSTSS:	54707718	DETSS:	54936607	DTSS:	54936611
Iteration 228
HW:	CPU	TSS:	4.15096	AT:	4.37045	#T:	8	DSTSS:	54936616	DETSS:	55167966	DTSS:	55167970
Iteration 229
HW:	CPU	TSS:	4.15188	AT:	4.37209	#T:	8	DSTSS:	55167976	DETSS:	55396574	DTSS:	55396578
Iteration 230
HW:	CPU	TSS:	4.15241	AT:	4.36159	#T:	8	DSTSS:	55396583	DETSS:	55630336	DTSS:	55630342
Iteration 231
HW:	CPU	TSS:	4.15311	AT:	4.3556	#T:	8	DSTSS:	55630352	DETSS:	55861787	DTSS:	55861791
Iteration 232
HW:	CPU	TSS:	4.1541	AT:	4.37507	#T:	8	DSTSS:	55861797	DETSS:	56089211	DTSS:	56089215
Iteration 233
HW:	CPU	TSS:	4.15424	AT:	4.3566	#T:	8	DSTSS:	56089221	DETSS:	56327983	DTSS:	56327987
Iteration 234
HW:	CPU	TSS:	4.15541	AT:	4.36263	#T:	8	DSTSS:	56327993	DETSS:	56552787	DTSS:	56552792
Iteration 235
HW:	CPU	TSS:	4.15642	AT:	4.36892	#T:	8	DSTSS:	56552798	DETSS:	56779659	DTSS:	56779666
Iteration 236
HW:	CPU	TSS:	4.15707	AT:	4.36454	#T:	8	DSTSS:	56779676	DETSS:	57011240	DTSS:	57011244
Iteration 237
HW:	CPU	TSS:	4.15767	AT:	4.35772	#T:	8	DSTSS:	57011250	DETSS:	57243642	DTSS:	57243646
Iteration 238
HW:	CPU	TSS:	4.15808	AT:	4.34627	#T:	8	DSTSS:	57243651	DETSS:	57478441	DTSS:	57478445
Iteration 239
HW:	CPU	TSS:	4.15857	AT:	4.336	#T:	8	DSTSS:	57478451	DETSS:	57712088	DTSS:	57712093
Iteration 240
HW:	CPU	TSS:	4.15968	AT:	4.33742	#T:	8	DSTSS:	57712098	DETSS:	57937076	DTSS:	57937080
Iteration 241
HW:	CPU	TSS:	4.16066	AT:	4.3341	#T:	8	DSTSS:	57937088	DETSS:	58163828	DTSS:	58163832
Iteration 242
HW:	CPU	TSS:	4.1618	AT:	4.34727	#T:	8	DSTSS:	58163838	DETSS:	58388176	DTSS:	58388180
Iteration 243
HW:	CPU	TSS:	4.16268	AT:	4.34852	#T:	8	DSTSS:	58388186	DETSS:	58616021	DTSS:	58616025
Iteration 244
HW:	CPU	TSS:	4.16255	AT:	4.33589	#T:	8	DSTSS:	58616030	DETSS:	58858096	DTSS:	58858100
Iteration 245
HW:	CPU	TSS:	4.16336	AT:	4.3356	#T:	8	DSTSS:	58858105	DETSS:	59086950	DTSS:	59086955
Iteration 246
HW:	CPU	TSS:	4.16433	AT:	4.34439	#T:	8	DSTSS:	59086960	DETSS:	59313239	DTSS:	59313243
Iteration 247
HW:	CPU	TSS:	4.16542	AT:	4.35252	#T:	8	DSTSS:	59313248	DETSS:	59537821	DTSS:	59537825
Iteration 248
HW:	CPU	TSS:	4.16647	AT:	4.3554	#T:	8	DSTSS:	59537831	DETSS:	59762814	DTSS:	59762819
Iteration 249
HW:	CPU	TSS:	4.16756	AT:	4.37252	#T:	8	DSTSS:	59762824	DETSS:	59987200	DTSS:	59987205
Iteration 250
HW:	CPU	TSS:	4.1683	AT:	4.36729	#T:	8	DSTSS:	59987211	DETSS:	60216389	DTSS:	60216393
Iteration 251
HW:	CPU	TSS:	4.16935	AT:	4.36993	#T:	8	DSTSS:	60216398	DETSS:	60441038	DTSS:	60441042
Iteration 252
HW:	CPU	TSS:	4.16951	AT:	4.36285	#T:	8	DSTSS:	60441047	DETSS:	60678566	DTSS:	60678570
Iteration 253
HW:	CPU	TSS:	4.16949	AT:	4.35365	#T:	8	DSTSS:	60678576	DETSS:	60918718	DTSS:	60918722
Iteration 254
HW:	CPU	TSS:	4.17001	AT:	4.35665	#T:	8	DSTSS:	60918727	DETSS:	61150989	DTSS:	61150994
Iteration 255
HW:	CPU	TSS:	4.17131	AT:	4.37209	#T:	8	DSTSS:	61150999	DETSS:	61371667	DTSS:	61371671
Iteration 256
HW:	CPU	TSS:	4.17163	AT:	4.36025	#T:	8	DSTSS:	61371677	DETSS:	61606593	DTSS:	61606600
Iteration 257
HW:	CPU	TSS:	4.17141	AT:	4.34105	#T:	8	DSTSS:	61606886	DETSS:	61849573	DTSS:	61849578
Iteration 258
HW:	CPU	TSS:	4.17222	AT:	4.33713	#T:	8	DSTSS:	61849583	DETSS:	62077252	DTSS:	62077256
Iteration 259
HW:	CPU	TSS:	4.17276	AT:	4.33272	#T:	8	DSTSS:	62077261	DETSS:	62308855	DTSS:	62308859
Iteration 260
HW:	CPU	TSS:	4.17359	AT:	4.35027	#T:	8	DSTSS:	62308865	DETSS:	62536031	DTSS:	62536035
Iteration 261
HW:	CPU	TSS:	4.17366	AT:	4.33872	#T:	8	DSTSS:	62536040	DETSS:	62774672	DTSS:	62774676
Iteration 262
HW:	CPU	TSS:	4.17457	AT:	4.3392	#T:	8	DSTSS:	62774681	DETSS:	63000554	DTSS:	63000558
Iteration 263
HW:	CPU	TSS:	4.17505	AT:	4.33022	#T:	8	DSTSS:	63000564	DETSS:	63232784	DTSS:	63232788
Iteration 264
HW:	CPU	TSS:	4.17579	AT:	4.32631	#T:	8	DSTSS:	63232793	DETSS:	63461116	DTSS:	63461120
Iteration 265
HW:	CPU	TSS:	4.17607	AT:	4.31379	#T:	8	DSTSS:	63461126	DETSS:	63696232	DTSS:	63696236
Iteration 266
HW:	CPU	TSS:	4.17629	AT:	4.30583	#T:	8	DSTSS:	63696242	DETSS:	63932282	DTSS:	63932287
Iteration 267
HW:	CPU	TSS:	4.17703	AT:	4.30186	#T:	8	DSTSS:	63932292	DETSS:	64160357	DTSS:	64160361
Iteration 268
HW:	CPU	TSS:	4.17731	AT:	4.30468	#T:	8	DSTSS:	64160367	DETSS:	64395453	DTSS:	64395457
Iteration 269
HW:	CPU	TSS:	4.17806	AT:	4.31906	#T:	8	DSTSS:	64395462	DETSS:	64623229	DTSS:	64623233
Iteration 270
HW:	CPU	TSS:	4.17839	AT:	4.31676	#T:	8	DSTSS:	64623238	DETSS:	64857472	DTSS:	64857477
Iteration 271
HW:	CPU	TSS:	4.17916	AT:	4.30893	#T:	8	DSTSS:	64857482	DETSS:	65084890	DTSS:	65084895
Iteration 272
HW:	CPU	TSS:	4.18001	AT:	4.31934	#T:	8	DSTSS:	65084900	DETSS:	65310858	DTSS:	65310862
Iteration 273
HW:	CPU	TSS:	4.18042	AT:	4.33117	#T:	8	DSTSS:	65310867	DETSS:	65543722	DTSS:	65543727
Iteration 274
HW:	CPU	TSS:	4.18062	AT:	4.32144	#T:	8	DSTSS:	65543733	DETSS:	65779720	DTSS:	65779724
Iteration 275
HW:	CPU	TSS:	4.18143	AT:	4.32761	#T:	8	DSTSS:	65779729	DETSS:	66006049	DTSS:	66006053
Iteration 276
HW:	CPU	TSS:	4.18171	AT:	4.31872	#T:	8	DSTSS:	66006058	DETSS:	66240833	DTSS:	66240837
Iteration 277
HW:	CPU	TSS:	4.18202	AT:	4.32379	#T:	8	DSTSS:	66240843	DETSS:	66475127	DTSS:	66475131
Iteration 278
HW:	CPU	TSS:	4.18196	AT:	4.30733	#T:	8	DSTSS:	66475136	DETSS:	66715154	DTSS:	66715158
Iteration 279
HW:	CPU	TSS:	4.18259	AT:	4.31101	#T:	8	DSTSS:	66715164	DETSS:	66944211	DTSS:	66944215
Iteration 280
HW:	CPU	TSS:	4.18343	AT:	4.31425	#T:	8	DSTSS:	66944220	DETSS:	67169762	DTSS:	67169766
Iteration 281
HW:	CPU	TSS:	4.18423	AT:	4.32467	#T:	8	DSTSS:	67169791	DETSS:	67395931	DTSS:	67395935
Iteration 282
HW:	CPU	TSS:	4.18396	AT:	4.31624	#T:	8	DSTSS:	67395940	DETSS:	67639210	DTSS:	67639214
Iteration 283
HW:	CPU	TSS:	4.18474	AT:	4.31813	#T:	8	DSTSS:	67639220	DETSS:	67865661	DTSS:	67865666
Iteration 284
HW:	CPU	TSS:	4.18488	AT:	4.31627	#T:	8	DSTSS:	67865671	DETSS:	68102358	DTSS:	68102363
Iteration 285
HW:	CPU	TSS:	4.18532	AT:	4.31162	#T:	8	DSTSS:	68102368	DETSS:	68334127	DTSS:	68334131
Iteration 286
HW:	CPU	TSS:	4.18611	AT:	4.32126	#T:	8	DSTSS:	68334136	DETSS:	68560102	DTSS:	68560106
Iteration 287
HW:	CPU	TSS:	4.18692	AT:	4.32337	#T:	8	DSTSS:	68560112	DETSS:	68785709	DTSS:	68785714
Iteration 288
HW:	CPU	TSS:	4.18754	AT:	4.32036	#T:	8	DSTSS:	68785719	DETSS:	69014252	DTSS:	69014255
Iteration 289
HW:	CPU	TSS:	4.18799	AT:	4.32203	#T:	8	DSTSS:	69014261	DETSS:	69245683	DTSS:	69245688
Iteration 290
HW:	CPU	TSS:	4.18822	AT:	4.32335	#T:	8	DSTSS:	69245693	DETSS:	69480559	DTSS:	69480563
Iteration 291
HW:	CPU	TSS:	4.18856	AT:	4.31551	#T:	8	DSTSS:	69480568	DETSS:	69713611	DTSS:	69713615
Iteration 292
HW:	CPU	TSS:	4.18909	AT:	4.32106	#T:	8	DSTSS:	69713620	DETSS:	69943628	DTSS:	69943632
Iteration 293
HW:	CPU	TSS:	4.18962	AT:	4.32639	#T:	8	DSTSS:	69943638	DETSS:	70173365	DTSS:	70173369
Iteration 294
HW:	CPU	TSS:	4.19043	AT:	4.34393	#T:	8	DSTSS:	70173374	DETSS:	70398458	DTSS:	70398463
Iteration 295
HW:	CPU	TSS:	4.19102	AT:	4.34437	#T:	8	DSTSS:	70398470	DETSS:	70627136	DTSS:	70627141
Iteration 296
HW:	CPU	TSS:	4.19119	AT:	4.33229	#T:	8	DSTSS:	70627146	DETSS:	70862958	DTSS:	70862962
Iteration 297
HW:	CPU	TSS:	4.19185	AT:	4.33085	#T:	8	DSTSS:	70862968	DETSS:	71090356	DTSS:	71090360
Iteration 298
HW:	CPU	TSS:	4.19272	AT:	4.35382	#T:	8	DSTSS:	71090366	DETSS:	71314142	DTSS:	71314146
Iteration 299
HW:	CPU	TSS:	4.19338	AT:	4.35289	#T:	8	DSTSS:	71314152	DETSS:	71541376	DTSS:	71541380
Iteration 300
HW:	CPU	TSS:	4.19414	AT:	4.36621	#T:	8	DSTSS:	71541385	DETSS:	71766866	DTSS:	71766870
Iteration 301
HW:	CPU	TSS:	4.19491	AT:	4.37418	#T:	8	DSTSS:	71766875	DETSS:	71991958	DTSS:	71991962
Iteration 302
HW:	CPU	TSS:	4.19559	AT:	4.37328	#T:	8	DSTSS:	71991968	DETSS:	72218678	DTSS:	72218682
Iteration 303
HW:	CPU	TSS:	4.19643	AT:	4.37549	#T:	8	DSTSS:	72218687	DETSS:	72442445	DTSS:	72442449
Iteration 304
HW:	CPU	TSS:	4.19721	AT:	4.37998	#T:	8	DSTSS:	72442455	DETSS:	72667238	DTSS:	72667242
Iteration 305
HW:	CPU	TSS:	4.19762	AT:	4.38017	#T:	8	DSTSS:	72667248	DETSS:	72898510	DTSS:	72898514
Iteration 306
HW:	CPU	TSS:	4.19822	AT:	4.38875	#T:	8	DSTSS:	72898519	DETSS:	73126244	DTSS:	73126248
Iteration 307
HW:	CPU	TSS:	4.19861	AT:	4.39077	#T:	8	DSTSS:	73126254	DETSS:	73357616	DTSS:	73357620
Iteration 308
HW:	CPU	TSS:	4.19939	AT:	4.39735	#T:	8	DSTSS:	73357625	DETSS:	73582184	DTSS:	73582188
Iteration 309
HW:	CPU	TSS:	4.20009	AT:	4.40224	#T:	8	DSTSS:	73582193	DETSS:	73807877	DTSS:	73807880
Iteration 310
HW:	CPU	TSS:	4.20056	AT:	4.39655	#T:	8	DSTSS:	73807886	DETSS:	74037671	DTSS:	74037675
Iteration 311
HW:	CPU	TSS:	4.20125	AT:	4.3999	#T:	8	DSTSS:	74037681	DETSS:	74263586	DTSS:	74263590
Iteration 312
HW:	CPU	TSS:	4.20169	AT:	4.40667	#T:	8	DSTSS:	74263595	DETSS:	74493815	DTSS:	74493819
Iteration 313
HW:	CPU	TSS:	4.20229	AT:	4.40684	#T:	8	DSTSS:	74493824	DETSS:	74721074	DTSS:	74721079
Iteration 314
HW:	CPU	TSS:	4.20242	AT:	4.39241	#T:	8	DSTSS:	74721084	DETSS:	74956789	DTSS:	74956793
Iteration 315
HW:	CPU	TSS:	4.20262	AT:	4.38378	#T:	8	DSTSS:	74956798	DETSS:	75191198	DTSS:	75191202
Iteration 316
HW:	CPU	TSS:	4.20334	AT:	4.38433	#T:	8	DSTSS:	75191207	DETSS:	75416226	DTSS:	75416230
Iteration 317
HW:	CPU	TSS:	4.20392	AT:	4.38143	#T:	8	DSTSS:	75416236	DETSS:	75643731	DTSS:	75643736
Iteration 318
HW:	CPU	TSS:	4.20462	AT:	4.38335	#T:	8	DSTSS:	75643742	DETSS:	75868856	DTSS:	75868860
Iteration 319
HW:	CPU	TSS:	4.20527	AT:	4.38048	#T:	8	DSTSS:	75868866	DETSS:	76095011	DTSS:	76095016
Iteration 320
HW:	CPU	TSS:	4.20542	AT:	4.36831	#T:	8	DSTSS:	76095021	DETSS:	76329980	DTSS:	76329984
Iteration 321
HW:	CPU	TSS:	4.20611	AT:	4.37545	#T:	8	DSTSS:	76329989	DETSS:	76555273	DTSS:	76555277
Iteration 322
HW:	CPU	TSS:	4.20677	AT:	4.37779	#T:	8	DSTSS:	76555283	DETSS:	76781059	DTSS:	76781063
Iteration 323
HW:	CPU	TSS:	4.20744	AT:	4.38493	#T:	8	DSTSS:	76781068	DETSS:	77006481	DTSS:	77006485
Iteration 324
HW:	CPU	TSS:	4.2075	AT:	4.37061	#T:	8	DSTSS:	77006490	DETSS:	77243003	DTSS:	77243007
Iteration 325
HW:	CPU	TSS:	4.20817	AT:	4.37096	#T:	8	DSTSS:	77243013	DETSS:	77468403	DTSS:	77468407
Iteration 326
HW:	CPU	TSS:	4.20877	AT:	4.3748	#T:	8	DSTSS:	77468413	DETSS:	77694977	DTSS:	77694982
Iteration 327
HW:	CPU	TSS:	4.20887	AT:	4.36321	#T:	8	DSTSS:	77694987	DETSS:	77930608	DTSS:	77930612
Iteration 328
HW:	CPU	TSS:	4.20951	AT:	4.36864	#T:	8	DSTSS:	77930618	DETSS:	78156284	DTSS:	78156289
Iteration 329
HW:	CPU	TSS:	4.20953	AT:	4.35673	#T:	8	DSTSS:	78156295	DETSS:	78393557	DTSS:	78393563
Iteration 330
HW:	CPU	TSS:	4.20969	AT:	4.35821	#T:	8	DSTSS:	78393572	DETSS:	78628025	DTSS:	78628029
Iteration 331
HW:	CPU	TSS:	4.21001	AT:	4.36151	#T:	8	DSTSS:	78628034	DETSS:	78859651	DTSS:	78859655
Iteration 332
HW:	CPU	TSS:	4.21066	AT:	4.3611	#T:	8	DSTSS:	78859660	DETSS:	79085029	DTSS:	79085034
Iteration 333
HW:	CPU	TSS:	4.21128	AT:	4.36309	#T:	8	DSTSS:	79085040	DETSS:	79310861	DTSS:	79310865
Iteration 334
HW:	CPU	TSS:	4.21109	AT:	4.34421	#T:	8	DSTSS:	79310871	DETSS:	79551922	DTSS:	79551926
Iteration 335
HW:	CPU	TSS:	4.21154	AT:	4.34112	#T:	8	DSTSS:	79551932	DETSS:	79780699	DTSS:	79780703
Iteration 336
HW:	CPU	TSS:	4.21212	AT:	4.35117	#T:	8	DSTSS:	79780709	DETSS:	80007149	DTSS:	80007153
Iteration 337
HW:	CPU	TSS:	4.21265	AT:	4.34874	#T:	8	DSTSS:	80007158	DETSS:	80234500	DTSS:	80234504
Iteration 338
HW:	CPU	TSS:	4.21328	AT:	4.34915	#T:	8	DSTSS:	80234510	DETSS:	80459940	DTSS:	80459945
Iteration 339
HW:	CPU	TSS:	4.21315	AT:	4.33222	#T:	8	DSTSS:	80459950	DETSS:	80699734	DTSS:	80699739
Iteration 340
HW:	CPU	TSS:	4.21309	AT:	4.32986	#T:	8	DSTSS:	80699744	DETSS:	80938276	DTSS:	80938280
Iteration 341
HW:	CPU	TSS:	4.21362	AT:	4.32781	#T:	8	DSTSS:	80938286	DETSS:	81165421	DTSS:	81165425
Iteration 342
HW:	CPU	TSS:	4.21421	AT:	4.3286	#T:	8	DSTSS:	81165430	DETSS:	81391325	DTSS:	81391329
Iteration 343
HW:	CPU	TSS:	4.21478	AT:	4.33954	#T:	8	DSTSS:	81391335	DETSS:	81617638	DTSS:	81617642
Iteration 344
HW:	CPU	TSS:	4.2153	AT:	4.33799	#T:	8	DSTSS:	81617648	DETSS:	81844626	DTSS:	81844630
Iteration 345
HW:	CPU	TSS:	4.21568	AT:	4.34675	#T:	8	DSTSS:	81844656	DETSS:	82074468	DTSS:	82074473
Iteration 346
HW:	CPU	TSS:	4.21611	AT:	4.35342	#T:	8	DSTSS:	82074478	DETSS:	82303300	DTSS:	82303304
Iteration 347
HW:	CPU	TSS:	4.21672	AT:	4.36083	#T:	8	DSTSS:	82303310	DETSS:	82528680	DTSS:	82528684
Iteration 348
HW:	CPU	TSS:	4.21723	AT:	4.35874	#T:	8	DSTSS:	82528689	DETSS:	82755817	DTSS:	82755821
Iteration 349
HW:	CPU	TSS:	4.21746	AT:	4.35072	#T:	8	DSTSS:	82755827	DETSS:	82988417	DTSS:	82988421
Iteration 350
HW:	CPU	TSS:	4.21793	AT:	4.36655	#T:	8	DSTSS:	82988427	DETSS:	83216141	DTSS:	83216145
Iteration 351
HW:	CPU	TSS:	4.21817	AT:	4.36229	#T:	8	DSTSS:	83216151	DETSS:	83448497	DTSS:	83448501
Iteration 352
HW:	CPU	TSS:	4.21833	AT:	4.35333	#T:	8	DSTSS:	83448506	DETSS:	83682498	DTSS:	83682502
Iteration 353
HW:	CPU	TSS:	4.21864	AT:	4.34932	#T:	8	DSTSS:	83682508	DETSS:	83913233	DTSS:	83913237
Iteration 354
HW:	CPU	TSS:	4.21881	AT:	4.3395	#T:	8	DSTSS:	83913243	DETSS:	84147004	DTSS:	84147008
Iteration 355
HW:	CPU	TSS:	4.21922	AT:	4.35253	#T:	8	DSTSS:	84147014	DETSS:	84375756	DTSS:	84375760
Iteration 356
HW:	CPU	TSS:	4.21965	AT:	4.36465	#T:	8	DSTSS:	84375766	DETSS:	84604094	DTSS:	84604098
Iteration 357
HW:	CPU	TSS:	4.21956	AT:	4.35068	#T:	8	DSTSS:	84604104	DETSS:	84843016	DTSS:	84843023
Iteration 358
HW:	CPU	TSS:	4.21984	AT:	4.34423	#T:	8	DSTSS:	84843033	DETSS:	85074369	DTSS:	85074373
Iteration 359
HW:	CPU	TSS:	4.22036	AT:	4.34415	#T:	8	DSTSS:	85074378	DETSS:	85300753	DTSS:	85300756
Iteration 360
HW:	CPU	TSS:	4.22055	AT:	4.33702	#T:	8	DSTSS:	85300762	DETSS:	85533799	DTSS:	85533803
Iteration 361
HW:	CPU	TSS:	4.22102	AT:	4.33987	#T:	8	DSTSS:	85533808	DETSS:	85761217	DTSS:	85761221
Iteration 362
HW:	CPU	TSS:	4.22111	AT:	4.33257	#T:	8	DSTSS:	85761226	DETSS:	85996260	DTSS:	85996264
Iteration 363
HW:	CPU	TSS:	4.22081	AT:	4.31193	#T:	8	DSTSS:	85996270	DETSS:	86239315	DTSS:	86239319
Iteration 364
HW:	CPU	TSS:	4.22135	AT:	4.31337	#T:	8	DSTSS:	86239324	DETSS:	86465216	DTSS:	86465220
Iteration 365
HW:	CPU	TSS:	4.22188	AT:	4.32101	#T:	8	DSTSS:	86465226	DETSS:	86691252	DTSS:	86691256
Iteration 366
HW:	CPU	TSS:	4.22164	AT:	4.30477	#T:	8	DSTSS:	86691261	DETSS:	86932950	DTSS:	86932953
Iteration 367
HW:	CPU	TSS:	4.22207	AT:	4.30961	#T:	8	DSTSS:	86932959	DETSS:	87161135	DTSS:	87161139
Iteration 368
HW:	CPU	TSS:	4.22201	AT:	4.30491	#T:	8	DSTSS:	87161144	DETSS:	87399185	DTSS:	87399191
Iteration 369
HW:	CPU	TSS:	4.22233	AT:	4.30556	#T:	8	DSTSS:	87399200	DETSS:	87629357	DTSS:	87629361
Iteration 370
HW:	CPU	TSS:	4.22284	AT:	4.31441	#T:	8	DSTSS:	87629367	DETSS:	87855502	DTSS:	87855506
Iteration 371
HW:	CPU	TSS:	4.22336	AT:	4.31759	#T:	8	DSTSS:	87855512	DETSS:	88081525	DTSS:	88081529
Iteration 372
HW:	CPU	TSS:	4.22373	AT:	4.31668	#T:	8	DSTSS:	88081534	DETSS:	88310648	DTSS:	88310652
Iteration 373
HW:	CPU	TSS:	4.22425	AT:	4.33195	#T:	8	DSTSS:	88310658	DETSS:	88536495	DTSS:	88536499
Iteration 374
HW:	CPU	TSS:	4.22422	AT:	4.32507	#T:	8	DSTSS:	88536505	DETSS:	88773730	DTSS:	88773734
Iteration 375
HW:	CPU	TSS:	4.22477	AT:	4.3264	#T:	8	DSTSS:	88773740	DETSS:	88998978	DTSS:	88998982
Iteration 376
HW:	CPU	TSS:	4.22521	AT:	4.33295	#T:	8	DSTSS:	88998987	DETSS:	89226435	DTSS:	89226439
Iteration 377
HW:	CPU	TSS:	4.22544	AT:	4.32805	#T:	8	DSTSS:	89226444	DETSS:	89458032	DTSS:	89458036
Iteration 378
HW:	CPU	TSS:	4.22541	AT:	4.32537	#T:	8	DSTSS:	89458041	DETSS:	89695365	DTSS:	89695369
Iteration 379
HW:	CPU	TSS:	4.22568	AT:	4.33963	#T:	8	DSTSS:	89695375	DETSS:	89926266	DTSS:	89926270
Iteration 380
HW:	CPU	TSS:	4.2257	AT:	4.3274	#T:	8	DSTSS:	89926275	DETSS:	90162587	DTSS:	90162594
Iteration 381
HW:	CPU	TSS:	4.22594	AT:	4.32093	#T:	8	DSTSS:	90162603	DETSS:	90394160	DTSS:	90394164
Iteration 382
HW:	CPU	TSS:	4.22644	AT:	4.3394	#T:	8	DSTSS:	90394170	DETSS:	90620097	DTSS:	90620101
Iteration 383
HW:	CPU	TSS:	4.22638	AT:	4.32815	#T:	8	DSTSS:	90620107	DETSS:	90857865	DTSS:	90857869
Iteration 384
HW:	CPU	TSS:	4.22674	AT:	4.33903	#T:	8	DSTSS:	90857874	DETSS:	91086642	DTSS:	91086649
Iteration 385
HW:	CPU	TSS:	4.22697	AT:	4.33732	#T:	8	DSTSS:	91086657	DETSS:	91318275	DTSS:	91318279
Iteration 386
HW:	CPU	TSS:	4.22749	AT:	4.33822	#T:	8	DSTSS:	91318284	DETSS:	91543650	DTSS:	91543654
Iteration 387
HW:	CPU	TSS:	4.22802	AT:	4.33934	#T:	8	DSTSS:	91543659	DETSS:	91768722	DTSS:	91768726
Iteration 388
HW:	CPU	TSS:	4.228	AT:	4.3301	#T:	8	DSTSS:	91768732	DETSS:	92005715	DTSS:	92005719
Iteration 389
HW:	CPU	TSS:	4.22852	AT:	4.33093	#T:	8	DSTSS:	92005725	DETSS:	92230855	DTSS:	92230859
Iteration 390
HW:	CPU	TSS:	4.22874	AT:	4.33756	#T:	8	DSTSS:	92230865	DETSS:	92462443	DTSS:	92462450
Iteration 391
HW:	CPU	TSS:	4.22927	AT:	4.33779	#T:	8	DSTSS:	92462459	DETSS:	92687495	DTSS:	92687499
Iteration 392
HW:	CPU	TSS:	4.22943	AT:	4.33146	#T:	8	DSTSS:	92687505	DETSS:	92920340	DTSS:	92920344
Iteration 393
HW:	CPU	TSS:	4.22963	AT:	4.33094	#T:	8	DSTSS:	92920350	DETSS:	93152377	DTSS:	93152380
Iteration 394
HW:	CPU	TSS:	4.23012	AT:	4.34471	#T:	8	DSTSS:	93152386	DETSS:	93378004	DTSS:	93378008
Iteration 395
HW:	CPU	TSS:	4.23036	AT:	4.34457	#T:	8	DSTSS:	93378014	DETSS:	93609030	DTSS:	93609034
Iteration 396
HW:	CPU	TSS:	4.23082	AT:	4.3566	#T:	8	DSTSS:	93609040	DETSS:	93835178	DTSS:	93835182
Iteration 397
HW:	CPU	TSS:	4.23116	AT:	4.35991	#T:	8	DSTSS:	93835188	DETSS:	94063961	DTSS:	94063965
Iteration 398
HW:	CPU	TSS:	4.23156	AT:	4.35806	#T:	8	DSTSS:	94063971	DETSS:	94291453	DTSS:	94291457
Iteration 399
HW:	CPU	TSS:	4.23174	AT:	4.36449	#T:	8	DSTSS:	94291462	DETSS:	94523818	DTSS:	94523823
Iteration 400
HW:	CPU	TSS:	4.23187	AT:	4.35897	#T:	8	DSTSS:	94523830	DETSS:	94757230	DTSS:	94757235
Iteration 401
HW:	CPU	TSS:	4.23206	AT:	4.35858	#T:	8	DSTSS:	94757241	DETSS:	94989197	DTSS:	94989201
Iteration 402
HW:	CPU	TSS:	4.2325	AT:	4.35725	#T:	8	DSTSS:	94989207	DETSS:	95215694	DTSS:	95215698
Iteration 403
HW:	CPU	TSS:	4.23297	AT:	4.3566	#T:	8	DSTSS:	95215704	DETSS:	95441312	DTSS:	95441316
Iteration 404
HW:	CPU	TSS:	4.23242	AT:	4.34289	#T:	8	DSTSS:	95441322	DETSS:	95689899	DTSS:	95689903
Iteration 405
HW:	CPU	TSS:	4.23284	AT:	4.34093	#T:	8	DSTSS:	95689910	DETSS:	95916701	DTSS:	95916705
Iteration 406
HW:	CPU	TSS:	4.23333	AT:	4.34848	#T:	8	DSTSS:	95916711	DETSS:	96141890	DTSS:	96141894
Iteration 407
HW:	CPU	TSS:	4.23338	AT:	4.33675	#T:	8	DSTSS:	96141899	DETSS:	96376894	DTSS:	96376898
Iteration 408
HW:	CPU	TSS:	4.23342	AT:	4.33399	#T:	8	DSTSS:	96376903	DETSS:	96612092	DTSS:	96612096
Iteration 409
HW:	CPU	TSS:	4.233	AT:	4.3178	#T:	8	DSTSS:	96612121	DETSS:	96857969	DTSS:	96857973
Iteration 410
HW:	CPU	TSS:	4.23337	AT:	4.31528	#T:	8	DSTSS:	96857979	DETSS:	97085759	DTSS:	97085764
Iteration 411
HW:	CPU	TSS:	4.23354	AT:	4.31382	#T:	8	DSTSS:	97085769	DETSS:	97318041	DTSS:	97318046
Iteration 412
HW:	CPU	TSS:	4.23389	AT:	4.31138	#T:	8	DSTSS:	97318052	DETSS:	97546282	DTSS:	97546286
Iteration 413
HW:	CPU	TSS:	4.23381	AT:	4.30075	#T:	8	DSTSS:	97546291	DETSS:	97784245	DTSS:	97784252
Iteration 414
HW:	CPU	TSS:	4.23392	AT:	4.29363	#T:	8	DSTSS:	97784261	DETSS:	98017904	DTSS:	98017908
Iteration 415
HW:	CPU	TSS:	4.23429	AT:	4.29902	#T:	8	DSTSS:	98017914	DETSS:	98245600	DTSS:	98245604
Iteration 416
HW:	CPU	TSS:	4.23459	AT:	4.30394	#T:	8	DSTSS:	98245609	DETSS:	98474758	DTSS:	98474762
Iteration 417
HW:	CPU	TSS:	4.23476	AT:	4.30364	#T:	8	DSTSS:	98474768	DETSS:	98706977	DTSS:	98706981
Iteration 418
HW:	CPU	TSS:	4.23469	AT:	4.29071	#T:	8	DSTSS:	98706986	DETSS:	98944682	DTSS:	98944686
Iteration 419
HW:	CPU	TSS:	4.23514	AT:	4.29082	#T:	8	DSTSS:	98944692	DETSS:	99170202	DTSS:	99170206
Iteration 420
HW:	CPU	TSS:	4.23546	AT:	4.31391	#T:	8	DSTSS:	99170212	DETSS:	99398834	DTSS:	99398838
Iteration 421
HW:	CPU	TSS:	4.23585	AT:	4.3136	#T:	8	DSTSS:	99398843	DETSS:	99625901	DTSS:	99625905
Iteration 422
HW:	CPU	TSS:	4.23583	AT:	4.30053	#T:	8	DSTSS:	99625911	DETSS:	99862363	DTSS:	99862367
Iteration 423
HW:	CPU	TSS:	4.23614	AT:	4.3077	#T:	8	DSTSS:	99862372	DETSS:	100091174	DTSS:	100091179
Iteration 424
HW:	CPU	TSS:	4.23624	AT:	4.30963	#T:	8	DSTSS:	100091184	DETSS:	100324706	DTSS:	100324709
Iteration 425
HW:	CPU	TSS:	4.23655	AT:	4.32956	#T:	8	DSTSS:	100324715	DETSS:	100553496	DTSS:	100553500
Iteration 426
HW:	CPU	TSS:	4.23691	AT:	4.32992	#T:	8	DSTSS:	100553505	DETSS:	100780980	DTSS:	100780986
Iteration 427
HW:	CPU	TSS:	4.23709	AT:	4.33043	#T:	8	DSTSS:	100780994	DETSS:	101012821	DTSS:	101012825
Iteration 428
HW:	CPU	TSS:	4.23751	AT:	4.33308	#T:	8	DSTSS:	101012830	DETSS:	101238805	DTSS:	101238809
Iteration 429
HW:	CPU	TSS:	4.23768	AT:	4.34039	#T:	8	DSTSS:	101238815	DETSS:	101470544	DTSS:	101470548
Iteration 430
HW:	CPU	TSS:	4.23806	AT:	4.34836	#T:	8	DSTSS:	101470553	DETSS:	101697457	DTSS:	101697460
Iteration 431
HW:	CPU	TSS:	4.23797	AT:	4.33596	#T:	8	DSTSS:	101697466	DETSS:	101935668	DTSS:	101935672
Iteration 432
HW:	CPU	TSS:	4.23807	AT:	4.33099	#T:	8	DSTSS:	101935678	DETSS:	102169066	DTSS:	102169070
Iteration 433
HW:	CPU	TSS:	4.23841	AT:	4.33601	#T:	8	DSTSS:	102169076	DETSS:	102397006	DTSS:	102397010
Iteration 434
HW:	CPU	TSS:	4.23869	AT:	4.34615	#T:	8	DSTSS:	102397016	DETSS:	102626097	DTSS:	102626101
Iteration 435
HW:	CPU	TSS:	4.23811	AT:	4.31744	#T:	8	DSTSS:	102626106	DETSS:	102876109	DTSS:	102876117
Iteration 436
HW:	CPU	TSS:	4.2383	AT:	4.31432	#T:	8	DSTSS:	102876126	DETSS:	103107412	DTSS:	103107416
Iteration 437
HW:	CPU	TSS:	4.23866	AT:	4.31414	#T:	8	DSTSS:	103107422	DETSS:	103334638	DTSS:	103334642
Iteration 438
HW:	CPU	TSS:	4.23907	AT:	4.32657	#T:	8	DSTSS:	103334647	DETSS:	103560446	DTSS:	103560450
Iteration 439
HW:	CPU	TSS:	4.23943	AT:	4.32861	#T:	8	DSTSS:	103560456	DETSS:	103787508	DTSS:	103787513
Iteration 440
HW:	CPU	TSS:	4.23981	AT:	4.33673	#T:	8	DSTSS:	103787518	DETSS:	104014123	DTSS:	104014127
Iteration 441
HW:	CPU	TSS:	4.23995	AT:	4.3324	#T:	8	DSTSS:	104014132	DETSS:	104246595	DTSS:	104246599
Iteration 442
HW:	CPU	TSS:	4.2401	AT:	4.32709	#T:	8	DSTSS:	104246604	DETSS:	104478614	DTSS:	104478617
Iteration 443
HW:	CPU	TSS:	4.24033	AT:	4.32895	#T:	8	DSTSS:	104478623	DETSS:	104708869	DTSS:	104708873
Iteration 444
HW:	CPU	TSS:	4.24049	AT:	4.32208	#T:	8	DSTSS:	104708878	DETSS:	104940729	DTSS:	104940733
Iteration 445
HW:	CPU	TSS:	4.24051	AT:	4.31804	#T:	8	DSTSS:	104940738	DETSS:	105175938	DTSS:	105175945
Iteration 446
HW:	CPU	TSS:	4.24055	AT:	4.30874	#T:	8	DSTSS:	105175953	DETSS:	105410843	DTSS:	105410848
Iteration 447
HW:	CPU	TSS:	4.24074	AT:	4.31702	#T:	8	DSTSS:	105410853	DETSS:	105641928	DTSS:	105641932
Iteration 448
HW:	CPU	TSS:	4.24101	AT:	4.32203	#T:	8	DSTSS:	105641938	DETSS:	105871031	DTSS:	105871035
Iteration 449
HW:	CPU	TSS:	4.2414	AT:	4.32416	#T:	8	DSTSS:	105871040	DETSS:	106097143	DTSS:	106097146
Iteration 450
HW:	CPU	TSS:	4.24141	AT:	4.31688	#T:	8	DSTSS:	106097152	DETSS:	106332484	DTSS:	106332491
Iteration 451
HW:	CPU	TSS:	4.24148	AT:	4.3355	#T:	8	DSTSS:	106332499	DETSS:	106566569	DTSS:	106566573
Iteration 452
HW:	CPU	TSS:	4.2418	AT:	4.33984	#T:	8	DSTSS:	106566579	DETSS:	106794185	DTSS:	106794189
Iteration 453
HW:	CPU	TSS:	4.24218	AT:	4.34086	#T:	8	DSTSS:	106794194	DETSS:	107020545	DTSS:	107020550
Iteration 454
HW:	CPU	TSS:	4.24263	AT:	4.34273	#T:	8	DSTSS:	107020555	DETSS:	107244764	DTSS:	107244769
Iteration 455
HW:	CPU	TSS:	4.243	AT:	4.34351	#T:	8	DSTSS:	107244774	DETSS:	107471165	DTSS:	107471169
Iteration 456
HW:	CPU	TSS:	4.24311	AT:	4.33631	#T:	8	DSTSS:	107471175	DETSS:	107703894	DTSS:	107703899
Iteration 457
HW:	CPU	TSS:	4.24326	AT:	4.33684	#T:	8	DSTSS:	107703904	DETSS:	107935919	DTSS:	107935924
Iteration 458
HW:	CPU	TSS:	4.24337	AT:	4.33602	#T:	8	DSTSS:	107935930	DETSS:	108168632	DTSS:	108168636
Iteration 459
HW:	CPU	TSS:	4.24371	AT:	4.33988	#T:	8	DSTSS:	108168641	DETSS:	108395608	DTSS:	108395612
Iteration 460
HW:	CPU	TSS:	4.2439	AT:	4.34093	#T:	8	DSTSS:	108395618	DETSS:	108626573	DTSS:	108626577
Iteration 461
HW:	CPU	TSS:	4.24362	AT:	4.3322	#T:	8	DSTSS:	108626583	DETSS:	108869207	DTSS:	108869211
Iteration 462
HW:	CPU	TSS:	4.24398	AT:	4.342	#T:	8	DSTSS:	108869217	DETSS:	109095783	DTSS:	109095787
Iteration 463
HW:	CPU	TSS:	4.24404	AT:	4.33852	#T:	8	DSTSS:	109095792	DETSS:	109329819	DTSS:	109329823
Iteration 464
HW:	CPU	TSS:	4.24441	AT:	4.34212	#T:	8	DSTSS:	109329829	DETSS:	109555868	DTSS:	109555873
Iteration 465
HW:	CPU	TSS:	4.24456	AT:	4.33546	#T:	8	DSTSS:	109555880	DETSS:	109787643	DTSS:	109787647
Iteration 466
HW:	CPU	TSS:	4.24454	AT:	4.33463	#T:	8	DSTSS:	109787652	DETSS:	110023689	DTSS:	110023694
Iteration 467
HW:	CPU	TSS:	4.24487	AT:	4.34279	#T:	8	DSTSS:	110023699	DETSS:	110250833	DTSS:	110250837
Iteration 468
HW:	CPU	TSS:	4.24524	AT:	4.3449	#T:	8	DSTSS:	110250842	DETSS:	110476667	DTSS:	110476671
Iteration 469
HW:	CPU	TSS:	4.2454	AT:	4.33887	#T:	8	DSTSS:	110476676	DETSS:	110708143	DTSS:	110708147
Iteration 470
HW:	CPU	TSS:	4.24507	AT:	4.31575	#T:	8	DSTSS:	110708153	DETSS:	110952111	DTSS:	110952114
Iteration 471
HW:	CPU	TSS:	4.24518	AT:	4.30822	#T:	8	DSTSS:	110952120	DETSS:	111185000	DTSS:	111185004
Iteration 472
HW:	CPU	TSS:	4.24552	AT:	4.31528	#T:	8	DSTSS:	111185010	DETSS:	111411650	DTSS:	111411654
Iteration 473
HW:	CPU	TSS:	4.24587	AT:	4.322	#T:	8	DSTSS:	111411659	DETSS:	111637913	DTSS:	111637917
Iteration 474
HW:	CPU	TSS:	4.24618	AT:	4.32813	#T:	8	DSTSS:	111637923	DETSS:	111865374	DTSS:	111865379
Iteration 475
HW:	CPU	TSS:	4.24658	AT:	4.33069	#T:	8	DSTSS:	111865384	DETSS:	112090172	DTSS:	112090177
Iteration 476
HW:	CPU	TSS:	4.24694	AT:	4.33663	#T:	8	DSTSS:	112090182	DETSS:	112316075	DTSS:	112316080
Iteration 477
HW:	CPU	TSS:	4.24688	AT:	4.34317	#T:	8	DSTSS:	112316085	DETSS:	112553154	DTSS:	112553158
Iteration 478
HW:	CPU	TSS:	4.24718	AT:	4.34199	#T:	8	DSTSS:	112553164	DETSS:	112780726	DTSS:	112780730
Iteration 479
HW:	CPU	TSS:	4.24731	AT:	4.34439	#T:	8	DSTSS:	112780735	DETSS:	113012727	DTSS:	113012731
Iteration 480
HW:	CPU	TSS:	4.24738	AT:	4.33551	#T:	8	DSTSS:	113012772	DETSS:	113246323	DTSS:	113246327
Iteration 481
HW:	CPU	TSS:	4.24738	AT:	4.33125	#T:	8	DSTSS:	113246334	DETSS:	113481729	DTSS:	113481733
Iteration 482
HW:	CPU	TSS:	4.2474	AT:	4.33261	#T:	8	DSTSS:	113481738	DETSS:	113716611	DTSS:	113716616
Iteration 483
HW:	CPU	TSS:	4.24762	AT:	4.32989	#T:	8	DSTSS:	113716621	DETSS:	113946075	DTSS:	113946079
Iteration 484
HW:	CPU	TSS:	4.2478	AT:	4.32416	#T:	8	DSTSS:	113946085	DETSS:	114176811	DTSS:	114176816
Iteration 485
HW:	CPU	TSS:	4.24782	AT:	4.32039	#T:	8	DSTSS:	114176822	DETSS:	114411514	DTSS:	114411518
Iteration 486
HW:	CPU	TSS:	4.24765	AT:	4.32481	#T:	8	DSTSS:	114411523	DETSS:	114651695	DTSS:	114651699
Iteration 487
HW:	CPU	TSS:	4.248	AT:	4.33298	#T:	8	DSTSS:	114651705	DETSS:	114877611	DTSS:	114877615
Iteration 488
HW:	CPU	TSS:	4.24836	AT:	4.33425	#T:	8	DSTSS:	114877620	DETSS:	115103177	DTSS:	115103181
Iteration 489
HW:	CPU	TSS:	4.24872	AT:	4.33502	#T:	8	DSTSS:	115103186	DETSS:	115328788	DTSS:	115328793
Iteration 490
HW:	CPU	TSS:	4.24912	AT:	4.33852	#T:	8	DSTSS:	115328799	DETSS:	115553267	DTSS:	115553271
Iteration 491
HW:	CPU	TSS:	4.24952	AT:	4.33873	#T:	8	DSTSS:	115553277	DETSS:	115777883	DTSS:	115777888
Iteration 492
HW:	CPU	TSS:	4.24978	AT:	4.33606	#T:	8	DSTSS:	115777894	DETSS:	116006065	DTSS:	116006069
Iteration 493
HW:	CPU	TSS:	4.24992	AT:	4.34268	#T:	8	DSTSS:	116006075	DETSS:	116237520	DTSS:	116237523
Iteration 494
HW:	CPU	TSS:	4.25015	AT:	4.34089	#T:	8	DSTSS:	116237529	DETSS:	116466609	DTSS:	116466613
Iteration 495
HW:	CPU	TSS:	4.25029	AT:	4.34176	#T:	8	DSTSS:	116466618	DETSS:	116697872	DTSS:	116697876
Iteration 496
HW:	CPU	TSS:	4.25043	AT:	4.34438	#T:	8	DSTSS:	116697882	DETSS:	116929241	DTSS:	116929245
Iteration 497
HW:	CPU	TSS:	4.25082	AT:	4.35703	#T:	8	DSTSS:	116929250	DETSS:	117153954	DTSS:	117153957
Iteration 498
HW:	CPU	TSS:	4.25115	AT:	4.36738	#T:	8	DSTSS:	117153963	DETSS:	117380132	DTSS:	117380136
Iteration 499
HW:	CPU	TSS:	4.25148	AT:	4.37159	#T:	8	DSTSS:	117380142	DETSS:	117606073	DTSS:	117606077
