0	0.0
0	0.0
500	0.916
1000	0.916
1500	0.916
2000	0.916
2500	0.916
3000	0.916
3500	0.916
4000	0.916
4500	0.916
5000	0.916
5500	0.916
6000	0.916
6500	0.916
7000	0.916
7500	0.916
8000	0.916
8500	0.916
9000	0.916
9500	0.916
10000	0.916
10500	1.119787876
11000	1.094887876
11500	1.069311001
12000	1.044411001
12500	1.019511001
13000	0.994611001
13500	0.969711001
14000	0.944134126
14500	0.919234126
15000	0.894334126
15500	0.869434126
16000	0.844534126
16500	0.819634126
17000	0.794057251
17500	0.769157251
18000	0.744257251
18500	0.719357251
19000	0.694457251
19500	0.670270501
20000	0.679070501
20500	0.484082625
21000	0.517782625
21500	0.5521595
26500	0.9928076286
32000	1.0663959051
37500	1.0686967322
43500	1.151436789
49500	1.083724343
55500	1.083724343
61500	1.083724343
67500	1.083724342
73500	1.083724343
79500	1.083724343
85500	1.083724343
91500	1.083724342
97000	1.0830692106
103000	1.0833268574
109000	1.083724343
115000	1.083724343
121000	1.083724343
127000	1.083724343
133000	1.083724343
139000	1.083724343
145000	1.083724342
151000	1.083724342
157000	1.083724342
163000	1.083724343
168500	1.0832603322
174500	1.083091703
180500	1.083724343
186500	1.083724343
192500	1.083724343
198500	1.083724343
204500	1.083724343
210500	1.083724343
216500	1.083724342
222500	1.083724343
228500	1.083724343
234500	1.083724343
240500	1.083724342
246000	1.0830692106
252000	1.0835052074
258000	1.083724343
264000	1.083724343
270000	1.083724343
276000	1.083724343
282000	1.083724343
288000	1.083724343
294000	1.083724342
300000	1.083724342
306000	1.083724342
312000	1.083724343
317500	1.0830819822
323500	1.083221482
329500	1.083724343
335500	1.083724343
341500	1.083724343
347500	1.083724343
353500	1.083724343
359500	1.083724343
365500	1.083724342
371500	1.083724343
377500	1.083724343
383500	1.083724343
389500	1.083724342
395000	1.0830692106
401000	1.0836835574
407000	1.083724343
413000	1.083724343
419000	1.083724343
425000	1.083724343
431000	1.083724343
437000	1.083724343
443000	1.083724342
449000	1.083724342
455000	1.083724342
461000	1.083724343
466500	1.0830692106
472500	1.0834211654
478500	1.083724343
484500	1.083724343
490500	1.083724343
496500	1.083724343
502500	1.083724343
508500	1.083724343
514500	1.083724342
520500	1.083724343
526500	1.083724343
532500	1.083724342
538000	1.0831660242
544000	1.083154575
550000	1.083724343
556000	1.083724343
562000	1.083724343
568000	1.083724343
574000	1.083724343
580000	1.083724343
586000	1.083724343
592000	1.083724342
598000	1.083724342
604000	1.083724342
610000	1.083724343
615500	1.0830692106
621500	1.0835995154
627500	1.083724343
633500	1.083724343
639500	1.083724343
645500	1.083724343
651500	1.083724343
657500	1.083724343
663500	1.083724342
669500	1.083724343
675500	1.083724343
681500	1.083724343
687000	1.0830692106
693000	1.0833371234
699000	1.083724343
705000	1.083724343
711000	1.083724343
717000	1.083724343
723000	1.083724343
729000	1.083724343
735000	1.083724343
741000	1.083724342
747000	1.083724342
753000	1.083724342
758500	1.0832500662
764500	1.083098547
770500	1.083724343
776500	1.083724343
782500	1.083724343
788500	1.083724343
794500	1.083724343
800500	1.083724342
806500	1.083724343
812500	1.083724342
818500	1.083724343
824500	1.083724343
830500	1.083724343
836000	1.0830692106
842000	1.0835154734
848000	1.083724343
854000	1.083724343
860000	1.083724343
866000	1.083724343
872000	1.083724343
878000	1.083724343
884000	1.083724343
890000	1.083724342
896000	1.083724342
902000	1.083724342
907500	1.0830717162
913500	1.0832530814
919500	1.083724343
925500	1.083724343
931500	1.083724343
937500	1.083724343
943500	1.083724343
949500	1.083724342
955500	1.083724343
961500	1.083724342
967500	1.083724343
973500	1.083724343
979500	1.083724343
985000	1.0830692106
991000	1.0836938234
997000	1.083724343
1003000	1.083724343
