K1-13291	1851296061	1853866354	8	0	388991.690748	10.000000
K1-13291	1853866360	1856435578	8	1	389107.102314	10.000000
K1-13291	1856435583	1859005972	8	2	389086.537645	10.000000
K1-13291	1859005977	1861574621	8	3	389142.307007	10.000000
K1-13291	1861574626	1864144345	8	4	389143.215599	10.000000
K1-13291	1864144350	1866712562	8	5	389181.859948	10.000000
K1-13291	1866712566	1869282175	8	6	389179.259859	10.000000
K1-13291	1869282180	1871851781	8	7	389177.442341	10.000000
K1-13291	1871851785	1874421864	8	8	389168.001621	10.000000
K1-13291	1874421868	1876990689	8	9	389179.502196	10.000000
K1-13291	1876990694	1879558557	8	10	389202.090426	10.000000
K1-13291	1879558562	1882128588	8	11	389193.611270	10.000000
K1-13291	1882128593	1884697981	8	12	389193.870520	10.000000
K1-13291	1884697986	1887267631	8	13	389191.312160	10.000000
K1-13291	1887267636	1889838446	8	14	389177.321174	10.000000
K1-13291	1889838451	1892408665	8	15	389170.740392	10.000000
K1-13291	1892408670	1894979055	8	16	389163.401700	10.000000
K1-13291	1894979060	1897548355	8	17	389166.049586	10.000000
K1-13291	1897548360	1900117460	8	18	389169.973161	10.000000
K1-13291	1900117464	1902685972	8	19	389177.995168	10.000000
K1-13291	1902685977	1905255409	8	20	389178.574682	10.000000
K1-13291	1905255415	1907825406	8	21	389175.266850	10.000000
K1-13291	1907825410	1910393634	8	22	389183.876166	10.000000
K1-13291	1910393639	1912961202	8	23	389195.940161	10.000000
K1-13291	1912961207	1915530419	8	24	389197.048193	10.000000
K1-13291	1915530424	1918100794	8	25	389191.318818	10.000000
K1-13291	1918100799	1920669887	8	26	389193.217164	10.000000
K1-13291	1920669892	1923237971	8	27	389200.427615	10.000000
K1-13291	1923237976	1925807308	8	28	389200.606514	10.000000
K1-13291	1925807313	1928377610	8	29	389195.895981	10.000000
K1-13291	1928377615	1930947783	8	30	389192.119769	10.000000
K1-13291	1930947788	1933515903	8	31	389198.297481	10.000000
K1-13291	1933515908	1936085317	8	32	389198.161211	10.000000
K1-13291	1936085322	1938655018	8	33	389196.754333	10.000000
K1-13291	1938655023	1941223392	8	34	389201.170935	10.000000
K1-13291	1941223397	1943792763	8	35	389201.142924	10.000000
K1-13291	1943792768	1946363201	8	36	389196.756380	10.000000
K1-13291	1946363206	1948933339	8	37	389193.792638	10.000000
K1-13291	1948933344	1951501103	8	38	389200.201370	10.000000
K1-13291	1951501108	1954070486	8	39	389200.158743	10.000000
K1-13291	1954070491	1956640008	8	40	389199.604653	10.000000
K1-13291	1956640013	1959210355	8	41	389196.101552	10.000000
K1-13291	1959210360	1961777818	8	42	389202.920836	10.000000
K1-13291	1961777822	1964347602	8	43	389201.439759	10.000000
K1-13291	1964347607	1966915574	8	44	389206.120707	10.000000
K1-13291	1966915580	1969483744	8	45	389209.952786	10.000000
K1-13291	1969483749	1972052826	8	46	389210.679169	10.000000
K1-13291	1972052831	1974621848	8	47	389211.564646	10.000000
K1-13291	1974621853	1977190112	8	48	389214.757400	10.000000
K1-13291	1977190117	1979759663	8	49	389213.923166	10.000000
K1-13291	1979759667	1982329919	8	50	389211.027579	10.000000
K1-13291	1982329924	1984898351	8	51	389213.557033	10.000000
K1-13291	1984898356	1987466847	8	52	389215.808137	10.000000
K1-13291	1987466852	1990037352	8	53	389212.339960	10.000000
K1-13291	1990037357	1992607341	8	54	389210.419154	10.000000
K1-13291	1992607345	1995177697	8	55	389207.574213	10.000000
K1-13291	1995177702	1997748307	8	56	389204.154117	10.000000
K1-13291	1997748312	2000319306	8	57	389199.838683	10.000000
K1-13291	2000319310	2002888747	8	58	389199.664454	10.000000
K1-13291	2002888752	2005456650	8	59	389203.381438	10.000000
K1-13291	2005456655	2008024669	8	60	389206.688557	10.000000
K1-13291	2008024674	2010591138	8	61	389213.676193	10.000000
K1-13291	2010591143	2013160644	8	62	389213.139472	10.000000
K1-13291	2013160649	2015730301	8	63	389212.262113	10.000000
K1-13291	2015730307	2018297461	8	64	389217.233545	10.000000
K1-13291	2018297466	2020866459	8	65	389217.831031	10.000000
K1-13291	2020866464	2023436102	8	66	389216.956828	10.000000
K1-13291	2023436106	2026006423	8	67	389214.593455	10.000000
K1-13291	2026006428	2028575631	8	68	389214.744362	10.000000
K1-13291	2028575636	2031145479	8	69	389213.505927	10.000000
K1-13291	2031145484	2033715505	8	70	389211.922603	10.000000
K1-13291	2033715510	2036285101	8	71	389211.287975	10.000000
K1-13291	2036285106	2038854487	8	72	389211.106515	10.000000
K1-13291	2038854492	2041424271	8	73	389210.115217	10.000000
K1-13291	2041424276	2043993956	8	74	389209.350318	10.000000
K1-13291	2043993961	2046560804	8	75	389214.260345	10.000000
K1-13291	2046560809	2049129155	8	76	389216.085947	10.000000
K1-13291	2049129160	2051699609	8	77	389213.782322	10.000000
K1-13291	2051699613	2054270096	8	78	389211.469928	10.000000
K1-13291	2054270101	2056838923	8	79	389212.360579	10.000000
K1-13291	2056838928	2059408351	8	80	389212.105250	10.000000
K1-13291	2059408356	2061976764	8	81	389213.731257	10.000000
K1-13291	2061976769	2064546435	8	82	389213.022055	10.000000
K1-13291	2064546440	2067115897	8	83	389212.706653	10.000000
K1-13291	2067115902	2069685460	8	84	389212.218672	10.000000
K1-13291	2069685464	2072253022	8	85	389215.266759	10.000000
K1-13291	2072253027	2074821892	8	86	389215.967248	10.000000
K1-13291	2074821897	2077390786	8	87	389216.610504	10.000000
K1-13291	2077390791	2079958864	8	88	389218.628254	10.000000
K1-13291	2079958869	2082526547	8	89	389221.266071	10.000000
K1-13291	2082526552	2085095256	8	90	389222.137889	10.000000
K1-13291	2085095261	2087665419	8	91	389220.596501	10.000000
K1-13291	2087665423	2090234973	8	92	389220.080301	10.000000
K1-13291	2090234978	2092804159	8	93	389220.168160	10.000000
K1-13291	2092804163	2095374772	8	94	389217.978608	10.000000
K1-13291	2095374777	2097945571	8	95	389215.541185	10.000000
K1-13291	2097945576	2100515667	8	96	389214.251941	10.000000
K1-13291	2100515672	2103086466	8	97	389211.902334	10.000000
K1-13291	2103086471	2105657102	8	98	389209.849634	10.000000
K1-13291	2105657107	2108227977	8	99	389207.475966	10.000000
K1-13291	2108227981	2110798838	8	100	389205.170326	10.000000
K1-13291	2110798843	2113368804	8	101	389204.239080	10.000000
K1-13291	2113368809	2115939677	8	102	389201.992025	10.000000
K1-13291	2115939747	2118510302	8	103	389200.149421	10.000000
K1-13291	2118510307	2121081294	8	104	389197.812490	10.000000
K1-13291	2121081299	2123649334	8	105	389199.738110	10.000000
K1-13291	2123649339	2126218191	8	106	389200.471146	10.000000
K1-13291	2126218196	2128787871	8	107	389200.036299	10.000000
K1-13291	2128787876	2131358936	8	108	389197.684719	10.000000
K1-13291	2131358941	2133930148	8	109	389195.173500	10.000000
K1-13291	2133930153	2136500843	8	110	389193.413061	10.000000
K1-13291	2136500848	2139070645	8	111	389192.891781	10.000000
K1-13291	2139070650	2141639332	8	112	389193.874335	10.000000
K1-13291	2141639337	2144209050	8	113	389193.469764	10.000000
K1-13291	2144209055	2146779422	8	114	389192.209504	10.000000
K1-13291	2146779427	2149349749	8	115	389191.032351	10.000000
K1-13291	2149349754	2151918761	8	116	389191.576447	10.000000
K1-13291	2151918766	2154487123	8	117	389192.945694	10.000000
K1-13291	2154487128	2157055202	8	118	389194.650890	10.000000
K1-13291	2157055207	2159623352	8	119	389196.240584	10.000000
K1-13291	2159623356	2162193658	8	120	389195.103772	10.000000
K1-13291	2162193686	2164763803	8	121	389194.185498	10.000000
K1-13291	2164763808	2167333737	8	122	389193.542000	10.000000
K1-13291	2167333742	2169903445	8	123	389193.184951	10.000000
K1-13291	2169903450	2172473482	8	124	389192.434945	10.000000
K1-13291	2172473487	2175042293	8	125	389193.170680	10.000000
K1-13291	2175042297	2177611257	8	126	389193.712351	10.000000
K1-13291	2177611262	2180181110	8	127	389193.193540	10.000000
K1-13291	2180181115	2182748462	8	128	389195.619454	10.000000
K1-13291	2182748467	2185316747	8	129	389196.920954	10.000000
K1-13291	2185316752	2187884442	8	130	389198.884810	10.000000
K1-13291	2187884447	2190452341	8	131	389200.584829	10.000000
K1-13291	2190452346	2193022308	8	132	389199.902856	10.000000
K1-13291	2193022313	2195592615	8	133	389198.848982	10.000000
K1-13291	2195592620	2198163056	8	134	389197.658130	10.000000
K1-13291	2198163062	2200733633	8	135	389196.335552	10.000000
K1-13291	2200733638	2203304156	8	136	389195.090889	10.000000
K1-13291	2203304161	2205874246	8	137	389194.339543	10.000000
K1-13291	2205874251	2208442614	8	138	389195.475525	10.000000
K1-13291	2208442618	2211012288	8	139	389195.182254	10.000000
K1-13291	2211012293	2213581693	8	140	389195.182124	10.000000
K1-13291	2213581698	2216152069	8	141	389194.146222	10.000000
K1-13291	2216152074	2218719197	8	142	389196.565255	10.000000
K1-13291	2218719202	2221287534	8	143	389197.678958	10.000000
K1-13291	2221287539	2223856015	8	144	389198.627920	10.000000
K1-13291	2223856019	2226424680	8	145	389199.306584	10.000000
K1-13291	2226424747	2228993668	8	146	389199.771988	10.000000
K1-13291	2228993672	2231563874	8	147	389198.921039	10.000000
K1-13291	2231563879	2234133287	8	148	389198.887689	10.000000
K1-13291	2234133292	2236700896	8	149	389200.676542	10.000000
K1-13291	2236700901	2239269635	8	150	389201.308139	10.000000
K1-13291	2239269640	2241839616	8	151	389200.693696	10.000000
K1-13291	2241839621	2244410606	8	152	389199.088335	10.000000
K1-13291	2244410611	2246980027	8	153	389199.047113	10.000000
K1-13291	2246980032	2249548237	8	154	389200.189894	10.000000
K1-13291	2249548242	2252117536	8	155	389200.260602	10.000000
K1-13291	2252117541	2254687706	8	156	389199.490051	10.000000
K1-13291	2254687711	2257258067	8	157	389198.546145	10.000000
K1-13291	2257258072	2259826673	8	158	389199.287015	10.000000
K1-13291	2259826677	2262395957	8	159	389199.373906	10.000000
K1-13291	2262395962	2264964144	8	160	389200.493709	10.000000
K1-13291	2264964149	2267533072	8	161	389200.907760	10.000000
K1-13291	2267533076	2270102486	8	162	389200.864157	10.000000
K1-13291	2270102491	2272671525	8	163	389201.167452	10.000000
K1-13291	2272671530	2275241845	8	164	389200.291056	10.000000
K1-13291	2275241850	2277811995	8	165	389199.580349	10.000000
K1-13291	2277812000	2280382189	8	166	389198.838247	10.000000
K1-13291	2280382194	2282950573	8	167	389199.736953	10.000000
K1-13291	2282950578	2285520213	8	168	389199.499260	10.000000
K1-13291	2285520218	2288089571	8	169	389199.515636	10.000000
K1-13291	2288089576	2290659071	8	170	389199.406033	10.000000
K1-13291	2290659076	2293229101	8	171	389198.830948	10.000000
K1-13291	2293229106	2295798720	8	172	389198.622376	10.000000
K1-13291	2295798725	2298368881	8	173	389197.944366	10.000000
K1-13291	2298368886	2300938485	8	174	389197.756228	10.000000
K1-13291	2300938490	2303507146	8	175	389198.381825	10.000000
K1-13291	2303507151	2306076517	8	176	389198.392742	10.000000
K1-13291	2306076522	2308644250	8	177	389199.797454	10.000000
K1-13291	2308644255	2311212976	8	178	389200.346164	10.000000
K1-13291	2311212980	2313782763	8	179	389199.995906	10.000000
K1-13291	2313782768	2316353009	8	180	389199.265388	10.000000
K1-13291	2316353014	2318921853	8	181	389199.710597	10.000000
K1-13291	2318921857	2321490573	8	182	389200.251926	10.000000
K1-13291	2321490578	2324059662	8	183	389200.484418	10.000000
K1-13291	2324059667	2326628405	8	184	389200.997701	10.000000
K1-13291	2326628410	2329195970	8	185	389202.464828	10.000000
K1-13291	2329195975	2331764406	8	186	389203.210720	10.000000
K1-13291	2331764411	2334333526	8	187	389203.397553	10.000000
K1-13291	2334333531	2336903021	8	188	389203.281854	10.000000
K1-13291	2336903026	2339472927	8	189	389202.839701	10.000000
K1-13291	2339472932	2342042745	8	190	389202.471970	10.000000
K1-13291	2342042750	2344611724	8	191	389202.769999	10.000000
K1-13291	2344611729	2347181322	8	192	389202.579110	10.000000
K1-13291	2347181326	2349749737	8	193	389203.313897	10.000000
K1-13291	2349749742	2352319362	8	194	389203.101201	10.000000
K1-13291	2352319366	2354889188	8	195	389202.735334	10.000000
K1-13291	2354889193	2357458713	8	196	389202.604628	10.000000
K1-13291	2357458718	2360028591	8	197	389202.205182	10.000000
K1-13291	2360028596	2362598212	8	198	389202.005379	10.000000
K1-13291	2362598217	2365167437	8	199	389202.106744	10.000000
K1-13291	2365167442	2367735064	8	200	389203.412902	10.000000
K1-13291	2367735069	2370303986	8	201	389203.733515	10.000000
K1-13291	2370303991	2372872088	8	202	389204.664352	10.000000
K1-13291	2372872093	2375441653	8	203	389204.498972	10.000000
K1-13291	2375441657	2378011761	8	204	389203.933969	10.000000
K1-13291	2378011766	2380581828	8	205	389203.404601	10.000000
K1-13291	2380581833	2383151659	8	206	389203.053050	10.000000
K1-13291	2383151664	2385721009	8	207	389203.055175	10.000000
K1-13291	2385721013	2388290116	8	208	389203.233401	10.000000
K1-13291	2388290121	2390859846	8	209	389202.960542	10.000000
K1-13291	2390859851	2393430198	8	210	389202.243731	10.000000
K1-13291	2393430203	2396000434	8	211	389201.616569	10.000000
K1-13291	2396000438	2398570462	8	212	389201.143220	10.000000
K1-13291	2398570467	2401140669	8	213	389200.547593	10.000000
K1-13291	2401140674	2403711402	8	214	389199.586919	10.000000
K1-13291	2403711407	2406282672	8	215	389198.258561	10.000000
K1-13291	2406282677	2408853903	8	216	389196.969677	10.000000
K1-13291	2408853908	2411424596	8	217	389196.066447	10.000000
K1-13291	2411424601	2413995686	8	218	389194.896881	10.000000
K1-13291	2413995691	2416566724	8	219	389193.773758	10.000000
K1-13291	2416566729	2419137726	8	220	389192.685479	10.000000
K1-13291	2419137731	2421707944	8	221	389192.141932	10.000000
K1-13291	2421707949	2424277800	8	222	389191.849146	10.000000
K1-13291	2424277805	2426847328	8	223	389191.780771	10.000000
K1-13291	2426847333	2429417806	8	224	389191.073463	10.000000
K1-13291	2429417811	2431986257	8	225	389191.730953	10.000000
K1-13291	2431986261	2434554235	8	226	389192.698272	10.000000
K1-13291	2434554240	2437121856	8	227	389193.894283	10.000000
K1-13291	2437121861	2439689005	8	228	389195.391401	10.000000
K1-13291	2439689010	2442257362	8	229	389196.081262	10.000000
K1-13291	2442257367	2444826211	8	230	389196.441876	10.000000
K1-13291	2444826215	2447395269	8	231	389196.662926	10.000000
K1-13291	2447395274	2449963953	8	232	389197.125867	10.000000
K1-13291	2449963957	2452533847	8	233	389196.800293	10.000000
K1-13291	2452533852	2455103253	8	234	389196.792040	10.000000
K1-13291	2455103258	2457671678	8	235	389197.414787	10.000000
K1-13291	2457671683	2460239370	8	236	389198.500128	10.000000
K1-13291	2460239375	2462806314	8	237	389200.052423	10.000000
K1-13291	2462806319	2465375353	8	238	389200.263937	10.000000
K1-13291	2465375358	2467943006	8	239	389201.348470	10.000000
K1-13291	2467943011	2470513849	8	240	389200.418972	10.000000
K1-13291	2470513854	2473083111	8	241	389200.486766	10.000000
K1-13291	2473083116	2475652723	8	242	389200.335824	10.000000
K1-13291	2475652728	2478221550	8	243	389200.673454	10.000000
K1-13291	2478221555	2480789442	8	244	389201.586417	10.000000
K1-13291	2480789447	2483358091	8	245	389202.025826	10.000000
K1-13291	2483358096	2485924997	8	246	389203.530617	10.000000
K1-13291	2485925002	2488493797	8	247	389203.865806	10.000000
K1-13291	2488493802	2491063004	8	248	389203.951919	10.000000
K1-13291	2491063032	2493632665	8	249	389203.761651	10.000000
K1-13291	2493632670	2496201481	8	250	389204.082861	10.000000
K1-13291	2496201485	2498770151	8	251	389204.489284	10.000000
K1-13291	2498770156	2501338484	8	252	389205.094269	10.000000
K1-13291	2501338489	2503908007	8	253	389204.984799	10.000000
K1-13291	2503908012	2506476781	8	254	389205.321125	10.000000
K1-13291	2506476785	2509045084	8	255	389205.933525	10.000000
K1-13291	2509045089	2511613143	8	256	389206.684981	10.000000
K1-13291	2511613148	2514181771	8	257	389207.096532	10.000000
K1-13291	2514181776	2516748498	8	258	389208.616755	10.000000
K1-13291	2516748503	2519316195	8	259	389209.560142	10.000000
K1-13291	2519316200	2521884513	8	260	389210.135877	10.000000
K1-13291	2521884518	2524451986	8	261	389211.195786	10.000000
K1-13291	2524451991	2527020569	8	262	389211.608290	10.000000
K1-13291	2527020574	2529589010	8	263	389212.099151	10.000000
K1-13291	2529589014	2532157030	8	264	389212.826971	10.000000
K1-13291	2532157035	2534726341	8	265	389212.814099	10.000000
K1-13291	2534726346	2537296361	8	266	389212.399060	10.000000
K1-13291	2537296366	2539866572	8	267	389211.879158	10.000000
K1-13291	2539866577	2542436078	8	268	389211.760140	10.000000
K1-13291	2542436083	2545004811	8	269	389212.075701	10.000000
K1-13291	2545004816	2547572841	8	270	389212.781904	10.000000
K1-13291	2547572846	2550141503	8	271	389213.130933	10.000000
K1-13291	2550141508	2552708987	8	272	389214.131076	10.000000
K1-13291	2552708991	2555276492	8	273	389215.112866	10.000000
K1-13291	2555276496	2557845060	8	274	389215.500846	10.000000
K1-13291	2557845065	2560413256	8	275	389216.091293	10.000000
K1-13291	2560413260	2562980121	8	276	389217.404303	10.000000
K1-13291	2562980126	2565547867	8	277	389218.228335	10.000000
K1-13291	2565547871	2568116593	8	278	389218.514344	10.000000
K1-13291	2568116598	2570683781	8	279	389219.630432	10.000000
K1-13291	2570683786	2573251241	8	280	389220.591942	10.000000
K1-13291	2573251246	2575818380	8	281	389221.719083	10.000000
K1-13291	2575818385	2578386896	8	282	389222.101135	10.000000
K1-13291	2578386901	2580954970	8	283	389222.716274	10.000000
K1-13291	2580954975	2583523140	8	284	389223.275537	10.000000
K1-13291	2583523146	2586092583	8	285	389223.157638	10.000000
K1-13291	2586092588	2588660231	8	286	389223.987536	10.000000
K1-13291	2588660236	2591227657	8	287	389224.928453	10.000000
K1-13291	2591227662	2593794962	8	288	389225.926293	10.000000
K1-13291	2593794967	2596363452	8	289	389226.298206	10.000000
K1-13291	2596363457	2598931387	8	290	389226.956502	10.000000
K1-13291	2598931391	2601499586	8	291	389227.473321	10.000000
K1-13291	2601499591	2604066988	8	292	389228.398710	10.000000
K1-13291	2604066993	2606633406	8	293	389229.824869	10.000000
K1-13291	2606633411	2609201411	8	294	389230.426347	10.000000
K1-13291	2609201416	2611770824	8	295	389230.303111	10.000000
K1-13291	2611770829	2614340644	8	296	389229.973095	10.000000
K1-13291	2614340649	2616909964	8	297	389229.899488	10.000000
K1-13291	2616909969	2619478948	8	298	389229.996114	10.000000
K1-13291	2619478954	2622048037	8	299	389230.040081	10.000000
K1-13291	2622048042	2624616985	8	300	389230.154221	10.000000
K1-13291	2624616990	2627185323	8	301	389230.573616	10.000000
K1-13291	2627185328	2629754256	8	302	389230.692742	10.000000
K1-13291	2629754261	2632321950	8	303	389231.428551	10.000000
K1-13291	2632321954	2634890485	8	304	389231.741790	10.000000
K1-13291	2634890490	2637458371	8	305	389232.374305	10.000000
K1-13291	2637458376	2640026139	8	306	389233.060933	10.000000
K1-13291	2640026143	2642594048	8	307	389233.673748	10.000000
K1-13291	2642594053	2645164215	8	308	389233.175500	10.000000
K1-13291	2645164220	2647733914	8	309	389232.909187	10.000000
K1-13291	2647733919	2650302477	8	310	389233.197984	10.000000
K1-13291	2650302482	2652871834	8	311	389233.099376	10.000000
K1-13291	2652871839	2655441753	8	312	389232.729372	10.000000
K1-13291	2655441758	2658009859	8	313	389233.236481	10.000000
K1-13291	2658009864	2660577943	8	314	389233.750953	10.000000
K1-13291	2660577948	2663145707	8	315	389234.415592	10.000000
K1-13291	2663145712	2665714657	8	316	389234.509214	10.000000
K1-13291	2665714662	2668282185	8	317	389235.279728	10.000000
K1-13291	2668282190	2670850728	8	318	389235.563353	10.000000
K1-13291	2670850732	2673418845	8	319	389236.047371	10.000000
K1-13291	2673418849	2675987290	8	320	389236.372621	10.000000
K1-13291	2675987295	2678556039	8	321	389236.553286	10.000000
K1-13291	2678556043	2681124385	8	322	389236.921862	10.000000
K1-13291	2681124389	2683692673	8	323	389237.315286	10.000000
K1-13291	2683692678	2686261531	8	324	389237.440571	10.000000
K1-13291	2686261536	2688829298	8	325	389238.072121	10.000000
K1-13291	2688829303	2691396956	8	326	389238.750314	10.000000
K1-13291	2691396960	2693963965	8	327	389239.724154	10.000000
K1-13291	2693963970	2696532815	8	328	389239.844280	10.000000
K1-13291	2696532820	2699100526	8	329	389240.486610	10.000000
K1-13291	2699100531	2701668208	8	330	389241.138334	10.000000
K1-13291	2701668213	2704236613	8	331	389241.456192	10.000000
K1-13291	2704236618	2706805081	8	332	389241.743478	10.000000
K1-13291	2706805086	2709372148	8	333	389242.664567	10.000000
K1-13291	2709372153	2711940579	8	334	389242.963266	10.000000
K1-13291	2711940584	2714508994	8	335	389243.267403	10.000000
K1-13291	2714508999	2717077478	8	336	389243.538713	10.000000
K1-13291	2717077483	2719645948	8	337	389243.814694	10.000000
K1-13291	2719645953	2722213863	8	338	389244.337096	10.000000
K1-13291	2722213868	2724782711	8	339	389244.440661	10.000000
K1-13291	2724782716	2727351565	8	340	389244.540954	10.000000
K1-13291	2727351570	2729921132	8	341	389244.324790	10.000000
K1-13291	2729921137	2732488321	8	342	389245.160306	10.000000
K1-13291	2732488326	2735056000	8	343	389245.775152	10.000000
K1-13291	2735056004	2737623512	8	344	389246.459776	10.000000
K1-13291	2737623517	2740192268	8	345	389246.595698	10.000000
K1-13291	2740192273	2742760789	8	346	389246.833447	10.000000
K1-13291	2742760794	2745329170	8	347	389247.130783	10.000000
K1-13291	2745329175	2747897606	8	348	389247.402538	10.000000
K1-13291	2747897611	2750467623	8	349	389246.988333	10.000000
K1-13291	2750467628	2753036405	8	350	389247.109159	10.000000
K1-13291	2753036410	2755605341	8	351	389247.164303	10.000000
K1-13291	2755605345	2758174807	8	352	389246.990362	10.000000
K1-13291	2758174812	2760743835	8	353	389247.005297	10.000000
K1-13291	2760743840	2763312039	8	354	389247.371830	10.000000
K1-13291	2763312044	2765881232	8	355	389247.315386	10.000000
K1-13291	2765881237	2768450405	8	356	389247.267746	10.000000
K1-13291	2768450410	2771018999	8	357	389247.465418	10.000000
K1-13291	2771019004	2773586421	8	358	389248.156625	10.000000
K1-13291	2773586426	2776155272	8	359	389248.242566	10.000000
K1-13291	2776155277	2778724557	8	360	389248.145878	10.000000
K1-13291	2778724562	2781292870	8	361	389248.456553	10.000000
K1-13291	2781292875	2783860252	8	362	389249.154530	10.000000
K1-13291	2783860256	2786429481	8	363	389249.079027	10.000000
K1-13291	2786429485	2788999616	8	364	389248.628265	10.000000
K1-13291	2788999621	2791567568	8	365	389249.083672	10.000000
K1-13291	2791567573	2794134678	8	366	389249.883804	10.000000
K1-13291	2794134765	2796702839	8	367	389250.247276	10.000000
K1-13291	2796702845	2799271350	8	368	389250.465475	10.000000
K1-13291	2799271355	2801840420	8	369	389250.453173	10.000000
K1-13291	2801840425	2804408920	8	370	389250.673725	10.000000
K1-13291	2804408925	2806976983	8	371	389251.071082	10.000000
K1-13291	2806976988	2809545691	8	372	389251.204304	10.000000
K1-13291	2809545696	2812113095	8	373	389251.865097	10.000000
K1-13291	2812113100	2814680404	8	374	389252.560752	10.000000
K1-13291	2814680409	2817248201	8	375	389253.055655	10.000000
K1-13291	2817248206	2819816949	8	376	389253.166526	10.000000
K1-13291	2819816954	2822384129	8	377	389253.904930	10.000000
K1-13291	2822384134	2824950984	8	378	389254.769372	10.000000
K1-13291	2824950989	2827519668	8	379	389254.899979	10.000000
K1-13291	2827519673	2830087788	8	380	389255.254197	10.000000
K1-13291	2830087793	2832655962	8	381	389255.585143	10.000000
K1-13291	2832655967	2835224671	8	382	389255.702707	10.000000
K1-13291	2835224675	2837792364	8	383	389256.220557	10.000000
K1-13291	2837792368	2840362812	8	384	389255.651462	10.000000
K1-13291	2840362817	2842930580	8	385	389256.137320	10.000000
K1-13291	2842930585	2845499188	8	386	389256.291787	10.000000
K1-13291	2845499193	2848068634	8	387	389256.118205	10.000000
K1-13291	2848068639	2850637703	8	388	389256.092362	10.000000
K1-13291	2850637708	2853207236	8	389	389255.886381	10.000000
K1-13291	2853207241	2855774936	8	390	389256.391777	10.000000
K1-13291	2855774941	2858342924	8	391	389256.783275	10.000000
K1-13291	2858342929	2860910108	8	392	389257.482764	10.000000
K1-13291	2860910113	2863478172	8	393	389257.840281	10.000000
K1-13291	2863478177	2866046659	8	394	389258.033725	10.000000
K1-13291	2866046664	2868615446	8	395	389258.111020	10.000000
K1-13291	2868615451	2871184008	8	396	389258.274564	10.000000
K1-13291	2871184012	2873752985	8	397	389258.278912	10.000000
K1-13291	2873752990	2876323070	8	398	389257.862471	10.000000
K1-13291	2876323074	2878892244	8	399	389257.793203	10.000000
K1-13291	2878892249	2881459793	8	400	389258.338303	10.000000
K1-13291	2881459798	2884027856	8	401	389258.686578	10.000000
K1-13291	2884027861	2886595585	8	402	389259.159456	10.000000
K1-13291	2886595589	2889163591	8	403	389259.525729	10.000000
K1-13291	2889163596	2891733030	8	404	389259.354064	10.000000
K1-13291	2891733035	2894301855	8	405	389259.412396	10.000000
K1-13291	2894301860	2896870355	8	406	389259.591435	10.000000
K1-13291	2896870360	2899438332	8	407	389259.963829	10.000000
K1-13291	2899438336	2902006380	8	408	389260.308100	10.000000
K1-13291	2902006385	2904574816	8	409	389260.507298	10.000000
K1-13291	2904574821	2907144890	8	410	389260.101644	10.000000
K1-13291	2907144895	2909715595	8	411	389259.465895	10.000000
K1-13291	2909715600	2912285341	8	412	389259.184700	10.000000
K1-13291	2912285346	2914855315	8	413	389258.822149	10.000000
K1-13291	2914855320	2917424089	8	414	389258.899118	10.000000
K1-13291	2917424094	2919992126	8	415	389259.244159	10.000000
K1-13291	2919992131	2922561057	8	416	389259.262699	10.000000
K1-13291	2922561062	2925130512	8	417	389259.090840	10.000000
K1-13291	2925130517	2927700049	8	418	389258.890871	10.000000
K1-13291	2927700054	2930269297	8	419	389258.795756	10.000000
K1-13291	2930269302	2932837925	8	420	389258.924237	10.000000
K1-13291	2932837930	2935408388	8	421	389258.393239	10.000000
K1-13291	2935408393	2937978048	8	422	389258.152393	10.000000
K1-13291	2937978053	2940546572	8	423	389258.318291	10.000000
K1-13291	2940546577	2943115244	8	424	389258.431355	10.000000
K1-13291	2943115248	2945682388	8	425	389259.087022	10.000000
K1-13291	2945682392	2948250688	8	426	389259.329409	10.000000
K1-13291	2948250693	2950819475	8	427	389259.398606	10.000000
K1-13291	2950819479	2953389504	8	428	389259.028100	10.000000
K1-13291	2953389508	2955958740	8	429	389258.939106	10.000000
K1-13291	2955958745	2958528866	8	430	389258.537637	10.000000
K1-13291	2958528871	2961098968	8	431	389258.146445	10.000000
K1-13291	2961098973	2963669950	8	432	389257.449119	10.000000
K1-13291	2963669955	2966240847	8	433	389256.784684	10.000000
K1-13291	2966240851	2968808313	8	434	389257.318405	10.000000
K1-13291	2968808318	2971376398	8	435	389257.634561	10.000000
K1-13291	2971376403	2973945317	8	436	389257.660095	10.000000
K1-13291	2973945321	2976514869	8	437	389257.466534	10.000000
K1-13291	2976514873	2979084901	8	438	389257.108182	10.000000
K1-13291	2979084906	2981651494	8	439	389257.935737	10.000000
K1-13291	2981651499	2984219936	8	440	389258.123904	10.000000
K1-13291	2984219941	2986787146	8	441	389258.733906	10.000000
K1-13291	2986787152	2989355458	8	442	389258.964572	10.000000
K1-13291	2989355463	2991923166	8	443	389259.399984	10.000000
K1-13291	2991923171	2994492519	8	444	389259.273315	10.000000
K1-13291	2994492524	2997062901	8	445	389258.797626	10.000000
K1-13291	2997062906	2999632175	8	446	389258.699651	10.000000
K1-13291	2999632179	3002200954	8	447	389258.769532	10.000000
K1-13291	3002200959	3004768346	8	448	389259.307169	10.000000
K1-13291	3004768351	3007337875	8	449	389259.122852	10.000000
K1-13291	3007337880	3009907528	8	450	389258.897692	10.000000
K1-13291	3009907533	3012476484	8	451	389258.907182	10.000000
K1-13291	3012476489	3015044094	8	452	389259.366849	10.000000
K1-13291	3015044099	3017612501	8	453	389259.558493	10.000000
K1-13291	3017612506	3020182985	8	454	389259.057618	10.000000
K1-13291	3020182990	3022751931	8	455	389259.069996	10.000000
K1-13291	3022751936	3025320035	8	456	389259.361494	10.000000
K1-13291	3025320040	3027888490	8	457	389259.535595	10.000000
K1-13291	3027888495	3030457903	8	458	389259.392688	10.000000
K1-13291	3030457908	3033026182	8	459	389259.623939	10.000000
K1-13291	3033026187	3035595002	8	460	389259.676369	10.000000
K1-13291	3035595007	3038164345	8	461	389259.557043	10.000000
K1-13291	3038164350	3040731402	8	462	389260.186357	10.000000
K1-13291	3040731407	3043298964	8	463	389260.648048	10.000000
K1-13291	3043298969	3045866790	8	464	389261.021402	10.000000
K1-13291	3045866796	3048435740	8	465	389261.028326	10.000000
K1-13291	3048435745	3051004834	8	466	389260.988172	10.000000
K1-13291	3051004839	3053574647	8	467	389260.715401	10.000000
K1-13291	3053574652	3056146029	8	468	389259.936883	10.000000
K1-13291	3056146034	3058716722	8	469	389259.383808	10.000000
K1-13291	3058716727	3061285064	8	470	389259.589409	10.000000
K1-13291	3061285069	3063853363	8	471	389259.807623	10.000000
K1-13291	3063853368	3066421798	8	472	389259.981988	10.000000
K1-13291	3066421802	3068990492	8	473	389260.072183	10.000000
K1-13291	3068990498	3071558905	8	474	389260.252275	10.000000
K1-13291	3071558910	3074127390	8	475	389260.408373	10.000000
K1-13291	3074127395	3076696224	8	476	389260.452952	10.000000
K1-13291	3076696229	3079266617	8	477	389260.003151	10.000000
K1-13291	3079266622	3081835958	8	478	389259.888010	10.000000
K1-13291	3081835963	3084404774	8	479	389259.938761	10.000000
K1-13291	3084404779	3086971750	8	480	389260.569880	10.000000
K1-13291	3086971754	3089541371	8	481	389260.365943	10.000000
K1-13291	3089541375	3092111947	8	482	389259.863254	10.000000
K1-13291	3092111952	3094680684	8	483	389259.938996	10.000000
K1-13291	3094680689	3097250923	8	484	389259.544860	10.000000
K1-13291	3097250928	3099818913	8	485	389259.853529	10.000000
K1-13291	3099818918	3102387568	8	486	389259.954026	10.000000
K1-13291	3102387573	3104954955	8	487	389260.447824	10.000000
K1-13291	3104954960	3107521980	8	488	389261.051775	10.000000
K1-13291	3107521984	3110091203	8	489	389260.973568	10.000000
K1-13291	3110091208	3112659450	8	490	389261.196875	10.000000
K1-13291	3112659455	3115227384	8	491	389261.515672	10.000000
K1-13291	3115227388	3117795400	8	492	389261.807974	10.000000
K1-13291	3117795405	3120363329	8	493	389262.125778	10.000000
K1-13291	3120363334	3122932687	8	494	389262.005171	10.000000
K1-13291	3122932691	3125499962	8	495	389262.520784	10.000000
K1-13291	3125499967	3128068103	8	496	389262.770602	10.000000
K1-13291	3128068108	3130636731	8	497	389262.871238	10.000000
K1-13291	3130636736	3133204363	8	498	389263.273915	10.000000
K1-13291	3133204368	3135773589	8	499	389263.191918	10.000000
