StartAllocTime:	1356374920
EndAllocTime:	1357100587
TotalAllocTime:	0.725667
StartDeallocTime:	1466969933
EndDeallocTime:	1466976709
TotalDeallocTime:	0.006776
StartExecTime:	1357100588
EndExecTime:	1466969930
TotalExecTime:	109.869
Iteration 0
HW:	CPU	TSS:	1.576	AT:	0	#T:	0	DSTSS:	7	DETSS:	634513	DTSS:	634519
Iteration 1
HW:	CPU	TSS:	1.78052	AT:	4.0915	#T:	4	DSTSS:	634544	DETSS:	1123258	DTSS:	1123265
Iteration 2
HW:	CPU	TSS:	1.54954	AT:	2.30485	#T:	4	DSTSS:	1123295	DETSS:	1936045	DTSS:	1936053
Iteration 3
HW:	CPU	TSS:	1.45304	AT:	1.88819	#T:	4	DSTSS:	1936082	DETSS:	2752850	DTSS:	2752855
Iteration 4
HW:	CPU	TSS:	1.42841	AT:	1.74462	#T:	4	DSTSS:	2752863	DETSS:	3500388	DTSS:	3500393
Iteration 5
HW:	CPU	TSS:	1.41026	AT:	1.65741	#T:	4	DSTSS:	3500412	DETSS:	4254533	DTSS:	4254538
Iteration 6
HW:	CPU	TSS:	1.42665	AT:	1.63851	#T:	6	DSTSS:	4254547	DETSS:	4906600	DTSS:	4906605
Iteration 7
HW:	CPU	TSS:	1.48131	AT:	1.67849	#T:	6	DSTSS:	4906612	DETSS:	5400615	DTSS:	5400620
Iteration 8
HW:	CPU	TSS:	1.52976	AT:	1.71466	#T:	6	DSTSS:	5400627	DETSS:	5883280	DTSS:	5883285
Iteration 9
HW:	CPU	TSS:	1.60283	AT:	1.78427	#T:	20	DSTSS:	5883303	DETSS:	6238942	DTSS:	6238946
Iteration 10
HW:	CPU	TSS:	1.69986	AT:	1.88463	#T:	20	DSTSS:	6238951	DETSS:	6471118	DTSS:	6471122
Iteration 11
HW:	CPU	TSS:	1.79489	AT:	1.98307	#T:	20	DSTSS:	6471127	DETSS:	6685633	DTSS:	6685639
Iteration 12
HW:	CPU	TSS:	1.885	AT:	2.07598	#T:	20	DSTSS:	6685645	DETSS:	6896533	DTSS:	6896538
Iteration 13
HW:	CPU	TSS:	1.96215	AT:	2.15364	#T:	20	DSTSS:	6896543	DETSS:	7135036	DTSS:	7135041
Iteration 14
HW:	CPU	TSS:	2.04455	AT:	2.23809	#T:	20	DSTSS:	7135048	DETSS:	7336570	DTSS:	7336575
Iteration 15
HW:	CPU	TSS:	2.11767	AT:	2.31179	#T:	20	DSTSS:	7336582	DETSS:	7555464	DTSS:	7555469
Iteration 16
HW:	CPU	TSS:	2.19169	AT:	2.38692	#T:	20	DSTSS:	7555476	DETSS:	7756577	DTSS:	7756583
Iteration 17
HW:	CPU	TSS:	2.25815	AT:	2.48252	#T:	20	DSTSS:	7756601	DETSS:	7971121	DTSS:	7971129
Iteration 18
HW:	CPU	TSS:	2.31977	AT:	2.71808	#T:	20	DSTSS:	7971138	DETSS:	8190447	DTSS:	8190452
Iteration 19
HW:	CPU	TSS:	2.38059	AT:	3.00969	#T:	20	DSTSS:	8190459	DETSS:	8401276	DTSS:	8401280
Iteration 20
HW:	CPU	TSS:	2.43858	AT:	3.32604	#T:	20	DSTSS:	8401286	DETSS:	8611558	DTSS:	8611563
Iteration 21
HW:	CPU	TSS:	2.49637	AT:	3.72951	#T:	20	DSTSS:	8611568	DETSS:	8812778	DTSS:	8812783
Iteration 22
HW:	CPU	TSS:	2.54771	AT:	4.12511	#T:	20	DSTSS:	8812789	DETSS:	9027702	DTSS:	9027707
Iteration 23
HW:	CPU	TSS:	2.59584	AT:	4.42139	#T:	20	DSTSS:	9027714	DETSS:	9245564	DTSS:	9245570
Iteration 24
HW:	CPU	TSS:	2.64362	AT:	4.75729	#T:	20	DSTSS:	9245579	DETSS:	9456742	DTSS:	9456747
Iteration 25
HW:	CPU	TSS:	2.69196	AT:	4.97159	#T:	20	DSTSS:	9456753	DETSS:	9658376	DTSS:	9658383
Iteration 26
HW:	CPU	TSS:	2.73403	AT:	4.99351	#T:	20	DSTSS:	9658390	DETSS:	9875542	DTSS:	9875547
Iteration 27
HW:	CPU	TSS:	2.77741	AT:	5.00635	#T:	20	DSTSS:	9875555	DETSS:	10081323	DTSS:	10081327
Iteration 28
HW:	CPU	TSS:	2.81403	AT:	4.98686	#T:	20	DSTSS:	10081334	DETSS:	10305496	DTSS:	10305502
Iteration 29
HW:	CPU	TSS:	2.85147	AT:	5.02089	#T:	20	DSTSS:	10305509	DETSS:	10520889	DTSS:	10520895
Iteration 30
HW:	CPU	TSS:	2.89018	AT:	5.01565	#T:	20	DSTSS:	10520904	DETSS:	10725960	DTSS:	10725964
Iteration 31
HW:	CPU	TSS:	2.92857	AT:	5.04245	#T:	20	DSTSS:	10725969	DETSS:	10926837	DTSS:	10926843
Iteration 32
HW:	CPU	TSS:	2.95838	AT:	5.00267	#T:	20	DSTSS:	10926850	DETSS:	11154751	DTSS:	11154757
Iteration 33
HW:	CPU	TSS:	2.99011	AT:	5.00043	#T:	20	DSTSS:	11154785	DETSS:	11370830	DTSS:	11370836
Iteration 34
HW:	CPU	TSS:	3.01581	AT:	4.97798	#T:	20	DSTSS:	11370845	DETSS:	11605491	DTSS:	11605497
Iteration 35
HW:	CPU	TSS:	3.04914	AT:	4.99218	#T:	20	DSTSS:	11605503	DETSS:	11806605	DTSS:	11806611
Iteration 36
HW:	CPU	TSS:	3.07902	AT:	4.99227	#T:	20	DSTSS:	11806618	DETSS:	12016823	DTSS:	12016828
Iteration 37
HW:	CPU	TSS:	3.10426	AT:	4.95849	#T:	20	DSTSS:	12016835	DETSS:	12241237	DTSS:	12241241
Iteration 38
HW:	CPU	TSS:	3.13101	AT:	4.95867	#T:	20	DSTSS:	12241247	DETSS:	12456037	DTSS:	12456044
Iteration 39
HW:	CPU	TSS:	3.16004	AT:	4.98171	#T:	20	DSTSS:	12456050	DETSS:	12658050	DTSS:	12658055
Iteration 40
HW:	CPU	TSS:	3.18829	AT:	4.99586	#T:	20	DSTSS:	12658062	DETSS:	12859558	DTSS:	12859563
Iteration 41
HW:	CPU	TSS:	3.212	AT:	4.97429	#T:	20	DSTSS:	12859571	DETSS:	13075946	DTSS:	13075950
Iteration 42
HW:	CPU	TSS:	3.23515	AT:	4.97665	#T:	20	DSTSS:	13075955	DETSS:	13291496	DTSS:	13291504
Iteration 43
HW:	CPU	TSS:	3.26066	AT:	4.98114	#T:	20	DSTSS:	13291510	DETSS:	13494201	DTSS:	13494206
Iteration 44
HW:	CPU	TSS:	3.28563	AT:	5.01403	#T:	20	DSTSS:	13494213	DETSS:	13695986	DTSS:	13695993
Iteration 45
HW:	CPU	TSS:	3.30996	AT:	5.03473	#T:	20	DSTSS:	13696000	DETSS:	13897437	DTSS:	13897443
Iteration 46
HW:	CPU	TSS:	3.3334	AT:	5.03889	#T:	20	DSTSS:	13897451	DETSS:	14099723	DTSS:	14099728
Iteration 47
HW:	CPU	TSS:	3.3527	AT:	5.01481	#T:	20	DSTSS:	14099734	DETSS:	14316802	DTSS:	14316807
Iteration 48
HW:	CPU	TSS:	3.3695	AT:	5.0185	#T:	20	DSTSS:	14316815	DETSS:	14542215	DTSS:	14542220
Iteration 49
HW:	CPU	TSS:	3.38828	AT:	5.02081	#T:	20	DSTSS:	14542226	DETSS:	14756739	DTSS:	14756744
Iteration 50
HW:	CPU	TSS:	3.40653	AT:	5.05087	#T:	20	DSTSS:	14756749	DETSS:	14971246	DTSS:	14971252
Iteration 51
HW:	CPU	TSS:	3.42411	AT:	5.02985	#T:	20	DSTSS:	14971261	DETSS:	15186427	DTSS:	15186432
Iteration 52
HW:	CPU	TSS:	3.43921	AT:	5.00928	#T:	20	DSTSS:	15186437	DETSS:	15410524	DTSS:	15410529
Iteration 53
HW:	CPU	TSS:	3.45342	AT:	5.00673	#T:	20	DSTSS:	15410535	DETSS:	15636671	DTSS:	15636676
Iteration 54
HW:	CPU	TSS:	3.47273	AT:	5.02712	#T:	20	DSTSS:	15636682	DETSS:	15837696	DTSS:	15837702
Iteration 55
HW:	CPU	TSS:	3.48898	AT:	5.01105	#T:	20	DSTSS:	15837709	DETSS:	16050551	DTSS:	16050556
Iteration 56
HW:	CPU	TSS:	3.50734	AT:	5.0117	#T:	20	DSTSS:	16050563	DETSS:	16251619	DTSS:	16251624
Iteration 57
HW:	CPU	TSS:	3.52439	AT:	5.02838	#T:	20	DSTSS:	16251632	DETSS:	16456756	DTSS:	16456762
Iteration 58
HW:	CPU	TSS:	3.538	AT:	5.02277	#T:	20	DSTSS:	16456769	DETSS:	16676083	DTSS:	16676089
Iteration 59
HW:	CPU	TSS:	3.5511	AT:	4.9971	#T:	20	DSTSS:	16676098	DETSS:	16896172	DTSS:	16896177
Iteration 60
HW:	CPU	TSS:	3.56501	AT:	4.9784	#T:	20	DSTSS:	16896183	DETSS:	17110735	DTSS:	17110740
Iteration 61
HW:	CPU	TSS:	3.57853	AT:	4.95904	#T:	20	DSTSS:	17110746	DETSS:	17325521	DTSS:	17325527
Iteration 62
HW:	CPU	TSS:	3.58946	AT:	4.92517	#T:	20	DSTSS:	17325533	DETSS:	17551390	DTSS:	17551395
Iteration 63
HW:	CPU	TSS:	3.6014	AT:	4.92172	#T:	20	DSTSS:	17551403	DETSS:	17770874	DTSS:	17770879
Iteration 64
HW:	CPU	TSS:	3.614	AT:	4.93698	#T:	20	DSTSS:	17770886	DETSS:	17985615	DTSS:	17985620
Iteration 65
HW:	CPU	TSS:	3.62411	AT:	4.92095	#T:	20	DSTSS:	17985671	DETSS:	18211363	DTSS:	18211369
Iteration 66
HW:	CPU	TSS:	3.63712	AT:	4.92767	#T:	20	DSTSS:	18211378	DETSS:	18421158	DTSS:	18421165
Iteration 67
HW:	CPU	TSS:	3.65148	AT:	4.94741	#T:	20	DSTSS:	18421175	DETSS:	18622566	DTSS:	18622571
Iteration 68
HW:	CPU	TSS:	3.66318	AT:	4.96266	#T:	20	DSTSS:	18622578	DETSS:	18836103	DTSS:	18836108
Iteration 69
HW:	CPU	TSS:	3.67426	AT:	4.97836	#T:	20	DSTSS:	18836117	DETSS:	19051454	DTSS:	19051460
Iteration 70
HW:	CPU	TSS:	3.6842	AT:	4.95085	#T:	20	DSTSS:	19051469	DETSS:	19271457	DTSS:	19271463
Iteration 71
HW:	CPU	TSS:	3.69752	AT:	4.96794	#T:	20	DSTSS:	19271473	DETSS:	19472490	DTSS:	19472495
Iteration 72
HW:	CPU	TSS:	3.70999	AT:	4.9635	#T:	20	DSTSS:	19472502	DETSS:	19676622	DTSS:	19676628
Iteration 73
HW:	CPU	TSS:	3.71561	AT:	4.91442	#T:	20	DSTSS:	19676635	DETSS:	19915966	DTSS:	19915971
Iteration 74
HW:	CPU	TSS:	3.72645	AT:	4.92714	#T:	20	DSTSS:	19915982	DETSS:	20126362	DTSS:	20126368
Iteration 75
HW:	CPU	TSS:	3.73823	AT:	4.95007	#T:	20	DSTSS:	20126376	DETSS:	20330469	DTSS:	20330476
Iteration 76
HW:	CPU	TSS:	3.74571	AT:	4.93312	#T:	20	DSTSS:	20330484	DETSS:	20556834	DTSS:	20556839
Iteration 77
HW:	CPU	TSS:	3.75732	AT:	4.95056	#T:	20	DSTSS:	20556846	DETSS:	20759478	DTSS:	20759482
Iteration 78
HW:	CPU	TSS:	3.76617	AT:	4.96373	#T:	20	DSTSS:	20759488	DETSS:	20976235	DTSS:	20976239
Iteration 79
HW:	CPU	TSS:	3.77693	AT:	4.98483	#T:	20	DSTSS:	20976248	DETSS:	21181216	DTSS:	21181222
Iteration 80
HW:	CPU	TSS:	3.78757	AT:	4.99985	#T:	20	DSTSS:	21181227	DETSS:	21385714	DTSS:	21385719
Iteration 81
HW:	CPU	TSS:	3.79796	AT:	5.03084	#T:	20	DSTSS:	21385724	DETSS:	21590518	DTSS:	21590523
Iteration 82
HW:	CPU	TSS:	3.80823	AT:	5.03888	#T:	20	DSTSS:	21590532	DETSS:	21794921	DTSS:	21794926
Iteration 83
HW:	CPU	TSS:	3.81823	AT:	5.03382	#T:	20	DSTSS:	21794932	DETSS:	21999722	DTSS:	21999728
Iteration 84
HW:	CPU	TSS:	3.8281	AT:	5.04733	#T:	20	DSTSS:	21999734	DETSS:	22204223	DTSS:	22204229
Iteration 85
HW:	CPU	TSS:	3.83718	AT:	5.05826	#T:	20	DSTSS:	22204237	DETSS:	22412290	DTSS:	22412294
Iteration 86
HW:	CPU	TSS:	3.84666	AT:	5.08132	#T:	20	DSTSS:	22412299	DETSS:	22617045	DTSS:	22617050
Iteration 87
HW:	CPU	TSS:	3.856	AT:	5.07599	#T:	20	DSTSS:	22617060	DETSS:	22821594	DTSS:	22821598
Iteration 88
HW:	CPU	TSS:	3.86339	AT:	5.05934	#T:	20	DSTSS:	22821604	DETSS:	23036744	DTSS:	23036748
Iteration 89
HW:	CPU	TSS:	3.86929	AT:	5.08358	#T:	20	DSTSS:	23036754	DETSS:	23260064	DTSS:	23260069
Iteration 90
HW:	CPU	TSS:	3.87546	AT:	5.06751	#T:	20	DSTSS:	23260076	DETSS:	23481067	DTSS:	23481072
Iteration 91
HW:	CPU	TSS:	3.88319	AT:	5.05747	#T:	20	DSTSS:	23481079	DETSS:	23691833	DTSS:	23691839
Iteration 92
HW:	CPU	TSS:	3.88933	AT:	5.06744	#T:	20	DSTSS:	23691845	DETSS:	23911586	DTSS:	23911592
Iteration 93
HW:	CPU	TSS:	3.89764	AT:	5.06305	#T:	20	DSTSS:	23911599	DETSS:	24117140	DTSS:	24117145
Iteration 94
HW:	CPU	TSS:	3.90602	AT:	5.08191	#T:	20	DSTSS:	24117152	DETSS:	24321434	DTSS:	24321440
Iteration 95
HW:	CPU	TSS:	3.91415	AT:	5.0819	#T:	20	DSTSS:	24321447	DETSS:	24526422	DTSS:	24526429
Iteration 96
HW:	CPU	TSS:	3.92222	AT:	5.08199	#T:	20	DSTSS:	24526434	DETSS:	24730858	DTSS:	24730865
Iteration 97
HW:	CPU	TSS:	3.93017	AT:	5.0825	#T:	20	DSTSS:	24730873	DETSS:	24935329	DTSS:	24935335
Iteration 98
HW:	CPU	TSS:	3.93603	AT:	5.06357	#T:	20	DSTSS:	24935344	DETSS:	25152242	DTSS:	25152248
Iteration 99
HW:	CPU	TSS:	3.94374	AT:	5.0642	#T:	20	DSTSS:	25152255	DETSS:	25356618	DTSS:	25356623
Iteration 100
HW:	CPU	TSS:	3.95129	AT:	5.06399	#T:	20	DSTSS:	25356632	DETSS:	25561259	DTSS:	25561267
Iteration 101
HW:	CPU	TSS:	3.95783	AT:	5.06041	#T:	20	DSTSS:	25561275	DETSS:	25771705	DTSS:	25771711
Iteration 102
HW:	CPU	TSS:	3.96518	AT:	5.06087	#T:	20	DSTSS:	25771719	DETSS:	25976147	DTSS:	25976152
Iteration 103
HW:	CPU	TSS:	3.97235	AT:	5.0605	#T:	20	DSTSS:	25976158	DETSS:	26180946	DTSS:	26180951
Iteration 104
HW:	CPU	TSS:	3.9781	AT:	5.06289	#T:	20	DSTSS:	26180957	DETSS:	26394516	DTSS:	26394521
Iteration 105
HW:	CPU	TSS:	3.98506	AT:	5.0909	#T:	20	DSTSS:	26394531	DETSS:	26599357	DTSS:	26599365
Iteration 106
HW:	CPU	TSS:	3.98863	AT:	5.08189	#T:	20	DSTSS:	26599372	DETSS:	26826275	DTSS:	26826281
Iteration 107
HW:	CPU	TSS:	3.991	AT:	5.04594	#T:	20	DSTSS:	26826287	DETSS:	27060879	DTSS:	27060885
Iteration 108
HW:	CPU	TSS:	3.99627	AT:	5.05371	#T:	20	DSTSS:	27060891	DETSS:	27275452	DTSS:	27275459
Iteration 109
HW:	CPU	TSS:	4.00299	AT:	5.056	#T:	20	DSTSS:	27275466	DETSS:	27479483	DTSS:	27479488
Iteration 110
HW:	CPU	TSS:	4.00769	AT:	5.03656	#T:	20	DSTSS:	27479494	DETSS:	27696755	DTSS:	27696760
Iteration 111
HW:	CPU	TSS:	4.0142	AT:	5.03772	#T:	20	DSTSS:	27696766	DETSS:	27900962	DTSS:	27900965
Iteration 112
HW:	CPU	TSS:	4.02073	AT:	5.03929	#T:	20	DSTSS:	27900971	DETSS:	28104350	DTSS:	28104354
Iteration 113
HW:	CPU	TSS:	4.0272	AT:	5.04127	#T:	20	DSTSS:	28104361	DETSS:	28307500	DTSS:	28307505
Iteration 114
HW:	CPU	TSS:	4.03357	AT:	5.06183	#T:	20	DSTSS:	28307511	DETSS:	28510706	DTSS:	28510712
Iteration 115
HW:	CPU	TSS:	4.0382	AT:	5.0459	#T:	20	DSTSS:	28510719	DETSS:	28725694	DTSS:	28725700
Iteration 116
HW:	CPU	TSS:	4.04427	AT:	5.04665	#T:	20	DSTSS:	28725709	DETSS:	28929831	DTSS:	28929836
Iteration 117
HW:	CPU	TSS:	4.04854	AT:	5.03758	#T:	20	DSTSS:	28929843	DETSS:	29146337	DTSS:	29146342
Iteration 118
HW:	CPU	TSS:	4.05296	AT:	5.02197	#T:	20	DSTSS:	29146349	DETSS:	29361274	DTSS:	29361279
Iteration 119
HW:	CPU	TSS:	4.05895	AT:	5.02465	#T:	20	DSTSS:	29361286	DETSS:	29564263	DTSS:	29564268
Iteration 120
HW:	CPU	TSS:	4.06141	AT:	5.00284	#T:	20	DSTSS:	29564275	DETSS:	29792584	DTSS:	29792588
Iteration 121
HW:	CPU	TSS:	4.06364	AT:	4.96647	#T:	20	DSTSS:	29792596	DETSS:	30022311	DTSS:	30022315
Iteration 122
HW:	CPU	TSS:	4.06944	AT:	5.00145	#T:	20	DSTSS:	30022321	DETSS:	30225293	DTSS:	30225299
Iteration 123
HW:	CPU	TSS:	4.07202	AT:	5.01349	#T:	20	DSTSS:	30225305	DETSS:	30451732	DTSS:	30451737
Iteration 124
HW:	CPU	TSS:	4.07748	AT:	5.02855	#T:	20	DSTSS:	30451744	DETSS:	30656151	DTSS:	30656156
Iteration 125
HW:	CPU	TSS:	4.08272	AT:	5.02617	#T:	20	DSTSS:	30656163	DETSS:	30861779	DTSS:	30861787
Iteration 126
HW:	CPU	TSS:	4.08337	AT:	4.99269	#T:	20	DSTSS:	30861793	DETSS:	31101730	DTSS:	31101735
Iteration 127
HW:	CPU	TSS:	4.08727	AT:	4.9769	#T:	20	DSTSS:	31101742	DETSS:	31316746	DTSS:	31316750
Iteration 128
HW:	CPU	TSS:	4.08917	AT:	4.93847	#T:	20	DSTSS:	31316756	DETSS:	31546714	DTSS:	31546720
Iteration 129
HW:	CPU	TSS:	4.09437	AT:	4.93692	#T:	20	DSTSS:	31546833	DETSS:	31750940	DTSS:	31750945
Iteration 130
HW:	CPU	TSS:	4.09807	AT:	4.91957	#T:	20	DSTSS:	31750951	DETSS:	31966293	DTSS:	31966298
Iteration 131
HW:	CPU	TSS:	4.09733	AT:	4.87047	#T:	20	DSTSS:	31966304	DETSS:	32216117	DTSS:	32216122
Iteration 132
HW:	CPU	TSS:	4.10197	AT:	4.866	#T:	20	DSTSS:	32216129	DETSS:	32423460	DTSS:	32423467
Iteration 133
HW:	CPU	TSS:	4.10688	AT:	4.88249	#T:	20	DSTSS:	32423474	DETSS:	32628165	DTSS:	32628170
Iteration 134
HW:	CPU	TSS:	4.11177	AT:	4.89728	#T:	20	DSTSS:	32628177	DETSS:	32832586	DTSS:	32832591
Iteration 135
HW:	CPU	TSS:	4.11495	AT:	4.87675	#T:	20	DSTSS:	32832596	DETSS:	33050197	DTSS:	33050202
Iteration 136
HW:	CPU	TSS:	4.11832	AT:	4.89429	#T:	20	DSTSS:	33050209	DETSS:	33266020	DTSS:	33266025
Iteration 137
HW:	CPU	TSS:	4.12117	AT:	4.90856	#T:	20	DSTSS:	33266031	DETSS:	33485652	DTSS:	33485656
Iteration 138
HW:	CPU	TSS:	4.12584	AT:	4.9065	#T:	20	DSTSS:	33485662	DETSS:	33690083	DTSS:	33690088
Iteration 139
HW:	CPU	TSS:	4.13048	AT:	4.93804	#T:	20	DSTSS:	33690095	DETSS:	33894389	DTSS:	33894394
Iteration 140
HW:	CPU	TSS:	4.13351	AT:	4.91998	#T:	20	DSTSS:	33894401	DETSS:	34111450	DTSS:	34111454
Iteration 141
HW:	CPU	TSS:	4.13579	AT:	4.89543	#T:	20	DSTSS:	34111463	DETSS:	34334403	DTSS:	34334407
Iteration 142
HW:	CPU	TSS:	4.13872	AT:	4.92752	#T:	20	DSTSS:	34334413	DETSS:	34551743	DTSS:	34551747
Iteration 143
HW:	CPU	TSS:	4.14127	AT:	4.92011	#T:	20	DSTSS:	34551752	DETSS:	34771953	DTSS:	34771957
Iteration 144
HW:	CPU	TSS:	4.14395	AT:	4.93607	#T:	20	DSTSS:	34771964	DETSS:	34990743	DTSS:	34990747
Iteration 145
HW:	CPU	TSS:	4.14586	AT:	4.90636	#T:	20	DSTSS:	34990755	DETSS:	35215828	DTSS:	35215833
Iteration 146
HW:	CPU	TSS:	4.14894	AT:	4.90703	#T:	20	DSTSS:	35215839	DETSS:	35430714	DTSS:	35430719
Iteration 147
HW:	CPU	TSS:	4.15249	AT:	4.96333	#T:	20	DSTSS:	35430727	DETSS:	35641236	DTSS:	35641242
Iteration 148
HW:	CPU	TSS:	4.1566	AT:	4.96625	#T:	20	DSTSS:	35641249	DETSS:	35846567	DTSS:	35846572
Iteration 149
HW:	CPU	TSS:	4.16063	AT:	4.96483	#T:	20	DSTSS:	35846582	DETSS:	36052254	DTSS:	36052259
Iteration 150
HW:	CPU	TSS:	4.16467	AT:	4.96384	#T:	20	DSTSS:	36052267	DETSS:	36257353	DTSS:	36257358
Iteration 151
HW:	CPU	TSS:	4.16866	AT:	4.98191	#T:	20	DSTSS:	36257367	DETSS:	36462547	DTSS:	36462554
Iteration 152
HW:	CPU	TSS:	4.17254	AT:	4.99668	#T:	20	DSTSS:	36462562	DETSS:	36668281	DTSS:	36668285
Iteration 153
HW:	CPU	TSS:	4.17504	AT:	4.9997	#T:	20	DSTSS:	36668290	DETSS:	36885862	DTSS:	36885867
Iteration 154
HW:	CPU	TSS:	4.17663	AT:	4.96905	#T:	20	DSTSS:	36885874	DETSS:	37111256	DTSS:	37111264
Iteration 155
HW:	CPU	TSS:	4.18	AT:	4.96185	#T:	20	DSTSS:	37111273	DETSS:	37320532	DTSS:	37320537
Iteration 156
HW:	CPU	TSS:	4.18326	AT:	4.97209	#T:	20	DSTSS:	37320544	DETSS:	37530537	DTSS:	37530543
Iteration 157
HW:	CPU	TSS:	4.18593	AT:	4.98381	#T:	20	DSTSS:	37530550	DETSS:	37745452	DTSS:	37745458
Iteration 158
HW:	CPU	TSS:	4.18738	AT:	4.97154	#T:	20	DSTSS:	37745466	DETSS:	37971212	DTSS:	37971218
Iteration 159
HW:	CPU	TSS:	4.19057	AT:	4.98674	#T:	20	DSTSS:	37971226	DETSS:	38181000	DTSS:	38181005
Iteration 160
HW:	CPU	TSS:	4.19365	AT:	4.99913	#T:	20	DSTSS:	38181016	DETSS:	38391337	DTSS:	38391343
Iteration 161
HW:	CPU	TSS:	4.19722	AT:	5.02791	#T:	20	DSTSS:	38391349	DETSS:	38596959	DTSS:	38596965
Iteration 162
HW:	CPU	TSS:	4.19979	AT:	5.02844	#T:	20	DSTSS:	38596972	DETSS:	38811482	DTSS:	38811488
Iteration 163
HW:	CPU	TSS:	4.20217	AT:	5.02041	#T:	20	DSTSS:	38811497	DETSS:	39027413	DTSS:	39027420
Iteration 164
HW:	CPU	TSS:	4.20568	AT:	5.02055	#T:	20	DSTSS:	39027429	DETSS:	39232648	DTSS:	39232654
Iteration 165
HW:	CPU	TSS:	4.20823	AT:	5.00842	#T:	20	DSTSS:	39232683	DETSS:	39446534	DTSS:	39446539
Iteration 166
HW:	CPU	TSS:	4.21165	AT:	5.008	#T:	20	DSTSS:	39446546	DETSS:	39651922	DTSS:	39651928
Iteration 167
HW:	CPU	TSS:	4.2125	AT:	4.97264	#T:	20	DSTSS:	39651934	DETSS:	39881254	DTSS:	39881260
Iteration 168
HW:	CPU	TSS:	4.21582	AT:	4.97242	#T:	20	DSTSS:	39881269	DETSS:	40087141	DTSS:	40087146
Iteration 169
HW:	CPU	TSS:	4.21872	AT:	4.98433	#T:	20	DSTSS:	40087153	DETSS:	40296551	DTSS:	40296555
Iteration 170
HW:	CPU	TSS:	4.22005	AT:	4.98595	#T:	20	DSTSS:	40296562	DETSS:	40520846	DTSS:	40520851
Iteration 171
HW:	CPU	TSS:	4.22292	AT:	4.98597	#T:	20	DSTSS:	40520858	DETSS:	40730103	DTSS:	40730109
Iteration 172
HW:	CPU	TSS:	4.22503	AT:	4.97677	#T:	20	DSTSS:	40730115	DETSS:	40946406	DTSS:	40946412
Iteration 173
HW:	CPU	TSS:	4.22637	AT:	4.96403	#T:	20	DSTSS:	40946420	DETSS:	41170092	DTSS:	41170097
Iteration 174
HW:	CPU	TSS:	4.22848	AT:	4.97824	#T:	20	DSTSS:	41170105	DETSS:	41386072	DTSS:	41386077
Iteration 175
HW:	CPU	TSS:	4.2297	AT:	4.957	#T:	20	DSTSS:	41386083	DETSS:	41610496	DTSS:	41610502
Iteration 176
HW:	CPU	TSS:	4.23124	AT:	4.94135	#T:	20	DSTSS:	41610511	DETSS:	41831691	DTSS:	41831696
Iteration 177
HW:	CPU	TSS:	4.23395	AT:	4.93591	#T:	20	DSTSS:	41831701	DETSS:	42041106	DTSS:	42041111
Iteration 178
HW:	CPU	TSS:	4.23706	AT:	4.94936	#T:	20	DSTSS:	42041118	DETSS:	42246266	DTSS:	42246272
Iteration 179
HW:	CPU	TSS:	4.23873	AT:	4.9446	#T:	20	DSTSS:	42246279	DETSS:	42465509	DTSS:	42465515
Iteration 180
HW:	CPU	TSS:	4.24128	AT:	4.93737	#T:	20	DSTSS:	42465522	DETSS:	42675783	DTSS:	42675788
Iteration 181
HW:	CPU	TSS:	4.24387	AT:	4.94351	#T:	20	DSTSS:	42675796	DETSS:	42885386	DTSS:	42885393
Iteration 182
HW:	CPU	TSS:	4.24534	AT:	4.92164	#T:	20	DSTSS:	42885401	DETSS:	43106054	DTSS:	43106058
Iteration 183
HW:	CPU	TSS:	4.2487	AT:	4.9619	#T:	20	DSTSS:	43106065	DETSS:	43307360	DTSS:	43307365
Iteration 184
HW:	CPU	TSS:	4.2499	AT:	4.9371	#T:	20	DSTSS:	43307371	DETSS:	43530459	DTSS:	43530464
Iteration 185
HW:	CPU	TSS:	4.25296	AT:	4.94513	#T:	20	DSTSS:	43530470	DETSS:	43734280	DTSS:	43734287
Iteration 186
HW:	CPU	TSS:	4.25573	AT:	4.97094	#T:	20	DSTSS:	43734295	DETSS:	43940723	DTSS:	43940728
Iteration 187
HW:	CPU	TSS:	4.25872	AT:	4.97864	#T:	20	DSTSS:	43940736	DETSS:	44144691	DTSS:	44144697
Iteration 188
HW:	CPU	TSS:	4.26173	AT:	4.99734	#T:	20	DSTSS:	44144705	DETSS:	44348217	DTSS:	44348224
Iteration 189
HW:	CPU	TSS:	4.26469	AT:	5.02699	#T:	20	DSTSS:	44348233	DETSS:	44551839	DTSS:	44551844
Iteration 190
HW:	CPU	TSS:	4.26668	AT:	5.03052	#T:	20	DSTSS:	44551849	DETSS:	44765445	DTSS:	44765452
Iteration 191
HW:	CPU	TSS:	4.26748	AT:	5.02822	#T:	20	DSTSS:	44765461	DETSS:	44991412	DTSS:	44991418
Iteration 192
HW:	CPU	TSS:	4.2703	AT:	5.05328	#T:	20	DSTSS:	44991426	DETSS:	45195843	DTSS:	45195848
Iteration 193
HW:	CPU	TSS:	4.27208	AT:	5.0444	#T:	20	DSTSS:	45195856	DETSS:	45411178	DTSS:	45411184
Iteration 194
HW:	CPU	TSS:	4.27368	AT:	5.02676	#T:	20	DSTSS:	45411191	DETSS:	45628169	DTSS:	45628174
Iteration 195
HW:	CPU	TSS:	4.27522	AT:	5.02944	#T:	20	DSTSS:	45628182	DETSS:	45845611	DTSS:	45845616
Iteration 196
HW:	CPU	TSS:	4.27555	AT:	4.99971	#T:	20	DSTSS:	45845624	DETSS:	46075979	DTSS:	46075984
Iteration 197
HW:	CPU	TSS:	4.27681	AT:	4.98414	#T:	20	DSTSS:	46075992	DETSS:	46296206	DTSS:	46296213
Iteration 198
HW:	CPU	TSS:	4.27857	AT:	4.99293	#T:	20	DSTSS:	46296221	DETSS:	46510871	DTSS:	46510897
Iteration 199
HW:	CPU	TSS:	4.27942	AT:	4.95924	#T:	20	DSTSS:	46510904	DETSS:	46735305	DTSS:	46735310
Iteration 200
HW:	CPU	TSS:	4.28239	AT:	4.99135	#T:	20	DSTSS:	46735317	DETSS:	46936352	DTSS:	46936356
Iteration 201
HW:	CPU	TSS:	4.28352	AT:	4.96606	#T:	20	DSTSS:	46936362	DETSS:	47157521	DTSS:	47157526
Iteration 202
HW:	CPU	TSS:	4.2857	AT:	4.96196	#T:	20	DSTSS:	47157533	DETSS:	47366788	DTSS:	47366792
Iteration 203
HW:	CPU	TSS:	4.28859	AT:	4.96591	#T:	20	DSTSS:	47366797	DETSS:	47568031	DTSS:	47568038
Iteration 204
HW:	CPU	TSS:	4.29105	AT:	4.9625	#T:	20	DSTSS:	47568068	DETSS:	47773904	DTSS:	47773909
Iteration 205
HW:	CPU	TSS:	4.29244	AT:	4.94264	#T:	20	DSTSS:	47773915	DETSS:	47991299	DTSS:	47991303
Iteration 206
HW:	CPU	TSS:	4.29477	AT:	4.95235	#T:	20	DSTSS:	47991309	DETSS:	48198156	DTSS:	48198160
Iteration 207
HW:	CPU	TSS:	4.29587	AT:	4.9603	#T:	20	DSTSS:	48198166	DETSS:	48418625	DTSS:	48418630
Iteration 208
HW:	CPU	TSS:	4.29676	AT:	4.93401	#T:	20	DSTSS:	48418637	DETSS:	48641318	DTSS:	48641323
Iteration 209
HW:	CPU	TSS:	4.29804	AT:	4.92997	#T:	20	DSTSS:	48641329	DETSS:	48859480	DTSS:	48859487
Iteration 210
HW:	CPU	TSS:	4.29951	AT:	4.93155	#T:	20	DSTSS:	48859494	DETSS:	49075366	DTSS:	49075372
Iteration 211
HW:	CPU	TSS:	4.30228	AT:	4.95539	#T:	20	DSTSS:	49075379	DETSS:	49276220	DTSS:	49276226
Iteration 212
HW:	CPU	TSS:	4.30481	AT:	4.99478	#T:	20	DSTSS:	49276234	DETSS:	49479535	DTSS:	49479539
Iteration 213
HW:	CPU	TSS:	4.30728	AT:	5.01909	#T:	20	DSTSS:	49479543	DETSS:	49683274	DTSS:	49683279
Iteration 214
HW:	CPU	TSS:	4.30978	AT:	5.03607	#T:	20	DSTSS:	49683285	DETSS:	49886522	DTSS:	49886528
Iteration 215
HW:	CPU	TSS:	4.31202	AT:	5.06366	#T:	20	DSTSS:	49886537	DETSS:	50092563	DTSS:	50092569
Iteration 216
HW:	CPU	TSS:	4.31446	AT:	5.06013	#T:	20	DSTSS:	50092579	DETSS:	50295949	DTSS:	50295956
Iteration 217
HW:	CPU	TSS:	4.31689	AT:	5.08701	#T:	20	DSTSS:	50295965	DETSS:	50499365	DTSS:	50499373
Iteration 218
HW:	CPU	TSS:	4.31812	AT:	5.07506	#T:	20	DSTSS:	50499381	DETSS:	50716499	DTSS:	50716504
Iteration 219
HW:	CPU	TSS:	4.32004	AT:	5.06337	#T:	20	DSTSS:	50716513	DETSS:	50925481	DTSS:	50925486
Iteration 220
HW:	CPU	TSS:	4.32116	AT:	5.04487	#T:	20	DSTSS:	50925492	DETSS:	51143666	DTSS:	51143671
Iteration 221
HW:	CPU	TSS:	4.3235	AT:	5.06557	#T:	20	DSTSS:	51143696	DETSS:	51347289	DTSS:	51347294
Iteration 222
HW:	CPU	TSS:	4.32559	AT:	5.06638	#T:	20	DSTSS:	51347300	DETSS:	51553608	DTSS:	51553612
Iteration 223
HW:	CPU	TSS:	4.32769	AT:	5.08811	#T:	20	DSTSS:	51553618	DETSS:	51759742	DTSS:	51759747
Iteration 224
HW:	CPU	TSS:	4.32998	AT:	5.11742	#T:	20	DSTSS:	51759754	DETSS:	51963305	DTSS:	51963310
Iteration 225
HW:	CPU	TSS:	4.3309	AT:	5.11482	#T:	20	DSTSS:	51963316	DETSS:	52183155	DTSS:	52183161
Iteration 226
HW:	CPU	TSS:	4.33193	AT:	5.11086	#T:	20	DSTSS:	52183167	DETSS:	52401613	DTSS:	52401617
Iteration 227
HW:	CPU	TSS:	4.33155	AT:	5.05833	#T:	20	DSTSS:	52401623	DETSS:	52637014	DTSS:	52637020
Iteration 228
HW:	CPU	TSS:	4.33216	AT:	5.02814	#T:	20	DSTSS:	52637027	DETSS:	52860509	DTSS:	52860514
Iteration 229
HW:	CPU	TSS:	4.33337	AT:	5.01	#T:	20	DSTSS:	52860522	DETSS:	53076488	DTSS:	53076493
Iteration 230
HW:	CPU	TSS:	4.33579	AT:	5.01335	#T:	20	DSTSS:	53076502	DETSS:	53277471	DTSS:	53277476
Iteration 231
HW:	CPU	TSS:	4.33741	AT:	5.00654	#T:	20	DSTSS:	53277483	DETSS:	53488123	DTSS:	53488129
Iteration 232
HW:	CPU	TSS:	4.33957	AT:	5.00584	#T:	20	DSTSS:	53488135	DETSS:	53691983	DTSS:	53691988
Iteration 233
HW:	CPU	TSS:	4.34086	AT:	4.98966	#T:	20	DSTSS:	53691995	DETSS:	53906414	DTSS:	53906419
Iteration 234
HW:	CPU	TSS:	4.34196	AT:	4.99036	#T:	20	DSTSS:	53906426	DETSS:	54123070	DTSS:	54123075
Iteration 235
HW:	CPU	TSS:	4.34323	AT:	4.98248	#T:	20	DSTSS:	54123083	DETSS:	54337445	DTSS:	54337450
Iteration 236
HW:	CPU	TSS:	4.34527	AT:	5.00233	#T:	20	DSTSS:	54337456	DETSS:	54542082	DTSS:	54542087
Iteration 237
HW:	CPU	TSS:	4.34643	AT:	4.98488	#T:	20	DSTSS:	54542093	DETSS:	54757605	DTSS:	54757610
Iteration 238
HW:	CPU	TSS:	4.3476	AT:	4.97193	#T:	20	DSTSS:	54757616	DETSS:	54972806	DTSS:	54972812
Iteration 239
HW:	CPU	TSS:	4.34985	AT:	4.97868	#T:	20	DSTSS:	54972819	DETSS:	55174306	DTSS:	55174312
Iteration 240
HW:	CPU	TSS:	4.35125	AT:	4.96627	#T:	20	DSTSS:	55174318	DETSS:	55386399	DTSS:	55386404
Iteration 241
HW:	CPU	TSS:	4.35325	AT:	4.989	#T:	20	DSTSS:	55386411	DETSS:	55590648	DTSS:	55590653
Iteration 242
HW:	CPU	TSS:	4.35312	AT:	4.97024	#T:	20	DSTSS:	55590658	DETSS:	55821971	DTSS:	55821976
Iteration 243
HW:	CPU	TSS:	4.35535	AT:	5.02055	#T:	20	DSTSS:	55821981	DETSS:	56023099	DTSS:	56023104
Iteration 244
HW:	CPU	TSS:	4.35709	AT:	5.04508	#T:	20	DSTSS:	56023110	DETSS:	56230126	DTSS:	56230131
Iteration 245
HW:	CPU	TSS:	4.35906	AT:	5.06302	#T:	20	DSTSS:	56230139	DETSS:	56434168	DTSS:	56434172
Iteration 246
HW:	CPU	TSS:	4.361	AT:	5.05806	#T:	20	DSTSS:	56434178	DETSS:	56638445	DTSS:	56638450
Iteration 247
HW:	CPU	TSS:	4.36271	AT:	5.06358	#T:	20	DSTSS:	56638458	DETSS:	56845434	DTSS:	56845439
Iteration 248
HW:	CPU	TSS:	4.36372	AT:	5.04529	#T:	20	DSTSS:	56845447	DETSS:	57061465	DTSS:	57061470
Iteration 249
HW:	CPU	TSS:	4.3646	AT:	5.04071	#T:	20	DSTSS:	57061476	DETSS:	57278952	DTSS:	57278956
Iteration 250
HW:	CPU	TSS:	4.36657	AT:	5.06079	#T:	20	DSTSS:	57278962	DETSS:	57482224	DTSS:	57482230
Iteration 251
HW:	CPU	TSS:	4.3676	AT:	5.05935	#T:	20	DSTSS:	57482239	DETSS:	57697557	DTSS:	57697564
Iteration 252
HW:	CPU	TSS:	4.36952	AT:	5.06107	#T:	20	DSTSS:	57697570	DETSS:	57901055	DTSS:	57901060
Iteration 253
HW:	CPU	TSS:	4.37053	AT:	5.06115	#T:	20	DSTSS:	57901067	DETSS:	58116523	DTSS:	58116530
Iteration 254
HW:	CPU	TSS:	4.37244	AT:	5.07921	#T:	20	DSTSS:	58116537	DETSS:	58319785	DTSS:	58319790
Iteration 255
HW:	CPU	TSS:	4.37351	AT:	5.05958	#T:	20	DSTSS:	58319797	DETSS:	58534271	DTSS:	58534276
Iteration 256
HW:	CPU	TSS:	4.37364	AT:	5.03736	#T:	20	DSTSS:	58534283	DETSS:	58761184	DTSS:	58761189
Iteration 257
HW:	CPU	TSS:	4.37459	AT:	5.02019	#T:	20	DSTSS:	58761362	DETSS:	58976974	DTSS:	58976979
Iteration 258
HW:	CPU	TSS:	4.3766	AT:	5.06498	#T:	20	DSTSS:	58976986	DETSS:	59178358	DTSS:	59178363
Iteration 259
HW:	CPU	TSS:	4.37845	AT:	5.06162	#T:	20	DSTSS:	59178371	DETSS:	59381709	DTSS:	59381715
Iteration 260
HW:	CPU	TSS:	4.37943	AT:	5.04947	#T:	20	DSTSS:	59381722	DETSS:	59596819	DTSS:	59596824
Iteration 261
HW:	CPU	TSS:	4.38114	AT:	5.048	#T:	20	DSTSS:	59596831	DETSS:	59801844	DTSS:	59801849
Iteration 262
HW:	CPU	TSS:	4.38294	AT:	5.04918	#T:	20	DSTSS:	59801856	DETSS:	60005327	DTSS:	60005333
Iteration 263
HW:	CPU	TSS:	4.38379	AT:	5.03497	#T:	20	DSTSS:	60005340	DETSS:	60221815	DTSS:	60221819
Iteration 264
HW:	CPU	TSS:	4.38559	AT:	5.05405	#T:	20	DSTSS:	60221825	DETSS:	60425104	DTSS:	60425108
Iteration 265
HW:	CPU	TSS:	4.38737	AT:	5.0753	#T:	20	DSTSS:	60425113	DETSS:	60628506	DTSS:	60628510
Iteration 266
HW:	CPU	TSS:	4.38811	AT:	5.05351	#T:	20	DSTSS:	60628540	DETSS:	60846225	DTSS:	60846231
Iteration 267
HW:	CPU	TSS:	4.38897	AT:	5.05255	#T:	20	DSTSS:	60846238	DETSS:	61062192	DTSS:	61062197
Iteration 268
HW:	CPU	TSS:	4.39052	AT:	5.04848	#T:	20	DSTSS:	61062205	DETSS:	61268402	DTSS:	61268407
Iteration 269
HW:	CPU	TSS:	4.39204	AT:	5.06202	#T:	20	DSTSS:	61268413	DETSS:	61474865	DTSS:	61474869
Iteration 270
HW:	CPU	TSS:	4.39377	AT:	5.06195	#T:	20	DSTSS:	61474874	DETSS:	61678177	DTSS:	61678183
Iteration 271
HW:	CPU	TSS:	4.3955	AT:	5.07879	#T:	20	DSTSS:	61678189	DETSS:	61881522	DTSS:	61881528
Iteration 272
HW:	CPU	TSS:	4.3972	AT:	5.11458	#T:	20	DSTSS:	61881537	DETSS:	62085014	DTSS:	62085019
Iteration 273
HW:	CPU	TSS:	4.39536	AT:	5.0572	#T:	20	DSTSS:	62085026	DETSS:	62338518	DTSS:	62338523
Iteration 274
HW:	CPU	TSS:	4.39603	AT:	5.03252	#T:	20	DSTSS:	62338528	DETSS:	62556384	DTSS:	62556388
Iteration 275
HW:	CPU	TSS:	4.39729	AT:	5.02324	#T:	20	DSTSS:	62556394	DETSS:	62765979	DTSS:	62765984
Iteration 276
HW:	CPU	TSS:	4.39815	AT:	5.02325	#T:	20	DSTSS:	62765991	DETSS:	62981085	DTSS:	62981090
Iteration 277
HW:	CPU	TSS:	4.39994	AT:	5.02832	#T:	20	DSTSS:	62981098	DETSS:	63182697	DTSS:	63182703
Iteration 278
HW:	CPU	TSS:	4.40176	AT:	5.03205	#T:	20	DSTSS:	63182711	DETSS:	63383668	DTSS:	63383673
Iteration 279
HW:	CPU	TSS:	4.40173	AT:	5.01535	#T:	20	DSTSS:	63383681	DETSS:	63611407	DTSS:	63611412
Iteration 280
HW:	CPU	TSS:	4.40353	AT:	5.01869	#T:	20	DSTSS:	63611419	DETSS:	63812444	DTSS:	63812448
Iteration 281
HW:	CPU	TSS:	4.40534	AT:	5.02248	#T:	20	DSTSS:	63812455	DETSS:	64013286	DTSS:	64013291
Iteration 282
HW:	CPU	TSS:	4.40696	AT:	5.04392	#T:	20	DSTSS:	64013300	DETSS:	64216619	DTSS:	64216625
Iteration 283
HW:	CPU	TSS:	4.40709	AT:	5.03035	#T:	20	DSTSS:	64216636	DETSS:	64441679	DTSS:	64441684
Iteration 284
HW:	CPU	TSS:	4.40883	AT:	5.03765	#T:	20	DSTSS:	64441691	DETSS:	64642995	DTSS:	64643000
Iteration 285
HW:	CPU	TSS:	4.41029	AT:	5.03938	#T:	20	DSTSS:	64643007	DETSS:	64848297	DTSS:	64848302
Iteration 286
HW:	CPU	TSS:	4.41094	AT:	5.01861	#T:	20	DSTSS:	64848308	DETSS:	65065563	DTSS:	65065567
Iteration 287
HW:	CPU	TSS:	4.41203	AT:	5.00809	#T:	20	DSTSS:	65065573	DETSS:	65276031	DTSS:	65276035
Iteration 288
HW:	CPU	TSS:	4.41311	AT:	4.99745	#T:	20	DSTSS:	65276043	DETSS:	65486743	DTSS:	65486750
Iteration 289
HW:	CPU	TSS:	4.41392	AT:	5.05551	#T:	20	DSTSS:	65486756	DETSS:	65701189	DTSS:	65701195
Iteration 290
HW:	CPU	TSS:	4.41475	AT:	5.06099	#T:	20	DSTSS:	65701202	DETSS:	65915413	DTSS:	65915418
Iteration 291
HW:	CPU	TSS:	4.41609	AT:	5.06571	#T:	20	DSTSS:	65915426	DETSS:	66121877	DTSS:	66121883
Iteration 292
HW:	CPU	TSS:	4.41753	AT:	5.08139	#T:	20	DSTSS:	66121893	DETSS:	66326627	DTSS:	66326632
Iteration 293
HW:	CPU	TSS:	4.41833	AT:	5.06212	#T:	20	DSTSS:	66326666	DETSS:	66540977	DTSS:	66540981
Iteration 294
HW:	CPU	TSS:	4.41941	AT:	5.04864	#T:	20	DSTSS:	66540989	DETSS:	66750914	DTSS:	66750919
Iteration 295
HW:	CPU	TSS:	4.42017	AT:	5.0681	#T:	20	DSTSS:	66750925	DETSS:	66965719	DTSS:	66965722
Iteration 296
HW:	CPU	TSS:	4.4215	AT:	5.06052	#T:	20	DSTSS:	66965728	DETSS:	67171783	DTSS:	67171788
Iteration 297
HW:	CPU	TSS:	4.42295	AT:	5.05579	#T:	20	DSTSS:	67171795	DETSS:	67375767	DTSS:	67375774
Iteration 298
HW:	CPU	TSS:	4.42442	AT:	5.05513	#T:	20	DSTSS:	67375781	DETSS:	67579543	DTSS:	67579548
Iteration 299
HW:	CPU	TSS:	4.42585	AT:	5.087	#T:	20	DSTSS:	67579555	DETSS:	67783533	DTSS:	67783540
Iteration 300
HW:	CPU	TSS:	4.42639	AT:	5.06209	#T:	20	DSTSS:	67783547	DETSS:	68001289	DTSS:	68001294
Iteration 301
HW:	CPU	TSS:	4.42782	AT:	5.06427	#T:	20	DSTSS:	68001301	DETSS:	68205156	DTSS:	68205162
Iteration 302
HW:	CPU	TSS:	4.42924	AT:	5.08446	#T:	20	DSTSS:	68205169	DETSS:	68409085	DTSS:	68409090
Iteration 303
HW:	CPU	TSS:	4.43045	AT:	5.08971	#T:	20	DSTSS:	68409099	DETSS:	68616107	DTSS:	68616112
Iteration 304
HW:	CPU	TSS:	4.43094	AT:	5.07861	#T:	20	DSTSS:	68616121	DETSS:	68834118	DTSS:	68834124
Iteration 305
HW:	CPU	TSS:	4.43158	AT:	5.07661	#T:	20	DSTSS:	68834131	DETSS:	69049884	DTSS:	69049890
Iteration 306
HW:	CPU	TSS:	4.43315	AT:	5.09656	#T:	20	DSTSS:	69049898	DETSS:	69250996	DTSS:	69251001
Iteration 307
HW:	CPU	TSS:	4.43435	AT:	5.09617	#T:	20	DSTSS:	69251008	DETSS:	69457711	DTSS:	69457715
Iteration 308
HW:	CPU	TSS:	4.43573	AT:	5.0976	#T:	20	DSTSS:	69457721	DETSS:	69661531	DTSS:	69661536
Iteration 309
HW:	CPU	TSS:	4.43689	AT:	5.10863	#T:	20	DSTSS:	69661544	DETSS:	69868680	DTSS:	69868685
Iteration 310
HW:	CPU	TSS:	4.43803	AT:	5.11237	#T:	20	DSTSS:	69868691	DETSS:	70076180	DTSS:	70076184
Iteration 311
HW:	CPU	TSS:	4.43929	AT:	5.12688	#T:	20	DSTSS:	70076190	DETSS:	70281575	DTSS:	70281580
Iteration 312
HW:	CPU	TSS:	4.4396	AT:	5.105	#T:	20	DSTSS:	70281589	DETSS:	70501854	DTSS:	70501860
Iteration 313
HW:	CPU	TSS:	4.44086	AT:	5.10327	#T:	20	DSTSS:	70501868	DETSS:	70706960	DTSS:	70706965
Iteration 314
HW:	CPU	TSS:	4.44223	AT:	5.10389	#T:	20	DSTSS:	70706971	DETSS:	70910334	DTSS:	70910339
Iteration 315
HW:	CPU	TSS:	4.44273	AT:	5.08398	#T:	20	DSTSS:	70910348	DETSS:	71127372	DTSS:	71127378
Iteration 316
HW:	CPU	TSS:	4.44423	AT:	5.10948	#T:	20	DSTSS:	71127386	DETSS:	71328443	DTSS:	71328449
Iteration 317
HW:	CPU	TSS:	4.44557	AT:	5.11005	#T:	20	DSTSS:	71328457	DETSS:	71531931	DTSS:	71531936
Iteration 318
HW:	CPU	TSS:	4.44525	AT:	5.0702	#T:	20	DSTSS:	71531944	DETSS:	71762004	DTSS:	71762009
Iteration 319
HW:	CPU	TSS:	4.44673	AT:	5.07943	#T:	20	DSTSS:	71762015	DETSS:	71962944	DTSS:	71962950
Iteration 320
HW:	CPU	TSS:	4.44805	AT:	5.10146	#T:	20	DSTSS:	71962958	DETSS:	72166495	DTSS:	72166500
Iteration 321
HW:	CPU	TSS:	4.44917	AT:	5.11554	#T:	20	DSTSS:	72166508	DETSS:	72373087	DTSS:	72373093
Iteration 322
HW:	CPU	TSS:	4.44941	AT:	5.08543	#T:	20	DSTSS:	72373100	DETSS:	72593882	DTSS:	72593889
Iteration 323
HW:	CPU	TSS:	4.45075	AT:	5.09136	#T:	20	DSTSS:	72593898	DETSS:	72796703	DTSS:	72796708
Iteration 324
HW:	CPU	TSS:	4.45124	AT:	5.07181	#T:	20	DSTSS:	72796716	DETSS:	73013391	DTSS:	73013396
Iteration 325
HW:	CPU	TSS:	4.45164	AT:	5.05549	#T:	20	DSTSS:	73013403	DETSS:	73231366	DTSS:	73231374
Iteration 326
HW:	CPU	TSS:	4.45163	AT:	5.02954	#T:	20	DSTSS:	73231381	DETSS:	73456216	DTSS:	73456221
Iteration 327
HW:	CPU	TSS:	4.45192	AT:	5.00814	#T:	20	DSTSS:	73456228	DETSS:	73676055	DTSS:	73676060
Iteration 328
HW:	CPU	TSS:	4.45333	AT:	5.03644	#T:	20	DSTSS:	73676067	DETSS:	73877250	DTSS:	73877255
Iteration 329
HW:	CPU	TSS:	4.45471	AT:	5.04161	#T:	20	DSTSS:	73877260	DETSS:	74078899	DTSS:	74078905
Iteration 330
HW:	CPU	TSS:	4.4557	AT:	5.03479	#T:	20	DSTSS:	74078912	DETSS:	74286838	DTSS:	74286843
Iteration 331
HW:	CPU	TSS:	4.45697	AT:	5.05537	#T:	20	DSTSS:	74286848	DETSS:	74490131	DTSS:	74490136
Iteration 332
HW:	CPU	TSS:	4.45646	AT:	5.00805	#T:	20	DSTSS:	74490145	DETSS:	74722971	DTSS:	74722976
Iteration 333
HW:	CPU	TSS:	4.45651	AT:	4.9785	#T:	20	DSTSS:	74722984	DETSS:	74946613	DTSS:	74946620
Iteration 334
HW:	CPU	TSS:	4.45558	AT:	4.96397	#T:	20	DSTSS:	74946627	DETSS:	75186683	DTSS:	75186689
Iteration 335
HW:	CPU	TSS:	4.45643	AT:	4.95097	#T:	20	DSTSS:	75186699	DETSS:	75396617	DTSS:	75396623
Iteration 336
HW:	CPU	TSS:	4.45705	AT:	4.93602	#T:	20	DSTSS:	75396630	DETSS:	75610563	DTSS:	75610568
Iteration 337
HW:	CPU	TSS:	4.45837	AT:	4.94279	#T:	20	DSTSS:	75610574	DETSS:	75812437	DTSS:	75812442
Iteration 338
HW:	CPU	TSS:	4.45873	AT:	4.94645	#T:	20	DSTSS:	75812448	DETSS:	76030691	DTSS:	76030696
Iteration 339
HW:	CPU	TSS:	4.45863	AT:	4.91335	#T:	20	DSTSS:	76030703	DETSS:	76256659	DTSS:	76256663
Iteration 340
HW:	CPU	TSS:	4.45995	AT:	4.93491	#T:	20	DSTSS:	76256669	DETSS:	76458238	DTSS:	76458243
Iteration 341
HW:	CPU	TSS:	4.46088	AT:	4.94896	#T:	20	DSTSS:	76458250	DETSS:	76666426	DTSS:	76666430
Iteration 342
HW:	CPU	TSS:	4.4617	AT:	4.97025	#T:	20	DSTSS:	76666436	DETSS:	76876564	DTSS:	76876568
Iteration 343
HW:	CPU	TSS:	4.46223	AT:	4.97733	#T:	20	DSTSS:	76876575	DETSS:	77091537	DTSS:	77091542
Iteration 344
HW:	CPU	TSS:	4.46353	AT:	4.97695	#T:	20	DSTSS:	77091548	DETSS:	77292999	DTSS:	77293004
Iteration 345
HW:	CPU	TSS:	4.4642	AT:	4.96117	#T:	20	DSTSS:	77293010	DETSS:	77505512	DTSS:	77505517
Iteration 346
HW:	CPU	TSS:	4.46413	AT:	4.93642	#T:	20	DSTSS:	77505524	DETSS:	77730632	DTSS:	77730637
Iteration 347
HW:	CPU	TSS:	4.46543	AT:	4.93906	#T:	20	DSTSS:	77730643	DETSS:	77932080	DTSS:	77932086
Iteration 348
HW:	CPU	TSS:	4.46663	AT:	4.98248	#T:	20	DSTSS:	77932092	DETSS:	78134930	DTSS:	78134935
Iteration 349
HW:	CPU	TSS:	4.46788	AT:	5.01426	#T:	20	DSTSS:	78134943	DETSS:	78336940	DTSS:	78336945
Iteration 350
HW:	CPU	TSS:	4.46874	AT:	5.0612	#T:	20	DSTSS:	78336952	DETSS:	78545570	DTSS:	78545574
Iteration 351
HW:	CPU	TSS:	4.47	AT:	5.07362	#T:	20	DSTSS:	78545579	DETSS:	78747275	DTSS:	78747280
Iteration 352
HW:	CPU	TSS:	4.47036	AT:	5.06851	#T:	20	DSTSS:	78747287	DETSS:	78964604	DTSS:	78964608
Iteration 353
HW:	CPU	TSS:	4.47153	AT:	5.06702	#T:	20	DSTSS:	78964614	DETSS:	79167467	DTSS:	79167471
Iteration 354
HW:	CPU	TSS:	4.47124	AT:	5.05099	#T:	20	DSTSS:	79167476	DETSS:	79396374	DTSS:	79396379
Iteration 355
HW:	CPU	TSS:	4.47173	AT:	5.06771	#T:	20	DSTSS:	79396387	DETSS:	79611231	DTSS:	79611237
Iteration 356
HW:	CPU	TSS:	4.47274	AT:	5.06168	#T:	20	DSTSS:	79611244	DETSS:	79816804	DTSS:	79816810
Iteration 357
HW:	CPU	TSS:	4.47357	AT:	5.06088	#T:	20	DSTSS:	79816837	DETSS:	80025526	DTSS:	80025534
Iteration 358
HW:	CPU	TSS:	4.47479	AT:	5.07351	#T:	20	DSTSS:	80025542	DETSS:	80227302	DTSS:	80227306
Iteration 359
HW:	CPU	TSS:	4.47396	AT:	5.03851	#T:	20	DSTSS:	80227313	DETSS:	80465549	DTSS:	80465555
Iteration 360
HW:	CPU	TSS:	4.47443	AT:	5.0183	#T:	20	DSTSS:	80465564	DETSS:	80680604	DTSS:	80680609
Iteration 361
HW:	CPU	TSS:	4.47568	AT:	5.03556	#T:	20	DSTSS:	80680616	DETSS:	80881504	DTSS:	80881510
Iteration 362
HW:	CPU	TSS:	4.47505	AT:	5.02114	#T:	20	DSTSS:	80881517	DETSS:	81116319	DTSS:	81116323
Iteration 363
HW:	CPU	TSS:	4.47554	AT:	5.00161	#T:	20	DSTSS:	81116329	DETSS:	81330984	DTSS:	81330988
Iteration 364
HW:	CPU	TSS:	4.47676	AT:	5.00412	#T:	20	DSTSS:	81330995	DETSS:	81532129	DTSS:	81532134
Iteration 365
HW:	CPU	TSS:	4.47793	AT:	5.00409	#T:	20	DSTSS:	81532140	DETSS:	81734163	DTSS:	81734167
Iteration 366
HW:	CPU	TSS:	4.47915	AT:	5.01546	#T:	20	DSTSS:	81734173	DETSS:	81935094	DTSS:	81935100
Iteration 367
HW:	CPU	TSS:	4.48032	AT:	5.01526	#T:	20	DSTSS:	81935107	DETSS:	82136933	DTSS:	82136938
Iteration 368
HW:	CPU	TSS:	4.48132	AT:	5.03371	#T:	20	DSTSS:	82136945	DETSS:	82341840	DTSS:	82341844
Iteration 369
HW:	CPU	TSS:	4.48234	AT:	5.03141	#T:	20	DSTSS:	82341850	DETSS:	82546243	DTSS:	82546248
Iteration 370
HW:	CPU	TSS:	4.48329	AT:	5.06648	#T:	20	DSTSS:	82546256	DETSS:	82751759	DTSS:	82751763
Iteration 371
HW:	CPU	TSS:	4.48375	AT:	5.06689	#T:	20	DSTSS:	82751769	DETSS:	82966349	DTSS:	82966353
Iteration 372
HW:	CPU	TSS:	4.48412	AT:	5.05115	#T:	20	DSTSS:	82966359	DETSS:	83182376	DTSS:	83182381
Iteration 373
HW:	CPU	TSS:	4.48531	AT:	5.06273	#T:	20	DSTSS:	83182387	DETSS:	83383397	DTSS:	83383402
Iteration 374
HW:	CPU	TSS:	4.48645	AT:	5.06293	#T:	20	DSTSS:	83383409	DETSS:	83585041	DTSS:	83585045
Iteration 375
HW:	CPU	TSS:	4.4868	AT:	5.09612	#T:	20	DSTSS:	83585051	DETSS:	83801418	DTSS:	83801423
Iteration 376
HW:	CPU	TSS:	4.48796	AT:	5.11762	#T:	20	DSTSS:	83801429	DETSS:	84002459	DTSS:	84002464
Iteration 377
HW:	CPU	TSS:	4.48906	AT:	5.11556	#T:	20	DSTSS:	84002470	DETSS:	84204700	DTSS:	84204707
Iteration 378
HW:	CPU	TSS:	4.49014	AT:	5.16588	#T:	20	DSTSS:	84204714	DETSS:	84407144	DTSS:	84407149
Iteration 379
HW:	CPU	TSS:	4.49086	AT:	5.17442	#T:	20	DSTSS:	84407157	DETSS:	84616376	DTSS:	84616380
Iteration 380
HW:	CPU	TSS:	4.49104	AT:	5.14611	#T:	20	DSTSS:	84616385	DETSS:	84835597	DTSS:	84835601
Iteration 381
HW:	CPU	TSS:	4.49142	AT:	5.12539	#T:	20	DSTSS:	84835606	DETSS:	85051010	DTSS:	85051015
Iteration 382
HW:	CPU	TSS:	4.49256	AT:	5.12519	#T:	20	DSTSS:	85051023	DETSS:	85252040	DTSS:	85252045
Iteration 383
HW:	CPU	TSS:	4.49369	AT:	5.12639	#T:	20	DSTSS:	85252051	DETSS:	85453106	DTSS:	85453112
Iteration 384
HW:	CPU	TSS:	4.49471	AT:	5.12927	#T:	20	DSTSS:	85453119	DETSS:	85656151	DTSS:	85656156
Iteration 385
HW:	CPU	TSS:	4.49575	AT:	5.13176	#T:	20	DSTSS:	85656163	DETSS:	85858947	DTSS:	85858952
Iteration 386
HW:	CPU	TSS:	4.4965	AT:	5.12791	#T:	20	DSTSS:	85858958	DETSS:	86066950	DTSS:	86066956
Iteration 387
HW:	CPU	TSS:	4.49638	AT:	5.11244	#T:	20	DSTSS:	86066966	DETSS:	86291569	DTSS:	86291573
Iteration 388
HW:	CPU	TSS:	4.49601	AT:	5.09172	#T:	20	DSTSS:	86291580	DETSS:	86521137	DTSS:	86521145
Iteration 389
HW:	CPU	TSS:	4.49712	AT:	5.09165	#T:	20	DSTSS:	86521154	DETSS:	86722198	DTSS:	86722204
Iteration 390
HW:	CPU	TSS:	4.49756	AT:	5.07316	#T:	20	DSTSS:	86722211	DETSS:	86936015	DTSS:	86936021
Iteration 391
HW:	CPU	TSS:	4.49789	AT:	5.07382	#T:	20	DSTSS:	86936028	DETSS:	87151955	DTSS:	87151962
Iteration 392
HW:	CPU	TSS:	4.49808	AT:	5.04725	#T:	20	DSTSS:	87151971	DETSS:	87370633	DTSS:	87370637
Iteration 393
HW:	CPU	TSS:	4.49869	AT:	5.03516	#T:	20	DSTSS:	87370643	DETSS:	87580959	DTSS:	87580964
Iteration 394
HW:	CPU	TSS:	4.49979	AT:	5.03734	#T:	20	DSTSS:	87580972	DETSS:	87781946	DTSS:	87781951
Iteration 395
HW:	CPU	TSS:	4.50048	AT:	5.03828	#T:	20	DSTSS:	87781958	DETSS:	87990546	DTSS:	87990551
Iteration 396
HW:	CPU	TSS:	4.50155	AT:	5.06512	#T:	20	DSTSS:	87990559	DETSS:	88191886	DTSS:	88191891
Iteration 397
HW:	CPU	TSS:	4.50263	AT:	5.08718	#T:	20	DSTSS:	88191901	DETSS:	88392722	DTSS:	88392729
Iteration 398
HW:	CPU	TSS:	4.5023	AT:	5.04548	#T:	20	DSTSS:	88392738	DETSS:	88621395	DTSS:	88621402
Iteration 399
HW:	CPU	TSS:	4.50268	AT:	5.02528	#T:	20	DSTSS:	88621409	DETSS:	88836000	DTSS:	88836005
Iteration 400
HW:	CPU	TSS:	4.503	AT:	5.00652	#T:	20	DSTSS:	88836013	DETSS:	89051728	DTSS:	89051735
Iteration 401
HW:	CPU	TSS:	4.50393	AT:	5.00524	#T:	20	DSTSS:	89051742	DETSS:	89255386	DTSS:	89255392
Iteration 402
HW:	CPU	TSS:	4.50497	AT:	5.01493	#T:	20	DSTSS:	89255399	DETSS:	89456823	DTSS:	89456827
Iteration 403
HW:	CPU	TSS:	4.50601	AT:	5.04972	#T:	20	DSTSS:	89456832	DETSS:	89658091	DTSS:	89658095
Iteration 404
HW:	CPU	TSS:	4.50706	AT:	5.09295	#T:	20	DSTSS:	89658100	DETSS:	89859082	DTSS:	89859088
Iteration 405
HW:	CPU	TSS:	4.50807	AT:	5.092	#T:	20	DSTSS:	89859096	DETSS:	90060771	DTSS:	90060777
Iteration 406
HW:	CPU	TSS:	4.50898	AT:	5.1076	#T:	20	DSTSS:	90060784	DETSS:	90264390	DTSS:	90264395
Iteration 407
HW:	CPU	TSS:	4.5087	AT:	5.09021	#T:	20	DSTSS:	90264403	DETSS:	90491697	DTSS:	90491702
Iteration 408
HW:	CPU	TSS:	4.50953	AT:	5.11087	#T:	20	DSTSS:	90491709	DETSS:	90696874	DTSS:	90696879
Iteration 409
HW:	CPU	TSS:	4.50914	AT:	5.08154	#T:	20	DSTSS:	90696886	DETSS:	90926399	DTSS:	90926406
Iteration 410
HW:	CPU	TSS:	4.50945	AT:	5.05943	#T:	20	DSTSS:	90926413	DETSS:	91142005	DTSS:	91142009
Iteration 411
HW:	CPU	TSS:	4.51028	AT:	5.06504	#T:	20	DSTSS:	91142016	DETSS:	91346892	DTSS:	91346897
Iteration 412
HW:	CPU	TSS:	4.5111	AT:	5.05943	#T:	20	DSTSS:	91346903	DETSS:	91551950	DTSS:	91551954
Iteration 413
HW:	CPU	TSS:	4.51212	AT:	5.05917	#T:	20	DSTSS:	91551960	DETSS:	91752958	DTSS:	91752964
Iteration 414
HW:	CPU	TSS:	4.51181	AT:	5.06045	#T:	20	DSTSS:	91752972	DETSS:	91980782	DTSS:	91980804
Iteration 415
HW:	CPU	TSS:	4.51279	AT:	5.08007	#T:	20	DSTSS:	91980812	DETSS:	92182411	DTSS:	92182418
Iteration 416
HW:	CPU	TSS:	4.51379	AT:	5.10239	#T:	20	DSTSS:	92182428	DETSS:	92383498	DTSS:	92383504
Iteration 417
HW:	CPU	TSS:	4.51399	AT:	5.08116	#T:	20	DSTSS:	92383510	DETSS:	92601080	DTSS:	92601085
Iteration 418
HW:	CPU	TSS:	4.51409	AT:	5.05394	#T:	20	DSTSS:	92601092	DETSS:	92820543	DTSS:	92820548
Iteration 419
HW:	CPU	TSS:	4.51437	AT:	5.03224	#T:	20	DSTSS:	92820554	DETSS:	93036307	DTSS:	93036313
Iteration 420
HW:	CPU	TSS:	4.51436	AT:	5.00165	#T:	20	DSTSS:	93036320	DETSS:	93257954	DTSS:	93257958
Iteration 421
HW:	CPU	TSS:	4.51533	AT:	5.00201	#T:	20	DSTSS:	93257976	DETSS:	93459406	DTSS:	93459411
Iteration 422
HW:	CPU	TSS:	4.51553	AT:	4.98185	#T:	20	DSTSS:	93459418	DETSS:	93676777	DTSS:	93676783
Iteration 423
HW:	CPU	TSS:	4.5159	AT:	5.0019	#T:	20	DSTSS:	93676791	DETSS:	93890406	DTSS:	93890411
Iteration 424
HW:	CPU	TSS:	4.51684	AT:	5.00673	#T:	20	DSTSS:	93890418	DETSS:	94092307	DTSS:	94092311
Iteration 425
HW:	CPU	TSS:	4.51778	AT:	5.04805	#T:	20	DSTSS:	94092320	DETSS:	94294034	DTSS:	94294039
Iteration 426
HW:	CPU	TSS:	4.51822	AT:	5.05309	#T:	20	DSTSS:	94294044	DETSS:	94506278	DTSS:	94506285
Iteration 427
HW:	CPU	TSS:	4.51849	AT:	5.03705	#T:	20	DSTSS:	94506291	DETSS:	94721881	DTSS:	94721885
Iteration 428
HW:	CPU	TSS:	4.51946	AT:	5.04306	#T:	20	DSTSS:	94721891	DETSS:	94922919	DTSS:	94922924
Iteration 429
HW:	CPU	TSS:	4.51972	AT:	5.02131	#T:	20	DSTSS:	94922931	DETSS:	95138527	DTSS:	95138532
Iteration 430
HW:	CPU	TSS:	4.51897	AT:	5.0075	#T:	20	DSTSS:	95138537	DETSS:	95375683	DTSS:	95375687
Iteration 431
HW:	CPU	TSS:	4.51922	AT:	4.98648	#T:	20	DSTSS:	95375693	DETSS:	95591637	DTSS:	95591643
Iteration 432
HW:	CPU	TSS:	4.51908	AT:	4.95267	#T:	20	DSTSS:	95591650	DETSS:	95815995	DTSS:	95816000
Iteration 433
HW:	CPU	TSS:	4.52003	AT:	4.97661	#T:	20	DSTSS:	95816007	DETSS:	96017061	DTSS:	96017066
Iteration 434
HW:	CPU	TSS:	4.52097	AT:	5.00319	#T:	20	DSTSS:	96017073	DETSS:	96218376	DTSS:	96218382
Iteration 435
HW:	CPU	TSS:	4.5219	AT:	5.02473	#T:	20	DSTSS:	96218389	DETSS:	96419572	DTSS:	96419576
Iteration 436
HW:	CPU	TSS:	4.52215	AT:	5.03317	#T:	20	DSTSS:	96419582	DETSS:	96635550	DTSS:	96635555
Iteration 437
HW:	CPU	TSS:	4.52307	AT:	5.03343	#T:	20	DSTSS:	96635562	DETSS:	96836823	DTSS:	96836828
Iteration 438
HW:	CPU	TSS:	4.52334	AT:	5.03647	#T:	20	DSTSS:	96836835	DETSS:	97052160	DTSS:	97052164
Iteration 439
HW:	CPU	TSS:	4.52321	AT:	5.02134	#T:	20	DSTSS:	97052171	DETSS:	97275958	DTSS:	97275964
Iteration 440
HW:	CPU	TSS:	4.52369	AT:	5.00828	#T:	20	DSTSS:	97275972	DETSS:	97486681	DTSS:	97486686
Iteration 441
HW:	CPU	TSS:	4.52461	AT:	5.00908	#T:	20	DSTSS:	97486692	DETSS:	97687870	DTSS:	97687876
Iteration 442
HW:	CPU	TSS:	4.52455	AT:	4.99406	#T:	20	DSTSS:	97687884	DETSS:	97910323	DTSS:	97910329
Iteration 443
HW:	CPU	TSS:	4.52546	AT:	5.01518	#T:	20	DSTSS:	97910337	DETSS:	98111591	DTSS:	98111596
Iteration 444
HW:	CPU	TSS:	4.52637	AT:	5.01493	#T:	20	DSTSS:	98111605	DETSS:	98312800	DTSS:	98312804
Iteration 445
HW:	CPU	TSS:	4.52671	AT:	5.01809	#T:	20	DSTSS:	98312810	DETSS:	98526274	DTSS:	98526280
Iteration 446
HW:	CPU	TSS:	4.5276	AT:	5.07155	#T:	20	DSTSS:	98526287	DETSS:	98727718	DTSS:	98727723
Iteration 447
HW:	CPU	TSS:	4.52851	AT:	5.09427	#T:	20	DSTSS:	98727728	DETSS:	98928713	DTSS:	98928718
Iteration 448
HW:	CPU	TSS:	4.52875	AT:	5.10757	#T:	20	DSTSS:	98928726	DETSS:	99144390	DTSS:	99144398
Iteration 449
HW:	CPU	TSS:	4.52963	AT:	5.10707	#T:	20	DSTSS:	99144406	DETSS:	99345779	DTSS:	99345784
Iteration 450
HW:	CPU	TSS:	4.53053	AT:	5.10743	#T:	20	DSTSS:	99345792	DETSS:	99546861	DTSS:	99546866
Iteration 451
HW:	CPU	TSS:	4.53083	AT:	5.08758	#T:	20	DSTSS:	99546873	DETSS:	99761043	DTSS:	99761050
Iteration 452
HW:	CPU	TSS:	4.53109	AT:	5.08915	#T:	20	DSTSS:	99761056	DETSS:	99975989	DTSS:	99975994
Iteration 453
HW:	CPU	TSS:	4.53195	AT:	5.08858	#T:	20	DSTSS:	99976002	DETSS:	100177640	DTSS:	100177645
Iteration 454
HW:	CPU	TSS:	4.5323	AT:	5.09229	#T:	20	DSTSS:	100177651	DETSS:	100390539	DTSS:	100390544
Iteration 455
HW:	CPU	TSS:	4.53163	AT:	5.0746	#T:	20	DSTSS:	100390553	DETSS:	100625976	DTSS:	100625983
Iteration 456
HW:	CPU	TSS:	4.5325	AT:	5.08884	#T:	20	DSTSS:	100625990	DETSS:	100827328	DTSS:	100827332
Iteration 457
HW:	CPU	TSS:	4.53238	AT:	5.05521	#T:	20	DSTSS:	100827339	DETSS:	101050737	DTSS:	101050742
Iteration 458
HW:	CPU	TSS:	4.5332	AT:	5.08592	#T:	20	DSTSS:	101050748	DETSS:	101252888	DTSS:	101252895
Iteration 459
HW:	CPU	TSS:	4.53405	AT:	5.08538	#T:	20	DSTSS:	101252901	DETSS:	101454510	DTSS:	101454517
Iteration 460
HW:	CPU	TSS:	4.53487	AT:	5.08387	#T:	20	DSTSS:	101454525	DETSS:	101656716	DTSS:	101656721
Iteration 461
HW:	CPU	TSS:	4.53468	AT:	5.06673	#T:	20	DSTSS:	101656731	DETSS:	101881496	DTSS:	101881501
Iteration 462
HW:	CPU	TSS:	4.53549	AT:	5.0655	#T:	20	DSTSS:	101881509	DETSS:	102083753	DTSS:	102083757
Iteration 463
HW:	CPU	TSS:	4.53632	AT:	5.06432	#T:	20	DSTSS:	102083764	DETSS:	102285529	DTSS:	102285534
Iteration 464
HW:	CPU	TSS:	4.53716	AT:	5.08568	#T:	20	DSTSS:	102285540	DETSS:	102487105	DTSS:	102487110
Iteration 465
HW:	CPU	TSS:	4.53745	AT:	5.06709	#T:	20	DSTSS:	102487115	DETSS:	102700767	DTSS:	102700772
Iteration 466
HW:	CPU	TSS:	4.53828	AT:	5.06636	#T:	20	DSTSS:	102700780	DETSS:	102902324	DTSS:	102902329
Iteration 467
HW:	CPU	TSS:	4.53791	AT:	5.04448	#T:	20	DSTSS:	102902335	DETSS:	103131065	DTSS:	103131070
Iteration 468
HW:	CPU	TSS:	4.53856	AT:	5.05828	#T:	20	DSTSS:	103131077	DETSS:	103336820	DTSS:	103336824
Iteration 469
HW:	CPU	TSS:	4.53938	AT:	5.05847	#T:	20	DSTSS:	103336830	DETSS:	103538344	DTSS:	103538348
Iteration 470
HW:	CPU	TSS:	4.53952	AT:	5.05205	#T:	20	DSTSS:	103538354	DETSS:	103755512	DTSS:	103755518
Iteration 471
HW:	CPU	TSS:	4.54034	AT:	5.10342	#T:	20	DSTSS:	103755524	DETSS:	103957076	DTSS:	103957082
Iteration 472
HW:	CPU	TSS:	4.54039	AT:	5.07653	#T:	20	DSTSS:	103957088	DETSS:	104176069	DTSS:	104176074
Iteration 473
HW:	CPU	TSS:	4.54081	AT:	5.096	#T:	20	DSTSS:	104176082	DETSS:	104386684	DTSS:	104386690
Iteration 474
HW:	CPU	TSS:	4.54159	AT:	5.09604	#T:	20	DSTSS:	104386697	DETSS:	104588814	DTSS:	104588820
Iteration 475
HW:	CPU	TSS:	4.54234	AT:	5.09379	#T:	20	DSTSS:	104588826	DETSS:	104791900	DTSS:	104791904
Iteration 476
HW:	CPU	TSS:	4.54153	AT:	5.03852	#T:	20	DSTSS:	104791909	DETSS:	105030720	DTSS:	105030725
Iteration 477
HW:	CPU	TSS:	4.54086	AT:	5.02244	#T:	20	DSTSS:	105030732	DETSS:	105266303	DTSS:	105266309
Iteration 478
HW:	CPU	TSS:	4.54113	AT:	5.00485	#T:	20	DSTSS:	105266315	DETSS:	105480458	DTSS:	105480463
Iteration 479
HW:	CPU	TSS:	4.54192	AT:	5.00485	#T:	20	DSTSS:	105480470	DETSS:	105682232	DTSS:	105682237
Iteration 480
HW:	CPU	TSS:	4.54219	AT:	4.98696	#T:	20	DSTSS:	105682243	DETSS:	105895997	DTSS:	105896002
Iteration 481
HW:	CPU	TSS:	4.54297	AT:	5.00418	#T:	20	DSTSS:	105896011	DETSS:	106097921	DTSS:	106097927
Iteration 482
HW:	CPU	TSS:	4.54368	AT:	5.0013	#T:	20	DSTSS:	106097934	DETSS:	106301443	DTSS:	106301448
Iteration 483
HW:	CPU	TSS:	4.54371	AT:	5.01496	#T:	20	DSTSS:	106301457	DETSS:	106520929	DTSS:	106520933
Iteration 484
HW:	CPU	TSS:	4.54444	AT:	5.01935	#T:	20	DSTSS:	106520941	DETSS:	106723710	DTSS:	106723716
Iteration 485
HW:	CPU	TSS:	4.54453	AT:	4.99501	#T:	20	DSTSS:	106723723	DETSS:	106941736	DTSS:	106941740
Iteration 486
HW:	CPU	TSS:	4.54414	AT:	4.9775	#T:	20	DSTSS:	106941746	DETSS:	107170880	DTSS:	107170886
Iteration 487
HW:	CPU	TSS:	4.54493	AT:	4.9775	#T:	20	DSTSS:	107170893	DETSS:	107372449	DTSS:	107372454
Iteration 488
HW:	CPU	TSS:	4.54567	AT:	5.00171	#T:	20	DSTSS:	107372462	DETSS:	107574909	DTSS:	107574913
Iteration 489
HW:	CPU	TSS:	4.54607	AT:	5.0018	#T:	20	DSTSS:	107574921	DETSS:	107785468	DTSS:	107785474
Iteration 490
HW:	CPU	TSS:	4.54648	AT:	4.99009	#T:	20	DSTSS:	107785481	DETSS:	107995565	DTSS:	107995570
Iteration 491
HW:	CPU	TSS:	4.54721	AT:	4.99065	#T:	20	DSTSS:	107995576	DETSS:	108198271	DTSS:	108198275
Iteration 492
HW:	CPU	TSS:	4.54726	AT:	5.02034	#T:	20	DSTSS:	108198281	DETSS:	108416947	DTSS:	108416952
Iteration 493
HW:	CPU	TSS:	4.54801	AT:	5.07075	#T:	20	DSTSS:	108416959	DETSS:	108618866	DTSS:	108618872
Iteration 494
HW:	CPU	TSS:	4.54833	AT:	5.07377	#T:	20	DSTSS:	108618879	DETSS:	108831031	DTSS:	108831036
Iteration 495
HW:	CPU	TSS:	4.54852	AT:	5.05323	#T:	20	DSTSS:	108831044	DETSS:	109046419	DTSS:	109046424
Iteration 496
HW:	CPU	TSS:	4.54927	AT:	5.07131	#T:	20	DSTSS:	109046430	DETSS:	109248188	DTSS:	109248192
Iteration 497
HW:	CPU	TSS:	4.54935	AT:	5.04725	#T:	20	DSTSS:	109248196	DETSS:	109466093	DTSS:	109466098
Iteration 498
HW:	CPU	TSS:	4.55009	AT:	5.04936	#T:	20	DSTSS:	109466105	DETSS:	109668206	DTSS:	109668212
Iteration 499
HW:	CPU	TSS:	4.55086	AT:	5.07704	#T:	20	DSTSS:	109668218	DETSS:	109869332	DTSS:	109869337
